0
0
0
0
0
0
0
0
0
0
0
0
0
0
0
0
0
0
0
0
0
0
0
0
0
0
0
0
0
0
0
0
0
0
0
0
0
0
0
0
0
0
0
0
0
0
0
0
0
0
0
0
0
0
0
0
0
0
0
0
0
0
0
0
0
0.0031980348513806194

0
0
0
0
0
0
0
0
0
0
0
0
0
0
0
0
0
0
0
0
0
0
0
0
0
0
0
0
0
0
0
0
0
0
0
0
0
0
0
0
0
0
0
0
0
0
0
0
0
0
0
0
0
0
0
0
0
0
0
0
0
0
0
0
0
0
0
0
0
0
0
0
0
0
0
0
0
0
0
0
0
0
0
0
0
0
0
0
0
0
0
0
0
0
0
0
0
0
0
0
0
0
0
0
0
0
0
0
0
0
0
0
0
0
0
0
0
0
0
0
0
0
0
0
0
0
0
0
0
0
0
0
0
0
0
0
0
0
0
0
0
0
0
0
0
0
0
0
0
0
0
0
0
0
0
0
0
0
0
0
0
0
0
0
0
0
0
0
0
0
0
0
0
0
0
0
0
0
0
0
0
0
0
0
0
0
0
0
0
0
0
0
0
0
0
0
0
0
0
0
0
0
0
0
0
0
0
0
0
0
0
0
0
0
0
0
0
0
0
0
0
0
0
0
0
0
0
0
0
0
0
0
0
0
0
0
0
0
0
0
0
0
0
0
0
0
0
0
0
0
0
0
0
0
0
0
0
0
0
0
0
0
0
0
0
0
0
0
0
0
0
0
0
0
0
0
0
0
0
0
0
0
0
0
0
0
0
0
0
0
0
0
0
0
0
0
0
0
0
0
0
0
0
0
0
0
0
0
0
0
0
0
0
0
0
0
0
0
0
0
0
0
0
0
0
0
0
0
0
0
0
0
0
0
0
0
0
0
0
0
0
0
0
0
0
0
0
0
0
0
0
0
0
0
0
0
0
0
0
0
0
0
0
0
0
0
0
0
0
0
0
0
0
0
0
0
0
0
0
0
0
0
0
0
0
0
0
0
0
0
0
0
0
0
0
0
0
0
0
0
0
0
0
0
0
0
0
0
0
0
0
0
0
0
0
0
0
0
0
0
0
0
0
0
0
0
0
0
0
0
0
0
0
0
0
0
0.0031980348513806194

0
0
0
0
0
0
0
0
0
0
0
0
0
0
0
0
0
0
0
0
0
0
0
0
0
0
0
0
0
0
0
0
0
0
0
0
0
0
0
0
0
0
0
0
0
0
0
0
0
0
0
0
0
0
0
0
0
0
0
0
0
0
0
0
0
0
0
0
0
0
0
0
0
0
0
0
0
0
0
0
0
0
0
0
0
0
0
0
0
0
0
0
0
0
0
0
0
0
0
0
0
0
0
0
0
0
0
0
0
0
0
0
0
0
0
0
0
0
0
0
0
0
0
0
0
0
0
0
0
0
0
0
0
0
0
0
0
0
0
0
0
0
0
0
0
0
0
0
0
0
0
0
0
0
0
0
0
0
0
0
0
0
0
0
0
0
0
0
0
0
0
0
0
0
0
0
0
0
0
0
0
0
0
0
0
0
0
0
0
0
0
0
0
0
0
0
0
0
0
0
0
0
0
0
0
0
0
0
0
0
0
0
0
0
0
0
0
0
0
0
0
0
0
0
0
0
0
0
0
0
0
0
0
0
0
0
0
0
0
0
0
0
0
0
0
0
0
0
0
0
0
0
0
0
0
0
0
0
0
0
0
0
0
0
0
0
0
0
0
0
0
0
0
0
0
0
0
0
0
0
0
0
0
0
0
0
0
0
0
0
0
0
0
0
0
0
0
0
0
0
0
0
0
0
0
0
0
0
0
0
0
0
0
0
0
0
0
0
0
0
0
0
0
0
0
0
0
0
0
0
0
0
0
0
0
0
0
0
0
0
0
0
0
0
0
0
0
0
0
0
0
0
0
0
0
0
0
0
0
0
0
0
0
0
0
0
0
0
0
0
0
0
0
0
0
0
0
0
0
0
0
0
0
0
0
0
0
0
0
0
0
0
0
0
0
0
0
0
0
0
0
0
0
0
0
0
0
0
0
0
0
0
0
0
0
0
0
0
0
0
0
0
0
0
0
0
0
0
0
0
0
0
0
0
0
0
0
0
0
0
0
0
0
0
0
0
0
0
0
0
0
0
0
0
0
0
0
0
0
0
0
0
0
0
0
0
0
0
0
0
0
0
0
0
0
0
0
0
0
0
0
0
0
0
0
0
0
0
0
0
0
0
0
0
0
0
0
0
0
0
0
0
0
0
0
0
0
0
0
0
0
0
0
0
0
0
0
0
0
0
0
0
0
0
0
0
0
0
0
0
0
0
0
0
0
0
0
0
0
0
0
0
0
0
0
0
0
0
0
0
0
0
0
0
0
0
0
0
0
0
0
0
0
0
0
0
0
0
0
0
0
0
0
0
0
0
0
0
0
0
0
0
0
0
0
0
0
0
0
0
0
0
0
0
0
0
0
0
0
0
0
0
0
0
0
0
0
0
0
0
0
0
0
0
0
0
0
0
0
0
0
0
0
0
0
0
0
0
0
0
0
0
0
0
0
0
0
0
0
0
0
0
0
0
0
0
0
0
0
0
0
0
0
0
0
0
0
0
0
0
0
0
0
0
0
0
0
0
0
0
0
0
0
0
0
0
0
0
0
0.0031980348513806194

0
0
0
0
0
0
0
0
0
0
0
0
0
0
0
0
0
0
0
0
0
0
0
0
0
0
0
0
0
0
0
0
0
0
0
0
0
0
0
0
0
0
0
0
0
0
0
0
0
0
0
0
0
0
0
0
0
0
0
0
0
0
0
0
0
0
0
0
0
0
0
0
0
0
0
0
0
0
0
0
0
0
0
0
0
0
0
0
0
0
0
0
0
0
0
0
0
0
0
0
0
0
0
0
0
0
0
0
0
0
0
0
0
0
0
0
0
0
0
0
0
0
0
0
0
0
0
0
0
0
0
0
0
0
0
0
0
0
0
0
0
0
0
0
0
0
0
0
0
0
0
0
0
0
0
0
0
0
0
0
0
0
0
0
0
0
0
0
0
0
0
0
0
0
0
0
0
0
0
0
0
0
0
0
0
0
0
0
0
0
0
0
0
0
0
0
0
0
0
0
0
0
0
0
0
0
0
0
0
0
0
0
0
0
0
0
0
0
0
0
0
0
0
0
0
0
0
0
0
0
0
0
0
0
0
0
0
0
0
0
0
0
0
0
0
0
0
0
0
0
0
0
0
0
0
0
0
0
0
0
0
0
0
0
0
0
0
0
0
0
0
0
0
0
0
0
0
0
0
0
0
0
0
0
0
0
0
0
0
0
0
0
0
0
0
0
0
0
0
0
0
0
0
0
0
0
0
0
0
0
0
0
0
0
0
0
0
0
0
0
0
0
0
0
0
0
0
0
0
0
0
0
0
0
0
0
0
0
0
0
0
0
0
0
0
0
0
0
0
0
0
0
0
0
0
0
0
0
0
0
0
0
0
0
0
0
0
0
0
0
0
0
0
0
0
0
0
0
0
0
0
0
0
0
0
0
0
0
0
0
0
0
0
0
0
0
0
0
0
0
0
0
0
0
0
0
0
0
0
0
0
0
0
0
0
0
0
0
0
0
0
0
0
0
0
0
0
0
0
0
0
0
0
0
0
0
0
0
0
0
0
0
0
0
0
0
0
0
0
0
0
0
0
0
0
0
0
0
0
0
0
0
0
0
0
0
0
0
0
0
0
0
0
0
0
0
0
0
0
0
0
0
0
0
0
0
0
0
0
0
0
0
0
0
0
0
0
0
0
0
0
0
0
0
0
0
0
0
0
0
0
0
0
0
0
0
0
0
0
0
0
0
0
0
0
0
0
0
0
0
0
0
0
0
0
0
0
0
0
0
0
0
0
0
0
0
0
0
0
0
0
0
0
0
0
0
0
0
0
0
0
0
0
0
0
0
0
0
0
0
0
0
0
0
0
0
0
0
0
0
0
0
0
0
0
0
0
0
0
0
0
0
0
0
0
0
0
0
0
0
0
0
0
0
0
0
0
0
0
0
0
0
0
0
0
0
0
0
0
0
0
0
0
0
0
0
0
0
0
0
0
0
0
0
0
0
0
0
0
0
0
0
0
0
0
0
0
0
0
0
0
0
0
0
0
0
0
0
0
0
0
0
0
0
0
0
0
0
0
0
0
0
0
0
0
0
0
0
0
0
0
0
0
0
0
0
0
0
0
0
0
0
0
0
0
0
0
0
0
0
0
0
0
0
0
0
0
0
0
0
0
0
0
0
0
0
0
0
0
0
0
0
0
0
0
0
0
0
0
0
0
0
0
0
0
0
0
0
0
0
0
0
0
0
0
0
0
0
0
0
0
0
0
0
0
0
0
0
0
0
0
0
0
0
0
0
0
0
0
0
0
0
0
0
0
0
0
0
0
0
0
0
0
0
0
0
0
0
0
0
0
0
0
0
0.0031980348513806194

0
0
0
0
0
0
0
0
0
0
0
0
0
0
0
0
0
0
0
0
0
0
0
0
0
0
0
0
0
0
0
0
0
0
0
0
0
0
0
0
0
0
0
0
0
0
0
0
0
0
0
0
0
0
0
0
0
0
0
0
0
0
0
0
0
0
0
0
0
0
0
0
0
0
0
0
0
0
0
0
0
0
0
0
0
0
0
0
0
0
0
0
0
0
0
0
0
0
0
0
0
0
0
0
0
0
0
0
0
0
0
0
0
0
0
0
0
0
0
0
0
0
0
0
0
0
0
0
0
0
0
0
0
0
0
0
0
0
0
0
0
0
0
0
0
0
0
0
0
0
0
0
0
0
0
0
0
0
0
0
0
0
0
0
0
0
0
0
0
0
0
0
0
0
0
0
0
0
0
0
0
0
0
0
0
0
0
0
0
0
0
0
0
0
0
0
0
0
0
0
0
0
0
0
0
0
0
0
0
0
0
0
0
0
0
0
0
0
0
0
0
0
0
0
0
0
0
0
0
0
0
0
0
0
0
0
0
0
0
0
0
0
0
0
0
0
0
0
0
0
0
0
0
0
0
0
0
0
0
0
0
0
0
0
0
0
0
0
0
0
0
0
0
0
0
0
0
0
0
0
0
0
0
0
0
0
0
0
0
0
0
0
0
0
0
0
0
0
0
0
0
0
0
0
0
0
0
0
0
0
0
0
0
0
0
0
0
0
0
0
0
0
0
0
0
0
0
0
0
0
0
0
0
0
0
0
0
0
0
0
0
0
0
0
0
0
0
0
0
0
0
0
0
0
0
0
0
0
0
0
0
0
0
0
0
0
0
0
0
0
0
0
0
0
0
0
0
0
0
0
0
0
0
0
0
0
0
0
0
0
0
0
0
0
0
0
0
0
0
0
0
0
0
0
0
0
0
0
0
0
0
0
0
0
0
0
0
0
0
0
0
0
0
0
0
0
0
0
0
0
0
0
0
0
0
0
0
0
0
0
0
0
0
0
0
0
0
0
0
0
0
0
0
0
0
0
0
0
0
0
0
0
0
0
0
0
0
0
0
0
0
0
0
0
0
0
0
0
0
0
0
0
0
0
0
0
0
0
0
0
0
0
0
0
0
0
0
0
0
0
0
0
0
0
0
0
0
0
0
0
0
0
0
0
0
0
0
0
0
0
0
0
0
0
0
0
0
0
0
0
0
0
0
0
0
0
0
0
0
0
0
0
0
0
0
0
0
0
0
0
0
0
0
0
0
0
0
0
0
0
0
0
0
0
0
0
0
0
0
0
0
0
0
0
0
0
0
0
0
0
0
0
0
0
0
0
0
0
0
0
0
0
0
0
0
0
0
0
0
0
0
0
0
0
0
0
0
0
0
0
0
0
0
0
0
0
0
0
0
0
0
0
0
0
0
0
0
0
0
0
0
0
0
0
0
0
0
0
0
0
0
0
0
0
0
0
0
0
0
0
0
0
0
0
0
0
0
0
0
0
0
0
0
0
0
0
0
0
0
0
0
0
0
0
0
0
0
0
0
0
0
0
0
0
0
0
0
0
0
0
0.0031980348513806194

0
0
0
0
0
0
0
0
0
0
0
0
0
0
0
0
0
0
0
0
0
0
0
0
0
0
0
0
0
0
0
0
0
0
0
0
0
0
0
0
0
0
0
0
0
0
0
0
0
0
0
0
0
0
0
0
0
0
0
0
0
0
0
0
0
0
0
0
0
0
0
0
0
0
0
0
0
0
0
0
0
0
0
0
0
0
0
0
0
0
0
0
0
0
0
0
0
0
0
0
0
0
0
0
0
0
0
0
0
0
0
0
0
0
0
0
0
0
0
0
0
0
0
0
0
0
0
0
0
0
0
0
0
0
0
0
0
0
0
0
0
0
0
0
0
0
0
0
0
0
0
0
0
0
0
0
0
0
0
0
0
0
0
0
0
0
0
0
0
0
0
0
0
0
0
0
0
0
0
0
0
0
0
0
0
0
0
0
0
0
0
0
0
0
0
0
0
0
0
0
0
0
0
0
0
0
0
0
0
0
0
0
0
0
0
0
0
0
0
0
0
0
0
0
0
0
0
0
0
0
0
0
0
0
0
0
0
0
0
0
0
0
0
0
0
0
0
0
0
0
0
0
0
0
0
0
0
0
0
0
0
0
0
0
0
0
0
0
0
0
0
0
0
0
0
0
0
0
0
0
0
0
0
0
0
0
0
0
0
0
0
0
0
0
0
0
0
0
0
0
0
0
0
0
0
0
0
0
0
0
0
0
0
0
0
0
0
0
0
0
0
0
0
0
0
0
0
0
0
0
0
0
0
0
0
0
0
0
0
0
0
0
0
0
0
0
0
0
0
0
0
0
0
0
0
0
0
0
0
0
0
0
0
0
0
0
0
0
0
0
0
0
0
0
0
0
0
0
0
0
0
0
0
0
0
0
0
0
0
0
0
0
0
0
0
0
0
0
0
0
0
0
0
0
0
0
0
0
0
0
0
0
0
0
0
0
0
0
0
0
0
0
0
0
0
0
0
0
0
0
0
0
0
0
0
0
0
0
0
0
0
0
0
0
0
0
0
0
0
0
0
0
0
0
0
0
0
0
0
0
0
0
0
0
0
0
0
0
0
0
0
0
0
0
0
0
0
0
0
0
0
0
0
0
0
0
0
0
0
0
0
0
0
0
0
0
0
0
0
0
0
0
0
0
0
0
0
0
0
0
0
0
0
0
0
0
0
0
0
0
0
0
0
0
0
0
0
0
0
0
0
0
0
0
0
0
0
0
0
0
0
0
0
0
0
0
0
0
0
0
0
0
0
0
0
0
0
0
0
0
0
0
0
0
0
0
0
0
0
0
0
0
0
0
0
0
0
0
0
0
0
0
0
0
0
0
0
0
0
0
0
0
0
0
0
0
0
0
0
0
0
0
0
0
0
0
0
0
0
0
0
0
0
0
0
0
0
0
0
0
0
0
0
0
0
0
0
0
0
0
0
0
0
0
0
0
0
0
0
0
0
0
0
0
0
0
0
0
0
0
0
0
0
0
0
0
0
0
0
0
0
0
0
0
0
0
0
0
0
0
0
0
0
0
0
0
0
0
0
0
0
0
0
0
0
0
0
0
0
0
0
0
0
0
0
0
0
0
0
0
0
0
0
0
0
0
0
0
0
0
0
0
0
0
0
0
0
0
0
0
0
0
0
0
0
0
0
0
0
0
0
0
0
0
0
0
0
0
0
0
0
0
0
0
0
0
0
0
0
0
0
0
0
0
0
0
0
0
0
0
0
0
0
0
0
0
0
0
0
0
0
0
0
0
0
0
0
0
0
0
0
0
0
0
0
0
0
0
0
0
0
0
0
0
0
0
0
0
0
0
0
0
0
0
0
0
0
0
0
0
0
0
0
0
0
0
0
0
0
0
0
0
0
0
0
0
0
0
0
0
0
0
0
0
0
0
0
0
0
0
0
0
0
0
0
0
0
0
0
0
0
0
0
0
0
0
0
0
0
0
0
0
0
0
0
0
0
0
0
0
0
0
0
0
0
0
0
0
0
0
0
0
0
0
0
0
0
0
0
0
0
0
0
0
0
0
0
0
0
0
0
0
0
0
0
0
0
0
0
0
0
0
0
0
0
0
0
0
0
0
0
0
0
0
0
0
0
0
0
0
0
0
0
0
0
0
0
0
0
0
0
0
0
0
0
0
0
0
0
0
0
0
0
0
0
0
0
0
0
0
0
0
0
0
0
0
0
0
0
0
0
0
0
0
0
0
0
0
0
0
0
0
0
0
0
0
0
0
0
0
0
0
0
0
0
0
0
0
0
0
0
0
0
0
0
0
0
0
0
0
0
0
0
0
0
0
0
0
0
0
0
0
0
0
0
0
0
0
0
0
0
0
0
0
0
0
0
0
0
0
0
0
0
0
0
0
0
0
0
0
0
0
0
0
0
0
0
0
0
0
0
0
0
0
0
0
0
0
0
0
0
0
0
0
0
0
0
0
0
0
0
0
0
0
0
0
0
0
0
0
0
0
0
0
0
0
0
0
0
0
0
0
0
0
0
0
0
0
0
0
0
0
0
0
0
0
0
0
0
0
0
0
0
0
0
0
0
0
0
0
0
0
0
0
0
0
0
0
0
0
0
0
0
0
0
0
0
0
0
0
0
0
0
0
0
0
0
0
0
0
0
0
0
0
0
0
0
0
0
0
0
0
0
0
0
0
0
0
0
0
0
0
0
0
0
0
0
0
0
0
0
0
0
0
0
0
0
0
0
0
0
0
0
0
0
0
0
0
0
0
0
0
0
0
0
0
0
0
0
0
0
0
0
0
0
0
0
0
0
0
0
0
0
0
0
0
0
0
0
0
0
0
0
0
0
0
0
0
0
0
0
0
0
0
0
0
0
0
0
0
0
0
0
0
0
0
0
0
0
0
0
0
0
0
0
0
0
0
0
0
0
0
0
0
0
0
0
0
0
0
0
0
0
0
0
0
0
0
0
0
0
0
0
0
0
0
0
0
0
0
0
0
0
0
0
0
0
0
0
0
0
0
0
0
0
0
0
0
0
0
0
0
0
0
0
0
0
0
0
0
0
0
0
0
0
0
0
0
0
0
0
0
0
0
0
0
0
0
0
0
0
0
0
0
0
0
0
0
0
0
0
0
0
0
0
0
0
0
0
0
0
0
0
0
0
0
0
0
0
0
0
0
0
0
0
0
0
0
0
0
0
0
0
0
0
0
0
0
0
0
0
0
0
0
0
0
0
0
0
0
0
0
0
0
0
0
0
0
0
0
0
0
0
0
0
0
0
0
0
0
0
0
0
0
0
0
0
0
0
0
0
0
0
0
0
0
0
0
0
0
0
0
0
0
0
0
0
0
0
0
0
0
0
0
0
0
0
0
0
0
0
0
0
0
0
0
0
0
0
0
0
0
0
0
0
0
0
0
0
0
0
0
0
0
0
0
0
0
0
0
0
0
0
0
0
0
0
0
0
0
0
0
0
0
0
0
0
0
0
0
0
0
0
0
0
0
0
0
0
0
0
0
0
0
0
0
0
0
0
0
0
0
0
0
0
0
0
0
0
0
0
0
0
0
0
0
0
0
0
0
0
0
0
0
0
0
0
0
0
0
0
0
0
0
0
0
0
0
0
0
0
0
0
0
0
0
0
0
0
0
0
0
0
0
0
0
0
0
0
0
0
0
0
0
0
0
0
0
0
0
0
0
0
0
0
0
0
0
0
0
0
0
0
0
0
0
0
0
0
0
0
0
0
0
0
0
0
0
0
0
0
0
0
0
0
0
0
0
0
0
0
0
0
0
0
0
0
0
0
0
0
0
0
0
0
0
0
0
0
0
0
0
0
0
0
0
0
0
0
0
0
0
0
0
0
0
0
0
0
0
0
0
0
0
0
0
0
0
0
0
0
0
0
0
0
0
0
0
0
0
0
0
0
0
0
0
0
0
0
0
0
0
0
0
0
0
0
0
0
0
0
0
0
0
0
0
0
0
0
0
0
0
0
0
0
0
0
0
0
0
0
0
0
0
0
0
0
0
0
0
0
0
0
0
0
0
0
0
0
0
0
0
0
0
0
0
0
0
0
0
0
0
0
0
0
0
0
0
0
0
0
0
0
0
0
0
0
0
0
0
0
0
0
0
0
0
0
0
0
0
0
0
0
0
0
0
0
0
0
0
0
0
0
0
0
0
0
0
0
0
0
0
0
0
0
0
0
0
0
0
0
0
0
0
0
0
0
0
0
0
0
0
0
0
0
0
0
0
0
0
0
0
0
0
0
0
0
0
0
0
0
0
0
0
0
0
0
0
0
0
0
0
0
0
0
0
0
0
0
0
0
0
0
0
0
0
0
0
0
0
0
0
0
0
0
0
0
0
0
0
0
0
0
0
0
0
0
0
0
0
0
0
0
0
0
0
0
0
0
0
0
0
0
0
0
0
0
0
0
0
0
0
0
0
0
0
0
0
0
0
0
0
0
0
0
0
0
0
0
0
0
0
0
0
0
0
0
0
0
0
0
0
0
0
0
0
0
0
0
0
0
0
0
0
0
0
0
0
0
0
0
0
0
0
0
0
0
0
0
0
0
0
0
0
0
0
0
0
0
0
0
0
0
0
0
0
0
0
0
0
0
0
0
0
0
0
0
0
0
0
0
0
0
0
0
0
0
0
0
0
0
0
0
0
0
0
0
0
0
0
0
0
0
0
0
0
0
0
0
0
0
0
0
0
0
0
0
0
0
0
0
0
0
0
0
0
0
0
0
0
0
0
0
0
0
0
0
0
0
0
0
0
0
0
0
0
0
0
0
0
0
0
0
0
0
0
0
0
0
0
0
0
0
0
0
0
0
0
0
0
0
0
0
0
0
0
0
0
0
0
0
0
0
0
0
0
0
0
0
0
0
0
0
0
0
0
0
0
0
0
0
0
0
0
0
0
0
0
0
0
0
0
0
0
0
0
0
0
0
0
0
0
0
0
0
0
0
0
0
0
0
0
0
0
0
0
0
0
0
0
0
0
0
0
0
0
0
0
0
0
0
0
0
0
0
0
0
0
0
0
0
0
0
0
0
0
0
0
0
0
0
0
0
0
0
0
0
0
0
0
0
0
0
0
0
0
0
0
0
0
0
0
0
0
0
0
0
0
0
0
0
0
0
0
0
0
0
0
0
0
0
0
0
0
0
0
0
0
0
0
0
0
0
0
0
0
0
0
0
0
0
0
0
0
0
0
0
0
0
0
0
0
0
0
0
0
0
0
0
0
0
0
0
0
0
0
0
0
0
0
0
0
0
0
0
0
0
0
0
0
0
0
0
0
0
0
0
0
0
0
0
0
0
0
0
0
0
0
0
0
0
0
0
0
0
0
0
0
0
0
0
0
0
0
0
0
0
0
0
0
0
0
0
0
0
0
0
0
0
0
0
0
0
0
0
0
0
0
0
0
0
0
0
0
0
0
0
0
0
0
0
0
0
0
0
0
0
0
0
0
0
0
0
0
0
0
0
0
0
0
0
0
0
0
0
0
0
0
0
0
0
0
0
0
0
0
0
0
0
0
0
0
0
0
0
0
0
0
0
0
0
0
0
0
0
0
0
0
0
0
0
0
0
0
0
0
0
0
0
0
0
0
0
0
0
0
0
0
0
0
0
0
0
0
0
0
0
0
0
0
0
0
0
0
0
0
0
0
0
0
0
0
0
0
0
0
0
0
0
0
0
0
0
0
0
0
0
0
0
0
0
0
0
0
0
0
0
0
0
0
0
0
0
0
0
0
0
0
0
0
0
0
0
0
0
0
0
0
0
0
0
0
0
0
0
0
0
0
0
0
0
0
0
0
0
0
0
0
0
0
0
0
0
0
0
0
0
0
0
0
0
0
0
0
0
0
0
0
0
0
0
0
0
0
0
0
0
0
0
0
0
0
0
0
0
0
0
0
0
0
0
0
0
0
0
0
0
0
0
0
0
0
0
0
0
0
0
0
0
0
0
0
0
0
0
0
0
0
0
0
0
0
0
0
0
0
0
0
0
0
0
0
0
0
0
0
0
0
0
0
0
0
0
0
0
0
0
0
0
0
0
0
0
0
0
0
0
0
0
0
0
0
0
0
0
0
0
0
0
0
0
0
0
0
0
0
0
0
0
0
0
0
0
0
0
0
0
0
0
0
0
0
0
0
0
0
0
0
0
0
0
0
0
0
0
0
0
0
0
0
0
0
0
0
0
0
0
0
0
0
0
0
0
0
0
0
0
0
0
0
0
0
0
0
0
0
0
0
0
0
0
0
0
0
0
0
0
0
0
0
0
0
0
0
0
0
0
0
0
0
0
0
0
0
0
0
0
0
0
0
0
0
0
0
0
0
0
0
0
0
0
0
0
0
0
0
0
0
0
0
0
0
0
0
0
0
0
0
0
0
0
0
0
0
0
0
0
0
0
0
0
0
0
0
0
0
0
0
0
0
0
0
0
0
0
0
0
0
0
0
0
0
0
0
0
0
0
0
0
0
0
0
0
0
0
0
0
0
0
0
0
0
0
0
0
0
0
0
0
0
0
0
0
0
0
0
0
0
0
0
0
0
0
0
0
0
0
0
0
0
0
0
0
0
0
0
0
0
0
0
0
0
0
0
0
0
0
0
0
0
0
0
0
0
0
0
0
0
0
0
0
0
0
0
0
0
0
0
0
0
0
0
0
0
0
0
0
0
0
0
0
0
0
0
0
0
0
0
0
0
0
0
0
0
0
0
0
0
0
0
0
0
0
0
0
0
0
0
0
0
0
0
0
0
0
0
0
0
0
0
0
0
0
0
0
0
0
0
0
0
0
0
0
0
0
0
0
0
0
0
0
0
0
0
0
0
0
0
0
0
0
0
0
0
0
0
0
0
0
0
0
0
0
0
0
0
0
0
0
0
0
0
0
0
0
0
0
0
0
0
0
0
0
0
0
0
0
0
0
0
0
0
0
0
0
0
0
0
0
0
0
0
0
0
0
0
0
0
0
0
0
0
0
0
0
0
0
0
0
0
0
0
0
0
0
0
0
0
0
0
0
0
0
0
0
0
0
0
0
0
0
0
0
0
0
0
0
0
0
0
0
0
0
0
0
0
0
0
0
0
0
0
0
0
0
0
0
0
0
0
0
0
0
0
0
0
0
0
0
0
0
0
0
0
0
0
0
0
0
0
0
0
0
0
0
0
0
0
0
0
0
0
0
0
0
0
0
0
0
0
0
0
0
0
0
0
0
0
0
0
0
0
0
0
0
0
0
0
0
0
0
0
0
0
0
0
0
0
0
0
0
0
0
0
0
0
0
0
0
0
0
0
0
0
0
0
0
0
0
0
0
0
0
0
0
0
0
0
0
0
0
0
0
0
0
0
0
0
0
0
0
0
0
0
0
0
0
0
0
0
0
0
0
0
0
0
0
0
0
0
0
0
0
0
0
0
0
0
0
0
0
0
0
0
0
0
0
0
0
0
0
0
0
0
0
0
0
0
0
0
0
0
0
0
0
0
0
0
0
0
0
0
0
0
0
0
0
0
0
0
0
0
0
0
0
0
0
0
0
0
0
0
0
0
0
0
0
0
0
0
0
0
0
0
0
0
0
0
0
0
0
0
0
0
0
0
0
0
0
0
0
0
0
0
0
0
0
0
0
0
0
0
0
0
0
0
0
0
0
0
0
0
0
0
0
0
0
0
0
0
0
0
0
0
0
0
0
0
0
0
0
0
0
0
0
0
0
0
0
0
0
0
0
0
0
0
0
0
0
0
0
0
0
0
0
0
0
0
0
0
0
0
0
0
0
0
0
0
0
0
0
0
0
0
0
0
0
0
0
0
0
0
0
0
0
0
0
0
0.0012396863961900543

0
0
0
0
0
0
0
0
0
0
0
0
0.0031980348513806194

0
0
0
0
0
0
0
0
0
0
0
0
0
0
0
0
0
0
0
0
0
0
0
0
0
0.0011908322417305047

0
0
0
0
0
0.001719269938891135

0
0
0
0
0
0
0
0
0
0
0
0
0
0
0
0
0
0
0
0
0
0
0
0
0
0
0
0
0
0
0
0
0
0
0
0
0
0
0
0
0
0
0
0
0
0
0
0
0
0
0
0
0
0
0
0
0
0
0
0
0
0
0
0
0
0
0
0
0
0.004870219301833309

0
0
0
0
0
0
0
0
0
0
0.0020803696344124938

0.002716682642658435

0
0
0
0
0
0
0
0
0
0
0
0
0
0
0
0
0
0
0
0
0
0
0
0
0.002716682642658435

0
0
0
0
0
0
0
0
0
0
0
0
0
0
0
0
0
0
0
0
0
0
0
0
0
0
0
0
0
0
0
0
0
0
0
0
0
0
0
0
0
0
0
0
0
0
0
0
0
0
0
0
0
0
0
0
0
0
0
0
0
0
0
0
0
0
0
0
0
0
0
0
0
0
0
0
0
0
0
0
0
0
0
0
0
0
0
0
0
0
0
0
0
0
0
0
0
0
0
0
0
0
0
0
0
0
0
0
0
0
0
0
0
0
0
0
0
0
0
0
0
0
0
0
0
0
0
0
0
0
0
0
0
0
0
0
0
0
0
0
0
0
0
0
0
0
0
0
0
0
0
0
0
0
0
0
0
0
0.0007290431420129706

0
0.001083783158517131

0
0
0
0
0
0
0.002716682642658435

0
0
0
0
0
0
0
0
0
0
0
0
0
0
0
0
0
0
0
0
0
0
0
0.0031980348513806194

0
0
0
0
0
0
0
0
0
0
0
0
0
0
0
0
0
0
0
0
0
0.0031980348513806194

0
0
0
0
0
0
0
0
0
0
0
0
0
0
0
0
0
0.0010514775921040109

0
0
0
0
0
0
0
0
0
0
0
0
0
0
0
0
0
0
0
0
0
0
0
0
0
0
0
0
0
0
0
0
0
0
0
0.0016721844504526888

0
0
0
0.0024351096509166543

0
0
0
0
0
0
0
0
0
0
0
0
0
0
0
0
0
0
0
0
0
0
0
0
0
0
0
0
0
0
0
0
0
0
0
0
0
0
0
0
0
0
0
0
0
0
0
0
0
0
0
0
0
0
0
0
0
0
0
0
0
0
0
0
0
0
0
0
0
0
0
0
0
0
0
0
0
0
0
0
0
0
0
0
0
0
0
0
0
0
0
0
0
0
0
0
0
0
0
0
0
0
0
0
0
0
0
0.0015990174256903097

0
0
0
0
0
0
0
0
0.0031980348513806194

0
0.0009910530247501013

0
0
0
0
0
0
0
0
0
0
0
0
0
0
0
0
0.0015990174256903097

0
0
0
0.0033529956509043756

0
0
0
0.002716682642658435

0.00195375744219447

0
0
0
0
0
0
0
0
0
0
0
0
0
0.0011176652169681252

0
0
0
0
0
0
0
0
0
0
0
0
0
0
0
0
0
0
0
0
0
0
0
0.0005860903265934229

0
0
0
0
0
0.0011406391214306805

0
0
0
0
0
0
0
0
0
0
0
0
0
0
0
0.00017009164383439667

0
0
0
0.0017582709797802686

0
0
0
0
0
0
0
0
0
0
0
0
0
0
0
0
0.00076990460036223

0
0
0
0
0
0
0
0
0
0.0005392561038187474

0
0
0
0
0
0
0
0
0.0024351096509166543

0
0
0
0
0
0
0
0
0
0
0
0
0
0
0
0
0
0
0
0
0
0
0
0
0
0
0
0
0
0
0
0
0.006705991301808751

0
0
0
0
0
0.0017539782252140664

0
0
0
0
0
0
0
0
0
0
0
0
0
0
0
0
0
0
0
0
0
0
0
0
0
0
0
0
0
0
0
0
0
0
0
0
0
0
0
0
0
0
0
0
0
0
0
0
0
0
0
0
0.0015990174256903097

0
0
0
0
0
0
0
0
0
0
0
0
0
0
0
0
0
0
0
0.004335132634068524

0.0031980348513806194

0
0
0
0.0013653561502589117

0
0
0
0
0
0
0
0
0
0
0
0
0
0
0
0
0
0
0
0.0031980348513806194

0
0
0
0
0
0
0.0009092592499887238

0.002716682642658435

0
0
0
0
0
0
0
0
0
0
0.0031980348513806194

0
0
0
0
0
0
0
0.002716682642658435

0
0
0
0
0
0
0
0
0
0
0
0
0
0
0
0
0
0
0
0
0
0
0
0
0
0
0
0
0.0016721844504526888

0
0
0
0
0
0
0
0
0
0
0
0
0
0
0
0
0
0
0
0
0
0
0
0
0
0
0
0
0
0
0
0
0
0
0
0
0.00390751488438894

0
0
0
0
0
0
0
0
0
0
0
0
0
0
0
0
0
0
0
0
0
0
0
0
0
0
0.002716682642658435

0
0
0
0
0
0
0.0031980348513806194

0
0
0
0
0
0
0
0
0.0014983467519054585

0
0
0
0
0
0
0
0
0
0
0
0
0
0
0
0.0031980348513806194

0
0
0
0
0
0
0
0
0
0
0
0
0
0
0
0
0
0
0
0
0
0
0
0
0
0
0
0
0.0031650952310787912

0
0
0
0
0.0014189600660166406

0
0.0031980348513806194

0
0
0
0
0
0
0
0
0
0
0
0
0
0
0
0
0
0
0
0
0
0
0
0
0
0
0
0
0
0.0008360922252263446

0
0
0
0
0
0
0
0
0.002567442247599237

0
0
0
0
0
0
0
0
0
0.0011176652169681252

0
0
0
0
0
0
0
0
0
0
0
0
0
0
0
0
0
0
0
0
0
0.0008840039415367274

0
0
0
0
0
0
0
0
0
0
0
0
0
0
0
0
0
0
0
0
0
0
0
0
0
0
0
0
0
0
0
0
0
0
0
0
0
0
0
0
0.00290405293482675

0
0
0
0
0
0.003851163371398856

0
0
0
0
0
0
0
0
0
0
0
0
0
0
0
0
0
0
0
0
0
0
0
0
0
0
0
0.0014724052334722855

0
0.0015328298008261954

0
0
0
0
0.004417215700416856

0
0
0
0
0
0
0
0
0
0
0
0
0.002545252032983764

0
0
0
0
0
0
0
0.0007491733759527292

0
0
0.0013077896386922848

0
0
0
0
0
0
0
0.0031980348513806194

0
0.0025082766756790334

0
0
0
0
0.0020803696344124938

0
0
0
0
0
0
0
0
0
0
0
0
0
0
0
0
0
0.00195375744219447

0
0
0
0
0
0
0
0
0
0
0
0.0008840039415367274

0
0
0
0
0
0
0
0
0.00195375744219447

0
0
0
0
0
0
0
0
0
0
0
0
0
0
0
0
0
0
0
0
0
0
0
0
0
0
0
0
0
0
0
0.0020388032641116684

0
0
0
0
0
0
0
0
0
0
0
0
0
0
0
0
0
0
0
0
0
0.002716682642658435

0
0
0
0.0025082766756790334

0.003817878049475646

0
0
0
0
0
0
0
0
0
0.0018467083589810958

0
0.0031980348513806194

0
0.0015990174256903097

0
0
0
0
0
0
0.0023065711205856264

0.0008133215149326008

0
0
0
0
0
0
0
0
0
0
0
0
0
0
0
0
0
0
0
0
0
0
0
0
0
0
0
0
0
0
0
0
0
0
0
0
0
0
0
0
0
0
0
0
0
0
0
0
0
0
0
0
0
0
0
0
0
0
0
0
0
0
0
0
0
0
0
0
0
0
0
0
0
0
0
0
0
0
0
0
0
0
0
0
0
0
0
0
0
0
0
0
0
0
0
0
0
0
0
0
0
0
0
0
0
0
0
0
0
0
0
0
0
0
0
0
0
0
0
0
0
0
0
0
0
0
0
0
0
0
0
0
0
0
0
0.0058612723265834095

0
0
0
0
0
0
0
0
0
0
0
0
0
0
0.0020803696344124938

0
0
0
0
0.00195375744219447

0
0
0
0
0
0
0.0004953818665815728

0
0
0.0036238655953308887

0
0
0
0
0
0
0
0
0
0
0
0
0
0
0
0
0
0
0.0013174444339485287

0
0
0
0
0
0
0
0
0
0
0
0
0
0
0
0
0
0
0
0
0
0
0
0
0
0
0
0
0.0024351096509166543

0
0.0018467083589810958

0
0
0.0013438667031412579

0
0
0
0
0
0
0
0
0
0
0.0024351096509166543

0
0
0
0
0.0031980348513806194

0
0
0
0
0
0
0
0
0
0
0
0
0
0
0
0
0
0
0
0
0
0
0
0
0
0
0
0
0
0
0
0
0
0
0
0
0
0
0
0.0031980348513806194

0
0
0
0
0
0
0
0
0
0
0
0
0
0
0
0
0
0
0
0
0
0
0
0
0
0
0
0.0013174444339485287

0.0007094800330083203

0
0.0013077896386922848

0.0009627044174443685

0
0
0
0
0
0
0.0004813522087221842

0
0
0
0
0
0
0
0
0
0
0
0
0
0
0
0
0
0
0
0
0
0
0
0
0
0
0
0
0
0
0
0
0
0
0
0
0
0
0
0
0
0
0
0
0
0
0
0
0
0
0
0
0
0
0
0
0
0
0
0
0
0
0
0
0
0
0
0
0.0010514775921040109

0
0
0
0
0
0
0
0
0
0
0
0
0
0
0
0
0.0024831801155291216

0
0
0
0
0
0
0
0
0.00572681707421347

0.0024351096509166543

0
0
0
0
0
0
0
0
0
0
0
0
0
0
0
0
0
0
0
0
0.002716682642658435

0
0
0.0023097138010866897

0
0
0
0
0
0
0
0
0
0
0
0
0
0
0
0
0
0
0
0
0
0
0
0
0
0
0
0
0
0
0
0
0
0
0
0
0.0058612723265834095

0
0
0
0
0
0
0
0
0
0
0
0
0
0
0
0
0
0
0
0
0
0
0
0
0
0
0
0
0
0
0
0
0
0
0
0
0
0
0
0
0
0
0
0
0
0
0
0
0
0
0
0
0
0
0
0
0
0
0
0
0
0
0
0
0
0.00195375744219447

0.00543336528531687

0
0
0
0
0.0031980348513806194

0
0
0
0
0
0
0
0
0
0
0
0
0.0031980348513806194

0
0
0
0
0
0
0
0
0
0
0
0
0
0
0
0
0
0
0
0
0
0
0
0
0
0
0
0
0
0
0
0
0
0
0
0
0
0
0
0
0
0
0
0
0
0
0.00040265173281454317

0
0
0
0
0
0
0
0
0
0
0
0
0
0
0
0.0024351096509166543

0
0
0
0
0
0
0.0007290431420129706

0
0
0
0
0.008150047927975305

0
0
0
0
0
0
0
0
0
0
0
0
0
0
0
0
0
0
0
0
0
0.007084100099050536

0
0
0
0.0024351096509166543

0
0
0
0
0
0
0
0
0
0
0.00195375744219447

0.0004676003842109483

0
0
0
0
0
0
0
0
0
0
0
0
0
0
0
0
0.0022353304339362504

0
0
0
0
0
0
0
0.0005860903265934229

0
0
0
0
0.0012305255846749136

0
0
0
0
0
0
0
0.0017539782252140664

0
0
0
0
0
0
0
0
0
0
0.0009627044174443685

0
0.0013653561502589117

0
0.0010514775921040109

0
0.0018467083589810958

0
0
0
0
0
0
0
0
0
0
0
0.0018467083589810958

0
0
0
0
0
0
0
0
0
0
0
0
0
0
0
0
0
0
0
0
0
0
0
0
0
0
0
0
0
0
0
0
0
0.0007912738077696978

0.0014861455997447182

0
0
0
0
0
0
0
0
0
0
0.0009354678110879232

0
0
0
0
0
0
0
0
0
0
0.002716682642658435

0
0
0
0
0
0
0
0
0
0
0
0
0
0
0
0
0
0
0
0
0
0
0
0
0
0
0
0
0
0
0
0.0024351096509166543

0
0
0
0
0
0
0
0
0
0
0
0
0
0
0
0.0003099215990475136

0
0
0
0
0
0
0.003774792726731232

0
0
0
0
0
0
0
0
0
0
0
0
0
0
0
0
0
0
0
0
0
0
0
0
0
0
0
0
0
0
0
0
0
0.0016721844504526888

0
0
0
0
0
0
0
0
0
0
0
0.001083783158517131

0
0
0
0
0
0
0
0
0
0
0
0
0
0
0
0
0
0
0
0
0
0
0
0
0
0
0
0
0
0
0
0
0
0
0
0
0
0
0
0.0034598566808784394

0
0
0
0
0
0
0
0
0
0
0
0
0
0.0031980348513806194

0
0
0
0
0
0
0
0
0
0
0
0
0
0
0
0
0
0
0
0
0.0024610511693498273

0
0
0
0.000663938612420833

0
0
0
0
0
0
0
0
0
0
0
0
0
0
0
0
0
0
0
0
0
0
0
0
0
0
0
0
0
0
0
0
0
0
0
0
0.008769891126070331

0
0.0022353304339362504

0.0024351096509166543

0.0031980348513806194

0
0
0
0
0
0
0
0.0031980348513806194

0
0
0
0
0
0
0
0
0
0
0
0
0
0
0
0
0
0
0
0
0
0
0
0
0
0
0
0
0
0
0
0
0
0
0
0
0
0
0
0
0
0
0
0
0
0
0
0
0
0
0
0
0
0
0
0
0
0
0
0
0
0
0
0.0026520118246101823

0
0
0
0
0
0
0
0
0
0
0
0
0
0
0
0
0
0
0
0
0
0
0
0
0
0
0
0
0
0
0
0
0
0
0
0
0
0
0
0
0
0
0
0
0
0
0
0
0
0
0.0016721844504526888

0
0
0
0
0
0.0016721844504526888

0
0.0020803696344124938

0
0
0
0
0
0
0
0
0
0
0
0
0
0
0.0024351096509166543

0
0.00343853987778227

0
0
0
0
0
0
0
0
0
0
0
0
0
0
0
0
0
0
0
0
0
0
0
0
0
0
0.0015990174256903097

0
0
0
0
0
0
0
0
0
0.004470660867872501

0
0.0016721844504526888

0
0
0
0
0
0
0
0
0
0
0
0
0
0
0
0
0
0
0
0
0
0
0
0
0
0
0
0
0
0
0
0
0
0
0
0
0
0
0
0
0
0
0
0
0
0
0
0.0025082766756790334

0
0.00542187854815452

0
0
0
0
0
0
0
0
0
0
0
0
0
0
0
0
0.0024610511693498273

0
0
0
0.002716682642658435

0
0.003547400165041602

0
0
0
0
0
0
0
0
0
0
0
0
0
0
0
0
0
0
0
0
0
0
0
0
0
0
0
0
0
0
0
0
0.0008596349694455675

0
0
0
0
0
0
0
0
0
0
0
0
0
0
0
0
0
0
0
0
0
0
0
0
0
0
0
0
0
0.0009627044174443685

0
0
0
0
0
0.0007094800330083203

0
0.0009627044174443685

0
0
0
0
0
0
0
0
0
0
0
0
0
0
0
0
0
0
0
0
0
0
0
0
0
0
0
0
0
0
0.0013653561502589117

0
0
0
0
0
0
0
0
0
0
0.0012305255846749136

0
0
0
0
0
0.0015729637172459017

0
0.0007094800330083204

0
0
0
0
0
0
0
0
0
0
0
0
0
0
0
0
0
0
0
0
0
0
0
0
0
0
0
0
0
0
0
0
0
0
0
0
0
0
0.0024351096509166543

0
0
0
0
0
0
0
0
0
0
0
0
0
0
0
0
0
0
0
0
0
0
0
0
0
0
0
0
0
0
0
0
0
0
0
0
0
0
0
0
0
0
0
0
0
0
0
0
0
0
0
0
0
0
0
0
0
0
0
0
0
0
0
0
0
0
0
0
0
0
0
0.00195375744219447

0
0
0
0
0
0
0
0
0
0
0.001768007883073455

0
0
0
0
0
0
0
0
0
0
0
0.0052619346756421995

0.0018574960818412156

0
0
0
0
0
0
0
0
0.01086673057063374

0
0
0
0
0
0
0
0
0
0.0009092592499887238

0
0
0
0
0
0
0
0
0
0
0
0
0
0
0
0
0
0
0.009594104554141858

0
0
0.0022353304339362504

0
0
0
0
0
0
0
0
0
0
0
0
0
0
0
0
0
0
0
0
0
0
0
0
0
0
0
0
0
0
0
0
0
0
0
0
0
0
0
0
0
0
0
0
0
0
0
0
0
0
0
0
0
0
0
0
0
0
0
0
0.0008133215149326008

0
0
0
0
0
0
0.0010307324483078667

0
0
0
0
0
0
0
0
0.00026782116723054496

0
0
0
0
0
0
0
0
0
0
0
0
0
0
0
0
0
0.002944810466944571

0.0010486424781639345

0
0
0
0
0
0
0.0015328298008261954

0.002716682642658435

0
0
0
0
0
0
0
0
0
0
0.0031980348513806194

0
0
0
0
0
0
0
0.0012305255846749136

0
0
0
0
0
0
0
0
0
0.002716682642658435

0
0
0
0
0
0
0
0
0
0
0
0
0
0
0
0
0
0
0
0
0
0
0
0
0.00195375744219447

0
0
0
0
0
0
0
0
0
0
0
0
0
0
0
0
0
0
0
0
0
0
0
0
0
0
0
0
0
0
0.0024351096509166543

0
0.0017582709797802686

0
0
0
0
0
0
0
0
0.002716682642658435

0
0
0
0
0.00195375744219447

0
0
0
0
0
0
0
0
0
0
0
0
0
0
0
0
0
0
0
0
0
0
0
0
0
0
0
0
0
0
0
0
0
0
0
0
0
0
0
0
0
0
0
0
0
0
0
0
0
0
0
0
0
0
0
0
0
0
0
0
0
0
0.01679607488919782

0
0
0
0
0
0
0
0
0
0
0
0
0
0
0
0
0
0
0
0
0
0
0
0.008500920118860644

0
0
0
0
0.0024610511693498273

0
0
0
0
0
0
0
0
0
0
0.0013438667031412579

0
0
0
0
0
0
0
0.0003782827607233833

0
0
0
0
0
0
0
0
0
0
0
0
0
0
0
0
0
0
0
0
0
0
0
0
0
0
0
0
0
0
0.0009907637331631456

0
0
0
0
0
0
0
0
0
0
0
0
0
0
0
0
0
0
0
0
0
0
0
0.0005701253833818266

0
0
0
0
0
0
0
0
0
0
0
0
0
0
0
0
0
0
0
0
0
0
0
0
0
0
0
0
0
0
0
0.001272626016491882

0
0
0
0
0
0
0
0
0
0
0
0
0
0
0
0
0
0
0
0
0
0
0
0
0
0
0
0
0
0
0
0
0
0
0.0017539782252140664

0
0
0
0
0
0
0
0
0
0
0
0
0
0
0
0
0.003253286059730403

0
0
0
0
0.00195375744219447

0
0
0
0
0
0
0
0
0
0
0
0
0
0
0
0
0
0.002716682642658435

0
0
0
0
0
0
0
0
0
0
0
0
0
0
0
0
0.0027307123005178235

0
0
0
0
0
0
0
0
0
0
0
0
0
0
0
0
0
0
0
0
0
0
0
0
0
0
0
0
0
0
0
0
0
0
0
0
0
0
0
0
0
0
0
0
0
0
0
0
0
0
0
0
0
0
0
0
0
0
0
0
0
0
0
0
0
0
0
0
0
0
0
0
0
0
0
0
0
0
0
0
0
0
0
0
0
0
0
0
0
0
0
0
0
0
0
0
0
0
0
0
0
0
0
0
0
0
0
0
0
0
0
0
0.0002104448678908278

0
0
0
0
0
0
0
0
0
0
0
0
0
0
0
0
0
0
0
0
0
0.006396069702761239

0
0.0031980348513806194

0
0
0
0
0
0
0
0
0
0
0
0
0
0
0
0
0
0
0
0
0
0
0
0
0
0
0
0
0
0
0
0
0.002716682642658435

0.0031980348513806194

0
0
0
0
0
0
0
0
0
0
0
0
0
0
0
0
0
0
0
0.0018467083589810958

0.0020803696344124938

0
0
0
0
0
0
0
0
0
0
0
0
0
0
0
0
0
0
0
0
0
0
0
0
0
0
0
0
0
0
0
0
0
0
0
0
0
0
0
0
0.002545252032983764

0
0
0
0
0
0
0
0
0
0
0
0
0
0
0
0
0
0
0
0
0
0
0
0
0
0
0
0
0
0
0
0
0
0
0
0
0
0
0
0
0
0
0
0
0
0
0
0
0
0
0
0
0
0
0
0
0
0
0
0
0
0
0
0
0
0
0
0
0
0
0
0
0
0
0
0
0
0
0
0
0
0
0
0
0
0
0
0.0006904529675999076

0
0
0
0
0
0
0
0
0
0
0
0
0
0
0
0
0
0
0
0
0
0
0
0
0
0
0
0
0
0
0
0
0
0.004763328966922019

0
0
0
0
0
0
0
0
0
0
0
0
0
0
0
0
0
0
0
0
0
0
0
0
0
0
0
0
0
0
0
0
0
0
0
0
0
0.0015990174256903097

0.0016721844504526888

0
0
0
0
0
0
0
0
0.0024351096509166543

0
0
0
0
0
0
0
0
0
0
0
0
0
0
0.0016721844504526888

0
0
0
0
0
0
0.0018467083589810958

0
0
0
0
0
0
0
0
0
0
0
0
0
0
0
0
0
0
0
0.0024351096509166543

0
0
0
0
0
0
0
0
0
0
0
0
0
0.0011710810794865441

0
0
0
0
0
0
0
0
0
0
0
0
0
0
0
0
0
0
0
0
0
0
0
0
0
0
0
0
0
0
0
0.002167566317034262

0
0
0
0
0
0
0
0
0.00076990460036223

0
0
0
0
0
0
0
0
0.0031980348513806194

0
0
0
0
0
0
0
0
0
0
0
0
0
0
0
0
0
0
0
0
0
0
0
0
0
0
0
0
0
0
0
0
0
0
0
0
0
0
0
0
0
0
0
0
0
0
0
0
0
0
0
0
0
0.0020412166250818637

0
0
0
0
0
0
0
0.002716682642658435

0
0
0
0
0
0
0
0
0
0
0.0022353304339362504

0
0
0
0
0
0
0
0
0
0
0
0
0
0
0
0
0
0
0
0
0
0
0
0
0
0
0
0
0
0
0
0
0
0
0
0
0
0
0
0
0
0
0
0
0
0
0
0
0.0011908322417305047

0
0
0
0
0
0
0
0
0
0
0
0
0.0017103761501454798

0
0
0.0011176652169681252

0
0
0
0
0
0
0
0
0
0
0
0
0
0
0
0
0
0
0
0
0
0
0
0
0
0
0
0
0
0
0
0
0
0
0
0
0
0
0
0
0
0
0
0
0
0
0
0
0
0
0
0
0
0
0
0
0
0
0
0
0
0
0
0
0
0
0
0
0
0
0
0.001272626016491882

0
0
0
0
0
0
0
0
0
0
0
0
0
0
0
0
0
0
0
0
0
0
0
0
0
0
0
0
0
0
0
0
0
0
0
0
0
0
0
0
0
0
0
0
0
0
0
0
0
0
0
0
0
0
0
0
0
0
0
0
0
0
0
0
0
0
0
0
0
0
0
0
0
0
0
0
0
0
0
0
0
0
0
0
0
0
0
0
0
0
0
0
0
0.006214076708399168

0
0
0
0
0
0
0
0.0031980348513806194

0.0020758229192903484

0
0
0
0
0
0
0
0
0
0
0
0
0
0
0
0
0
0
0
0
0
0
0
0
0
0.00390751488438894

0
0
0
0
0
0
0
0
0
0
0
0
0.0004390021485742761

0
0
0
0
0
0
0
0
0
0
0
0
0
0
0
0
0
0
0
0
0
0
0
0
0
0
0.0013905471062400185

0
0
0
0.0019821060495002025

0
0
0
0.0015990174256903097

0
0
0
0
0
0
0
0.0012884155603848332

0
0
0
0
0
0
0
0.0017539782252140664

0.0008596349694455675

0
0
0
0
0
0
0
0
0
0
0
0
0
0
0.02208607850208428

0
0.0031980348513806194

0
0
0
0
0
0
0
0
0
0
0
0
0
0
0
0
0
0
0
0
0
0
0
0
0
0
0
0.01086673057063374

0
0
0
0
0
0
0
0
0
0
0
0
0
0
0
0.0031980348513806194

0
0
0
0.00543336528531687

0
0
0
0
0
0
0
0
0
0.0016721844504526888

0
0
0
0
0
0
0
0
0
0
0
0
0
0
0.0008840039415367274

0.002716682642658435

0.009594104554141858

0.0031980348513806194

0
0
0
0
0
0
0.0031980348513806194

0
0
0
0
0
0
0
0.0011176652169681252

0.0006904529675999076

0
0
0
0
0
0
0
0
0
0
0
0
0
0.0015990174256903097

0
0
0
0.001029784003780792

0
0
0
0
0
0
0.0014168200198101074

0
0.0031980348513806194

0
0
0
0.002716682642658435

0
0
0
0
0
0
0
0
0
0
0
0
0
0
0
0
0
0
0
0
0
0
0
0
0
0
0
0.0031980348513806194

0.001272626016491882

0
0
0
0
0
0
0
0
0
0
0
0
0
0
0
0
0
0
0
0
0
0
0
0
0
0.0014168200198101074

0
0
0
0.0006538948193461424

0
0
0
0
0
0
0
0
0.00343853987778227

0
0
0
0.002564881385122641

0.0010514775921040109

0.00781502976877788

0
0
0.001029784003780792

0
0.0027618118703996303

0
0
0
0
0
0
0
0
0
0
0
0
0
0
0
0
0
0
0
0
0
0
0
0
0
0
0
0
0
0
0
0
0
0
0
0
0
0
0
0.0012305255846749136

0
0
0
0
0
0
0
0
0
0
0
0
0
0
0
0
0.0024351096509166543

0
0
0
0
0
0
0
0
0
0
0
0
0
0
0
0
0
0
0
0
0
0
0
0
0
0
0
0
0
0
0
0
0
0
0.002716682642658435

0
0
0
0
0
0
0
0
0
0
0
0
0
0
0
0
0
0.0015990174256903097

0
0
0
0
0
0.0010206083125409318

0
0
0
0
0
0
0
0
0
0.0031980348513806194

0
0
0
0
0
0
0
0
0
0
0.0031980348513806194

0
0
0
0
0
0
0
0
0
0
0
0
0
0.0009092592499887238

0.001925408834888737

0
0
0
0
0
0
0
0
0
0
0
0
0
0
0
0
0
0
0
0
0
0
0
0
0
0
0
0.0022353304339362504

0
0
0
0
0
0
0
0
0
0
0
0
0
0
0
0
0
0
0
0
0
0
0
0
0
0
0
0
0
0
0
0
0
0
0
0
0
0
0
0
0
0
0
0
0
0
0
0
0
0
0
0
0.0011542095665601829

0
0
0
0
0
0
0
0
0
0
0
0
0
0
0
0
0
0
0
0
0
0
0
0
0
0
0
0
0
0
0
0
0
0
0
0
0
0
0.0024351096509166543

0
0
0
0
0
0
0
0
0
0
0
0
0
0
0
0
0
0
0
0
0
0
0
0
0
0.0034598566808784394

0
0
0
0
0
0
0
0
0
0
0.0024610511693498273

0.0020803696344124938

0
0
0
0
0
0
0.000865657174920137

0
0
0
0
0
0
0
0
0
0
0
0
0
0
0.0002781094212480037

0.0022353304339362504

0
0
0
0
0.0013653561502589117

0
0
0
0
0
0
0
0.0036934167179621916

0
0
0
0
0
0
0
0
0
0
0
0
0.0013653561502589117

0
0
0
0
0
0
0
0
0
0.0011892024616207495

0
0.0009627044174443685

0
0
0
0
0
0
0
0
0.0014168200198101074

0
0
0
0
0
0
0
0
0
0
0
0
0
0
0
0
0
0
0
0
0.0031980348513806194

0
0
0
0
0
0
0
0
0
0.0031980348513806194

0
0
0
0.0012305255846749136

0
0
0
0
0
0
0
0
0
0
0
0
0
0
0
0
0
0
0
0
0
0
0
0.0024351096509166543

0
0
0
0
0
0
0
0
0
0
0
0
0
0
0
0
0
0
0
0
0
0
0
0
0
0
0
0
0
0
0
0
0
0
0
0
0.0023816644834610094

0.0020412166250818637

0
0
0
0.002716682642658435

0
0
0
0
0
0
0
0
0
0.0016721844504526888

0
0
0
0
0.0033443689009053775

0.0022353304339362504

0.0024610511693498273

0
0
0
0.0013653561502589117

0
0.0024610511693498273

0
0
0.0017539782252140664

0
0
0
0
0
0
0
0
0
0
0
0
0
0
0
0
0
0
0.0009627044174443685

0
0
0
0
0
0.0011176652169681252

0
0
0
0
0
0
0
0.0023738214233090934

0
0
0
0
0
0
0
0
0
0
0
0.0024351096509166543

0
0
0
0
0
0
0
0
0
0
0
0
0
0.0009627044174443685

0
0
0
0
0
0
0
0.0007623245713937789

0
0
0
0
0
0
0.0031980348513806194

0
0
0.0005860903265934229

0
0
0
0
0
0
0
0
0
0
0
0
0
0
0
0
0
0
0
0
0
0
0
0
0
0
0
0
0
0
0
0.00543336528531687

0
0
0.002545252032983764

0
0.0031980348513806194

0
0
0
0
0
0
0
0
0
0
0
0
0
0
0
0
0
0
0.0024351096509166543

0
0.002944810466944571

0
0
0
0
0
0
0
0
0
0.0008303291677161395

0.0017103761501454798

0
0
0.0011721806531868459

0
0.0014724052334722855

0
0
0
0
0
0
0.006396069702761239

0
0
0
0
0
0.006396069702761239

0
0
0
0
0
0
0
0
0
0
0
0
0
0
0
0
0
0
0
0
0
0
0
0
0.0008360922252263446

0
0
0
0
0
0
0.0031980348513806194

0
0
0
0
0
0
0.0009627044174443685

0
0
0
0
0
0
0
0
0
0
0
0
0
0
0
0.0035079564504281327

0
0
0
0
0.0033443689009053784

0
0
0
0
0
0
0
0.0022353304339362504

0
0
0
0
0
0
0
0
0
0
0
0
0
0
0
0
0
0
0
0
0
0
0
0
0
0
0
0
0
0
0
0
0.0018467083589810958

0
0
0
0
0
0
0
0
0
0
0
0
0
0
0
0
0
0.0007094800330083203

0
0
0
0.0015328298008261954

0.0005701253833818266

0
0
0.0014168200198101074

0
0
0
0
0
0
0
0.0033443689009053775

0
0
0
0
0
0.0023065711205856264

0
0.0020412166250818637

0
0
0
0
0
0
0
0
0
0
0
0
0
0
0
0
0
0
0
0
0
0
0
0
0
0
0
0
0
0
0.002015800054711887

0
0.0014724052334722855

0
0
0
0
0
0
0
0
0
0
0
0
0
0
0
0
0
0
0
0
0
0
0
0
0
0
0
0
0
0
0
0
0
0
0
0
0
0
0
0
0
0
0.0031980348513806194

0
0
0
0
0
0
0
0.0011176652169681252

0
0
0
0
0
0
0
0
0
0
0
0
0
0
0
0
0
0
0
0
0
0
0
0
0
0
0
0
0
0.0012305255846749136

0.0026348888678970573

0
0
0
0
0
0
0
0
0
0
0
0
0
0
0
0
0
0
0
0
0
0
0
0
0
0
0
0
0
0.0031980348513806194

0
0
0
0
0
0
0
0
0
0
0
0
0
0
0
0
0
0.002716682642658435

0
0
0
0
0
0
0
0
0
0
0
0
0
0
0
0
0
0
0
0
0
0.00390751488438894

0
0
0
0.0016721844504526888

0
0
0
0
0
0.0024351096509166543

0.0022353304339362504

0
0
0
0
0.0017539782252140664

0
0
0
0
0
0.004250460059430322

0
0
0
0
0.0013653561502589117

0
0.00039036035982884806

0
0
0
0
0
0
0
0
0
0
0
0
0
0
0
0
0
0
0.0031980348513806194

0
0
0
0
0
0
0
0
0
0
0
0
0
0
0
0
0
0
0
0
0
0
0
0
0
0
0
0
0
0
0
0
0
0
0
0
0
0
0
0
0
0
0
0
0
0
0
0
0
0
0
0
0
0
0
0
0
0
0
0
0
0
0
0
0
0
0
0
0
0
0.0024351096509166543

0
0
0
0
0
0
0
0
0
0
0
0
0
0
0
0
0
0
0
0
0
0
0
0
0.0031980348513806194

0
0
0
0
0
0
0
0.0014270429539448995

0
0
0.0024351096509166543

0
0
0
0
0
0
0
0
0
0
0
0
0
0
0
0.028782313662425577

0
0
0
0
0
0
0
0
0
0
0
0
0
0
0
0
0
0
0
0
0
0
0
0
0
0
0
0
0
0
0
0
0
0
0
0
0
0
0
0
0
0
0
0
0
0
0
0
0
0
0
0
0
0
0
0
0
0
0
0
0
0
0
0
0
0
0
0
0
0
0
0
0
0
0
0
0
0
0.0020803696344124938

0
0
0
0
0
0
0
0
0
0
0
0
0
0
0
0
0
0
0
0
0
0
0
0
0
0
0
0
0
0
0
0
0
0
0
0
0
0
0
0
0.0020803696344124938

0
0.00195375744219447

0.0036934167179621916

0
0
0
0
0
0
0
0
0
0
0
0
0
0
0
0
0
0
0
0
0
0
0
0
0
0
0
0.002716682642658435

0
0
0
0
0
0
0
0
0
0
0
0
0
0
0
0
0
0
0
0
0
0
0
0
0
0
0
0
0
0.0031980348513806194

0
0
0
0
0
0
0
0
0
0
0
0
0
0
0
0
0.003181565041229705

0
0
0
0
0
0.011080250153886575

0
0
0
0
0
0
0
0
0
0
0
0
0
0
0
0
0
0
0
0
0
0
0
0
0
0
0.0016721844504526888

0
0
0
0
0
0
0
0
0
0
0.002716682642658435

0
0.00390751488438894

0
0
0
0
0
0
0
0
0
0
0
0
0
0
0
0
0
0
0
0
0
0
0.0011176652169681252

0
0
0
0
0
0
0
0
0
0
0
0
0
0
0
0
0
0
0.0031980348513806194

0
0
0
0
0
0
0
0
0
0
0
0
0
0
0
0
0
0
0
0
0
0
0
0
0
0
0
0
0
0
0
0
0
0.0015328298008261954

0
0.0009910530247501013

0
0
0
0
0
0
0
0
0
0
0
0.002716682642658435

0
0
0
0
0
0
0
0
0
0
0
0
0
0
0
0
0
0
0
0
0
0
0
0
0
0
0
0
0
0
0
0
0
0
0
0
0
0
0
0
0
0
0
0
0
0
0
0
0
0
0
0
0
0
0
0
0
0
0
0
0
0
0
0
0
0
0
0
0
0
0
0
0
0
0
0
0
0
0
0
0
0
0
0
0
0
0.002716682642658435

0
0
0
0
0
0
0
0
0.0010514775921040109

0
0
0
0
0
0
0
0
0
0
0
0
0
0
0.0022353304339362504

0
0
0
0
0
0
0
0
0
0
0
0
0
0
0.0031980348513806194

0
0
0
0.002716682642658435

0
0.0015328298008261954

0
0
0
0
0
0.0006538948193461424

0.001719269938891135

0
0
0
0
0
0
0
0
0
0
0
0
0
0
0.0022353304339362504

0
0
0.0024351096509166543

0
0
0
0
0
0
0
0
0
0
0
0
0
0.001794928817051893

0
0
0
0.0009910530247501013

0
0
0
0
0
0
0
0
0.0014168200198101074

0
0
0
0
0
0
0
0
0
0
0.0016721844504526892

0.0022353304339362504

0
0
0
0
0
0
0
0
0
0
0
0
0
0
0
0
0
0
0
0
0
0
0
0
0
0
0
0
0
0
0
0
0
0
0
0
0
0
0.0011176652169681252

0
0
0
0.0007491733759527292

0
0
0
0
0
0
0
0
0
0
0
0
0
0
0
0
0
0
0
0
0
0
0
0
0
0
0
0
0
0
0
0
0
0.0018467083589810958

0
0
0
0
0
0
0
0
0
0
0
0
0
0
0
0
0
0
0.0015298438985263203

0
0
0
0
0
0
0
0
0
0
0
0
0
0
0
0
0
0.002716682642658435

0
0
0
0
0
0
0
0
0
0
0
0
0.0028336400396202148

0
0.004031600109423774

0
0
0
0
0.0023816644834610094

0
0
0
0
0
0
0
0
0.0029722911994894364

0
0
0
0
0
0
0
0
0
0
0
0
0
0
0
0
0
0
0
0.0016721844504526888

0
0
0
0
0
0
0
0.0013653561502589117

0
0
0.0017539782252140664

0
0
0
0
0
0
0
0
0.0016721844504526888

0
0
0
0.004870219301833309

0
0
0
0
0
0
0
0
0
0
0
0.0015825476155393956

0
0
0
0
0
0
0.0020803696344124938

0
0
0.0012048618995898932

0
0
0
0
0
0
0
0
0
0.0024351096509166543

0
0
0
0
0
0
0
0
0
0
0
0
0
0
0
0.001083783158517131

0
0
0
0
0
0
0
0
0
0
0
0
0
0
0
0
0
0
0
0
0
0
0
0
0
0
0
0
0
0
0
0
0
0
0
0
0.0017539782252140664

0
0
0
0
0.0017539782252140664

0
0.0012305255846749136

0
0
0
0
0
0
0
0
0
0
0
0
0
0
0
0
0
0
0
0
0
0
0
0
0
0
0.0031980348513806194

0
0
0
0
0.002716682642658435

0
0
0
0.0022353304339362504

0
0
0
0
0
0
0
0
0
0
0.0020803696344124938

0
0
0
0
0
0
0.001660658335432279

0
0.0011721806531868459

0
0
0
0
0
0
0.0008840039415367274

0
0.0011532855602928132

0
0
0
0
0
0
0
0
0
0
0
0
0
0
0.0009092592499887238

0
0
0
0
0
0
0
0
0
0
0
0
0
0
0
0
0
0
0
0
0
0
0
0
0
0
0
0
0
0
0.0008840039415367274

0
0
0.0014168200198101074

0
0
0
0
0
0
0
0
0.009594104554141858

0
0.0018467083589810958

0.0018709356221758464

0
0
0
0
0
0
0
0
0
0
0
0
0
0
0
0.009594104554141858

0
0
0
0
0
0
0
0
0
0.0031980348513806194

0.001272626016491882

0
0
0
0
0
0
0
0
0
0
0
0
0
0
0
0
0
0
0
0.0012305255846749136

0
0
0
0
0
0
0
0
0
0
0
0
0
0
0
0.0024351096509166543

0
0
0
0
0
0
0
0
0
0
0
0
0
0
0
0
0
0
0
0
0
0
0
0
0
0
0
0
0
0
0
0
0
0
0.0024351096509166543

0
0
0
0
0
0
0
0
0
0
0
0
0
0
0
0
0
0
0
0
0.006396069702761239

0
0.0016721844504526888

0.004470660867872501

0
0.001961684458038427

0.0020803696344124938

0
0
0
0
0
0.0016721844504526888

0
0
0
0
0
0
0
0
0
0
0
0
0
0.0014168200198101074

0
0
0
0
0
0
0
0
0
0
0
0
0
0
0
0
0
0
0
0
0
0
0
0
0
0
0
0
0
0
0
0
0
0
0
0
0
0
0
0
0
0
0
0
0
0
0.0009910530247501013

0
0.0004813522087221842

0
0
0
0
0
0
0
0
0.0031980348513806194

0.0016721844504526888

0
0.0006904529675999076

0
0
0
0
0
0
0.0009092592499887238

0
0
0
0.0017539782252140664

0.0024351096509166543

0
0
0
0
0
0
0
0
0
0
0
0
0.0018467083589810958

0
0
0
0.0018467083589810958

0
0
0
0
0
0.0022353304339362504

0
0
0
0
0
0
0
0
0
0
0.0021871294260389115

0.0024097237991797865

0
0
0
0
0
0
0
0
0
0
0
0
0
0
0
0
0
0
0.00045411560236573894

0
0
0
0
0
0
0
0
0
0
0
0
0
0.0006719333515706289

0
0
0
0
0
0
0
0
0
0
0
0
0
0
0
0
0
0
0
0
0
0
0.0014724052334722855

0
0
0
0
0
0
0
0
0.0018467083589810958

0
0.0024351096509166543

0.006396069702761239

0.0016721844504526888

0
0
0
0
0
0
0
0
0
0
0
0
0
0
0
0
0
0
0
0
0.0009627044174443685

0
0
0
0
0
0
0
0
0
0
0
0
0
0
0
0.0010194016320558342

0.0033443689009053775

0
0.006396069702761239

0
0.0031980348513806194

0
0
0
0
0
0
0
0
0
0
0
0
0
0
0
0
0
0
0
0
0
0
0
0
0
0
0
0
0
0
0
0
0.0018467083589810958

0
0
0
0
0
0
0
0
0
0
0
0
0
0
0
0
0
0
0
0
0
0
0
0
0
0
0
0
0
0
0
0
0
0
0
0.0016721844504526888

0
0
0
0
0
0
0
0
0
0
0
0
0
0
0
0
0
0
0
0
0
0
0
0
0
0
0
0
0
0.0013623468070972167

0
0
0
0
0
0
0
0
0
0
0
0
0
0
0
0
0
0
0
0
0
0
0
0
0
0
0
0
0.008360922252263443

0.010523869351284399

0
0
0
0
0
0
0
0
0
0
0.0008133215149326008

0
0
0.0018467083589810958

0
0.0018467083589810958

0
0.00045411560236573894

0
0
0
0
0
0
0.004598489402478586

0
0
0
0
0
0
0
0
0
0
0
0
0
0
0
0
0
0
0
0
0
0
0
0
0
0
0
0
0
0
0
0
0
0
0
0
0
0
0.0031980348513806194

0
0
0
0
0
0
0
0
0
0
0
0
0.0017539782252140664

0
0
0
0
0
0
0
0
0
0
0
0
0
0
0
0
0
0
0
0.00153980920072446

0
0
0
0
0
0
0
0
0
0
0
0
0
0
0
0
0
0
0
0
0
0
0
0
0.0033456121420435735

0.0014637053121440635

0
0.0022353304339362504

0
0
0
0
0
0
0
0
0
0
0
0
0
0
0
0
0
0
0
0
0
0
0
0
0
0
0
0
0
0
0
0
0
0
0
0
0
0
0
0
0
0
0.001272626016491882

0
0
0
0.002167566317034262

0
0
0
0
0
0
0
0
0
0
0
0
0
0
0
0.0026348888678970573

0
0
0
0
0
0
0
0
0
0
0
0.0014168200198101074

0
0
0
0
0
0
0
0.0013653561502589117

0
0
0
0
0
0
0
0
0
0
0
0
0
0
0
0
0
0
0
0
0
0
0.0024610511693498273

0
0
0
0
0
0
0
0
0
0
0
0
0
0
0
0
0
0
0
0.0004676003842109483

0
0
0
0
0
0
0
0
0
0
0
0
0
0
0
0
0
0
0
0
0
0
0
0
0
0
0
0
0
0
0
0
0
0
0
0
0
0
0
0
0
0
0
0
0
0
0
0
0
0
0
0
0
0
0
0
0
0
0
0
0
0
0
0
0
0
0
0
0
0
0
0
0
0
0
0
0
0
0
0
0
0
0
0.002716682642658435

0
0
0
0
0
0
0
0
0
0
0
0
0
0
0
0
0
0
0.0020713589027997227

0
0
0
0
0
0
0
0
0
0
0
0
0
0
0
0
0
0
0
0
0
0.0031980348513806194

0
0
0
0
0
0
0
0
0
0.002716682642658435

0
0
0
0
0
0
0
0
0
0
0
0
0
0
0
0
0
0
0
0
0
0
0
0
0
0.0011908322417305047

0
0
0
0
0
0
0
0
0
0
0
0
0
0
0
0
0
0
0
0
0
0
0
0.0041607392688249875

0
0
0
0
0
0
0
0
0
0
0
0
0
0
0
0.0015990174256903097

0
0
0.0036934167179621916

0
0
0
0
0.0008840039415367274

0
0
0
0
0
0
0
0
0.0012454937515742092

0
0
0
0
0
0
0
0
0
0
0
0
0.0017539782252140664

0
0
0
0
0
0
0
0
0
0
0
0
0
0
0
0
0
0
0
0.002716682642658435

0
0
0
0
0
0
0
0
0
0
0
0
0
0
0
0
0
0
0
0
0
0
0
0
0
0
0
0
0
0
0
0
0
0
0
0
0
0
0.0008053034656290863

0
0.0010642200495124808

0
0
0
0
0
0
0
0
0
0
0
0
0
0
0
0
0
0
0
0
0
0
0
0
0
0
0
0
0
0
0
0
0
0
0
0
0
0
0
0
0.0023816644834610094

0
0
0
0
0
0
0
0
0
0
0
0
0
0
0
0
0
0
0
0
0
0
0
0
0
0
0
0
0.001925408834888737

0
0.0014724052334722855

0
0
0
0.0031980348513806194

0
0
0
0
0
0.002716682642658435

0
0
0.0024351096509166543

0
0
0
0
0
0
0
0.004096068450776735

0
0
0
0.0011532855602928132

0
0
0.0005097008160279171

0
0
0
0
0
0
0
0.001925408834888737

0
0
0
0.002850626916909133

0
0
0
0
0
0
0
0.0031980348513806194

0
0
0
0
0
0
0
0
0
0
0.0033529956509043756

0
0
0
0
0
0.0016686565274880224

0
0
0
0
0
0
0
0
0
0
0
0
0
0
0
0
0
0
0
0
0
0
0
0
0
0
0
0
0
0
0
0
0
0
0
0
0
0
0
0
0
0
0
0
0
0
0
0
0
0
0
0
0
0
0
0
0
0
0
0
0
0
0
0
0
0
0
0.0020803696344124938

0
0
0
0
0
0
0
0.0031102252339585616

0
0
0
0
0
0.0009910530247501013

0
0
0
0
0
0
0
0
0
0
0
0
0
0
0
0.0022353304339362504

0
0
0
0
0.001794928817051893

0
0
0
0
0
0
0
0
0
0
0
0
0
0
0
0.002167566317034262

0.0017539782252140664

0
0
0
0
0
0
0
0
0
0
0
0
0
0
0
0
0
0
0
0
0
0
0
0
0
0
0
0
0
0
0
0
0
0
0
0
0
0.004966360231058242

0
0
0
0
0.0018467083589810958

0
0
0
0
0
0
0
0
0
0
0
0
0
0
0
0
0
0
0
0.0013653561502589117

0
0
0
0
0
0
0
0
0
0
0
0
0
0
0
0
0
0
0
0
0
0
0
0
0.0010514775921040109

0
0
0.004335132634068524

0
0
0
0
0
0
0
0
0
0
0
0
0
0
0
0
0
0
0
0
0
0
0
0
0
0
0
0
0
0
0
0
0
0.0010642200495124808

0
0
0
0
0
0
0
0
0
0
0.0018072928493848396

0
0
0
0
0
0
0
0
0
0
0
0
0
0
0
0
0
0
0
0
0
0
0
0
0
0
0
0
0
0
0
0
0
0.0022353304339362504

0
0
0
0
0
0
0
0
0
0
0
0
0
0
0
0.0008133215149326008

0
0
0
0
0
0
0
0
0
0
0
0
0
0
0
0
0
0
0
0
0
0
0
0
0
0
0
0
0
0
0
0
0
0
0
0
0
0
0
0
0
0
0
0
0
0
0
0
0
0
0
0
0
0
0
0.0010206083125409318

0
0
0.0002991548028419822

0
0
0
0
0
0
0
0
0
0
0
0
0
0
0
0
0.0006538948193461424

0
0
0
0.0009910530247501013

0
0
0.0023443613063736917

0
0.0022353304339362504

0
0
0
0
0
0
0
0.0002781094212480037

0
0
0
0
0
0.00195375744219447

0.0016721844504526888

0
0
0
0
0
0
0
0.0020803696344124938

0
0
0.0031980348513806194

0
0
0
0
0
0
0
0
0
0
0
0
0
0
0
0
0
0
0
0
0
0
0
0.0008840039415367274

0
0.0007094800330083203

0.0031980348513806194

0.0008596349694455675

0
0.0027277777499661714

0
0
0
0
0
0
0
0
0
0
0.003817878049475646

0
0
0
0
0
0
0
0
0.00076990460036223

0
0
0
0
0
0
0
0
0
0.002716682642658435

0
0
0
0.0015825476155393956

0
0
0
0
0
0
0
0
0.0031980348513806194

0.0015990174256903097

0
0
0
0
0
0
0
0
0
0
0
0
0
0
0
0
0
0
0
0
0
0
0
0
0
0
0
0
0
0
0
0
0
0
0
0
0
0
0
0
0
0
0.0006198431980950272

0
0
0.0005097008160279171

0
0
0
0
0
0
0
0
0
0
0
0
0
0
0
0
0
0
0
0
0.0024351096509166543

0
0
0
0
0
0
0
0
0
0
0
0
0
0
0
0
0
0
0
0
0
0
0
0.002716682642658435

0
0
0
0
0
0
0
0
0
0
0
0
0
0
0
0
0
0
0
0
0
0
0
0
0
0
0.0007491733759527292

0
0
0.0031980348513806194

0.0019821060495002025

0.0008840039415367274

0
0
0
0
0
0.005461424601035647

0
0.00390751488438894

0
0
0
0
0
0
0
0
0
0
0
0
0.0024351096509166543

0
0
0
0
0
0
0
0
0
0
0
0
0
0
0
0
0
0.0031980348513806194

0
0
0
0
0
0
0
0
0.005418915792585654

0
0
0
0
0
0
0
0
0
0
0
0
0
0
0
0
0
0
0.0037458668797636457

0
0
0
0
0
0
0
0
0
0
0
0
0
0
0
0
0.002716682642658435

0
0
0
0
0.0011402507667636532

0
0
0
0
0
0
0
0
0
0
0.002944810466944571

0
0
0
0
0.0024351096509166543

0.002716682642658435

0
0
0
0
0
0
0
0
0
0
0
0
0
0.0021029551842080218

0
0
0
0
0
0
0
0
0.004256880198049921

0
0
0
0
0
0.0023816644834610094

0
0
0.002944810466944571

0
0
0.004870219301833309

0
0
0
0
0
0
0
0
0
0
0
0
0
0
0
0
0
0
0
0
0.0022353304339362504

0
0
0
0
0
0
0
0
0
0
0.002645326135149873

0
0
0
0
0
0
0
0
0
0
0
0
0
0
0
0
0
0
0
0
0
0.00195375744219447

0
0
0.0008974644085259465

0
0
0
0
0
0
0
0
0
0
0
0
0
0
0
0.0022353304339362504

0
0
0
0
0
0
0
0
0
0
0
0
0.0027307123005178235

0
0
0
0
0
0
0
0
0
0
0
0
0.00195375744219447

0
0
0.0006024309497949466

0
0
0
0
0
0
0
0
0
0
0
0
0
0
0
0
0
0.0017539782252140664

0
0
0
0.002716682642658435

0
0.002716682642658435

0
0
0
0
0
0
0
0
0
0
0
0
0
0
0
0.0015328298008261954

0
0
0
0
0
0
0
0
0
0
0
0
0
0
0
0
0.002716682642658435

0.011176652169681252

0
0
0
0
0
0
0
0
0
0
0
0
0
0
0
0
0
0
0
0
0
0
0
0
0
0
0
0
0
0
0
0
0
0
0
0
0
0
0
0
0
0
0
0
0
0
0
0
0
0
0
0
0
0
0
0
0
0
0
0
0
0
0
0
0.0016721844504526888

0
0
0.006152627923374567

0
0.0008840039415367274

0
0
0
0
0
0
0
0
0
0.0031980348513806194

0
0
0
0
0
0
0
0
0
0
0
0
0
0
0
0
0
0
0
0
0
0
0
0
0.00062730227663317

0
0
0
0.000628428707227432

0
0
0
0
0
0
0
0
0
0
0
0
0
0
0
0
0
0
0
0
0
0
0
0
0
0
0
0
0
0
0
0
0
0
0.0024351096509166543

0
0
0
0
0
0
0.0018709356221758464

0
0
0
0
0
0
0.0007094800330083203

0
0
0
0.0024351096509166543

0
0
0
0
0
0
0
0
0
0
0
0
0
0
0.0007912738077696978

0
0
0
0
0
0
0
0
0
0
0
0
0
0.0020803696344124938

0.0012305255846749136

0
0
0
0
0
0
0
0
0
0
0
0
0
0
0
0
0
0
0
0
0
0.0017539782252140664

0
0
0
0
0
0
0
0
0
0
0
0
0
0
0
0
0
0
0
0
0
0
0
0
0
0
0
0
0
0
0
0
0
0
0
0
0
0
0
0
0
0
0
0
0
0
0
0
0
0
0
0
0
0
0.0023097138010866897

0.0018467083589810958

0
0
0.002545252032983764

0
0
0
0
0
0
0
0
0
0
0
0
0.002716682642658435

0
0
0
0
0
0
0
0
0
0
0
0
0
0
0
0
0
0
0
0
0
0
0
0
0
0
0
0
0
0
0
0
0
0
0
0
0.0011710810794865441

0
0
0.00153980920072446

0.0009910530247501013

0
0
0
0
0
0
0
0
0
0
0
0
0
0
0
0.00543336528531687

0
0
0
0
0
0
0
0
0
0
0
0
0
0.0013174444339485287

0
0
0
0
0.000636313008245941

0.0010206083125409318

0
0
0
0
0
0
0
0
0
0
0
0
0
0
0
0
0.0031980348513806194

0
0.0010514775921040109

0
0
0
0
0
0
0
0
0
0
0.0031980348513806194

0
0.0024351096509166543

0
0
0
0.0012305255846749136

0
0
0
0
0
0
0
0
0
0
0.0024351096509166543

0
0
0
0
0
0.00195375744219447

0
0
0
0
0
0
0
0
0
0
0
0
0
0
0
0
0
0
0
0
0
0
0
0
0
0
0
0
0
0
0
0
0
0
0
0
0.0006904529675999076

0
0
0
0.002716682642658435

0.0018467083589810958

0
0
0
0
0
0
0
0
0
0
0
0.00195375744219447

0.0013174444339485287

0
0.0022353304339362504

0
0.001272626016491882

0
0
0.0018185184999774476

0
0
0
0
0.008150047927975305

0
0
0
0
0
0
0
0
0
0
0
0
0
0
0
0
0
0
0
0
0
0
0
0
0.0015328298008261954

0
0
0
0
0
0
0
0
0
0
0
0
0
0
0
0
0
0
0
0
0
0
0
0
0
0
0
0
0
0
0
0
0
0.0024351096509166543

0
0
0
0
0.0017539782252140664

0
0
0
0
0
0
0
0
0
0
0
0
0
0
0
0
0
0
0
0
0
0
0
0
0
0
0
0
0.0031980348513806194

0
0
0
0
0.0031980348513806194

0.010401848172062468

0
0
0
0
0
0
0
0.0013174444339485287

0
0
0
0
0
0
0
0
0
0
0
0
0
0.0016721844504526888

0
0
0
0
0
0
0
0
0
0
0
0.0024351096509166543

0
0
0
0
0
0
0
0
0
0
0
0
0
0
0
0
0
0.0026520118246101823

0
0
0.002545252032983764

0
0
0
0
0.0024351096509166543

0
0
0
0
0
0
0
0
0.0024097237991797865

0
0
0
0
0
0
0
0
0
0
0
0
0.0008360922252263446

0
0
0
0
0
0.021047738702568798

0
0
0
0
0
0
0.001272626016491882

0
0
0
0
0
0
0
0.0031980348513806194

0
0
0
0
0
0
0
0
0
0
0
0
0.004870219301833309

0
0
0
0
0
0
0
0
0
0
0
0
0
0
0
0
0
0
0
0
0
0
0
0
0
0
0
0
0
0.0020803696344124938

0
0
0
0
0
0
0
0.0015328298008261954

0
0
0
0
0
0
0
0
0.001272626016491882

0
0
0
0
0
0
0.0015990174256903097

0
0
0
0
0
0
0
0
0
0
0
0
0
0
0
0
0
0
0
0
0
0
0
0
0
0
0
0
0
0
0
0
0
0
0
0
0
0
0
0
0
0
0
0
0
0
0
0
0
0
0
0
0
0
0
0
0
0
0
0
0
0
0
0
0
0
0
0
0
0
0
0
0
0
0
0
0
0
0
0
0
0
0
0.006396069702761239

0
0
0
0
0
0
0
0
0
0
0
0
0
0
0
0
0
0
0
0
0
0.0031980348513806194

0
0
0
0
0
0
0
0
0
0
0
0
0
0.0016721844504526888

0
0
0
0
0
0
0
0
0
0
0
0
0
0
0
0
0
0
0
0
0
0
0
0
0
0
0
0
0
0
0.04075023963987652

0.026786206160083193

0
0
0
0
0
0
0
0
0
0
0
0
0
0
0
0
0
0
0
0
0
0
0
0
0
0
0
0
0
0
0
0
0
0
0
0
0
0
0
0
0
0
0
0
0
0
0
0
0
0.0024351096509166543

0
0
0
0
0
0
0
0
0
0
0
0
0
0
0
0
0
0
0
0
0
0
0
0
0
0
0
0
0
0
0
0
0
0
0
0.0024351096509166543

0
0
0
0
0.0012305255846749136

0.0017539782252140664

0
0
0
0
0
0
0
0
0
0
0
0.0006538948193461424

0
0
0
0
0
0
0
0
0.000881775378383291

0
0
0
0.0007912738077696978

0
0
0
0
0
0
0
0
0
0
0
0
0
0
0
0
0
0
0
0
0
0
0
0
0
0
0
0
0
0
0
0
0.0015328298008261954

0
0
0.0012305255846749136

0.001961684458038427

0
0.0013653561502589117

0
0
0.0022353304339362504

0
0
0
0
0
0
0
0
0
0
0
0
0
0
0
0
0
0
0
0
0
0
0
0
0
0
0
0
0.0010206083125409318

0
0
0
0
0
0
0.0006024309497949466

0
0
0
0
0.0024351096509166543

0
0
0
0
0
0.004470660867872501

0
0
0
0.00542187854815452

0
0
0
0
0
0
0
0
0
0.002716682642658435

0.0031980348513806194

0.0018467083589810958

0
0
0
0.0020803696344124938

0
0
0
0
0
0
0
0
0
0
0
0
0
0
0
0
0
0
0
0
0.0007912738077696978

0
0
0
0
0
0
0.0013653561502589117

0
0
0
0
0
0
0
0.0007094800330083204

0
0.001908939024737823

0
0
0.0008596349694455675

0
0
0
0
0
0.0028336400396202148

0
0
0
0
0
0
0
0
0
0
0
0.0013809059351998151

0
0
0
0
0
0
0
0
0
0
0
0
0
0
0
0
0
0
0
0
0
0
0
0
0
0
0
0
0
0
0
0
0
0
0
0
0
0
0
0
0
0
0
0
0
0
0
0
0
0.0016721844504526888

0
0.0022353304339362504

0
0
0
0
0
0
0
0
0
0
0
0
0
0
0
0
0
0
0
0
0
0
0
0
0
0
0
0
0
0
0
0
0
0
0
0
0
0
0
0
0
0
0
0
0
0
0
0
0
0
0
0
0
0
0
0
0
0
0
0
0
0
0
0
0
0
0
0
0
0
0
0
0
0.00195375744219447

0
0
0
0
0
0
0
0
0
0
0
0
0
0
0
0
0
0
0
0
0
0
0
0
0
0
0
0
0
0
0.0028336400396202148

0
0
0
0
0
0
0
0
0
0
0
0
0
0
0
0
0
0
0
0
0
0
0
0
0
0
0
0
0
0
0
0
0
0
0
0
0
0
0
0
0
0
0
0
0
0
0
0
0
0
0
0
0
0.0007836475531431324

0.0014861455997447182

0
0
0
0
0.0015328298008261954

0
0
0
0
0
0
0
0
0
0
0
0
0
0
0
0
0
0.0024351096509166543

0
0
0
0.0024351096509166543

0.005231158554769139

0
0
0
0
0
0
0
0
0
0
0
0
0
0
0
0
0
0
0
0
0
0
0
0
0
0
0
0
0
0
0
0
0
0
0
0
0
0
0
0
0
0
0
0
0
0
0
0
0
0
0
0
0
