0
0
0
0
0
0
0
0
0
0
0
0
0
0
0
0
0
0
0
0
0
0
0
0
0
0
0
0
0
0
0
0
0
0
0
0
0
0
0
0
0
0
0
0
0
0
0
0
0
0
0
0
0
0
0
0
0
0
0
0
0
0
0
0
0
0
0
0
0
0
0
0
0
0
0
0
0
0
0
0
0
0
0
0
0
0
0
0
0
0
0
0
0
0
0
0
0
0
0
0
0
0
0
0
0
0
0
0
0
0
0
0
0
0
0
0
0
0
0
0
0
0
0
0
0
0
0
0
0
0
0
0
0
0
0
0
0
0
0
0
0
0
0
0
0
0
0
0
0
0
0
0
0
0
0
0
0
0
0
0
0
0
0
0
0
0
0
0
0
0
0
0
0
0
0
0
0
0
0
0
0
0
0
0
0
0
0
0
0
0
0
0
0
0
0
0
0
0
0
0
0
0
0
0
0
0
0
0
0
0
0
0
0
0
0
0
0
0
0
0
0
0
0
0.002204485488744898

0.002732630647467967

0
0
0
0
0
0
0
0
0
0
0
0
0
0
0
0
0
0
0
0
0
0
0
0
0
0
0
0
0
0
0
0
0
0
0
0
0
0
0
0
0
0
0
0
0
0
0
0
0
0
0
0
0
0
0
0
0
0
0
0
0
0
0
0
0
0
0
0
0
0
0
0
0
0
0
0
0
0
0
0
0
0
0
0
0
0
0
0
0
0
0
0
0
0
0
0
0
0
0
0
0
0
0
0
0
0
0
0
0
0
0
0
0
0
0
0
0
0
0
0
0
0
0
0
0
0
0
0
0
0
0
0
0
0
0
0
0
0
0
0
0
0
0
0
0
0.002204485488744898

0
0
0
0
0.013226912932469387

0
0
0
0
0
0
0
0
0
0
0
0
0
0
0
0
0
0
0
0
0
0
0
0
0
0
0
0
0
0
0
0
0
0
0
0
0
0
0
0
0
0
0
0
0
0
0
0
0
0
0
0
0
0
0
0
0
0
0
0
0
0
0
0
0
0
0
0
0
0
0
0
0
0
0
0
0
0
0
0
0
0
0
0
0
0
0
0
0
0
0
0
0
0
0
0
0
0
0
0
0
0
0
0
0
0
0
0
0
0
0
0
0
0
0
0
0
0
0
0
0
0
0
0
0
0
0
0
0
0
0
0
0
0
0
0
0
0
0
0
0
0
0
0
0
0
0
0
0
0
0
0
0
0
0
0
0
0
0
0
0
0
0
0
0
0
0
0
0
0
0
0
0
0
0
0.0013467739189851778

0
0
0
0
0
0
0
0
0
0
0
0
0
0
0
0
0
0
0
0
0
0
0
0
0
0
0
0
0
0
0
0
0
0
0
0
0
0
0
0
0
0
0
0
0
0
0
0
0
0
0
0
0
0
0
0
0
0
0
0
0
0
0
0
0
0
0
0
0
0
0
0
0
0
0
0
0
0
0
0
0
0
0
0
0
0
0
0
0
0
0
0
0
0
0
0
0
0
0
0
0
0
0
0
0
0
0
0
0
0
0
0
0
0
0
0
0
0
0
0
0
0
0
0
0
0
0
0
0
0
0
0
0
0
0
0
0
0
0
0
0
0
0
0
0
0
0
0
0
0
0
0
0
0
0
0
0
0
0
0
0
0
0
0
0
0
0
0
0
0
0
0
0
0
0
0
0
0
0
0
0
0
0
0
0
0
0
0
0
0
0
0
0
0
0
0
0
0
0
0
0
0
0
0
0
0
0
0
0
0
0
0
0
0
0
0
0
0
0
0
0
0
0
0
0
0
0
0
0
0
0
0
0
0
0
0
0
0
0
0
0
0
0
0
0
0
0
0
0
0
0
0
0
0
0
0
0
0
0
0
0
0
0
0
0
0
0
0
0
0
0
0
0
0
0
0
0
0
0
0
0
0
0
0.004408970977489796

0
0
0
0
0
0.013226912932469387

0
0
0
0
0
0
0
0
0
0
0
0
0
0
0
0
0
0
0
0
0
0
0
0
0
0
0
0
0
0
0.009363386800929024

0
0
0
0
0
0
0
0
0
0.006613456466234693

0
0
0
0
0
0
0
0
0
0
0
0
0
0
0
0
0
0
0
0
0
0
0
0
0
0
0
0
0
0
0
0
0
0
0
0
0
0
0
0
0
0
0
0
0
0
0
0
0
0
0
0
0
0
0
0
0
0
0
0
0
0.004408970977489796

0.004408970977489796

0
0
0
0
0
0
0
0
0
0
0
0
0
0.002204485488744898

0
0
0
0
0
0
0
0
0
0
0
0
0
0
0
0
0
0
0
0
0
0
0
0.002204485488744898

0
0
0
0
0
0
0
0
0
0
0
0
0
0
0
0
0
0
0
0
0
0
0
0
0
0
0
0
0
0
0
0
0
0
0
0
0
0
0
0
0
0
0
0
0
0
0
0
0
0
0
0
0
0
0
0
0
0
0
0
0
0
0
0
0
0
0
0
0
0
0
0
0
0
0
0
0
0
0
0
0
0
0
0.0037453547203716094

0
0.006613456466234693

0
0
0
0
0
0
0
0
0
0
0
0
0
0
0
0
0
0
0
0
0
0
0
0
0.002204485488744898

0.0037453547203716094

0
0
0.002724442295192745

0.004408970977489796

0.0024181222061352373

0
0
0
0
0.011022427443724489

0
0
0
0
0
0
0
0
0
0
0
0
0
0
0
0
0
0
0
0
0
0
0
0
0
0
0
0
0
0
0
0
0
0
0
0
0
0
0
0
0
0
0
0
0
0
0
0
0
0
0
0
0
0
0
0
0
0
0
0
0
0
0
0
0
0
0
0
0
0
0
0
0
0
0
0
0
0
0
0
0
0
0
0
0
0
0
0
0
0
0
0
0
0
0
0
0
0
0
0
0
0
0
0
0
0
0
0
0
0
0
0
0
0
0
0.0018726773601858047

0
0
0
0
0
0
0
0
0
0
0
0
0
0
0
0
0
0
0
0.005618032080557414

0
0
0
0
0
0
0
0
0
0
0
0
0
0
0
0
0
0
0
0
0
0
0
0
0
0
0
0
0
0
0
0
0
0
0
0
0
0.0018726773601858047

0
0
0
0
0
0
0
0
0
0
0
0
0
0
0
0
0
0
0
0
0
0
0
0
0
0
0.004408970977489796

0
0
0
0
0
0
0
0
0
0
0
0
0
0
0
0
0
0
0
0
0
0
0
0
0
0
0
0
0
0
0
0
0
0
0
0
0
0
0
0
0
0
0
0
0
0
0
0
0
0
0
0
0
0
0
0
0
0
0
0
0
0
0
0
0
0
0
0
0
0
0
0
0
0
0
0
0
0
0
0
0
0
0
0
0
0
0
0
0
0
0
0
0
0
0
0
0
0
0
0
0
0
0
0
0
0
0
0
0
0
0
0
0
0
0
0
0
0
0
0
0
0
0
0
0
0
0
0
0
0
0
0
0
0
0
0
0
0
0
0
0
0
0
0
0
0
0
0
0
0
0
0
0
0.002204485488744898

0
0
0
0
0
0
0
0
0
0
0
0
0
0
0
0
0
0
0
0
0
0
0
0
0
0
0
0
0
0
0
0
0
0
0
0
0
0
0
0
0
0
0
0
0
0
0
0
0
0
0
0
0
0
0
0
0
0
0
0
0
0
0
0
0
0
0
0
0
0
0
0
0
0
0
0
0
0
0
0.011236064161114829

0
0
0
0
0
0
0
0
0
0
0
0
0
0
0
0
0
0
0
0
0
0
0
0
0
0
0
0
0
0
0
0
0
0
0
0
0
0
0
0
0
0
0
0
0
0
0
0
0
0
0
0
0
0
0
0.014981418881486437

0
0
0
0
0
0
0
0
0
0
0
0
0
0
0
0
0
0
0
0
0
0
0
0
0
0
0
0
0
0
0
0
0
0
0
0
0
0
0
0
0
0
0
0
0
0
0
0
0
0
0
0
0
0
0
0
0
0
0
0
0
0
0
0
0
0
0
0
0
0
0
0
0
0
0
0
0
0
0
0
0
0
0
0
0
0
0
0
0
0
0
0
0
0
0.005618032080557414

0
0
0
0
0
0
0
0
0
0
0
0
0
0
0
0
0
0
0
0
0
0
0
0
0
0
0
0
0
0
0
0
0
0
0
0
0
0
0
0
0
0
0
0
0
0
0
0
0
0
0
0
0
0
0
0
0
0
0
0
0
0
0
0
0
0
0
0
0
0
0
0
0
0
0
0
0
0
0
0
0
0
0
0
0
0
0
0
0
0
0
0
0
0
0
0
0
0
0
0
0.011022427443724489

0
0
0
0
0
0
0
0
0
0
0
0
0
0
0
0
0
0
0
0
0
0
0
0
0
0
0
0
0
0
0
0
0
0
0
0
0
0
0
0
0
0.0037453547203716094

0
0
0
0
0
0
0
0
0
0
0.004408970977489796

0
0
0
0
0
0
0
0
0
0
0
0
0
0
0
0
0
0
0
0
0
0
0
0
0
0
0
0
0
0
0
0
0
0
0
0
0
0
0
0
0
0
0
0
0
0
0
0
0
0
0
0
0
0
0
0
0
0
0
0
0
0
0
0
0
0
0
0
0
0
0
0
0
0
0
0
0
0
0
0
0
0
0
0
0
0
0
0
0
0
0
0
0
0
0
0
0
0
0
0
0
0
0
0
0
0
0
0
0
0
0
0
0
0
0
0
0
0
0
0
0
0
0.013226912932469387

0
0
0
0
0
0
0
0
0
0
0
0
0
0
0
0
0
0
0
0
0
0
0
0
0
0
0
0
0
0
0
0
0
0
0.006613456466234693

0.0037453547203716094

0
0
0
0
0
0
0
0
0
0
0
0
0
0
0
0
0
0
0
0
0
0
0
0
0
0
0
0
0
0
0
0
0
0
0
0
0
0
0
0
0
0
0
0
0
0
0
0
0
0
0
0
0
0
0
0
0
0
0
0
0
0
0
0
0
0
0
0
0
0
0
0
0
0
0
0
0
0
0
0
0
0
0
0
0
0
0
0
0
0
0
0
0
0
0
0
0
0
0
0
0
0
0
0
0
0
0
0
0
0
0
0
0
0
0
0
0
0
0
0
0
0
0
0
0
0
0
0
0
0
0
0
0
0
0
0
0
0
0
0
0
0
0
0
0
0
0
0
0
0
0
0
0
0
0
0
0
0
0
0
0
0
0
0
0
0
0
0
0
0
0
0
0
0
0
0
0
0
0
0
0
0
0
0.005618032080557414

0.004408970977489796

0.022044854887448978

0.04849868075238775

0.004408970977489796

0.004408970977489796

0.004408970977489796

0.004408970977489796

0.004408970977489796

0.004408970977489796

0.004408970977489796

0.004408970977489796

0.004408970977489796

0.004408970977489796

0.004408970977489796

0.004408970977489796

0
0.006613456466234693

0.02865831135368367

0.004408970977489796

0.004408970977489796

0.004408970977489796

0.002204485488744898

0.002204485488744898

0.002204485488744898

0.006613456466234693

0.006613456466234693

0
0
0
0
0
0
0
0
0
0
0
0
0
0
0
0
0
0
0
0
0
0
0
0
0
0
0
0
0
0
0
0
0
0
0
0
0
0
0
0
0
0
0
0
0
0
0
0
0
0
0
0
0
0
0
0
0
0
0
0
0
0
0
0
0
0
0
0
0
0
0
0
0
0
0
0
0
0
0
0
0
0
0
0
0
0
0
0
0
0
0
0
0
0
0
0.006613456466234693

0
0
0
0
0
0
0
0
0
0
0
0
0
0
0
0
0.0037453547203716094

0
0
0.014340508729315419

0
0
0
0
0
0
0
0.006613456466234693

0
0
0
0
0
0
0
0
0
0
0
0
0
0
0
0
0
0
0
0
0
0
0
0
0
0
0
0
0
0
0
0
0
0
0
0
0
0
0
0
0
0
0
0
0
0
0
0
0
0
0
0
0
0
0
0
0
0
0
0
0
0
0
0
0
0
0
0.004408970977489796

0.004408970977489796

0
0
0
0
0
0
0
0
0
0
0
0
0
0
0
0
0
0
0
0
0
0
0
0
0
0
0
0
0
0
0
0
0
0
0
0
0
0
0.002204485488744898

0
0
0
0
0
0
0
0
0
0
0
0
0
0
0
0
0
0
0
0
0
0
0
0
0
0
0
0
0
0
0
0
0
0
0
0
0
0
0
0
0
0
0
0
0
0
0
0
0
0
0
0
0
0
0
0
0
0
0
0
0
0
0
0
0
0
0
0.002204485488744898

0
0
0
0
0
0
0
0
0
0
0
0
0
0
0
0
0
0
0
0
0
0
0
0
0
0
0
0
0
0
0
0
0
0
0
0
0
0
0
0
0
0
0
0
0
0
0
0
0
0
0
0
0
0
0
0
0
0
0
0
0
0
0
0
0
0
0
0
0
0
0
0
0
0
0
0
0
0
0
0
0
0
0
0
0
0
0
0
0
0
0
0
0
0
0
0
0
0
0
0
0
0
0
0
0
0
0
0
0
0
0
0
0
0
0
0
0
0
0
0
0
0
0
0
0
0
0
0
0
0
0
0
0.013226912932469387

0
0
0
0
0
0
0
0
0
0
0
0
0
0
0
0
0
0
0
0
0
0
0
0
0
0
0
0
0
0
0
0
0
0
0
0.00924521538976027

0.004408970977489796

0.004408970977489796

0.008817941954979591

0.004408970977489796

0.004408970977489796

0.013226912932469387

0
0
0
0
0
0
0
0
0
0
0
0
0
0
0
0
0
0
0
0
0
0
0
0
0
0
0
0
0
0
0
0
0
0
0
0
0
0
0
0
0
0
0
0
0
0
0
0
0
0
0
0
0
0
0
0
0
0
0
0
0
0
0
0
0
0
0
0
0
0
0
0
0
0
0
0
0
0
0
0
0
0
0
0
0
0
0
0
0
0
0
0
0
0
0
0
0
0
0
0
0
0
0
0
0
0
0
0
0
0
0
0
0
0
0
0
0
0
0
0
0
0
0
0
0
0
0
0
0
0
0
0
0
0
0
0
0
0
0
0
0
0
0
0
0
0
0
0
0
0
0
0
0
0
0
0
0
0.005387095675940711

0
0
0
0
0
0
0
0
0
0
0
0
0
0
0
0
0
0
0
0
0
0
0
0
0
0
0
0
0
0
0
0
0
0
0
0
0
0
0
0
0
0
0
0
0
0
0
0
0
0
0
0
0
0
0
0
0
0
0
0
0
0
0
0
0
0
0
0
0
0
0
0
0
0
0
0
0
0
0
0
0
0
0
0
0
0
0
0
0
0
0
0
0
0
0
0
0
0
0
0
0
0
0
0
0
0
0
0
0
0
0
0
0
0
0
0
0
0
0
0
0
0
0
0
0
0
0
0
0
0
0
0
0
0
0
0
0
0
0
0
0
0
0
0
0
0
0
0
0
0
0
0
0
0
0
0
0
0
0
0
0
0
0
0
0
0
0
0
0
0
0
0
0
0
0
0
0
0
0
0
0
0
0
0
0
0
0
0
0
0
0
0.025178730713164062

0
0
0
0
0
0
0
0
0
0
0
0
0
0
0
0
0
0
0
0
0
0
0
0
0
0
0
0
0
0
0
0
0
0
0
0
0
0
0
0
0
0
0.006714328190177084

0
0
0
0
0
0
0
0
0.004408970977489796

0
0
0
0
0
0
0
0
0
0
0
0
0
0
0
0
0
0
0
0
0
0
0
0
0
0
0
0
0.003357164095088542

0
0
0
0
0
0.004408970977489796

0
0
0
0
0
0
0
0
0
0
0.011022427443724489

0.006613456466234693

0.004408970977489796

0.006613456466234693

0.011022427443724489

0.0028681017458630836

0
0
0
0
0
0
0
0
0
0
0
0
0
0
0
0
0
0
0
0
0
0
0
0
0
0
0
0
0
0
0
0
0
0
0
0
0
0
0
0
0
0
0
0
0
0
0
0
0
0
0
0
0
0
0.008817941954979591

0
0
0
0
0
0
0
0
0
0
0
0
0
0.005736203491726167

0
0
0
0
0
0
0
0
0
0
0
0
0
0
0
0
0
0
0
0
0
0
0
0
0
0
0
0
0
0
0
0
0
0
0
0
0
0
0
0
0
0
0
0
0
0
0
0
0
0
0
0
0
0
0
0
0
0
0
0
0
0
0
0
0
0
0
0
0
0
0
0
0
0
0
0
0
0
0
0
0
0.01849043077952054

0
0.011022427443724489

0.008817941954979591

0
0
0
0
0
0
0
0
0
0
0
0
0
0
0
0
0
0
0
0
0
0
0
0
0
0
0
0
0
0
0
0
0
0
0
0
0
0
0
0
0
0
0
0
0
0
0
0
0
0
0
0
0
0
0
0
0
0
0
0
0
0
0
0
0
0
0
0
0
0
0
0
0
0
0
0
0
0
0
0
0
0
0
0
0
0
0
0
0
0
0
0
0
0
0
0
0
0
0
0
0
0
0
0
0
0
0
0
0
0
0
0
0
0
0
0
0
0
0
0
0
0
0
0
0
0
0
0
0
0
0
0
0
0
0
0
0
0
0
0
0
0
0
0
0
0
0
0
0
0
0
0
0
0.035271767819918365

0.017635883909959182

0
0
0
0
0
0
0
0
0
0
0
0
0
0
0
0
0
0
0
0
0
0
0
0
0
0
0
0
0
0
0
0
0
0
0
0
0
0
0
0
0
0
0
0
0
0
0
0
0
0
0
0
0
0
0
0
0
0
0
0
0
0
0
0
0
0
0
0
0
0
0
0
0
0
0
0
0
0
0
0
0
0
0
0
0
0
0
0
0
0
0
0
0
0
0
0
0
0
0
0
0
0
0
0
0
0
0
0
0
0
0
0
0
0
0
0
0
0
0
0
0
0
0
0
0
0
0
0.005091929223423222

0
0
0
0
0
0
0
0
0
0
0
0
0
0
0
0
0
0
0
0
0
0
0
0
0
0
0
0
0
0
0
0
0
0
0
0
0
0
0
0
0
0
0
0
0
0
0
0
0
0
0
0
0
0
0
0
0
0
0
0
0
0
0
0
0
0
0
0
0
0
0
0
0
0
0
0
0
0
0
0
0
0
0
0
0
0
0
0
0
0
0
0
0
0
0
0
0
0
0
0
0
0
0
0
0
0
0
0
0
0
0
0
0
0
0
0
0
0
0
0
0
0
0
0
0
0
0
0
0
0
0
0
0
0
0
0
0
0
0
0.00924521538976027

0
0
0.004408970977489796

0.004408970977489796

0
0
0
0
0
0
0
0
0
0
0
0
0
0
0
0
0
0
0
0
0
0
0
0
0
0
0
0.015688656157758753

0
0
0
0
0
0
0
0
0
0
0
0
0
0
0
0
0
0
0
0
0
0
0
0
0
0
0
0
0
0
0
0
0
0
0
0
0
0
0
0
0
0
0
0
0
0
0
0
0
0
0
0
0
0
0
0
0
0
0
0
0
0
0
0
0
0
0
0
0
0
0
0
0
0
0
0
0
0
0
0
0
0
0
0
0
0
0
0
0
0.008817941954979591

0
0
0
0
0
0
0
0
0
0
0
0
0
0
0
0
0
0
0
0
0
0
0
0
0
0
0
0
0
0
0
0
0
0
0
0
0
0
0
0
0
0
0
0
0
0
0
0
0
0
0
0
0
0.0016417409555691015

0
0
0
0
0
0
0
0
0
0
0
0
0
0
0
0
0
0
0
0
0
0
0
0
0
0
0
0
0
0
0
0
0
0
0
0
0
0
0
0
0
0
0
0
0
0
0
0
0
0
0
0
0
0
0
0
0
0.003081738463253423

0
0
0.008817941954979591

0.004408970977489796

0
0
0.004408970977489796

0.004408970977489796

0.004408970977489796

0
0.004408970977489796

0
0
0
0
0
0
0
0
0
0
0
0
0
0
0
0
0
0
0
0
0
0
0
0.004408970977489796

0.004408970977489796

0
0
0
0
0
0
0
0
0
0
0
0.004408970977489796

0
0
0
0
0
0
0
0
0
0
0
0
0
0
0
0
0
0
0
0
0
0
0
0
0
0
0
0
0
0
0
0
0
0
0
0
0
0
0
0
0.05071766195936171

0
0
0
0
0
0
0
0
0
0
0
0
0
0
0
0
0
0
0
0
0
0
0
0
0
0
0
0
0
0
0
0
0
0
0
0.007387834300060957

0
0
0
0
0
0
0
0
0
0
0
0
0
0
0
0
0.003081738463253423

0
0
0
0
0
0
0
0
0
0
0
0
0
0
0
0
0
0
0
0
0
0
0
0
0
0
0
0
0
0
0
0
0
0
0
0
0
0.011622797532353726

0
0
0
0
0
0
0
0
0
0
0
0
0
0
0
0
0
0
0
0
0
0
0
0
0
0
0
0
0
0
0
0
0
0
0
0
0
0
0
0
0
0
0
0
0
0
0
0
0
0
0
0
0
0
0
0
0
0
0
0
0
0
0
0
0
0
0
0
0
0
0
0
0
0
0
0
0
0
0
0
0
0
0
0
0
0
0
0
0
0
0
0
0
0.004408970977489796

0.006613456466234693

0.002204485488744898

0
0
0
0
0
0
0
0
0
0
0
0.006613456466234693

0
0
0
0
0
0
0
0
0
0
0
0
0
0
0
0
0
0
0
0
0
0
0
0
0
0
0
0
0
0
0
0
0
0
0
0
0
0
0
0
0
0
0
0
0
0
0
0
0
0
0
0
0
0
0
0
0
0
0
0
0
0
0
0
0
0
0
0
0
0
0
0
0
0
0
0
0
0
0
0
0
0
0
0
0
0
0
0
0
0
0
0
0
0
0
0
0
0
0
0
0
0
0
0
0
0
0
0
0
0
0
0
0
0
0
0
0
0
0
0
0.020599450962043853

0
0
0.0037453547203716094

0
0
0
0
0
0
0
0
0
0.024249340376193876

0
0
0
0
0
0
0
0.004408970977489796

0
0
0
0
0
0
0
0
0
0
0
0
0
0
0
0
0
0
0
0
0
0
0
0
0
0
0
0
0
0
0
0
0
0
0
0
0
0
0
0
0
0
0
0
0
0
0
0
0
0
0
0
0
0
0
0
0
0
0
0
0
0
0
0
0
0
0
0
0
0
0
0
0
0
0
0
0
0
0
0
0
0
0
0
0
0
0
0
0
0
0
0
0
0
0
0
0
0
0
0
0
0
0
0
0
0
0
0
0
0
0
0
0
0
0
0
0
0
0
0
0
0
0
0
0
0
0
0
0
0
0.008817941954979591

0
0
0
0
0
0
0
0
0
0
0
0
0
0
0
0
0
0
0
0
0
0
0
0
0
0
0
0
0
0
0
0
0
0
0
0
0
0
0
0
0
0
0
0
0
0
0
0
0
0
0
0
0
0
0
0
0
0
0
0
0
0
0
0
0
0
0
0
0
0
0
0
0
0
0
0
0
0
0
0
0
0
0
0
0
0
0
0
0
0
0
0
0
0
0
0
0
0
0
0
0
0
0
0
0
0
0
0
0
0
0
0
0
0
0
0
0
0
0
0
0
0
0
0
0
0
0
0
0
0
0
0
0
0
0.0013467739189851778

0
0
0
0
0
0
0
0
0
0
0
0
0
0
0
0
0
0
0
0
0
0
0
0
0
0
0
0
0
0
0
0
0
0
0
0
0
0
0
0
0
0
0
0
0
0
0
0
0
0
0
0
0
0
0
0
0
0
0
0
0
0
0
0
0
0
0
0
0
0
0
0
0
0
0
0
0
0
0
0
0
0
0
0
0
0
0
0
0
0
0
0
0
0
0
0
0
0
0
0
0
0
0
0
0
0
0
0
0
0
0
0
0
0
0
0
0
0
0
0
0
0
0
0
0
0
0
0
0
0
0
0
0
0
0
0
0
0
0
0
0
0
0
0
0
0
0
0
0
0
0
0
0
0
0
0
0
0
0
0
0
0
0
0
0
0
0
0
0
0
0
0
0
0
0
0
0
0
0
0
0
0
0
0
0
0
0
0
0
0
0
0
0
0
0
0
0
0
0
0
0
0
0.017635883909959182

0
0
0
0
0
0
0
0
0
0
0
0
0
0
0
0
0
0
0
0
0.004408970977489796

0.004408970977489796

0
0
0
0
0
0
0
0
0
0
0
0
0
0
0
0
0
0
0
0
0
0
0
0
0
0
0
0
0
0
0
0
0
0
0
0
0
0
0
0
0
0
0
0
0
0
0
0.005618032080557414

0.004408970977489796

0.004408970977489796

0
0
0.002204485488744898

0
0
0
0
0
0
0
0
0
0
0
0
0
0
0
0
0
0
0
0
0
0
0
0
0
0
0
0
0
0
0
0
0
0
0
0
0.008817941954979591

0
0.008817941954979591

0
0.011022427443724489

0.004408970977489796

0
0
0
0
0
0
0
0
0
0
0
0
0
0
0
0
0
0
0
0
0
0
0
0
0
0
0
0
0
0
0
0
0
0
0
0
0
0
0
0
0
0
0
0
0
0
0
0
0
0
0
0
0
0
0
0
0
0
0
0
0
0
0
0
0
0
0
0
0
0
0
0
0
0
0
0
0
0
0
0
0
0
0
0
0
0
0
0
0
0
0.011022427443724489

0
0
0
0
0
0
0
0
0
0
0
0
0
0
0
0
0
0
0
0
0
0
0
0
0
0
0
0
0
0
0
0
0
0
0
0
0
0
0
0
0
0
0
0
0
0
0
0
0
0
0
0
0
0
0
0
0
0
0
0
0
0
0
0.004408970977489796

0.013226912932469387

0.002204485488744898

0
0
0
0.001678582047544271

0
0
0
0
0
0
0
0
0
0
0
0.008817941954979591

0
0
0
0
0
0
0
0
0
0
0
0
0
0
0
0
0
0
0
0
0
0
0
0
0
0
0
0
0
0
0
0
0
0
0
0
0
0
0
0
0
0
0
0
0
0
0
0
0
0.008817941954979591

0
0
0
0
0
0
0
0
0
0
0
0
0
0
0
0
0
0
0
0
0
0
0
0
0
0
0
0
0
0
0
0
0
0
0
0
0
0
0
0
0
0
0
0
0
0
0
0
0
0
0
0
0
0
0
0
0
0
0
0
0
0
0
0
0
0
0
0
0
0
0
0
0
0
0
0
0
0
0
0
0
0
0
0
0
0
0
0
0
0
0
0
0
0
0
0
0
0.006613456466234693

0
0
0
0
0
0
0
0
0
0
0
0
0
0
0
0
0
0
0
0
0
0
0
0
0.008817941954979591

0
0
0
0
0
0
0
0
0
0
0
0
0
0
0
0
0
0
0
0
0
0
0
0
0
0
0
0
0
0
0
0
0
0
0
0
0
0
0
0
0
0
0
0
0
0
0
0
0
0
0
0
0
0
0
0
0
0
0
0
0
0
0
0
0
0
0
0
0
0
0
0
0
0
0.0014340508729315418

0
0
0
0
0
0
0
0
0
0
0
0
0
0
0
0
0
0
0
0
0
0
0
0
0
0
0
0
0
0
0
0
0.007490709440743219

0
0
0
0
0
0
0
0
0
0
0
0
0
0
0
0
0
0
0
0
0
0
0
0
0
0
0
0
0
0
0
0
0
0
0
0
0
0
0
0
0
0
0
0
0
0
0
0
0
0
0.004408970977489796

0
0
0
0
0
0
0
0
0
0
0
0
0
0
0
0
0
0
0
0
0
0
0
0
0
0
0
0
0
0
0
0
0
0
0
0
0.008817941954979591

0
0
0
0
0
0
0
0
0
0
0
0
0
0
0
0
0
0
0
0
0
0
0
0
0
0
0.0037453547203716094

0.004408970977489796

0.006613456466234693

0.004408970977489796

0.035271767819918365

0
0
0
0
0
0
0
0
0
0
0
0
0
0
0
0
0
0
0
0
0
0
0
0
0
0
0
0
0
0
0
0
0
0
0
0
0
0
0
0
0
0
0
0
0
0
0
0
0
0
0
0
0
0
0
0
0
0
0
0
0
0
0
0
0
0
0
0
0
0
0
0
0
0
0
0
0
0
0
0
0
0
0
0
0
0
0
0
0
0
0
0
0
0
0
0
0
0.0028681017458630836

0
0
0
0
0
0
0
0
0
0
0
0
0
0
0
0
0
0
0
0
0
0
0
0
0
0
0
0
0
0
0
0
0
0
0
0
0
0
0
0
0
0
0
0
0
0
0
0
0
0
0
0
0
0
0.0037646967091868504

0
0
0
0
0
0
0
0
0
0
0
0
0
0
0
0
0
0
0
0
0
0
0
0
0
0
0
0
0
0
0
0
0
0
0
0
0
0
0
0
0
0
0
0
0
0
0
0
0
0
0
0
0
0
0
0
0
0
0
0
0
0
0
0
0
0
0
0
0
0
0
0
0
0
0
0
0
0
0
0
0
0
0
0
0
0
0
0
0
0
0
0
0
0
0
0
0
0
0
0
0
0
0
0
0
0
0
0.002204485488744898

0
0
0
0
0
0
0
0
0
0
0
0
0
0
0
0
0
0
0
0
0
0
0
0
0
0
0
0
0
0
0
0
0
0
0
0
0
0
0
0
0
0
0
0.008817941954979591

0
0
0
0
0
0
0
0
0
0
0
0
0
0
0
0
0
0
0
0
0
0
0
0
0
0
0
0
0
0
0
0
0
0
0
0
0
0
0
0
0
0
0
0.006613456466234693

0.004408970977489796

0.004408970977489796

0
0
0
0
0
0
0
0
0
0
0
0
0
0
0
0
0
0
0
0
0
0
0
0
0
0
0
0
0
0
0
0
0
0
0
0
0
0
0
0
0
0
0
0
0
0
0
0
0
0
0
0
0
0
0
0
0
0
0
0
0
0
0
0.0363628958125998

0
0
0
0
0
0
0
0
0
0
0
0
0
0
0
0
0
0
0
0
0
0
0
0
0
0
0
0
0
0
0
0
0
0
0
0
0
0
0
0
0.006714328190177084

0
0
0
0
0
0
0
0
0
0
0
0
0
0
0
0
0
0
0
0
0
0
0
0
0
0
0
0
0
0
0
0
0
0.008817941954979591

0
0
0
0
0
0
0
0
0
0
0
0
0
0
0
0
0
0
0
0
0
0
0
0
0
0
0
0
0
0
0
0
0
0
0
0
0
0
0
0
0
0
0
0
0
0
0
0
0
0
0
0
0
0
0
0
0
0
0
0
0
0
0
0
0
0
0
0
0
0
0
0
0
0
0
0
0
0
0
0
0
0
0
0
0
0
0
0
0
0
0
0
0
0
0.0006409101521710189

0
0
0
0
0
0
0
0
0
0
0
0
0
0
0
0
0
0
0
0
0
0
0
0
0
0
0
0
0
0
0
0
0
0
0.0023053572126872876

0
0.003081738463253423

0
0.0008208704777845508

0
0
0
0
0
0.0005925679061759776

0
0.0009766495110227643

0
0
0
0
0
0
0
0
0
0
0
0
0
0
0
0
0
0
0
0
0
0
0
0
0
0
0
0
0
0
0
0
0
0
0.006613456466234693

0
0
0
0
0
0
0
0
0
0
0
0
0
0
0
0
0
0
0
0
0
0
0
0
0
0
0
0
0
0
0
0
0
0
0
0
0
0
0
0
0
0
0.018726773601858048

0
0
0
0
0
0
0
0
0
0
0
0.0014070617233690203

0
0
0
0
0
0
0
0
0
0
0
0
0
0
0
0
0
0
0
0
0
0
0
0
0
0
0
0
0
0
0
0
0
0
0
0
0
0.0014941577293103574

0
0
0
0
0
0
0
0
0
0
0
0
0
0
0
0
0
0
0
0
0
0
0
0
0
0
0
0
0
0
0
0
0
0
0
0
0
0
0
0
0
0
0
0
0
0
0
0
0
0
0
0
0
0
0
0
0
0
0
0
0
0
0
0
0
0
0
0
0
0
0
0
0
0
0
0
0
0
0
0
0
0
0
0
0
0
0
0
0
0
0
0
0
0
0
0
0
0
0
0
0
0
0
0
0
0
0
0
0
0
0
0
0
0
0
0
0
0
0
0
0
0
0
0
0
0
0.002204485488744898

0
0
0
0
0
0
0
0
0
0
0
0
0
0
0
0
0
0
0
0
0
0
0
0
0
0
0
0
0
0
0
0
0
0
0
0
0
0
0
0
0
0
0
0
0
0
0
0
0
0
0
0
0
0
0
0
0
0
0
0
0
0
0
0
0
0
0
0
0
0
0
0
0
0
0
0
0
0
0
0.0037453547203716094

0
0
0
0
0
0
0
0
0
0
0
0
0
0
0
0
0
0
0
0
0
0
0
0
0
0
0
0
0
0
0
0
0.001678582047544271

0
0
0
0.002204485488744898

0
0
0
0
0
0
0
0
0
0
0
0
0
0
0
0
0
0
0
0
0
0
0
0
0
0.0006267751651430169

0
0
0
0
0
0
0
0
0
0
0
0
0
0
0
0
0
0
0
0
0
0
0
0
0
0
0
0
0
0
0
0
0
0.005618032080557414

0
0
0
0
0
0
0
0
0
0
0
0
0
0
0
0.002204485488744898

0
0
0
0
0
0
0
0
0
0
0
0.0007949886102545002

0
0
0
0
0
0
0
0
0
0
0
0
0
0
0
0
0
0
0
0
0
0
0
0
0
0.001678582047544271

0
0
0
0
0
0
0
0
0
0
0.0003223286516341625

0
0
0
0
0
0
0
0
0
0
0
0
0
0
0
0
0
0
0
0
0
0
0
0.0018726773601858047

0
0
0
0
0
0
0
0
0
0
0
0
0
0
0.0023113038474400676

0
0
0
0
0
0
0
0
0
0
0
0
0
0
0
0
0
0
0
0
0
0
0
0
0
0
0
0
0
0
0
0
0
0
0
0
0
0
0
0
0
0
0
0
0
0.00013678983324164022

0
0
0
0.0008080134708420574

0
0
0
0
0
0
0
0
0
0
0
0.001678582047544271

0
0
0
0
0.0005307145162860753

0
0
0
0
0
0
0
0
0
0
0
0
0
0
0
0
0
0
0
0
0
0
0
0
0
0
0
0
0
0
0
0
0
0
0
0.0018726773601858047

0
0
0
0.006163476926506846

0
0
0
0
0
0
0
0
0
0.0013467739189851778

0
0
0
0
0
0
0
0
0
0
0
0
0
0
0
0
0
0
0
0
0
0
0
0
0
0
0
0
0
0.002204485488744898

0
0
0
0
0
0
0
0
0
0
0
0
0
0
0
0.0007860034007370324

0
0
0
0
0
0
0
0
0
0
0
0
0
0
0
0
0
0.0004152707360960857

0.0010566179574867023

0
0
0
0
0
0
0
0
0
0
0
0
0
0
0
0
0
0
0
0.0020494729856009755

0
0
0
0
0
0
0
0
0
0
0
0
0
0
0
0
0
0
0.002204485488744898

0
0
0
0
0
0
0
0
0
0
0
0.00128931460653665

0
0
0
0
0
0
0
0
0
0
0
0
0
0
0
0
0
0
0
0
0
0
0
0
0
0
0
0.0018823483545934252

0.0014340508729315418

0
0
0
0
0
0
0
0
0
0
0
0
0
0
0
0
0
0
0
0
0
0
0
0
0
0
0
0
0
0
0
0
0
0
0
0
0
0
0
0.0006448413824636714

0
0
0
0
0.002204485488744898

0
0
0
0
0
0
0
0
0
0
0
0
0.0018726773601858047

0
0
0
0
0
0
0
0
0
0
0
0
0
0
0
0
0
0
0
0
0
0
0
0
0
0
0
0
0
0
0
0
0
0
0
0
0
0
0
0
0
0
0.0008482320928347895

0
0.0008482320928347895

0
0
0
0
0
0
0
0
0
0
0
0
0
0
0
0
0
0
0
0
0
0
0
0
0
0
0
0
0
0
0
0
0
0
0
0
0
0
0.0010908896918988653

0.0002288347539219721

0.0006267751651430169

0
0
0.0004890623492254578

0.0071702543646577094

0
0
0
0
0
0
0
0
0
0
0
0
0
0
0
0
0
0
0
0
0
0
0
0
0
0
0
0
0
0
0.004034375122202754

0
0
0
0
0
0
0
0
0.002359736292671391

0
0
0
0
0
0
0
0
0
0
0
0.0013467739189851778

0
0
0
0
0
0
0
0
0
0
0
0
0
0
0
0
0
0
0
0
0
0
0
0
0
0
0
0
0
0
0
0
0
0
0.0015408692316267116

0
0
0
0
0
0
0
0
0
0
0
0
0
0
0
0
0
0
0
0
0
0
0
0
0
0.0005004590983904404

0
0
0.003458035819030931

0
0
0.002359736292671391

0
0
0
0
0
0
0.0013467739189851778

0
0
0
0
0
0
0
0
0
0
0
0
0
0
0
0
0
0
0
0
0
0
0.0010566179574867023

0.001102242744372449

0
0
0
0
0
0
0
0
0
0
0.0009014921396442748

0
0
0
0
0
0
0
0
0
0
0
0
0
0
0
0
0
0
0
0
0
0
0
0
0
0
0.003458035819030932

0.0023053572126872876

0
0.0004890623492254578

0
0
0
0
0
0
0
0
0
0
0
0
0
0.0012729823058558055

0
0
0
0
0
0
0
0
0
0
0
0
0
0
0
0
0
0.0006093660487376197

0
0
0
0
0
0
0
0
0
0
0
0
0
0
0
0
0
0
0
0
0
0
0
0
0
0
0
0
0
0
0
0
0
0
0
0
0
0
0.0011212857649621304

0
0
0.0007470788646551787

0
0
0
0
0
0
0
0
0
0
0
0
0
0
0
0
0
0
0
0
0
0
0
0
0
0
0
0
0
0
0
0
0
0
0
0
0
0
0
0
0
0
0
0
0
0
0
0.0011212857649621304

0
0
0
0
0
0
0
0
0
0
0
0
0
0
0.0026935478379703556

0
0
0
0
0
0
0
0
0
0
0
0
0
0
0
0
0
0
0
0
0
0
0
0
0
0
0
0
0
0
0
0
0
0
0
0.002204485488744898

0
0
0
0
0
0
0
0
0
0
0
0
0
0
0
0
0
0
0
0
0
0
0
0
0
0
0
0
0
0
0
0
0
0
0
0
0
0
0
0
0
0
0
0
0
0
0
0
0
0
0
0
0
0
0
0
0
0
0
0
0
0
0
0
0
0
0
0
0
0
0
0
0
0
0
0
0
0
0
0
0
0
0
0
0
0
0
0.0007704346158133558

0
0
0
0
0
0
0
0
0.001678582047544271

0
0
0
0
0
0.006613456466234693

0
0
0
0
0
0
0
0.002204485488744898

0
0.0013467739189851778

0
0
0
0
0
0
0
0.0009766495110227643

0
0
0
0
0
0
0
0
0
0
0
0
0
0
0
0
0
0
0
0
0
0
0
0
0
0
0
0
0
0
0
0
0
0
0
0
0
0
0
0
0
0
0
0
0
0
0.0009263609633908145

0
0
0
0
0
0
0
0
0
0
0
0
0
0
0
0
0
0
0
0
0
0
0
0
0
0
0
0
0
0
0
0
0
0
0
0
0
0
0
0
0
0
0
0
0
0
0
0
0
0
0
0
0
0
0
0
0
0
0
0
0
0
0
0
0.002204485488744898

0
0
0
0
0
0.004610714425374575

0
0.00034147912296671364

0
0
0
0
0
0
0
0
0
0
0
0.001956249396901831

0
0
0.000663616257118186

0
0
0
0
0
0
0.004645313799827302

0.005014439621926705

0
0
0
0
0
0
0
0
0
0
0
0
0
0
0
0
0
0
0
0
0
0
0
0
0.035851271823288546

0
0
0
0
0
0
0
0
0
0
0
0
0
0
0
0
0
0
0
0
0
0
0.005618032080557414

0
0
0
0
0
0
0
0
0
0
0
0
0
0
0
0
0
0
0.0006267751651430169

0.0007248098289276091

0
0
0
0
0
0
0
0
0
0
0
0
0
0
0
0
0.00024453117461272893

0
0
0
0
0
0
0
0
0.00043862648725426283

0
0
0
0
0
0
0
0
0
0
0
0
0
0
0
0
0
0
0
0
0
0
0
0
0
0
0
0
0
0
0
0
0
0
0
0
0
0
0
0
0
0
0
0
0
0
0
0
0
0
0
0
0
0
0
0
0
0
0
0
0
0
0
0.001678582047544271

0
0
0
0
0.002204485488744898

0
0
0
0
0
0
0
0
0
0
0
0
0
0
0
0
0
0
0
0
0
0
0
0
0
0
0
0
0
0
0
0
0
0
0
0
0
0
0
0
0
0
0
0
0
0
0
0
0
0
0
0
0
0
0
0
0
0
0
0
0.002204485488744898

0
0
0
0
0
0
0
0.0026935478379703556

0
0.0036271833092028564

0
0
0
0
0
0
0
0
0
0
0
0
0
0
0
0
0
0
0
0
0
0
0
0.003081738463253423

0
0
0
0
0
0
0
0
0
0
0
0
0
0
0
0
0
0
0
0
0
0
0
0.0006829582459334273

0
0
0
0
0.0018162948634618298

0.0011102316807141065

0.0013467739189851778

0
0
0
0
0
0
0
0
0
0
0
0
0
0
0
0
0
0
0
0
0
0.0015076430701273494

0
0
0
0
0
0
0
0
0
0
0
0
0
0
0
0
0
0
0
0
0
0
0
0
0
0
0
0
0
0
0
0
0
0
0
0
0
0
0.001990848771354558

0
0
0
0.0003223286516341625

0
0
0
0.0012729823058558055

0
0
0
0
0
0
0
0
0
0
0
0
0
0
0
0.0014340508729315418

0
0
0
0
0.0004040067354210287

0
0
0
0
0
0
0.002204485488744898

0
0
0.0013467739189851778

0
0
0
0
0
0
0
0
0
0
0
0
0
0
0
0
0
0
0
0
0
0
0
0
0.0004507460698221374

0
0
0
0
0
0
0
0
0
0
0
0
0
0
0
0
0
0
0
0
0
0
0
0
0
0
0
0
0
0.002204485488744898

0
0
0
0
0
0
0
0
0
0
0
0.00017073956148335682

0
0
0
0
0
0
0
0
0
0
0
0
0
0
0
0
0
0
0
0
0
0
0
0
0
0
0
0
0
0
0.0013467739189851778

0
0
0
0
0
0
0
0
0
0
0
0
0
0
0
0
0
0
0
0
0
0
0
0
0
0
0
0
0
0
0
0
0
0
0
0
0
0
0
0
0
0.0012729823058558055

0
0
0
0.0003717227331254171

0
0
0
0
0
0
0
0
0
0
0.0008208704777845508

0.002204485488744898

0
0.0009081474317309149

0
0
0
0
0
0.0015408692316267116

0
0
0
0
0
0
0
0
0
0
0
0
0
0
0
0
0
0
0
0
0
0
0
0
0
0
0
0
0
0
0
0
0
0
0
0
0
0
0
0
0
0
0
0
0
0
0
0
0
0
0
0
0
0
0
0
0
0
0
0
0.0015408692316267116

0.0012729823058558055

0
0
0
0.0007949886102545002

0
0
0
0
0
0
0
0
0
0
0
0
0
0
0
0
0
0
0
0
0
0
0
0
0
0
0
0.0007949886102545002

0
0.0007949886102545002

0
0
0
0
0.0008482320928347895

0.003081738463253423

0
0
0
0
0
0
0
0
0
0
0
0
0
0
0
0
0
0
0
0
0
0
0
0
0
0
0
0
0
0
0
0
0
0
0
0.0026935478379703556

0
0
0
0
0
0
0
0
0.0010149657904260847

0
0
0
0
0
0
0
0.0019532990220455285

0.0006448413824636714

0
0
0
0
0
0
0
0
0
0
0.002204485488744898

0
0
0
0
0
0
0
0
0
0
0
0
0
0
0
0
0.0015408692316267116

0
0
0
0
0
0
0
0
0
0
0
0.0007704346158133558

0
0
0
0
0
0
0
0
0.0012090611030676187

0
0
0
0
0
0
0
0
0
0
0
0
0.0006093660487376197

0
0.0012729823058558055

0
0
0
0
0
0
0
0
0
0
0
0
0
0
0
0
0
0
0
0
0
0
0
0
0
0
0
0
0
0
0
0
0
0
0
0.008091090783554685

0
0
0
0
0.0006448413824636714

0.0004152707360960857

0
0
0
0
0
0
0
0
0
0
0.0009766495110227643

0
0
0
0
0
0
0
0
0
0
0
0
0
0
0
0
0.0018726773601858047

0
0
0
0.0011851358123519552

0
0.001102242744372449

0
0
0
0
0
0
0
0
0
0
0
0
0
0
0
0
0
0
0
0
0
0
0
0
0
0
0
0
0
0
0
0
0
0
0
0
0
0
0
0
0
0
0
0
0
0
0
0
0
0.0007704346158133558

0
0
0
0
0
0
0
0
0
0
0
0
0
0
0
0
0
0
0
0
0
0
0
0
0
0
0
0
0
0
0
0
0
0
0
0
0
0.0032422633718678508

0
0
0
0
0
0
0
0
0
0
0
0
0
0
0
0
0
0
0
0
0
0
0
0
0
0
0
0
0
0.004408970977489796

0
0
0
0
0
0
0
0
0
0
0
0
0
0
0
0
0
0
0
0
0.004408970977489796

0
0.0006448413824636714

0
0
0
0
0
0
0.001152678606343644

0
0
0
0
0
0
0
0
0
0
0
0
0.0010566179574867023

0.0023053572126872876

0
0
0
0
0
0
0
0
0
0
0.000663616257118186

0
0
0
0
0
0
0
0.000663616257118186

0
0
0
0
0
0
0
0
0
0
0
0
0
0
0
0
0
0
0
0
0
0
0
0
0
0
0
0
0
0
0
0
0.002204485488744898

0
0.002204485488744898

0
0
0
0
0
0
0.0008482320928347895

0
0
0
0
0
0
0
0.0017117182222891024

0
0
0
0
0
0
0
0
0
0
0
0
0
0
0
0
0
0
0
0
0.0008482320928347895

0
0
0
0
0
0
0
0
0
0
0
0
0
0
0
0
0
0
0
0
0
0
0
0
0
0
0
0
0
0
0
0
0
0
0
0
0
0
0
0
0
0
0
0
0
0
0
0
0
0
0.0013467739189851778

0.0006831576618669918

0
0
0
0
0
0
0
0
0
0
0
0
0
0.0018726773601858047

0
0.0008772529745085257

0
0
0
0
0
0
0
0
0
0
0
0
0
0
0
0.0014340508729315418

0
0.0009081474317309149

0
0.0010050953800848997

0
0
0.0007470788646551787

0
0
0
0
0
0
0
0
0
0.0006093660487376197

0
0
0
0
0
0
0
0
0
0
0
0
0
0
0
0
0
0
0
0
0
0
0
0
0
0
0
0
0
0
0
0
0
0
0
0
0
0
0
0
0
0
0
0
0
0
0
0
0
0.0015408692316267116

0
0
0
0
0
0.0006829582459334273

0.0005004590983904404

0
0
0
0
0
0
0
0
0.0008208704777845508

0
0
0
0
0
0
0
0
0
0
0
0
0
0
0
0
0
0.0007949886102545002

0
0
0
0
0
0
0
0
0
0.0008772529745085257

0
0
0
0
0
0
0
0
0
0
0
0
0
0
0
0
0
0
0
0
0
0
0
0
0
0
0
0.0005328822614516495

0
0
0
0
0
0
0
0
0.000738463342866414

0
0
0
0
0.0036271833092028564

0
0
0
0.002545964611711611

0
0.003081738463253423

0
0
0
0
0
0
0.0010149657904260847

0
0
0
0
0
0
0
0.0010566179574867023

0
0
0
0
0
0
0
0
0
0
0
0
0
0
0
0
0
0
0
0
0
0
0
0
0
0
0
0
0
0
0
0
0
0
0
0
0
0
0
0
0
0
0
0
0
0
0
0
0.001102242744372449

0
0
0
0
0
0
0
0
0
0
0
0
0
0
0
0
0
0
0
0
0
0
0
0
0
0
0
0
0
0
0
0
0
0
0
0
0
0
0.0020200336771051437

0
0
0
0
0
0
0
0
0
0
0
0
0
0
0
0
0
0
0
0
0
0
0
0
0
0
0
0
0
0
0
0
0
0
0
0
0
0
0
0
0
0
0
0
0
0
0
0
0
0
0
0
0
0
0
0
0
0
0
0
0
0
0
0
0
0
0
0
0
0
0
0
0
0
0
0
0.0006093660487376197

0
0
0
0
0
0
0
0
0
0
0
0
0
0
0
0
0
0
0
0
0
0
0
0
0
0
0
0
0.0008482320928347895

0
0
0
0
0
0
0
0
0
0
0.00046318048169540724

0
0
0
0
0
0.0018726773601858047

0
0.006779754218039

0
0
0
0
0
0
0
0
0
0
0
0
0
0
0
0
0
0
0
0
0
0
0
0
0
0
0
0
0
0
0.0034147912296671364

0
0
0
0
0
0
0
0
0
0
0
0
0
0
0
0
0
0
0
0
0
0
0
0
0
0
0
0
0
0
0
0
0
0
0
0
0
0
0.0007470788646551787

0
0
0
0
0
0
0
0
0
0
0
0
0
0
0
0
0
0
0
0
0
0.004302152618794626

0.004836244412270475

0
0
0
0
0
0
0
0
0
0
0
0
0
0
0
0
0
0
0
0
0
0
0
0
0
0.0050357461426328125

0
0
0
0
0
0
0
0
0
0
0
0
0
0
0
0
0
0
0
0
0
0
0
0.0005454448459494326

0
0
0
0
0
0
0
0
0
0
0
0
0
0
0
0
0
0
0
0
0
0
0
0
0
0
0
0
0.0010566179574867023

0
0
0
0
0
0
0
0
0
0
0
0
0
0
0
0
0
0
0
0
0
0
0.002545964611711611

0
0
0
0
0
0
0
0
0
0
0
0
0
0
0
0
0
0
0
0
0
0
0
0
0.0009411741772967126

0
0
0
0
0
0
0
0
0
0
0
0
0
0
0
0
0
0
0
0
0
0
0
0
0
0
0
0
0
0
0
0
0
0
0
0
0
0
0
0
0
0
0
0
0
0
0
0
0
0
0
0
0
0
0
0
0.002204485488744898

0
0
0
0
0
0
0
0
0
0
0
0
0
0.002204485488744898

0.00015473591052192988

0
0
0
0
0
0
0
0
0
0
0
0
0
0
0
0
0
0
0
0
0
0
0
0
0
0
0
0
0
0
0
0
0
0
0
0
0
0
0
0
0
0
0
0
0
0
0
0
0
0
0
0
0
0
0
0
0
0
0
0
0
0
0
0
0
0
0
0
0
0
0
0
0
0
0
0
0
0
0
0
0
0
0
0
0
0.00043862648725426283

0
0
0
0
0
0
0
0
0
0
0
0
0
0
0
0
0
0
0
0.0009081474317309149

0
0
0
0
0
0
0
0
0
0
0
0
0
0.0008772529745085257

0
0
0
0
0
0
0
0
0
0
0
0
0
0
0
0
0
0
0
0
0
0
0
0
0
0
0
0
0
0
0
0.0011526786063436438

0
0
0
0
0
0
0
0.0014340508729315418

0
0
0
0
0
0
0
0
0
0
0
0
0
0
0
0
0
0
0
0
0
0
0
0
0
0
0
0
0
0
0
0
0
0
0
0
0
0
0
0
0
0
0
0
0
0
0
0
0
0
0
0
0
0
0
0
0
0
0
0
0
0
0
0
0
0
0
0
0
0
0
0
0
0
0
0
0
0
0
0
0
0
0
0
0
0
0
0
0
0
0
0
0
0
0
0
0
0
0
0
0
0
0
0
0
0
0
0
0
0.001678582047544271

0
0
0
0
0
0
0
0
0
0
0
0
0
0
0
0.001102242744372449

0
0
0
0
0
0
0
0
0
0
0
0
0
0
0
0
0
0
0
0
0
0
0
0
0
0
0
0
0.0016417409555691015

0
0.0018726773601858047

0
0
0
0
0
0
0
0
0
0
0
0
0
0
0
0
0
0
0
0
0
0
0.002204485488744898

0
0
0.001102242744372449

0
0
0
0
0
0
0
0
0
0
0
0
0
0
0
0
0
0
0
0
0
0
0
0
0
0
0
0
0
0
0
0
0
0
0
0
0
0
0
0
0
0
0
0
0.0015408692316267116

0
0
0
0.002204485488744898

0
0
0
0
0
0
0
0
0
0
0
0
0
0
0
0
0.001678582047544271

0
0
0
0
0
0
0
0
0
0
0
0
0
0
0
0
0
0
0
0
0
0
0
0
0
0
0
0
0
0
0
0
0
0
0
0
0
0
0
0
0
0
0
0
0
0
0
0
0
0
0
0
0
0
0
0
0
0
0
0.003081738463253423

0
0
0
0
0
0
0
0
0
0
0
0
0
0
0
0
0
0
0
0
0
0
0
0
0
0
0
0
0
0
0
0
0
0
0
0
0
0
0
0
0
0
0
0
0
0
0
0
0
0
0
0
0
0
0
0
0
0
0
0
0
0.0003930017003685162

0
0
0
0
0
0
0
0
0
0
0
0
0
0
0
0
0
0
0
0
0
0
0
0
0
0
0
0
0
0
0
0
0
0
0
0
0
0
0.002204485488744898

0
0
0
0
0
0
0
0
0
0
0
0
0
0
0
0
0
0
0
0
0
0
0
0
0
0
0
0
0
0
0
0
0
0
0
0
0
0
0
0
0
0
0
0
0
0
0
0
0
0
0
0
0
0
0
0
0
0
0
0
0
0
0
0
0
0
0
0
0
0
0
0
0
0
0
0
0
0
0
0
0
0
0
0
0
0
0
0
0
0
0
0
0
0
0
0
0
0.0012535503302860337

0
0
0
0
0
0
0
0
0
0
0
0
0
0
0.002204485488744898

0
0
0
0
0
0
0
0
0
0
0
0
0
0
0
0
0.0009518930333593747

0
0
0
0
0
0
0
0
0.001144733366693385

0
0
0
0
0
0
0
0
0
0
0
0
0
0
0
0
0
0
0
0
0
0
0
0
0
0
0
0
0
0
0
0
0
0
0
0
0
0
0.0007061020675967294

0
0
0
0
0
0
0
0
0
0
0
0
0
0
0
0
0
0
0
0
0.001678582047544271

0
0
0
0.0018726773601858047

0
0.00038341557357312147

0
0
0
0.0006831576618669918

0
0
0
0
0
0
0
0
0
0
0
0
0
0
0
0
0
0.0012090611030676187

0.001678582047544271

0
0
0
0
0
0
0
0
0
0
0
0
0
0
0
0
0
0
0
0
0
0
0
0
0
0
0
0
0
0
0
0.0008772529745085257

0
0
0
0
0
0
0.002724442295192745

0
0
0
0
0
0
0
0
0
0
0
0
0.0012187320974752394

0
0
0
0
0.00047594651667968736

0
0
0
0
0
0
0
0
0
0
0
0
0
0
0
0
0
0
0
0
0
0
0
0
0
0
0
0
0
0
0
0
0
0
0.0006093660487376197

0
0
0
0
0
0
0
0
0
0
0
0
0
0
0
0
0
0
0
0
0
0
0
0
0
0
0
0
0
0
0.0015408692316267116

0
0
0
0
0
0.00047323726358523713

0
0
0
0
0
0
0
0
0
0
0
0
0
0
0
0
0
0
0
0
0
0
0
0
0
0
0.0008208704777845508

0
0
0
0
0
0
0
0
0.0015408692316267116

0
0
0
0
0
0
0
0
0
0
0
0
0
0
0
0
0
0
0
0
0
0
0
0
0
0
0
0
0
0
0
0
0
0
0.0006260665078091566

0
0
0
0
0
0
0
0
0
0.0005925679061759776

0
0
0
0.0007577301226649668

0
0
0
0
0
0
0
0
0
0
0
0
0
0
0.0005164239642756965

0
0
0
0
0
0
0
0
0
0
0
0
0
0
0.0018823483545934252

0
0
0
0
0
0
0
0.002204485488744898

0
0
0
0
0
0.0010149657904260847

0
0
0
0
0
0
0
0
0
0
0
0
0
0
0.0018726773601858047

0
0.0009411741772967126

0
0
0
0
0
0
0
0
0
0
0
0
0
0
0
0
0
0
0
0
0
0
0
0
0
0
0
0
0
0
0
0
0
0
0
0
0
0
0
0
0
0
0
0
0
0
0
0
0
0
0
0
0
0
0
0
0
0
0
0
0
0
0
0
0
0
0
0
0
0
0.0018726773601858047

0
0
0
0
0
0
0
0
0
0
0.002122858065144301

0
0
0
0
0
0
0.002204485488744898

0
0
0
0
0
0
0
0.0006267751651430169

0
0.002204485488744898

0
0
0
0
0
0
0
0
0.0018726773601858047

0
0
0
0
0
0.0013467739189851778

0
0
0
0
0
0
0
0
0.001678582047544271

0
0
0
0
0
0
0
0
0.002204485488744898

0
0
0
0
0
0
0
0
0
0
0
0
0
0
0
0
0
0
0
0
0
0
0
0
0
0
0
0
0
0
0
0.002204485488744898

0
0
0
0
0
0
0
0
0
0
0
0
0
0
0.0005967191631809465

0
0
0
0
0
0
0
0
0
0
0
0
0
0
0
0
0
0
0
0
0
0
0
0
0
0
0
0.002204485488744898

0
0.0028681017458630836

0
0
0
0
0
0
0
0
0
0
0
0
0
0
0
0
0
0
0
0
0
0
0
0
0
0
0
0
0
0
0
0
0
0
0.0007949886102545002

0
0
0
0
0
0
0
0.001102242744372449

0
0
0
0
0
0
0
0
0
0
0.0003978127754539644

0
0
0
0
0
0
0
0
0
0
0
0
0
0
0.00038341557357312147

0
0
0
0
0
0.0009411741772967126

0
0
0
0
0
0
0
0.0012729823058558055

0
0
0
0
0
0
0
0
0
0
0
0
0
0
0
0
0
0
0
0.0016417409555691015

0
0
0.001475544653193386

0
0.001659040642795465

0
0
0
0
0
0.001678582047544271

0
0
0
0
0
0
0
0
0
0
0
0
0
0
0
0
0
0
0
0
0
0
0
0
0
0
0
0
0
0
0
0
0
0
0
0
0
0
0
0
0
0
0
0
0
0.002204485488744898

0
0
0
0
0
0
0
0
0
0
0
0
0
0
0
0
0
0
0
0
0
0
0
0
0
0
0
0
0
0
0
0
0
0
0
0
0
0
0
0.000663616257118186

0
0
0.0007026990666157975

0
0
0
0
0
0
0
0
0
0
0.0007035308616845102

0
0
0
0
0
0
0
0
0
0
0
0
0
0
0
0
0
0
0
0
0
0
0
0
0.0009411741772967126

0
0
0
0
0
0
0
0
0
0.001852721926781629

0
0
0
0
0
0
0
0
0
0.0037453547203716094

0
0
0
0
0
0
0
0.0014340508729315418

0
0.0007704346158133558

0
0
0
0
0
0
0
0
0.0007470788646551787

0
0
0.001678582047544271

0
0
0
0
0
0
0
0
0
0
0
0
0
0
0
0
0
0
0
0
0
0.000663616257118186

0
0
0
0
0
0
0
0.0005254894125452568

0
0.0021132359149734045

0
0
0
0
0
0
0
0
0
0
0
0
0
0
0
0
0
0
0
0
0
0
0
0
0
0
0.0010566179574867023

0
0
0
0
0
0
0
0
0
0
0
0
0
0
0
0.00043862648725426283

0.004408970977489796

0
0
0
0
0
0
0
0
0.0014941577293103574

0
0
0
0
0
0
0
0
0
0.004408970977489796

0
0
0
0
0
0
0
0
0
0
0
0
0.001144733366693385

0.002358010202211097

0
0
0
0
0
0
0
0
0
0
0
0
0
0
0
0
0
0
0
0
0
0
0
0
0
0
0
0
0
0
0
0
0
0.0015899772205090004

0
0
0
0
0
0
0
0.000663616257118186

0
0
0
0
0
0
0
0
0
0
0
0.0020299315808521693

0
0
0
0.0012804185533036624

0
0
0
0
0
0
0
0
0
0
0
0
0
0
0
0
0
0
0
0
0
0
0
0
0
0
0
0
0
0
0.0015408692316267116

0
0
0
0
0
0
0
0
0
0.002204485488744898

0
0.0011526786063436438

0
0
0
0
0
0
0
0
0
0
0
0
0
0
0
0
0
0
0
0.0018726773601858047

0
0
0
0
0
0
0
0
0
0
0
0
0
0
0
0
0.0012090611030676187

0
0
0
0.0003930017003685162

0
0
0
0
0
0
0
0
0.0014340508729315418

0
0
0
0
0
0
0
0
0
0
0.0013467739189851778

0
0
0
0
0
0
0
0
0
0
0
0
0
0
0
0
0
0
0
0
0
0
0
0
0
0
0
0
0
0.002315902408477036

0
0
0
0
0
0
0
0
0
0
0
0
0
0
0
0
0
0
0
0
0
0
0.000382243990530288

0.0012729823058558055

0
0
0
0
0
0
0
0
0
0
0
0
0
0.0008772529745085257

0
0
0
0
0
0
0
0
0
0
0.001102242744372449

0
0
0
0.0023113038474400676

0
0
0
0
0
0
0
0
0
0
0
0
0
0
0
0
0
0
0
0
0
0
0
0
0
0
0.0007470788646551787

0
0
0
0.0009081474317309149

0.0009081474317309149

0
0
0
0
0
0
0
0
0
0
0
0
0
0
0
0
0
0
0
0
0
0
0
0
0
0
0
0
0
0
0.0050357461426328125

0
0
0
0
0
0
0
0
0.002204485488744898

0
0
0
0
0
0
0
0.006613456466234693

0
0
0.0008208704777845508

0
0
0
0
0
0
0
0
0
0
0
0
0
0
0
0
0
0
0
0
0
0
0
0
0
0.0026317589235255773

0
0
0
0
0
0
0
0
0
0
0
0
0
0
0
0
0
0.0009411741772967126

0.0009411741772967126

0
0.0008072555071616198

0
0
0.0006448413824636714

0
0
0
0
0
0.0065056996251817096

0
0
0
0
0
0.003357164095088542

0
0
0
0
0
0
0
0
0
0
0
0
0
0
0
0
0.002204485488744898

0
0
0
0.0007035308616845102

0
0
0
0
0
0
0
0
0
0
0
0
0
0
0
0
0
0
0.003098543785654179

0
0
0
0
0
0
0
0
0
0
0
0
0
0.00924521538976027

0
0
0
0
0
0
0
0
0
0
0
0
0
0
0
0
0
0
0
0
0
0
0
0
0
0
0
0
0
0.002204485488744898

0
0
0
0
0
0
0
0
0
0
0
0
0
0
0
0
0
0
0
0
0
0
0
0.0004918482177311286

0
0
0
0
0
0
0
0
0
0
0
0
0
0
0
0
0
0
0
0
0
0
0
0
0
0
0
0
0
0
0
0
0
0
0
0
0
0
0
0
0
0
0
0
0
0
0
0
0
0
0
0
0
0
0
0
0
0
0
0.002204485488744898

0
0
0
0
0
0.0018726773601858047

0
0
0
0
0
0.0010566179574867023

0
0
0
0
0
0
0
0
0
0
0
0
0
0
0
0
0
0
0
0
0
0
0
0
0
0
0
0
0
0
0
0
0
0
0
0
0
0
0
0
0
0
0
0
0
0
0
0
0
0
0.0011526786063436438

0
0
0
0
0
0
0
0
0
0
0
0
0
0
0
0
0
0
0
0
0
0
0
0
0
0
0
0
0
0
0
0
0
0
0
0
0
0
0
0
0
0
0
0
0
0
0
0
0
0
0
0
0
0
0
0
0
0
0
0
0
0
0
0
0
0
0
0
0
0
0.0018726773601858047

0
0
0
0
0
0
0
0
0
0
0
0
0
0
0
0
0
0
0
0
0
0
0
0
0
0
0
0
0
0.0010149657904260847

0
0
0
0
0
0
0
0
0
0
0
0
0
0
0
0
0
0
0
0
0.003974943051272501

0
0
0
0
0
0
0
0
0
0
0
0
0
0
0.0011526786063436438

0
0
0
0
0
0
0
0
0
0
0
0
0
0
0
0
0
0
0
0
0
0
0
0
0
0
0
0
0
0
0
0
0
0
0.000331808128559093

0
0
0
0
0
0
0.002204485488744898

0
0
0
0.0009411741772967126

0
0
0
0
0
0
0
0
0
0
0
0
0
0
0
0
0
0
0
0
0
0
0
0
0
0
0
0
0
0
0
0
0
0
0
0
0
0
0
0
0.0009081474317309149

0
0
0
0
0
0
0
0
0
0
0
0
0
0
0
0
0
0
0
0
0
0
0
0
0
0
0
0
0
0
0
0
0
0
0
0
0
0
0
0
0
0
0
0
0
0
0
0
0
0
0
0.0018726773601858047

0
0
0
0
0
0
0
0
0
0
0
0
0
0
0
0
0
0
0
0
0
0
0
0
0
0.0007248098289276091

0
0
0
0
0
0
0
0
0
0
0
0
0
0
0
0
0
0
0
0
0.001678582047544271

0
0
0
0
0
0
0
0
0
0
0
0
0
0
0
0.010038356110520792

0
0
0
0
0
0
0
0
0
0
0
0
0.0015408692316267116

0.0018726773601858047

0
0
0
0
0
0
0
0
0
0
0
0
0
0
0
0
0
0
0
0
0
0
0
0
0
0.0010149657904260847

0
0
0
0
0
0
0
0
0
0
0
0
0
0
0
0
0
0
0
0
0
0
0
0
0
0
0
0
0
0
0
0
0
0
0.0019532990220455285

0
0
0
0
0
0
0
0
0
0
0.001729017909515466

0
0
0
0
0
0.0019037860667187494

0
0
0.001678582047544271

0
0
0
0
0
0
0
0
0
0
0
0
0
0
0
0
0
0
0
0
0
0
0
0
0
0
0
0
0
0
0
0
0
0
0
0
0
0
0
0
0
0
0
0
0
0
0
0
0
0
0
0
0
0
0
0
0
0
0
0
0.0010566179574867023

0
0.0006267751651430169

0
0
0
0
0
0
0.001102242744372449

0
0
0
0
0
0
0
0
0
0
0
0
0
0
0
0
0
0.0024104221720608917

0
0.005158731059709371

0
0
0
0
0
0
0.0007026990666157975

0
0
0
0
0
0
0
0
0
0
0
0
0
0
0
0
0
0
0
0
0
0
0
0
0
0
0.0005967191631809465

0
0
0
0
0
0
0
0
0
0.0008208704777845508

0.0013659164918668545

0
0
0
0
0
0
0
0
0
0
0
0
0
0
0
0
0
0.0012896827649273427

0
0
0
0
0
0
0
0
0
0.0009411741772967126

0
0
0
0
0
0
0.002204485488744898

0
0
0
0
0
0
0
0
0
0
0
0
0
0
0
0
0
0
0
0
0
0
0.0010149657904260847

0
0
0
0
0.0014340508729315418

0
0
0.0004152707360960857

0
0
0
0.0011526786063436438

0
0.0018726773601858047

0
0
0
0
0
0
0
0
0
0
0
0
0
0
0
0
0
0
0
0.0007470788646551787

0
0
0
0
0.0014340508729315418

0
0
0
0
0
0
0
0
0
0
0
0
0
0
0
0
0
0
0
0
0
0
0
0
0
0
0.002204485488744898

0
0
0.0013467739189851778

0
0
0
0
0
0
0
0
0.016116409763861

0
0
0
0
0
0
0
0
0
0
0
0
0
0
0
0
0
0
0
0
0
0
0.002204485488744898

0
0
0
0
0
0
0
0
0
0.0013467739189851778

0
0
0
0
0.0005454448459494326

0
0
0
0
0
0
0
0
0
0
0
0
0.0018726773601858047

0
0
0.0017171000500400778

0
0
0
0.0018726773601858047

0
0
0
0
0.0006093660487376197

0
0
0
0.0008482320928347895

0
0
0
0
0
0
0
0
0
0
0
0
0
0
0
0.0007470788646551787

0
0
0
0
0.004408970977489796

0
0
0
0
0
0
0
0
0
0
0
0
0
0
0
0
0
0
0
0
0
0
0
0
0
0
0
0
0
0
0
0
0
0
0
0
0
0
0
0
0
0
0
0
0.0014340508729315418

0
0
0
0
0
0
0
0
0
0
0
0
0
0
0
0
0
0.0010149657904260847

0
0.0008772529745085257

0.001212020206263086

0
0
0
0
0
0.0026935478379703556

0
0
0
0
0
0
0
0
0
0
0
0
0
0.0013467739189851778

0
0
0
0
0
0
0
0
0
0.0011526786063436438

0
0
0
0
0
0
0
0
0
0
0
0
0
0
0
0
0
0
0
0
0
0
0
0
0
0
0
0
0
0
0
0
0
0
0
0
0
0
0
0
0
0
0
0
0
0
0
0
0
0
0
0
0
0
0
0
0
0
0
0
0
0
0
0
0
0
0
0
0
0
0
0
0
0
0
0
0
0
0
0
0
0
0
0
0
0
0
0
0
0
0
0
0
0
0
0
0
0
0
0
0.0012729823058558055

0
0
0
0
0
0
0
0
0
0
0
0
0
0
0
0.006613456466234693

0
0
0
0
0
0
0
0
0
0
0.002204485488744898

0
0
0
0.0007248098289276091

0
0
0.0009411741772967126

0.001327232514236372

0
0
0
0.0012729823058558055

0
0
0
0
0
0
0
0
0
0
0
0.0015408692316267116

0
0
0.0012535503302860337

0
0
0
0
0
0.0028681017458630836

0
0
0
0
0
0
0.0012729823058558055

0
0
0
0
0
0
0
0
0
0
0
0
0
0
0
0
0
0
0
0
0
0
0
0
0
0.0005025476900424498

0.0004152707360960857

0
0
0
0
0.006331777755160591

0
0
0
0
0
0
0
0
0
0
0
0
0
0.0025042660312366264

0
0
0
0
0
0
0
0
0
0
0
0.000663616257118186

0
0
0
0
0
0
0
0
0
0
0
0
0
0
0
0
0
0
0
0
0
0
0
0
0.0010149657904260847

0
0.0007704346158133558

0
0
0
0
0
0
0
0
0
0
0
0
0
0
0
0
0
0
0
0.001678582047544271

0
0
0
0
0
0
0
0
0
0
0
0
0
0
0
0
0.001678582047544271

0
0
0
0
0
0
0
0
0
0
0.0024594467331552914

0
0
0
0
0
0
0
0
0
0
0
0
0
0
0
0
0
0
0
0
0
0
0.004059863161704339

0
0
0
0
0
0
0
0
0.0012804185533036624

0
0
0
0
0
0
0
0
0
0
0
0
0
0
0
0
0
0
0
0
0
0
0
0
0
0
0
0
0
0
0
0
0
0
0
0
0
0
0
0
0
0
0.0018726773601858047

0
0
0
0
0
0
0
0
0
0
0
0
0
0
0
0
0
0
0
0
0.0011526786063436438

0
0
0
0
0
0
0
0
0
0
0
0
0
0
0
0
0
0
0
0
0
0
0
0
0
0
0
0
0
0
0
0
0
0
0
0
0
0
0
0
0
0
0
0
0
0
0
0
0.0011212857649621304

0
0
0
0
0.002545964611711611

0.010071492285265625

0.0012521330156183132

0
0
0
0
0
0
0
0
0
0
0
0
0.006714328190177084

0
0
0
0
0
0
0
0
0
0
0
0
0
0
0
0
0
0
0
0
0
0
0
0
0
0
0
0
0
0.0024181222061352373

0
0
0
0
0.0010149657904260847

0
0
0
0
0
0
0
0
0
0
0
0
0
0
0
0
0
0
0
0
0
0
0
0
0
0
0
0
0
0
0.0005307145162860753

0
0
0
0
0
0
0
0
0
0
0
0.002204485488744898

0
0
0
0
0
0
0
0
0
0
0
0
0.0025944909861706986

0.0008648303287235662

0
0
0
0
0
0
0
0
0
0
0
0
0
0
0
0
0
0
0
0
0
0
0
0
0
0
0
0
0
0
0
0
0
0
0
0
0
0
0
0
0
0
0
0.002204485488744898

0
0
0
0
0.0022412365939655362

0
0
0
0
0
0
0
0
0
0
0
0
0
0
0
0
0
0
0
0
0
0
0
0
0
0
0
0
0
0
0
0
0
0
0
0.0018823483545934252

0
0
0
0
0
0
0
0
0
0
0
0
0
0
0
0
0
0
0.0030152861402546987

0
0
0
0
0
0
0
0
0
0
0
0
0
0
0
0
0.0018726773601858047

0
0
0
0
0
0
0
0
0
0
0
0
0
0
0
0
0
0
0
0
0
0
0
0
0
0
0
0
0.003081738463253423

0
0
0
0
0
0
0.0018726773601858047

0
0
0
0
0
0
0
0
0
0
0
0
0.0012896827649273427

0
0
0
0
0
0
0
0
0.0007035308616845102

0
0
0
0
0
0
0
0
0
0
0
0
0
0
0
0
0
0
0
0
0
0
0
0
0
0
0
0
0
0
0
0
0
0.0018726773601858047

0.0011526786063436438

0
0
0
0
0
0
0
0
0
0
0
0
0
0
0
0
0
0
0
0
0
0
0
0
0
0
0
0
0
0
0
0
0
0.002204485488744898

0
0
0
0
0
0
0
0
0
0
0
0
0
0
0.0018726773601858047

0
0
0
0
0
0
0
0
0
0
0
0.0014340508729315418

0
0
0
0
0
0
0
0
0
0
0
0
0
0
0
0
0
0
0
0
0
0.0012535503302860337

0
0
0
0
0
0
0
0
0
0
0
0
0
0
0
0
0
0
0
0
0
0
0
0
0
0
0
0
0
0
0
0
0
0
0
0
0
0
0
0.0012187320974752394

0
0
0
0
0
0
0
0
0.0005723666833466925

0
0
0
0
0
0
0
0.006163476926506846

0
0
0
0
0
0
0
0
0
0
0
0
0
0
0
0
0
0
0
0
0
0
0
0
0
0
0
0
0
0
0
0
0
0
0
0
0
0
0
0
0
0
0
0
0
0
0
0
0
0
0
0
0
0
0
0
0
0
0
0
0
0
0
0.0005551158403570533

0
0.0007335935238381867

0
0
0
0
0
0
0
0
0
0
0
0
0
0
0
0
0
0
0
0
0
0
0
0
0.0010149657904260847

0
0
0
0
0
0
0
0
0
0
0
0
0
0
0
0
0
0
0
0
0
0
0
0
0
0
0
0
0
0
0
0
0
0
0
0
0
0
0
0
0
0
0
0
0
0
0
0
0
0
0
0
0
0
0
0
0
0
0
0
0
0
0
0
0
0
0
0
0
0
0
0
0
0
0.00035134953330789875

0
0
0
0
0
0
0
0.00663616257118186

0
0
0
0.0007860034007370324

0
0
0
0
0
0
0
0
0
0
0
0
0
0
0
0
0
0
0
0
0
0
0
0
0.00038341557357312147

0
0
0
0
0
0
0
0
0
0
0
0
0
0
0
0
0
0
0
0
0
0.006916071638061862

0
0
0
0
0
0
0
0
0
0
0
0
0
0
0
0
0
0
0
0
0
0
0
0
0
0
0
0
0
0
0
0
0
0
0
0
0
0
0
0
0
0
0
0
0
0
0
0
0
0
0
0
0.0014340508729315418

0.0007898785709178983

0
0
0
0
0
0.0013663153237339835

0
0
0
0
0
0
0
0
0
0
0
0
0
0
0
0
0
0
0
0
0.0014435042664658593

0
0
0
0
0
0
0
0
0
0
0
0
0
0
0
0
0
0
0
0
0
0
0
0
0.0008482320928347895

0.002204485488744898

0
0
0
0
0
0
0
0
0
0
0
0
0
0
0
0
0
0
0
0
0
0
0
0
0
0
0.0050457859423295864

0
0.0004890623492254578

0
0
0
0
0
0
0
0
0
0
0
0
0
0
0
0
0.002545964611711611

0
0
0
0
0
0
0
0
0
0
0.00614077082155968

0
0.001990848771354558

0
0
0
0
0
0
0
0
0
0
0
0
0
0
0
0
0
0
0
0
0
0
0
0
0
0
0
0
0
0
0
0
0
0
0
0
0
0
0
0
0
0
0
0.0015408692316267116

0
0
0
0
0
0
0
0
0
0
0
0
0.0022007805715145603

0
0
0
0
0
0
0
0
0
0
0.001245812208288257

0
0
0.002204485488744898

0
0
0
0
0
0
0
0
0
0
0
0
0
0
0.009363386800929024

0
0
0
0
0
0
0
0
0
0
0
0
0
0
0
0
0
0
0
0
0
0
0
0
0
0
0
0
0
0
0
0
0
0
0
0
0
0
0
0
0
0
0
0
0
0
0
0
0
0.003458035819030931

0
0
0
0
0
0
0
0
0
0
0
0
0
0
0
0
0
0
0
0
0
0
0
0
0
0
0
0
0
0
0
0
0
0
0
0
0
0
0
0
0.0002062148952094085

0
0
0
0
0
0
0
0
0
0
0
0
0
0
0
0
0
0
0
0
0
0
0
0.0004040067354210287

0
0
0.0018726773601858047

0
0
0
0
0
0
0.00019170778678656073

0
0
0
0
0
0
0
0
0
0
0
0
0
0
0
0
0
0
0
0
0
0
0
0
0
0
0
0
0
0
0
0
0
0
0
0
0
0
0
0
0
0
0
0
0
0
0
0
0
0
0
0
0
0
0
0
0
0
0
0
0
0
0
0
0
0
0
0.0005307145162860753

0
0
0
0
0
0
0
0
0
0
0
0
0
0
0.0012896827649273427

0
0
0
0.0009081474317309149

0.0015408692316267116

0
0
0
0
0
0
0
0
0
0
0
0
0
0
0
0
0
0
0
0
0
0
0
0
0
0
0
0
0
0
0
0
0
0
0
0.0007035308616845102

0
0
0
0.0017545059490170513

0
0
0
0
0
0
0.00021363671739033964

0
0
0.00035134953330789875

0
0
0
0
0
0
0
0
0
0.0014340508729315418

0
0
0
0
0
0
0
0
0
0
0
0
0
0
0
0
0
0
0
0
0
0.0010566179574867023

0
0
0
0
0.007704346158133558

0
0
0
0
0
0
0
0
0
0
0
0
0
0
0
0
0
0
0
0
0
0
0
0
0
0
0
0
0
0
0
0
0
0
0
0
0
0
0
0
0
0
0
0
0.0010566179574867023

0
0
0
0.002204485488744898

0
0
0
0
0
0
0
0
0
0
0
0
0
0
0
0
0
0
0
0
0
0
0
0
0
0
0
0
0
0
0.0018726773601858047

0
0
0
0
0
0
0
0
0
0
0.0008208704777845508

0
0
0
0
0
0
0
0
0
0
0
0
0
0
0
0
0
0
0
0
0
0
0
0
0
0
0
0
0
0
0
0.002204485488744898

0
0
0
0
0
0
0
0
0
0
0
0
0
0
0.0009411741772967126

0
0
0
0
0
0
0
0
0
0
0
0
0
0
0
0
0
0
0
0
0
0
0
0
0
0
0
0
0
0
0.0004890623492254578

0
0
0
0
0
0
0
0
0
0
0
0
0
0
0
0
0
0
0
0
0
0
0
0
0.001678582047544271

0
0
0
0
0
0
0
0
0
0.0007704346158133558

0
0
0
0
0
0
0
0
0.0006078298443618664

0
0
0
0
0.0018726773601858047

0
0
0
0
0
0
0
0.0012729823058558055

0
0.0014340508729315418

0
0
0.01782175228198128

0
0
0
0
0
0
0.00268079363772231

0
0
0
0
0.003458035819030931

0
0
0
0
0
0.0010566179574867023

0
0
0
0
0
0
0
0
0
0
0
0
0
0
0
0
0
0
0
0
0
0
0
0
0
0
0
0
0
0
0
0
0
0.0008305414721921714

0
0
0
0.0007248098289276091

0
0
0
0.006448413824636713

0
0
0
0
0
0
0
0
0
0
0
0
0
0
0
0
0
0
0
0
0
0
0
0
0
0
0
0
0
0
0
0
0
0
0.0009411741772967126

0
0
0.0006267751651430169

0.002204485488744898

0
0
0
0
0
0
0
0
0
0
0
0
0
0
0
0
0
0
0
0
0
0
0
0
0
0
0
0
0
0
0
0
0
0
0
0
0
0
0
0
0
0
0
0
0
0
0
0
0
0
0
0
0
0.0015408692316267116

0
0
0
0
0
0
0
0
0
0
0
0
0
0
0
0
0
0
0
0
0
0
0
0
0
0
0
0
0
0
0
0
0
0
0
0.002204485488744898

0
0.004622607694880135

0
0
0
0
0
0
0.00544888459038549

0
0
0
0
0
0
0
0
0
0
0
0
0
0
0
0
0.00014413838812059435

0
0
0
0.0003609930343096785

0
0
0
0
0
0
0
0
0
0
0
0
0
0
0
0
0
0
0
0
0
0
0
0
0
0
0
0
0
0
0
0
0
0
0
0
0
0
0
0
0
0
0
0
0
0
0
0
0.002445311746127289

0
0
0
0
0
0
0
0
0
0.002204485488744898

0
0
0
0
0
0
0
0
0.0010908896918988653

0
0
0
0
0.0014340508729315418

0
0
0
0
0
0
0
0
0
0
0
0
0
0
0
0
0
0
0
0
0
0
0
0
0
0
0
0
0
0
0
0
0
0
0.0007949886102545002

0
0
0
0
0
0
0
0
0.0009081474317309149

0
0
0
0
0
0
0
0
0.001678582047544271

0.000663616257118186

0
0
0
0
0
0
0
0
0
0
0
0
0
0
0
0
0.0015492718928270895

0
0
0
0
0
0
0
0
0
0
0
0
0
0
0
0.0005307145162860753

0
0.001678582047544271

0
0
0
0
0
0
0
0
0
0
0
0
0
0
0
0
0
0
0
0
0
0
0
0
0
0
0
0
0
0
0
0
0
0
0
0
0
0
0
0
0
0
0
0
0
0
0
0
0
0
0
0.0005381703381077465

0
0
0.0005307145162860753

0
0
0
0
0
0
0
0
0
0
0
0
0
0
0
0
0
0
0
0
0
0
0
0
0
0
0
0
0
0
0
0
0
0.000663616257118186

0
0.0008772529745085257

0
0
0
0
0
0
0
0
0
0
0
0
0
0.0009081474317309149

0
0
0
0
0
0.0007248098289276091

0
0
0
0
0
0
0
0
0
0
0
0
0
0
0
0
0.0008482320928347895

0
0.0024181222061352373

0
0
0
0
0
0
0
0
0
0
0
0
0
0
0
0
0
0
0
0
0
0
0
0
0
0
0
0
0
0
0
0
0
0
0
0
0
0
0
0
0
0
0
0
0
0
0.0015408692316267116

0
0
0
0
0.00047594651667968736

0
0
0
0
0
0
0
0
0
0
0
0
0
0
0
0
0
0
0
0
0
0
0
0
0
0
0
0
0
0
0
0
0
0
0
0
0
0
0
0
0
0
0
0
0
0
0
0
0
0
0
0.0015408692316267116

0
0
0
0
0
0
0
0
0
0
0
0
0
0
0
0
0
0
0
0
0
0
0
0
0
0
0
0
0
0
0
0
0
0.0012729823058558055

0
0
0
0
0
0
0
0
0
0
0
0
0
0
0
0
0
0
0
0
0
0
0
0.001678582047544271

0
0
0
0
0
0
0
0
0
0
0
0
0
0
0
0
0
0
0
0
0
0
0
0
0
0
0
0
0
0
0
0
0.0013467739189851778

0
0
0.002204485488744898

0
0
0
0
0
0
0
0
0
0
0
0
0
0
0
0
0
0
0
0
0
0
0
0
0
0
0
0
0
0
0
0
0
0
0
0
0
0
0
0
0
0.0008482320928347895

0
0
0
0
0
0
0
0
0
0
0
0
0
0
0
0
0
0
0
0
0
0
0.000576339303171822

0
0
0
0
0
0.0012090611030676187

0
0
0
0.0014340508729315418

0.0010149657904260847

0
0.0017545059490170513

0
0.0018823483545934252

0
0
0
0
0
0
0
0
0
0
0
0
0
0
0
0
0
0.0010149657904260847

0
0
0
0
0
0.0028816965158591098

0
0
0
0
0
0
0
0
0
0
0
0
0
0
0
0
0
0
0
0
0
0
0
0
0
0
0
0
0
0.0007949886102545002

0
0
0
0.0015408692316267116

0
0
0
0
0
0
0
0
0
0
0
0
0.0015408692316267116

0
0
0
0
0
0
0
0
0
0
0
0
0
0
0
0
0
0
0
0
0
0
0
0
0
0
0
0
0
0
0
0
0
0
0
0
0
0
0
0
0
0
0
0
0
0
0
0
0
0
0
0
0
0
0
0
0
0
0
0
0
0
0
0
0
0
0
0
0
0.0026935478379703556

0.002204485488744898

0
0
0
0
0
0
0
0
0
0
0
0
0
0
0
0
0
0
0
0
0
0
0
0
0
0
0
0
0
0
0
0
0
0
0
0
0
0
0
0
0
0
0
0
0
0
0
0
0
0
0
0
0
0
0
0
0
0
0
0
0
0
0
0
0
0.0021132359149734045

0
0
0
0
0
0
0
0
0
0
0
0
0
0
0
0
0
0
0
0
0
0
0
0
0
0
0
0
0
0
0
0
0
0
0
0
0.0013895414450862218

0
0.0018726773601858047

0
0
0
0
0
0
0
0.016905887319787236

0
0.002204485488744898

0.002204485488744898

0
0.002204485488744898

0
0
0
0
0
0
0
0
0
0
0
0
0
0
0
0
0
0
0
0
0
0
0
0
0
0
0
0
0
0
0
0
0
0
0
0
0
0
0
0
0
0
0
0
0
0
0
0
0
0
0
0
0
0
0
0
0
0
0
0
0.0018726773601858047

0
0
0
0
0
0
0
0
0
0
0
0
0
0
0
0
0
0
0
0
0
0
0
0
0
0
0
0
0
0
0
0
0
0
0
0
0
0
0
0
0
0
0
0
0
0
0
0
0.001102242744372449

0
0
0
0
0
0.0006267751651430169

0
0.001696464185669579

0.0004507460698221374

0
0
0
0
0
0
0
0
0
0
0
0
0
0
0
0
0
0
0
0
0
0
0.001102242744372449

0
0
0
0
0
0
0
0
0
0
0
0
0
0
0
0
0
0
0
0
0
0.002424040412526172

0
0
0
0
0
0
0
0
0
0
0
0
0
0
0
0
0
0
0
0
0
0
0
0
0
0
0
0
0
0
0
0
0
0
0
0
0
0
0
0
0
0
0
0
0
0
0
0.0005454448459494326

0
0
0
0
0
0
0
0
0
0
0
0
0
0
0.0007335935238381867

0
0
0
0
0.0005925679061759776

0
0
0
0
0
0
0
0
0
0
0
0
0
0
0
0
0
0.00047594651667968736

0
0
0
0
0
0
0
0
0
0
0
0
0
0
0
0
0.001678582047544271

0
0
0
0
0
0
0
0
0
0
0
0
0
0
0
0
0
0
0
0
0
0
0
0
0
0
0
0
0
0
0
0
0
0
0
0
0
0
0
0
0
0
0
0
0
0
0
0.001678582047544271

0
0
0
0.001678582047544271

0
0
0
0
0
0
0
0
0
0
0
0
0
0
0
0
0
0
0
0
0
0
0
0
0
0
0
0
0
0
0
0
0
0
0
0.0018726773601858047

0
0
0
0
0
0
0
0
0
0
0
0
0
0
0
0
0
0
0.0036325897269236596

0
0
0
0
0
0
0
0
0
0
0
0
0
0
0
0
0
0
0
0
0
0
0
0
0
0
0
0.0018726773601858047

0
0
0
0
0
0
0
0.0007248098289276091

0
0
0
0
0
0
0
0
0
0
0
0
0
0
0
0
0
0
0
0
0
0
0
0
0
0
0
0
0
0
0
0
0
0
0
0
0
0
0
0
0
0
0
0
0
0
0
0
0
0
0.00036830991661716475

0.0008536978074167841

0
0
0.0010149657904260847

0
0.0021132359149734045

0
0
0
0
0
0
0
0
0
0
0
0
0
0
0
0
0
0
0
0
0
0
0.0027044764189328246

0.0014340508729315418

0
0.000331808128559093

0
0
0
0
0.0020299315808521693

0
0
0.007490709440743219

0
0
0
0
0
0
0
0
0
0
0
0
0.001678582047544271

0
0
0
0
0
0
0
0
0
0
0
0
0
0
0
0
0
0
0
0
0
0
0
0
0
0
0
0
0
