0
0
0
0
0
0
0
0
0
0
0
0
0
0
0
0
0
0
0
0
0
0
0
0
0
0
0
0
0
0
0
0
0
0
0
0
0
0
0
0
0
0
0
0
0
0
0
0
0
0
0
0
0
0
0
0
0
0
0
0
0
0
0
0
0
0
0
0
0
0
0
0
0
0
0
0
0
0
0
0
0
0
0
0.003049781580124564

0
0
0.003049781580124564

0
0
0
0
0
0
0
0
0
0
0
0
0
0
0.003049781580124564

0
0
0
0
0
0.06099563160249128

0.003049781580124564

0
0
0
0
0
0
0
0
0
0
0
0
0
0
0
0
0
0
0
0
0
0
0
0
0
0
0
0
0
0
0
0
0
0
0
0
0
0
0
0
0
0
0
0
0
0
0
0
0
0
0
0
0
0
0
0
0
0
0
0
0
0
0
0
0
0
0
0
0
0
0
0
0
0
0
0
0
0
0
0
0.001524890790062282

0
0
0
0
0
0
0
0
0
0
0
0
0
0
0
0
0
0
0
0
0
0
0
0
0
0
0
0
0
0.003049781580124564

0
0
0
0
0
0
0
0
0
0
0
0
0
0
0
0
0
0
0
0
0
0
0
0
0
0
0
0
0
0.003049781580124564

0
0
0
0
0
0
0
0
0
0
0
0
0
0
0
0
0
0
0
0
0
0
0
0
0
0
0
0
0
0
0
0
0
0
0
0
0
0
0
0
0
0
0
0
0
0
0
0
0.0017610993622071377

0
0
0
0
0
0
0
0
0
0
0
0
0
0
0
0
0
0
0
0
0
0
0
0
0
0
0
0
0
0.003049781580124564

0
0
0
0
0
0
0
0
0
0
0
0
0
0
0
0
0
0
0
0
0
0
0
0
0
0
0
0
0
0
0
0
0
0
0
0.01524890790062282

0.003049781580124564

0
0
0
0
0
0
0
0
0
0
0
0
0
0
0.00518148742440814

0
0
0
0
0
0
0
0
0
0
0
0
0.006099563160249128

0
0
0
0
0
0
0
0
0
0
0
0
0
0
0
0
0
0
0
0
0
0
0
0
0
0
0
0
0
0
0
0
0
0
0
0
0
0
0
0
0
0
0
0
0
0
0
0
0
0
0
0
0
0
0
0
0
0.0026041229885732883

0
0
0
0
0
0
0
0
0
0
0
0
0
0
0
0
0
0
0
0
0
0
0
0
0
0
0
0
0
0
0
0
0
0
0
0
0
0
0
0
0
0
0
0
0
0
0
0
0
0
0
0
0
0
0
0
0
0
0
0
0
0
0
0
0
0
0
0
0
0
0
0
0
0
0
0
0
0
0
0
0
0
0
0
0
0
0
0
0
0
0
0
0
0
0
0
0
0
0
0
0
0
0
0
0
0
0
0
0
0
0
0
0
0
0
0
0.003049781580124564

0
0
0
0
0
0
0
0
0
0
0
0.006099563160249128

0
0
0
0
0
0
0
0
0
0
0
0
0
0
0
0
0
0
0
0
0
0.009149344740373693

0
0
0
0
0
0
0
0
0
0
0
0
0
0
0
0
0
0
0
0
0
0
0
0
0
0
0
0
0
0
0
0
0
0
0
0
0.00259074371220407

0
0
0
0
0
0
0
0
0
0
0
0
0
0
0
0
0
0
0
0
0
0
0
0
0
0
0
0
0
0
0
0
0
0
0
0
0
0
0
0
0
0
0
0
0
0
0
0
0
0
0
0
0.006099563160249128

0
0
0
0
0
0
0
0
0
0
0
0
0
0
0
0
0
0
0
0
0
0
0
0
0
0
0
0
0
0
0
0
0
0
0
0
0
0
0
0
0
0
0
0
0
0
0
0
0
0
0
0
0
0
0
0
0
0
0
0
0
0
0
0
0
0
0
0
0
0
0
0.006099563160249128

0
0
0
0
0
0
0
0
0
0
0
0
0
0
0
0
0.003049781580124564

0
0
0
0
0
0
0
0
0
0
0
0.003049781580124564

0
0
0
0
0
0
0
0
0
0
0
0
0
0
0
0
0
0.003049781580124564

0
0
0
0
0
0
0
0
0
0
0
0
0
0
0
0
0
0
0
0
0
0
0
0
0
0
0
0
0
0
0
0
0
0
0
0
0
0
0
0
0
0
0
0
0
0
0
0
0
0
0
0
0
0
0
0
0
0
0
0
0
0
0
0
0
0
0
0
0
0
0
0
0
0
0
0
0
0
0.003049781580124564

0
0
0
0
0
0
0
0
0
0
0
0
0
0
0
0
0
0
0
0
0
0
0
0
0
0
0
0
0
0
0
0
0
0
0
0
0
0.003049781580124564

0.006099563160249128

0
0
0
0
0
0
0
0
0
0
0
0
0
0
0
0
0
0
0
0
0
0
0
0
0
0
0
0
0
0
0
0
0
0
0
0
0
0
0
0
0
0
0
0
0
0
0
0
0
0
0
0
0.02072594969763256

0
0
0
0
0
0
0
0
0
0
0.003049781580124564

0
0
0
0
0
0
0
0
0
0
0
0
0
0
0
0
0
0
0
0
0
0
0
0
0
0
0
0
0
0
0
0
0
0
0
0
0
0
0
0
0
0
0
0
0
0
0
0
0
0
0.0016726679763630831

0
0
0
0
0
0
0
0
0
0
0
0
0
0
0
0
0
0
0
0
0
0
0
0
0
0
0
0
0
0
0
0
0
0
0
0
0
0
0
0
0
0
0
0
0
0.00518148742440814

0
0
0
0
0
0
0
0
0
0
0
0
0
0
0
0
0
0
0
0
0
0
0
0
0
0
0
0
0
0
0
0
0
0
0.003049781580124564

0
0
0
0
0
0
0
0
0
0
0
0
0
0
0
0
0
0
0
0
0
0
0
0
0
0
0
0
0
0
0
0
0
0
0
0
0
0
0
0
0
0
0
0
0
0
0
0
0
0
0
0
0
0
0
0
0
0
0
0
0
0
0
0
0
0
0
0
0
0
0
0
0.003049781580124564

0
0
0
0
0
0
0
0
0
0
0
0
0
0
0
0
0
0
0
0
0
0
0
0
0
0.005951785973948326

0.006099563160249128

0
0
0
0
0
0
0
0
0
0
0
0
0
0
0
0
0
0
0
0
0
0
0
0
0
0
0
0
0
0
0
0
0
0
0
0
0
0
0
0
0
0
0
0
0
0
0
0
0
0
0
0
0
0
0
0
0
0
0
0
0
0
0
0.003049781580124564

0.003049781580124564

0
0
0
0
0
0
0
0
0
0
0
0
0
0
0
0
0
0
0
0
0
0
0
0
0
0
0
0
0
0
0
0
0
0
0
0
0
0
0
0
0
0
0
0
0
0
0
0
0
0
0
0
0
0
0
0
0
0
0
0
0
0
0
0.006099563160249128

0
0
0
0
0
0
0
0
0
0
0
0
0
0
0
0
0
0
0
0
0
0
0
0
0
0
0
0
0
0
0
0
0.0033453359527261663

0
0
0
0
0
0
0
0
0
0
0
0
0
0
0
0
0
0
0
0
0
0
0
0
0
0
0
0
0
0
0
0
0
0
0
0
0.003049781580124564

0
0
0
0
0
0
0
0
0
0
0
0
0
0
0
0
0
0
0
0
0
0
0
0
0
0
0
0
0
0
0
0
0
0
0
0
0
0
0
0
0
0
0
0
0
0
0
0
0
0
0
0.00259074371220407

0
0
0
0
0
0
0
0
0
0
0
0
0
0
0
0
0
0
0
0
0
0
0
0
0
0
0
0.003049781580124564

0
0
0
0
0.003049781580124564

0
0
0
0
0
0
0
0
0
0
0
0
0
0
0
0
0
0
0
0
0
0
0
0
0
0
0
0
0
0.003049781580124564

0
0
0
0
0
0
0
0
0
0
0.003049781580124564

0
0
0
0
0
0
0
0
0
0
0
0
0
0
0
0
0
0
0
0
0.00259074371220407

0
0
0
0
0
0
0
0
0
0
0
0
0
0
0
0
0
0
0
0
0
0
0
0
0
0
0
0
0
0
0
0
0
0
0.006099563160249128

0
0
0.009149344740373693

0
0
0
0
0
0
0.018298689480747386

0
0
0
0
0
0
0
0
0
0
0.003049781580124564

0
0
0
0
0
0
0
0
0
0
0
0
0
0
0
0
0
0
0
0
0
0
0
0
0
0
0
0
0
0
0
0
0
0
0
0
0
0
0
0
0
0
0.003049781580124564

0
0
0
0
0
0
0
0
0
0
0
0
0
0
0
0
0
0
0
0
0
0
0
0
0
0
0
0
0
0
0
0
0
0
0
0
0
0
0.006099563160249128

0
0
0
0
0
0
0
0
0
0
0
0
0
0
0
0
0
0
0
0
0
0
0
0
0
0
0
0
0
0
0
0
0
0
0
0
0
0
0
0
0
0.003049781580124564

0
0
0
0
0
0
0
0
0
0
0
0
0
0
0
0
0
0
0
0
0
0
0
0
0
0
0
0
0
0
0
0
0
0
0
0
0
0
0
0
0
0
0
0
0
0
0
0
0
0
0
0
0
0
0
0
0
0
0
0
0
0
0
0
0
0
0
0
0
0
0
0
0
0
0
0
0
0
0
0
0
0
0
0
0
0
0
0
0
0
0
0
0
0
0
0
0
0
0
0
0
0
0
0
0
0
0
0
0
0
0
0
0
0
0
0.003049781580124564

0
0
0
0
0
0
0
0
0
0
0
0
0
0
0
0
0
0
0
0
0
0
0
0
0
0
0
0
0
0
0
0
0
0
0
0
0
0
0
0
0
0
0
0
0
0
0
0
0
0
0
0
0
0
0
0
0
0
0
0
0
0
0
0
0
0
0
0
0
0
0
0
0
0
0
0
0
0
0
0
0
0
0
0
0
0
0
0
0
0
0
0
0
0
0
0
0
0
0
0
0
0
0
0
0
0
0
0
0
0
0
0
0
0
0
0
0
0
0
0
0
0
0
0
0
0
0
0
0
0
0.00259074371220407

0
0
0
0
0
0
0
0
0
0
0
0
0
0
0
0
0
0
0
0
0
0
0
0
0
0
0
0
0
0
0
0
0
0
0
0
0
0
0
0
0
0
0
0
0
0
0
0.003049781580124564

0
0
0
0
0
0
0
0
0
0
0
0
0
0
0
0
0
0
0
0
0
0
0
0
0
0
0
0
0
0
0
0
0
0
0
0
0
0
0
0
0
0
0
0
0
0
0
0
0
0
0
0
0
0
0
0
0
0
0
0
0
0
0
0
0
0
0
0
0
0
0
0
0
0
0
0
0
0
0
0
0
0
0
0
0
0
0
0
0
0
0
0
0
0
0
0
0
0
0
0
0.003049781580124564

0
0
0
0
0
0
0
0
0
0
0
0
0
0
0
0
0
0
0
0
0
0
0
0
0
0
0
0
0
0
0
0
0
0
0
0
0.003049781580124564

0
0
0
0
0
0
0
0
0
0
0
0
0
0
0
0
0
0
0
0
0
0
0
0
0
0
0
0
0
0
0
0.009149344740373693

0.006099563160249128

0
0
0
0
0
0
0
0
0
0
0
0
0
0
0
0
0
0
0
0
0
0
0.006099563160249128

0
0
0
0
0
0
0
0
0
0
0
0
0
0
0
0
0
0
0
0
0
0
0
0
0
0
0
0
0
0
0
0
0
0
0
0
0
0
0
0
0
0
0
0
0
0
0
0
0
0
0
0
0
0
0
0
0
0
0
0
0
0
0
0
0
0
0
0
0
0
0
0
0
0
0
0
0
0
0
0
0
0
0
0
0
0.003049781580124564

0
0
0
0
0
0
0
0
0
0
0
0
0
0
0
0
0
0
0
0
0
0
0
0
0
0
0
0
0
0.009149344740373693

0
0
0
0
0
0
0
0
0
0
0
0
0
0
0.0019839286579827753

0.00259074371220407

0
0
0
0
0
0
0
0
0
0
0
0
0
0
0
0
0
0
0
0
0
0
0
0
0
0
0
0
0
0.006099563160249128

0
0
0
0
0
0
0
0
0
0
0.00259074371220407

0
0
0
0
0
0
0
0
0
0
0
0
0
0
0
0
0
0
0
0.003726371810278194

0
0
0
0
0
0
0
0
0
0
0
0
0
0
0
0
0
0
0
0
0
0
0
0
0
0
0
0
0
0
0
0
0
0
0
0
0
0
0
0
0
0
0
0
0
0.003049781580124564

0
0
0
0
0
0
0
0
0
0
0
0
0
0
0
0
0
0
0
0
0.003049781580124564

0
0
0
0
0
0
0
0
0
0
0.003049781580124564

0
0
0
0
0
0
0
0
0
0
0
0
0
0.003049781580124564

0
0
0
0
0
0
0
0
0
0
0
0
0
0.02439825264099651

0.003049781580124564

0
0
0
0
0
0
0
0
0
0
0
0
0
0
0
0
0
0
0
0
0
0
0
0
0
0
0
0
0
0
0
0
0
0
0
0.003049781580124564

0
0
0
0
0
0
0
0
0
0.003049781580124564

0
0
0
0
0
0
0
0
0
0
0
0
0
0
0
0
0
0
0
0
0
0
0
0
0
0
0
0
0
0
0.003049781580124564

0
0
0
0
0
0
0
0
0
0
0
0
0
0
0
0
0
0
0.003049781580124564

0
0
0
0
0
0
0
0
0
0
0
0
0
0
0
0
0
0
0
0
0
0
0
0
0
0
0
0
0
0
0
0
0
0
0
0.006099563160249128

0
0
0
0
0
0
0
0
0
0
0
0
0
0
0
0
0
0
0
0
0
0
0
0
0
0
0
0
0
0
0
0
0
0
0
0
0
0
0
0
0
0
0
0
0
0
0
0
0
0
0
0
0
0
0
0
0
0
0
0
0
0
0
0
0
0
0
0
0
0
0
0
0
0
0
0
0
0
0
0
0.002427260216885179

0
0
0
0
0
0
0
0
0
0
0
0
0
0
0
0
0
0
0
0
0
0
0
0
0
0
0
0
0.006099563160249128

0
0
0
0
0
0
0
0
0
0
0
0
0
0
0
0
0
0
0
0
0
0
0
0
0
0
0
0
0
0
0
0
0
0
0
0
0
0
0
0
0
0
0
0
0
0
0
0
0
0
0
0
0
0
0
0
0
0
0
0
0
0
0
0
0
0
0
0
0
0
0
0
0
0.002512741701835604

0
0
0
0
0
0
0
0
0
0
0
0
0
0
0
0
0
0
0
0
0
0
0
0
0
0
0
0
0
0
0
0
0
0
0
0
0
0
0
0
0
0
0
0
0
0
0
0
0
0
0
0
0
0
0
0
0
0
0
0
0
0
0
0
0
0
0
0
0
0
0
0
0
0
0
0
0
0
0
0
0
0
0
0
0
0
0
0
0
0
0
0
0
0
0
0
0
0
0
0
0
0
0
0
0
0
0
0
0
0
0
0
0
0
0
0
0
0
0
0
0
0
0
0
0
0
0
0
0
0
0
0
0
0
0
0
0
0
0
0
0
0
0
0
0
0
0
0
0
0
0
0
0
0
0
0
0
0
0
0
0
0
0
0
0
0
0
0
0
0
0
0
0
0
0
0
0
0
0
0
0
0
0
0
0
0
0
0
0
0
0
0
0
0
0
0
0
0
0
0
0
0
0
0
0
0
0
0
0
0
0
0
0
0
0
0
0
0
0
0
0
0
0
0
0
0
0
0
0
0
0
0
0
0
0
0
0
0
0
0
0
0
0
0
0
0
0
0
0
0
0
0
0
0
0
0
0
0
0
0
0
0
0
0
0
0
0
0
0
0
0
0
0
0
0
0
0
0
0
0
0
0
0
0
0
0
0
0
0
0
0
0
0
0
0
0
0
0
0
0
0
0
0
0
0
0
0
0
0
0
0
0
0
0
0
0
0
0
0
0
0
0
0
0
0
0
0
0
0
0
0
0
0.006099563160249128

0
0
0
0
0
0
0
0
0
0
0
0
0
0
0
0
0
0
0
0
0
0
0
0
0
0
0
0
0
0
0
0
0
0
0
0
0
0
0
0
0
0
0
0
0
0
0
0
0
0
0
0
0
0
0
0
0
0
0
0
0
0
0
0
0
0
0
0
0
0
0
0
0
0
0
0
0
0
0
0
0
0
0
0
0
0
0
0
0
0
0
0
0
0
0
0
0
0
0
0
0
0
0
0
0
0
0
0
0
0
0
0
0
0
0
0
0
0
0
0
0
0
0
0
0
0
0
0
0
0
0
0
0
0
0
0
0
0
0
0
0
0
0
0
0
0
0
0
0
0
0
0
0
0
0
0
0
0
0
0
0
0
0
0
0
0
0
0
0
0
0
0
0
0
0
0
0
0
0
0
0
0
0
0
0
0
0
0
0
0
0
0
0
0
0
0
0
0
0
0
0
0
0
0
0
0
0
0
0
0
0
0
0
0
0
0
0
0
0
0
0
0
0
0
0
0
0
0
0
0
0
0
0
0
0
0
0
0
0
0
0
0
0
0
0
0
0
0
0
0
0
0
0
0
0
0
0
0
0
0
0
0
0
0
0
0
0
0
0
0
0
0
0
0
0
0
0
0
0
0
0
0
0
0
0
0
0
0
0
0
0
0
0
0
0
0
0
0
0
0
0
0
0
0
0
0
0
0
0
0
0
0
0
0
0
0
0
0
0
0
0
0
0
0
0
0
0
0
0
0
0
0
0
0
0
0
0
0
0
0
0
0
0
0
0
0
0
0
0
0
0
0
0
0
0
0
0
0
0
0
0
0
0
0
0
0
0
0
0
0
0
0
0
0
0
0
0
0
0
0
0
0
0
0
0
0
0
0
0
0
0
0
0
0
0
0
0
0
0
0
0
0
0
0
0
0
0
0
0
0
0
0
0
0
0
0
0
0
0
0
0
0
0
0
0
0
0
0
0
0
0
0
0
0
0
0
0
0
0
0
0
0
0
0
0
0
0
0
0
0
0
0
0
0
0
0
0
0
0
0
0
0
0
0
0
0
0
0
0
0
0
0
0
0
0
0
0
0
0
0
0
0
0
0
0
0
0
0
0
0
0
0
0
0
0
0
0
0
0
0
0
0
0
0
0
0
0
0
0
0
0
0
0
0
0
0
0
0
0
0
0
0
0
0
0
0
0
0
0
0
0
0
0
0
0
0
0
0
0
0
0
0
0
0
0
0
0
0
0
0
0
0
0
0
0
0
0
0
0
0
0
0.002067083110284329

0
0
0
0
0
0
0
0
0
0
0
0
0
0
0
0
0
0
0
0
0
0
0
0
0
0
0
0
0
0
0
0
0
0
0
0
0
0
0
0
0
0
0
0
0
0
0
0
0
0
0
0
0
0
0
0
0
0
0
0
0
0
0
0
0
0
0
0
0
0
0
0
0
0
0
0
0
0
0
0
0
0
0
0
0
0
0
0
0
0
0
0
0
0
0
0
0
0
0
0
0
0
0
0
0
0
0
0
0
0
0
0
0
0
0
0
0
0
0
0
0
0
0
0
0
0
0
0
0
0
0
0
0
0
0
0
0
0
0
0
0
0
0
0
0
0
0
0
0
0
0
0
0
0
0
0
0
0
0
0
0
0
0
0
0
0
0
0
0
0
0
0
0
0
0
0
0
0
0
0
0
0
0
0
0
0
0
0
0
0
0
0
0
0
0
0
0
0
0
0
0
0
0
0
0
0
0
0
0
0
0
0
0
0
0
0
0
0
0
0
0
0
0
0
0
0
0
0
0
0
0
0
0
0
0
0
0
0
0
0
0
0
0
0
0
0
0
0
0
0
0
0
0
0
0
0
0
0
0
0
0
0
0
0
0
0
0
0
0
0
0
0
0
0
0
0
0
0
0
0
0
0
0
0
0
0
0
0
0
0
0
0
0
0
0
0
0.0017610993622071377

0
0
0
0
0
0
0
0
0
0
0
0
0
0
0
0.0046444475461191815

0
0
0
0
0
0
0
0
0
0
0
0
0
0
0
0
0
0
0
0
0
0
0
0
0
0
0
0
0
0
0
0
0
0
0
0
0
0
0
0
0
0
0
0
0
0
0
0
0
0
0
0
0
0
0
0
0
0
0
0
0
0
0
0
0
0
0
0
0
0
0
0
0
0
0
0
0
0
0
0
0
0
0
0
0
0
0
0
0
0
0
0
0
0
0
0
0
0
0
0
0
0
0
0
0
0
0
0
0
0
0
0
0
0
0
0
0
0
0
0
0
0
0
0
0
0
0
0
0
0
0
0
0
0
0
0
0
0
0
0
0
0
0
0
0
0
0
0
0
0
0
0
0
0
0
0
0
0
0
0
0
0
0
0
0
0
0
0
0
0
0
0
0
0
0
0
0
0
0
0
0
0
0
0
0
0
0
0
0
0
0
0
0
0
0
0
0
0
0
0
0
0
0
0
0
0
0
0
0
0
0
0
0
0
0
0
0
0
0
0
0
0
0
0
0
0
0
0
0
0
0
0
0
0
0
0
0
0
0
0
0
0
0
0
0
0
0
0
0
0
0
0
0
0
0
0
0
0
0
0
0
0
0
0
0
0
0
0
0
0
0
0
0
0
0
0
0
0
0
0
0
0
0
0
0
0
0
0
0
0
0
0
0
0
0
0
0
0
0
0
0
0
0
0
0
0
0
0
0
0
0
0
0
0
0
0
0
0
0
0
0
0
0
0
0
0
0
0
0
0
0
0
0
0
0
0
0
0
0
0
0
0
0
0
0
0
0
0
0
0
0
0
0
0
0
0
0
0
0
0
0
0
0
0
0
0
0
0
0
0
0
0
0
0
0
0
0
0
0
0
0
0
0
0
0
0
0
0
0
0
0
0
0
0
0
0
0
0
0
0
0
0
0
0
0
0
0
0
0
0
0
0
0
0
0
0
0
0
0
0
0
0
0
0
0
0
0
0
0
0
0
0
0
0
0
0
0
0
0
0
0
0
0
0
0
0
0
0
0
0
0
0
0
0
0
0
0
0
0
0
0
0
0
0
0
0
0
0
0
0
0
0
0
0
0
0
0
0
0
0
0
0
0
0
0
0
0
0
0
0
0
0
0
0
0
0
0
0
0
0
0
0
0
0
0
0
0
0
0
0
0
0
0
0
0
0
0
0
0
0
0
0
0
0
0
0
0
0
0
0
0
0
0
0
0
0
0
0
0
0
0
0
0
0
0
0
0
0
0
0
0
0
0
0
0
0
0
0
0
0
0
0
0
0
0
0
0
0
0
0
0
0
0
0
0
0
0
0
0
0
0
0
0
0
0
0
0
0
0
0
0
0
0
0
0
0
0
0
0
0
0
0
0
0
0
0
0
0
0
0
0
0
0
0
0
0
0
0
0
0
0
0
0
0
0
0
0
0
0
0
0
0
0
0
0
0
0
0
0
0
0
0
0
0.002512741701835604

0
0
0
0
0
0
0
0
0
0
0
0
0
0
0
0
0
0
0
0
0
0
0
0
0
0
0
0
0
0
0
0
0
0
0
0
0
0
0
0
0
0
0
0
0
0
0
0
0
0
0
0
0
0
0
0
0
0
0
0
0
0
0
0
0
0
0
0
0
0
0
0
0
0
0
0
0
0
0
0
0
0
0
0.004263411688567153

0
0
0
0
0
0
0
0
0
0
0
0
0
0
0
0
0
0
0
0
0
0
0
0
0
0
0
0
0
0
0
0
0
0
0
0
0
0
0
0
0
0
0
0
0
0
0
0
0
0
0
0
0
0
0
0
0
0
0
0
0
0
0
0
0
0
0
0
0
0
0
0
0
0
0
0
0
0
0
0
0
0
0
0
0
0
0
0
0
0
0
0
0
0
0
0
0
0
0
0
0
0
0
0
0
0
0
0
0
0
0
0
0
0
0
0
0
0
0
0
0
0
0
0
0
0
0
0
0
0
0
0
0
0
0
0
0
0
0
0
0
0
0
0
0
0
0
0
0
0
0
0
0
0
0
0
0
0
0
0
0
0
0
0
0
0
0
0
0
0
0
0
0
0
0
0
0
0
0
0
0
0
0
0
0
0
0
0
0
0
0
0
0
0
0
0
0
0
0
0
0
0
0
0
0
0
0
0
0
0
0
0
0
0
0
0
0
0
0
0
0
0
0
0
0
0
0
0
0
0
0
0
0
0
0
0
0
0
0
0
0
0
0
0
0
0
0
0
0
0
0
0
0
0
0
0
0
0
0
0
0
0
0
0
0
0
0
0
0
0
0
0
0
0
0
0
0
0
0
0
0
0
0
0
0
0
0
0
0
0
0
0
0
0
0
0
0
0
0
0
0
0
0
0
0
0
0
0
0
0
0
0
0
0
0
0
0
0
0
0
0
0
0
0
0
0
0
0
0
0
0
0
0
0
0
0
0
0
0
0
0
0
0
0
0
0
0
0
0
0
0
0
0
0
0
0
0
0
0
0
0
0
0
0
0
0
0
0
0
0
0
0
0
0
0
0
0
0
0
0
0
0
0
0
0
0
0
0
0
0
0
0
0
0
0
0
0
0
0
0
0
0
0
0
0
0
0
0
0
0
0
0
0
0
0
0
0
0
0
0
0
0
0
0
0
0
0
0
0
0
0
0
0
0
0
0
0
0
0
0
0
0
0
0
0
0
0
0
0
0
0
0
0
0
0
0
0
0
0
0
0
0
0
0
0
0
0
0
0
0
0
0
0
0
0
0
0
0
0
0
0
0
0
0
0
0
0
0
0
0
0
0
0
0
0
0
0
0
0
0
0
0
0
0
0
0
0
0
0
0
0
0
0
0
0
0
0
0
0
0
0
0
0
0
0
0
0
0
0
0
0
0
0
0
0
0
0
0
0
0
0
0
0
0
0
0
0
0
0
0
0
0
0
0
0
0
0
0
0
0
0
0
0
0
0
0
0
0
0
0
0
0
0
0
0
0
0
0
0
0
0
0
0
0
0
0
0
0
0
0
0
0
0
0
0
0
0
0
0
0
0
0
0
0
0
0
0
0
0
0
0
0
0
0
0
0
0
0
0
0
0
0
0
0
0
0
0
0
0
0
0
0
0
0
0
0
0
0
0
0
0
0
0
0
0
0
0
0
0
0
0
0
0
0
0
0
0
0
0
0
0
0
0
0
0
0
0
0
0
0
0
0
0
0
0
0
0
0
0
0
0
0
0
0
0
0
0
0
0
0
0
0
0
0
0
0
0
0
0
0
0
0
0
0
0
0
0
0
0
0
0
0
0
0
0
0
0
0
0
0
0
0
0
0
0
0
0
0
0
0
0
0
0
0
0
0
0
0
0
0
0
0
0
0
0
0
0
0
0
0
0
0
0
0
0
0
0
0
0
0
0
0
0
0
0
0
0
0
0
0
0
0
0
0
0
0
0
0
0
0
0
0
0
0
0
0
0
0
0
0
0
0
0
0
0
0
0
0
0
0
0
0
0
0
0
0
0
0
0
0
0
0
0
0
0
0
0
0
0
0
0
0
0
0
0
0
0
0
0
0
0
0
0
0
0
0
0
0
0
0
0
0
0
0
0
0
0
0
0
0
0
0
0
0
0
0
0
0
0
0
0
0
0
0
0
0
0
0
0
0
0
0
0
0
0
0
0
0
0
0
0
0
0
0
0
0
0
0
0
0
0
0
0
0
0
0
0
0
0
0
0
0
0
0
0
0
0
0
0
0
0
0
0
0
0
0
0
0
0
0
0
0
0
0
0
0
0
0
0
0
0
0
0
0
0
0
0
0
0
0
0
0
0
0
0
0
0
0
0
0
0
0
0
0
0
0
0
0
0
0
0
0
0
0
0
0
0
0
0
0
0
0
0
0
0
0
0
0
0
0
0
0
0
0
0
0
0
0
0
0
0
0
0
0
0
0
0
0
0
0
0
0
0
0
0
0
0
0
0
0
0
0
0
0
0
0
0
0
0
0
0
0
0
0
0
0
0
0
0
0
0
0
0
0
0
0
0
0
0
0
0
0
0
0
0
0
0
0
0
0
0
0
0
0
0
0
0
0
0
0
0
0
0
0
0
0
0
0
0
0
0
0
0
0
0
0
0
0
0
0
0
0
0
0
0
0
0
0
0
0
0
0
0
0
0
0
0
0
0
0
0
0
0
0
0
0
0
0
0
0
0
0
0
0
0
0
0
0
0
0
0
0
0
0
0
0
0
0
0
0
0
0
0
0
0
0
0
0
0
0
0
0
0
0
0
0
0
0
0
0
0
0
0
0
0
0
0
0
0
0
0
0
0
0.006099563160249128

0
0
0
0
0
0
0
0
0
0
0
0
0
0
0
0
0
0
0
0
0
0
0
0
0
0
0
0
0
0
0
0
0
0
0
0
0
0
0
0
0
0
0
0
0
0
0
0
0
0
0
0
0
0
0
0
0
0
0
0
0
0
0
0
0
0
0
0.006099563160249128

0
0
0
0
0.003049781580124564

0
0
0
0
0
0
0
0
0
0
0
0
0
0
0
0
0
0
0
0
0
0
0
0
0
0
0
0
0
0
0
0
0
0
0
0
0
0
0
0
0
0
0
0
0
0
0
0
0
0
0
0
0
0
0
0
0
0
0
0
0
0
0
0
0
0
0
0
0
0
0
0
0
0
0
0
0
0
0
0
0
0
0
0
0
0
0
0
0
0
0
0
0
0
0
0
0
0
0
0
0
0
0
0
0
0
0
0
0
0
0
0
0
0
0
0
0
0
0
0.003049781580124564

0
0
0
0
0
0
0
0
0
0
0
0
0
0.001863185905139097

0
0
0
0.0013020614942866441

0
0
0
0
0.0016395686834458506

0
0
0
0
0
0
0
0
0
0
0
0
0
0
0
0
0
0
0
0
0
0
0
0
0.006395117532850729

0
0
0
0
0
0
0
0
0
0
0
0
0
0
0
0
0
0
0
0
0
0
0
0
0
0
0
0
0
0
0
0
0
0
0
0
0
0
0
0
0
0
0
0
0
0
0
0
0
0
0.001256370850917802

0
0
0
0
0
0
0
0
0
0
0
0
0
0
0
0
0
0
0
0
0
0
0
0
0
0
0
0
0
0
0
0
0
0
0
0
0
0
0
0
0
0
0
0
0
0
0
0.0017610993622071377

0
0
0
0
0
0
0
0
0
0
0
0
0
0
0
0
0.0023222237730595907

0
0
0
0
0
0
0
0
0
0
0
0
0
0
0
0
0
0
0
0
0
0
0
0
0
0
0
0
0
0
0
0
0
0
0
0
0
0.0021317058442835764

0
0.005951785973948326

0
0
0
0
0
0
0
0
0
0
0
0
0
0
0
0
0
0
0
0
0
0
0
0
0
0
0
0
0
0
0.0008430236263661507

0
0
0
0
0
0
0
0
0
0
0
0
0
0
0
0
0.00259074371220407

0
0
0
0
0
0
0
0
0
0
0
0
0
0
0
0
0
0
0
0
0
0
0
0
0
0
0
0
0
0.003049781580124564

0.01036297484881628

0
0
0
0
0
0
0
0
0
0
0
0
0
0.003049781580124564

0
0
0
0
0
0
0
0
0
0
0
0
0
0
0
0
0
0
0
0
0
0
0
0
0
0
0
0
0.003049781580124564

0
0
0
0
0
0
0
0
0
0
0
0
0
0
0
0
0
0
0
0
0
0
0
0
0
0
0
0
0
0
0
0
0
0
0
0.0010027335977680634

0.001524890790062282

0
0
0
0
0
0
0
0
0
0
0
0
0
0
0
0
0
0
0
0
0
0
0
0
0.012199126320498256

0
0
0
0
0
0
0
0
0
0
0
0.0010998219912726165

0
0
0
0
0
0
0
0
0
0
0
0
0
0
0
0
0
0
0
0
0
0
0
0
0
0
0.0011356280980741235

0
0
0
0
0
0
0
0
0
0
0
0
0
0
0.009288895092238363

0
0
0
0
0
0
0
0
0
0
0
0
0
0
0
0
0
0
0
0
0
0
0
0
0
0
0
0
0
0
0
0
0
0.003049781580124564

0
0
0
0
0
0
0
0
0
0
0
0
0
0
0
0
0
0
0
0
0
0
0
0
0
0
0
0
0
0
0
0
0
0
0
0
0
0
0
0
0
0
0
0
0.0009451101692981098

0
0
0
0
0
0
0
0
0
0
0
0
0
0.00259074371220407

0
0
0
0
0.003049781580124564

0
0
0
0
0
0
0
0
0
0
0
0
0
0
0
0
0
0
0
0
0
0
0
0
0
0
0
0
0
0
0
0
0
0
0
0
0
0
0
0
0
0
0
0
0
0
0
0
0
0
0
0
0
0
0
0
0
0
0
0
0
0
0
0
0
0
0.00035144763494259444

0
0
0
0
0
0
0
0
0
0
0
0
0
0
0
0
0
0
0
0
0
0
0
0
0
0
0
0
0
0
0
0
0
0
0.003049781580124564

0
0
0
0
0
0
0
0.009149344740373693

0
0
0
0
0
0
0
0
0
0
0
0
0
0
0
0
0
0
0
0
0
0
0
0.004263411688567153

0
0
0
0
0
0
0
0
0
0
0
0
0
0
0
0
0
0
0
0
0
0
0
0
0
0
0
0
0
0.003049781580124564

0
0
0
0
0
0
0
0
0
0
0.00234696270454553

0
0.0013511396215407647

0
0
0
0
0
0
0.0027184786492378487

0
0
0
0
0
0
0
0
0
0
0
0
0
0
0
0
0
0.0005745036872216709

0
0
0
0
0
0
0
0
0
0
0
0
0
0
0
0
0
0
0
0
0
0
0
0
0
0
0
0
0
0
0
0.001863185905139097

0
0
0
0
0
0
0
0
0
0
0
0
0
0
0
0
0.0008671081589296439

0
0
0
0
0
0
0
0
0
0
0
0
0
0
0
0
0
0
0
0
0
0
0
0
0
0.0006068150542212948

0
0
0
0
0
0
0
0
0
0
0
0
0
0
0
0
0
0
0
0.0023222237730595907

0
0
0
0
0
0
0
0
0
0
0
0
0
0
0
0
0
0
0
0
0
0
0
0
0
0.0017842035072405424

0
0.0027022792430815294

0
0
0
0
0
0
0
0
0
0
0
0
0
0
0
0
0
0
0
0
0
0
0
0
0
0
0
0
0
0
0
0
0
0
0.0007973329829973086

0
0
0
0
0
0
0
0
0.0017610993622071377

0
0
0
0
0
0
0
0.0019839286579827753

0
0
0.001428886968704543

0
0
0
0
0
0
0
0.0008671081589296439

0
0
0.002427260216885179

0
0
0
0
0
0
0
0
0
0
0
0
0
0.003049781580124564

0
0
0
0
0
0
0
0
0.003049781580124564

0
0
0
0
0
0
0
0
0
0
0
0.0009497400018735094

0.0008671081589296439

0
0
0
0
0
0
0
0
0.0023222237730595907

0
0
0
0
0
0
0
0
0
0.00259074371220407

0
0
0
0
0
0
0
0
0
0
0
0
0
0
0
0
0
0
0
0
0
0
0
0
0.0004080702910091503

0
0
0
0
0
0.003049781580124564

0
0
0
0
0
0
0
0
0
0
0
0
0
0
0
0
0
0
0
0
0
0
0
0
0
0
0
0
0
0.003189331931989234

0
0
0
0
0
0
0
0
0
0
0
0.001863185905139097

0
0
0
0
0
0
0
0
0
0
0.006395117532850729

0
0
0
0
0
0
0
0
0
0
0
0
0
0.0012116247343979156

0
0
0
0
0
0
0
0
0
0
0
0
0
0.004263411688567153

0
0
0
0
0
0
0
0
0
0
0
0
0
0
0
0
0
0
0
0
0
0
0
0
0
0
0
0
0
0
0
0
0
0.0006235818144757914

0
0
0
0
0
0
0
0
0
0
0
0
0
0
0
0
0
0
0
0
0
0
0
0
0
0
0.0015946659659946173

0
0
0
0
0
0
0
0
0
0
0
0
0
0
0
0
0
0
0
0
0
0
0
0
0
0
0
0
0
0
0
0
0
0
0
0
0
0
0
0
0
0
0
0
0
0
0
0
0
0
0
0
0
0
0
0
0
0
0
0
0
0
0
0
0
0
0
0
0
0
0
0
0
0
0
0
0
0
0.004263411688567153

0.004053418864622294

0
0
0
0
0
0
0
0
0
0
0
0
0
0
0
0
0
0
0
0
0
0.0007973329829973086

0
0
0
0
0
0
0
0
0
0
0
0
0
0
0
0
0
0
0
0
0
0
0
0
0
0
0
0
0
0
0
0
0
0
0
0
0
0
0
0
0
0
0
0
0
0
0
0
0
0
0
0
0
0
0
0
0
0
0
0
0
0
0
0
0
0.0023222237730595907

0
0
0
0
0
0
0
0
0
0
0
0
0
0
0
0
0
0
0
0
0
0
0
0
0
0
0
0
0
0
0
0
0
0.004263411688567153

0
0
0.002512741701835604

0
0
0
0
0
0
0.00518148742440814

0
0
0
0
0
0
0
0
0
0
0
0
0
0
0
0
0
0
0
0
0
0
0
0
0
0
0
0
0
0
0
0
0
0
0
0
0
0
0
0
0
0
0
0
0
0
0
0
0
0
0
0
0
0
0
0
0
0
0
0
0
0
0
0
0
0
0
0
0
0
0
0
0
0
0
0
0
0
0.008447686685804456

0
0
0
0
0
0
0
0
0
0
0.0046444475461191815

0
0
0
0
0
0
0
0
0.0019839286579827753

0
0
0
0
0
0
0
0
0
0
0
0
0
0
0
0
0
0
0
0
0
0
0
0
0
0
0
0
0
0
0
0
0.0006407841233521229

0
0
0
0
0
0
0
0
0
0
0
0
0.006099563160249128

0
0
0
0
0
0
0
0
0
0
0
0.001863185905139097

0
0
0
0
0
0
0
0.003049781580124564

0
0
0
0
0
0
0
0
0
0
0
0
0.003049781580124564

0
0
0
0
0.010098833094250859

0
0
0
0
0
0
0
0
0
0
0
0
0
0
0
0
0
0
0
0
0
0.0002362085721448559

0
0
0
0
0
0
0
0
0
0
0.001256370850917802

0.0006765902301536299

0
0.0006235818144757914

0.0009180757358409872

0
0
0
0
0
0
0
0
0
0
0
0
0
0
0
0
0
0
0
0
0
0
0
0.0004724171442897118

0
0
0
0.0023222237730595907

0
0
0.001524890790062282

0
0
0
0
0
0
0
0
0
0
0
0
0
0
0
0
0
0
0
0
0
0
0
0
0
0
0
0
0
0
0
0
0
0
0
0
0
0
0
0
0
0
0
0
0
0
0
0
0
0
0
0
0
0
0
0
0
0
0
0
0
0.0006765902301536301

0
0
0
0
0
0
0
0.0016726679763630831

0.0006068150542212948

0
0
0
0
0
0
0
0
0
0
0
0
0
0
0
0
0
0
0
0
0
0
0
0.003049781580124564

0.0014684273172471671

0
0
0
0
0
0
0
0
0
0
0
0
0
0
0
0
0
0
0
0
0
0
0
0
0
0
0
0
0
0
0
0.001863185905139097

0
0
0
0
0
0
0
0
0
0
0
0
0
0
0
0.003049781580124564

0
0
0.0021317058442835764

0
0
0
0
0
0
0
0
0
0
0
0
0
0
0
0
0
0
0
0
0
0
0
0
0
0
0
0
0
0.033547597381370205

0.003049781580124564

0
0
0
0
0
0
0
0
0
0
0
0
0
0
0
0
0
0
0
0
0
0
0
0
0
0
0
0
0
0
0
0
0
0
0
0
0
0
0
0
0
0
0.004263411688567153

0
0.0016726679763630831

0
0
0
0
0
0
0
0
0
0
0
0
0
0
0.003049781580124564

0
0
0
0
0
0
0
0
0
0
0
0
0
0
0
0
0
0
0
0
0.0004724171442897118

0
0
0
0
0
0.00038398575844565707

0
0
0
0
0
0
0
0
0
0
0
0
0
0
0
0
0
0
0
0.0019839286579827753

0
0
0
0
0
0
0
0
0
0
0
0.0023222237730595907

0
0
0.003049781580124564

0
0
0
0.0014041480372186032

0
0
0
0
0
0
0
0
0
0.0023222237730595907

0.0013511396215407647

0
0.0010658529221417882

0.003049781580124564

0
0.001524890790062282

0
0
0
0
0
0
0
0
0
0
0
0
0.0017610993622071377

0
0
0
0
0
0
0
0
0
0
0
0
0
0
0
0
0
0
0
0
0.001594665965994617

0
0
0
0
0
0
0
0
0
0
0
0
0
0
0
0
0
0
0
0
0
0
0
0
0
0
0
0
0
0
0
0
0
0
0
0
0.0006235818144757914

0
0
0.003844704740112738

0
0
0
0
0
0
0.003049781580124564

0
0.003049781580124564

0
0
0
0
0
0
0
0
0
0
0
0
0
0
0
0
0
0
0
0
0
0
0
0.00259074371220407

0
0
0
0
0.000754592240522096

0.0009448342885794236

0
0
0
0
0
0
0
0
0
0
0
0
0
0
0
0
0
0
0
0
0
0
0
0
0
0
0
0
0
0
0
0
0
0
0
0
0
0
0
0
0
0
0
0
0
0
0
0
0.0010027335977680634

0
0
0
0
0
0
0
0
0
0
0
0
0
0
0
0
0
0
0
0
0.00014777718630080118

0
0
0
0
0
0
0
0
0
0
0
0
0
0
0
0
0
0
0
0
0
0
0
0
0
0
0
0
0
0.00518148742440814

0
0
0
0
0
0
0
0
0
0
0
0
0
0
0
0
0
0
0
0
0
0
0.006201249330852987

0
0
0
0
0
0
0.006395117532850729

0
0
0
0
0
0.0021317058442835764

0
0
0
0
0
0
0
0
0
0.0023222237730595907

0
0
0
0
0
0
0
0
0
0
0
0
0
0
0
0
0.0010998219912726165

0
0
0
0
0
0
0
0
0
0
0
0
0
0
0
0
0
0
0
0
0
0
0
0
0
0
0
0
0
0.0010998219912726165

0
0.00259074371220407

0
0
0
0
0
0
0.0006331600012490062

0
0
0
0
0
0.0021317058442835764

0
0
0
0
0
0
0
0
0
0
0
0
0
0
0
0
0
0
0
0
0
0
0
0
0
0
0
0.0023222237730595907

0.003049781580124564

0
0
0
0
0
0
0
0
0
0
0
0
0
0
0
0
0
0
0
0
0
0
0
0
0
0
0
0
0
0
0
0
0
0.001524890790062282

0
0
0
0
0
0
0
0
0
0
0
0
0
0
0
0
0
0
0
0
0
0
0
0
0
0
0
0
0
0
0
0
0
0
0
0
0
0
0
0
0
0
0
0.003372094505464603

0
0
0
0
0
0.0016726679763630831

0
0
0
0
0
0
0
0
0
0
0
0
0
0
0
0
0
0
0
0
0
0
0
0
0
0.001461771465688557

0
0
0
0
0
0
0
0
0
0
0
0.0011490073744433419

0
0
0
0
0
0.0021317058442835764

0
0
0.003049781580124564

0
0
0
0
0
0
0
0
0
0
0
0
0
0
0
0.0021317058442835764

0
0
0
0
0
0
0.0008197843417229253

0
0
0
0
0
0
0
0
0
0
0
0
0
0
0
0
0
0
0
0
0
0
0
0
0
0
0
0
0
0
0
0
0
0.0013020614942866441

0
0
0.0021317058442835764

0
0
0
0
0.0046444475461191815

0.00259074371220407

0
0
0
0
0
0
0
0
0
0
0
0
0
0
0
0
0
0
0
0
0
0.006099563160249128

0
0
0
0
0
0
0
0
0
0
0
0
0
0
0
0
0
0
0
0
0
0.0007973329829973086

0
0.0011490073744433419

0
0
0
0
0
0
0
0
0
0
0
0
0
0
0
0
0.00234696270454553

0
0
0
0
0
0.0006765902301536301

0
0
0
0
0
0
0
0
0
0
0
0
0
0
0
0
0
0
0
0
0
0
0
0
0
0
0
0
0
0
0
0
0
0
0
0
0
0
0.00259074371220407

0
0
0
0
0
0
0
0
0.0010998219912726165

0
0
0
0
0
0
0
0.00259074371220407

0
0
0
0
0
0
0.0018361514716819744

0.001863185905139097

0
0
0
0
0
0
0
0
0
0
0
0
0
0
0
0
0
0
0
0
0
0
0
0
0
0.001863185905139097

0
0
0
0
0
0
0
0
0
0
0.002199643982545233

0.0013020614942866441

0
0
0
0
0
0
0
0
0
0
0
0
0
0
0
0
0.0010000299129510368

0
0.00033829511507681506

0
0
0
0
0
0
0
0
0
0
0
0
0
0
0
0
0
0
0
0
0
0
0
0
0
0.003049781580124564

0.0021317058442835764

0
0
0
0
0
0
0
0
0
0
0
0
0
0
0
0
0
0
0
0.005847085862754228

0
0
0
0
0
0
0
0
0
0
0
0
0
0
0
0
0
0
0
0
0
0
0
0
0
0
0
0
0
0
0
0
0
0
0
0.0021317058442835764

0
0
0.0007973329829973086

0
0
0.0012136301084425896

0
0
0
0
0
0
0
0
0
0
0
0
0
0
0
0
0
0.001256370850917802

0
0
0
0
0.004134166220568658

0
0
0
0
0
0
0
0
0
0.0008430236263661507

0
0
0
0
0
0.0021317058442835764

0
0
0
0.003049781580124564

0
0
0
0
0
0
0
0
0
0
0
0
0
0
0
0
0
0
0
0
0
0
0
0
0
0
0
0
0
0
0
0
0
0
0
0
0
0
0
0
0
0
0
0
0
0.0009448342885794236

0.000865446238855654

0.0005745036872216709

0.0016726679763630831

0
0
0
0
0
0
0.002271256196148247

0
0.00259074371220407

0
0
0
0
0
0
0
0
0
0.0016860472527323014

0
0
0
0
0
0.007698753938908316

0
0
0
0
0
0
0
0
0
0
0
0
0
0
0
0
0
0
0
0
0
0.0008671081589296439

0
0
0
0
0.00259074371220407

0
0.003049781580124564

0
0
0
0
0
0
0
0
0
0
0
0.0013020614942866441

0
0
0
0
0
0.00025540561643177796

0
0
0
0
0
0
0
0
0
0
0
0
0
0
0
0
0
0
0
0
0
0
0
0
0
0
0
0
0
0
0
0
0
0
0.00259074371220407

0.00259074371220407

0.003049781580124564

0
0.006966671319178772

0
0
0
0
0
0
0
0
0
0
0
0.003049781580124564

0
0
0
0
0.00259074371220407

0
0
0
0
0
0
0
0
0
0
0
0
0
0
0
0
0.003049781580124564

0.0013511396215407647

0
0
0
0
0
0
0
0
0
0
0
0
0
0
0
0
0
0
0
0
0
0
0
0
0
0
0
0
0
0
0
0
0
0
0
0.00259074371220407

0
0
0
0.0005589205763539927

0
0
0
0
0
0
0
0
0
0
0
0
0
0
0
0
0
0
0
0
0
0
0
0
0
0
0
0
0
0
0
0
0.003049781580124564

0
0
0
0
0
0
0
0
0
0
0
0
0
0
0
0
0
0
0
0
0
0
0.003049781580124564

0
0
0.0019839286579827753

0
0.0021317058442835764

0
0
0
0
0.001173481352272765

0
0
0
0
0
0
0
0
0
0
0.0008430236263661507

0
0
0
0
0
0
0
0
0
0
0
0
0
0
0
0
0
0
0
0
0
0
0
0.0013511396215407647

0
0.001256370850917802

0
0
0
0
0
0
0
0
0
0
0
0
0
0
0
0
0
0
0
0
0
0.0025252253166170224

0
0
0
0
0
0
0
0
0
0
0
0
0
0
0
0
0
0
0
0
0
0
0
0
0
0
0
0
0
0
0.0004724171442897118

0
0
0
0
0
0
0
0
0
0
0.003049781580124564

0
0
0
0
0
0
0
0
0
0
0
0
0.0005436957298475697

0
0
0
0
0
0
0
0
0
0
0
0
0
0
0
0
0
0
0
0
0
0
0
0
0
0
0
0
0
0
0
0.0006068150542212948

0
0
0
0
0
0.0033453359527261663

0
0
0
0
0
0
0
0
0
0
0
0
0.0009451101692981098

0
0
0
0
0
0
0
0
0
0
0.0051677077757108225

0.0035221987244142753

0
0
0
0
0.0019839286579827753

0
0
0
0
0
0
0
0
0
0
0
0
0
0
0
0
0
0
0
0
0
0
0
0
0
0
0
0
0
0
0
0
0
0
0
0
0
0
0
0
0
0
0.0017610993622071377

0.00259074371220407

0
0
0.00259074371220407

0
0
0
0
0
0
0
0
0
0
0
0
0
0
0
0
0
0
0
0
0
0.0017610993622071377

0
0
0
0
0
0
0
0
0
0
0
0
0
0
0
0
0
0
0
0
0
0
0
0
0
0
0
0
0
0
0
0
0
0
0
0
0
0
0
0
0
0
0
0
0
0
0
0
0
0
0
0
0
0.0021317058442835764

0
0
0
0
0
0
0
0
0
0
0
0
0
0
0
0
0
0
0
0.003049781580124564

0
0
0
0
0
0
0
0
0
0
0
0
0.006395117532850729

0
0
0
0
0
0
0
0
0
0
0
0
0.00025420625101514567

0
0
0
0
0
0
0
0
0
0
0
0
0
0
0
0
0
0
0
0
0
0
0
0
0
0
0
0
0
0
0
0
0
0
0
0
0
0
0
0
0
0
0
0
0
0
0
0
0
0
0
0
0
0
0
0
0
0
0
0
0
0
0
0
0
0
0
0
0
0
0
0
0
0
0
0
0
0
0
0
0
0
0
0
0
0
0
0
0
0
0
0
0
0
0.0023222237730595907

0
0
0
0
0
0
0
0
0
0
0
0
0
0
0
0
0
0
0
0
0
0
0
0
0
0
0
0
0
0
0
0
0
0
0
0
0
0
0
0
0
0
0
0
0
0
0
0
0
0
0
0
0
0
0.001173481352272765

0
0.001594665965994617

0
0
0
0
0
0
0
0
0
0
0
0
0
0
0
0
0.003049781580124564

0
0
0
0
0
0
0
0
0
0
0
0
0
0
0
0
0
0
0
0
0
0
0
0
0
0
0
0
0.003049781580124564

0
0
0
0.0035221987244142753

0
0
0
0
0
0
0
0
0
0
0
0
0
0
0
0
0
0
0
0
0
0
0
0
0
0
0
0
0
0
0
0
0
0
0.0023222237730595907

0
0
0
0
0
0
0
0
0
0
0
0
0
0
0
0
0
0
0
0
0
0
0
0
0
0.02134847106087195

0
0
0
0
0
0
0
0
0
0
0
0
0
0
0
0
0
0
0
0
0.0010998219912726165

0
0
0
0
0
0
0
0
0
0
0
0
0
0
0
0
0
0
0
0
0
0
0
0
0
0
0
0
0
0
0
0
0
0
0
0
0
0
0
0
0
0
0
0
0
0
0
0
0
0
0
0
0
0
0
0
0
0
0
0
0
0.0003722641842076432

0
0
0
0
0
0
0
0
0
0
0
0
0
0
0
0
0
0
0.00259074371220407

0
0
0
0
0
0
0
0
0
0
0
0
0
0.0013020614942866441

0
0
0
0
0
0
0
0
0
0
0
0
0
0
0
0
0
0.003049781580124564

0
0
0
0
0
0
0
0
0
0
0
0
0
0
0
0
0
0
0
0
0.003967857315965551

0
0
0
0
0
0
0
0
0
0
0
0
0
0
0
0
0
0
0
0
0
0
0
0
0
0
0
0
0
0
0
0.0019465906888197903

0
0
0
0
0
0
0
0
0
0
0
0
0
0
0
0
0
0
0
0
0
0
0
0
0
0
0
0
0
0
0
0
0.0023222237730595907

0
0
0
0
0
0
0
0
0
0
0
0
0
0
0
0
0
0
0
0
0
0
0
0
0
0
0
0
0
0
0
0
0
0
0
0
0
0
0
0
0
0
0
0
0.003049781580124564

0
0.001863185905139097

0.0005436957298475697

0.003049781580124564

0
0.0010658529221417882

0
0
0.0023222237730595907

0
0
0
0
0
0
0
0
0
0
0
0
0
0
0
0
0
0
0
0
0
0
0
0
0
0
0
0
0
0
0
0
0
0
0
0
0
0
0.003049781580124564

0
0
0
0
0
0
0
0
0
0
0
0
0
0
0
0
0
0
0
0
0.0016726679763630831

0
0
0
0
0
0
0
0
0
0
0
0
0
0
0
0
0
0
0
0
0
0.0009451101692981098

0
0
0
0
0
0
0.006966671319178772

0
0
0
0
0.0023222237730595907

0
0
0
0
0
0
0
0
0.00259074371220407

0
0
0
0
0
0
0
0
0
0
0
0
0
0
0
0
0
0
0
0
0
0
0
0
0
0
0
0.0008671081589296439

0
0
0
0
0
0
0
0
0
0
0
0
0
0
0
0
0
0
0
0
0
0
0
0
0
0
0
0
0
0
0
0
0
0
0
0
0
0
0
0
0.0003959185435467685

0
0
0
0
0
0
0
0
0
0
0
0
0
0
0
0
0
0
0
0
0
0
0
0
0
0
0
0
0
0
0
0
0
0
0
0
0
0.003049781580124564

0.0002791007037293411

0
0
0.0014041480372186032

0
0
0
0
0
0
0
0
0.00259074371220407

0
0.003049781580124564

0
0
0
0
0
0
0
0
0
0
0
0
0.0002652169315212751

0
0
0
0
0
0
0
0
0
0
0
0
0
0
0
0.0002457375373449218

0
0.0017610993622071377

0
0
0
0.0016726679763630831

0
0.0033453359527261663

0.002459353025168776

0
0
0
0
0
0
0
0.003049781580124564

0
0.001524890790062282

0
0
0
0
0
0
0
0
0
0
0
0
0
0
0
0
0
0
0
0
0
0
0
0
0
0
0
0
0
0
0
0
0
0
0
0.001594665965994617

0
0
0.002427260216885179

0
0
0
0
0
0.0013168904282700223

0.0009732953444098951

0
0
0
0
0
0
0
0
0
0
0
0
0
0
0
0
0
0
0
0
0
0
0
0
0
0
0
0
0
0
0
0
0
0
0
0
0
0
0
0
0
0
0
0
0
0.0023222237730595907

0
0
0
0
0
0
0.004609116498945079

0
0
0
0
0
0
0
0
0.0012136301084425896

0
0
0
0.0010658529221417882

0.001524890790062282

0
0
0
0
0
0
0
0
0
0
0
0
0
0
0
0
0
0
0
0
0
0
0
0.003967857315965551

0
0
0.01036297484881628

0
0
0
0
0
0
0
0
0
0
0
0
0
0
0
0
0
0
0.0012136301084425896

0
0
0
0
0
0
0
0
0
0
0
0
0
0
0
0
0
0
0
0
0
0
0
0
0.0023222237730595907

0.0013511396215407647

0.001524890790062282

0
0.0004330638856997775

0
0
0
0
0
0
0
0
0
0
0
0.001594665965994617

0
0.0013977026280327732

0.0010027335977680634

0
0
0
0.0003273485574932319

0
0
0
0
0
0
0
0
0.0019839286579827753

0
0
0
0
0
0
0
0
0
0
0
0
0
0
0
0
0
0
0
0
0
0
0
0
0
0
0
0
0
0
0
0
0
0
0
0
0
0.003049781580124564

0
0
0
0
0
0
0
0
0
0
0
0
0
0
0
0
0
0
0
0
0
0
0
0
0
0
0
0
0
0.00259074371220407

0
0
0
0
0
0
0
0
0
0
0
0
0
0
0
0
0
0
0.006099563160249128

0
0
0
0.00259074371220407

0
0
0
0
0
0
0
0
0
0
0
0
0
0.00259074371220407

0
0
0
0
0.003049781580124564

0
0
0
0
0
0
0
0
0
0
0
0
0
0
0
0
0
0
0.0007342136586235836

0
0.001461771465688557

0
0
0
0
0
0
0
0
0
0
0
0.001509184481044192

0
0
0
0
0
0
0
0
0
0
0
0
0
0
0
0
0
0
0
0
0
0
0
0
0
0
0.0046444475461191815

0
0
0
0
0
0
0
0
0
0
0
0
0
0
0
0
0
0.0021317058442835764

0
0
0
0
0
0
0
0
0
0
0
0
0
0
0
0
0
0
0
0
0
0
0
0
0
0
0.003049781580124564

0
0
0
0
0
0
0
0
0
0
0.0008255273721092698

0
0.0013511396215407647

0
0
0
0
0
0
0
0
0
0
0
0
0
0
0
0
0
0
0
0
0
0.003049781580124564

0
0
0
0
0
0
0
0
0.006099563160249128

0
0
0
0
0
0
0
0
0
0.003049781580124564

0
0
0
0
0
0
0
0
0
0
0
0
0
0
0
0
0
0
0
0
0
0
0
0
0.0014041480372186032

0
0
0
0
0
0
0
0.00234696270454553

0
0
0
0
0
0
0
0
0
0
0
0
0
0
0
0
0
0
0
0
0.0012136301084425896

0
0.0015913015891276504

0.004263411688567153

0
0
0
0
0
0
0
0
0
0
0
0
0
0
0
0
0
0
0
0
0
0
0
0.0023222237730595907

0
0
0
0
0
0
0
0
0
0
0
0.00022681477413693767

0
0
0
0
0
0
0
0
0
0
0
0
0
0
0
0
0
0
0
0
0
0.0013020614942866441

0
0
0
0
0
0
0
0
0
0
0
0
0
0
0
0
0
0
0
0
0
0
0
0
0
0
0
0
0
0
0
0
0
0
0
0
0
0
0
0
0
0
0
0
0.0013511396215407647

0.0035204440568182955

0
0
0
0
0
0
0
0
0
0
0
0
0
0
0
0
0.004574672370186847

0
0
0
0
0
0
0
0
0
0
0
0
0
0
0
0
0
0
0
0
0
0
0.0009732953444098951

0
0
0
0
0
0
0
0
0
0
0
0
0
0
0
0
0
0
0
0
0.001173481352272765

0
0
0
0
0
0
0
0.0017610993622071377

0
0
0
0
0
0
0
0
0
0
0
0.0009451101692981098

0
0
0
0
0
0
0
0.0009180757358409872

0
0
0
0
0
0
0
0
0
0
0
0
0
0
0.0010335415551421645

0
0
0
0
0
0
0
0
0
0
0
0.003049781580124564

0
0
0
0
0
0
0
0
0
0.001461771465688557

0
0
0.0009180757358409872

0
0
0
0
0
0
0
0.0005452387662948881

0
0
0
0
0
0
0
0
0
0.001676761729061978

0
0
0
0
0
0
0
0
0
0
0
0
0
0
0
0
0
0
0
0
0
0.003049781580124564

0.003049781580124564

0
0
0
0
0
0
0
0
0
0
0
0
0
0
0
0
0
0
0
0
0
0
0
0
0
0
0
0
0
0
0
0
0
0
0
0
0
0
0
0
0
0
0
0
0.003167348348374148

0.0016310871895427093

0
0
0.0011178411527079854

0.003049781580124564

0
0
0
0
0
0
0
0
0
0.0009180757358409872

0
0
0
0
0
0
0
0
0
0
0
0
0
0
0.0017610993622071377

0.00259074371220407

0
0
0.006099563160249128

0.0010998219912726165

0
0
0
0
0
0
0
0
0
0
0
0
0
0
0
0
0
0
0
0
0
0
0
0.0005904623306515123

0
0
0
0
0
0
0
0
0
0
0
0
0
0
0.0016726679763630831

0
0
0
0
0
0.001863185905139097

0
0
0
0
0.0021317058442835764

0
0
0
0
0
0
0
0
0
0
0
0
0
0
0
0
0
0
0
0
0
0
0
0
0
0
0
0
0.0023222237730595907

0.004263411688567153

0
0
0
0
0
0
0
0
0
0
0
0
0
0
0
0
0
0
0
0
0
0
0.0006765902301536299

0
0
0
0
0.0005436957298475697

0
0
0.0013511396215407647

0
0
0
0
0
0
0
0
0
0
0
0
0
0.0010998219912726165

0
0
0
0
0
0
0
0
0
0
0
0
0
0
0
0
0
0
0
0
0
0.0013511396215407647

0
0
0
0
0
0
0
0
0
0
0
0
0
0
0
0
0
0
0
0
0
0
0
0
0
0
0
0
0
0
0
0
0
0
0
0.00518148742440814

0
0
0
0.00259074371220407

0
0
0
0
0
0.001863185905139097

0
0
0.0012136301084425896

0
0
0
0
0
0
0
0
0
0
0
0
0
0
0
0
0
0
0
0.0032994659738178494

0
0
0
0
0
0
0
0
0
0
0
0
0
0
0
0
0
0.0008430236263661507

0
0
0
0
0
0
0
0
0
0
0
0
0
0
0
0
0
0
0
0
0.0008430236263661507

0
0.0021317058442835764

0
0
0
0
0
0
0
0
0
0
0.007935714631931101

0
0
0
0
0
0
0
0
0
0
0
0
0
0
0
0.0019839286579827753

0.001594665965994617

0
0
0
0
0
0
0
0
0
0
0
0
0
0
0
0
0
0
0
0
0
0
0.00259074371220407

0
0
0
0
0
0
0.009149344740373693

0
0
0
0
0.0012136301084425896

0
0
0
0
0
0
0
0
0
0
0
0
0
0
0
0.0012136301084425896

0
0
0
0
0
0
0
0.0008921017536202712

0
0
0
0
0
0.0010000299129510368

0
0
0
0
0
0
0
0
0
0
0
0
0
0
0
0
0
0
0
0
0
0
0
0
0
0
0.0009732953444098951

0.0035221987244142753

0
0
0
0
0
0
0
0
0
0
0
0
0
0
0
0
0
0.0007144434843522716

0
0
0
0
0
0
0
0
0
0
0
0
0
0
0
0
0.001863185905139097

0
0
0
0
0
0
0
0
0
0
0
0
0
0
0
0
0.003049781580124564

0
0
0
0
0
0
0
0
0
0
0
0
0
0
0
0
0
0
0
0
0
0
0
0
0
0
0
0
0
0
0
0
0
0.0024949625155063146

0
0
0
0
0
0
0
0
0
0.00259074371220407

0.0017610993622071377

0
0
0
0
0
0
0
0
0
0
0
0
0
0
0
0.0007973329829973086

0
0
0
0
0
0
0
0
0
0
0
0
0
0
0
0
0
0
0
0
0
0
0
0
0
0
0
0
0.00259074371220407

0
0
0
0
0
0
0
0
0
0
0
0
0
0
0
0
0
0
0
0
0
0
0
0
0
0
0
0
0
0
0.0017610993622071377

0
0
0
0
0
0
0
0
0
0
0
0
0
0
0
0
0
0
0
0
0
0
0
0
0
0
0
0
0
0
0
0
0
0
0
0.001594665965994617

0.00259074371220407

0
0
0
0
0.00259074371220407

0
0
0
0.0007756178685449967

0
0
0
0
0
0
0
0
0
0
0
0
0
0
0
0
0
0
0
0
0
0
0
0
0
0
0
0
0
0
0
0
0
0
0
0
0
0
0
0
0
0
0
0
0.0021317058442835764

0
0.00518148742440814

0
0
0
0
0
0
0
0
0
0
0
0
0
0
0
0
0
0
0.00518148742440814

0
0.003049781580124564

0
0
0
0
0
0
0
0
0
0.003049781580124564

0
0
0
0
0
0.0006068150542212948

0
0
0
0
0
0
0
0
0
0
0
0
0
0
0
0
0
0
0
0
0.0016726679763630831

0
0.0023222237730595907

0
0
0
0
0
0
0
0
0.00259074371220407

0
0
0
0
0
0
0
0
0
0
0
0
0
0
0
0
0
0.0018902203385962196

0
0
0
0
0
0
0
0
0
0
0
0
0
0
0
0
0
0
0.0010658529221417882

0
0
0
0
0
0
0
0
0.0004590378679204936

0
0
0
0
0
0
0
0
0
0
0
0
0
0
0
0
0
0
0
0
0
0
0
0
0
0
0
0.00259074371220407

0
0
0
0
0
0
0
0
0
0
0
0
0
0
0
0
0
0
0
0
0
0.00259074371220407

0
0
0
0
0
0
0
0
0
0
0
0.0019839286579827753

0
0
0
0
0
0
0
0
0
0
0
0
0
0
0
0
0
0
0
0
0
0
0
0
0
0
0.0012136301084425896

0
0
0
0
0
0
0
0
0.0006584452141350112

0
0.0017842035072405424

0
0
0
0
0
0
0
0
0
0.003049781580124564

0
0.001173481352272765

0
0
0
0
0
0
0
0
0
0
0
0
0
0
0
0
0
0
0
0
0
0
0
0
0
0
0
0
0
0
0
0
0
0
0.003049781580124564

0
0
0
0
0
0
0.0010027335977680634

0.001594665965994617

0
0
0
0
0
0
0
0
0
0
0
0
0
0
0
0
0
0
0
0
0
0
0
0
0
0
0
0
0
0
0
0
0
0
0
0
0
0
0
0
0.0006235818144757914

0
0
0
0
0
0
0
0
0
0
0
0
0
0
0
0
0
0
0
0
0
0
0.003049781580124564

0
0
0.003049781580124564

0
0
0
0
0
0
0.0002852866993989764

0
0
0.0021317058442835764

0.0018902203385962196

0
0
0
0
0
0
0
0.003049781580124564

0
0
0
0
0
0
0
0
0
0
0
0
0
0
0
0
0
0.0013168904282700223

0
0
0
0
0
0
0
0
0
0
0
0
0
0
0
0
0
0
0
0
0
0
0
0
0
0
0
0
0
0
0
0.003049781580124564

0
0
0
0
0
0.0007144434843522716

0
0.00518148742440814

0
0.003049781580124564

0
0
0.003049781580124564

0.003049781580124564

0
0
0
0
0
0
0.003049781580124564

0
0
0
0
0
0
0.0009180757358409872

0
0
0
0
0
0.0008671081589296439

0
0
0
0
0
0
0
0
0
0
0
0
0
0
0
0
0
0
0
0
0.003049781580124564

0
0
0
0.00020841771181437098

0
0
0
0
0
0
0
0
0.0009721446027552325

0
0
0.0009732953444098951

0
0
0
0
0
0
0
0
0
0
0
0
0
0
0
0
0
0
0.0013511396215407647

0
0.0006407841233521229

0
0
0.0011007031628123597

0
0
0
0
0
0
0
0
0
0
0.0004724171442897118

0
0
0
0
0
0
0
0
0
0.0011356280980741235

0
0
0
0
0
0
0
0
0
0
0
0
0
0.0016726679763630831

0
0
0
0
0
0.001173481352272765

0
0
0
0
0
0
0
0
0
0
0
0
0.002923542931377114

0
0
0
0
0
0
0
0
0
0
0
0
0
0
0.0028082960744372065

0
0
0
0
0.0019839286579827753

0.0021317058442835764

0.0009732953444098951

0.0011490073744433419

0.0012471636289515828

0
0
0
0
0
0
0
0
0
0
0
0
0
0
0
0
0
0
0
0
0
0
0
0
0
0
0
0
0
0
0
0
0
0
0
0
0
0
0
0
0
0
0
0
0
0.003049781580124564

0
0
0
0
0
0
0
0
0
0
0
0
0
0
0
0
0
0
0
0
0.0016726679763630831

0
0
0
0
0
0
0
0
0
0
0
0
0
0
0
0
0
0
0
0
0
0
0
0
0
0
0
0
0
0
0
0
0
0
0
0
0
0.0021317058442835764

0
0
0
0
0
0
0
0
0
0
0
0
0
0
0
0
0
0.001583674174187074

0.005847085862754228

0.0011178411527079854

0
0
0
0
0
0
0.0008430236263661507

0
0
0
0
0
0
0
0
0
0
0
0
0
0
0
0
0
0
0
0
0
0
0.003049781580124564

0
0
0
0
0
0
0
0.001594665965994617

0
0
0
0
0
0
0
0
0
0
0
0
0
0
0
0
0.0016860472527323014

0
0
0.0027022792430815294

0
0
0
0.001256370850917802

0
0.003049781580124564

0
0
0
0
0
0.0017842035072405424

0
0
0
0
0
0
0
0
0
0
0
0
0
0
0
0
0
0
0
0
0
0
0
0.0016726679763630831

0
0
0
0.0011178411527079854

0
0
0
0
0
0
0
0
0
0
0
0
0
0
0
0
0
0
0.001173481352272765

0
0
0
0
0
0
0
0
0
0
0
0
0
0
0
0
0
0
0
0
0
0
0
0
0
0.0019839286579827753

0
0
0
0
0
0
0
0
0
0
0
0
0
0
0
0
0
0
0
0
0.00259074371220407

0
0.00259074371220407

0
0
0
0
0
0
0
0
0
0
0
0
0
0
0
0
0
0
0
0.003049781580124564

0
0
0
0
0.003189331931989234

0
0
0
0
0
0
0
0
0
0.001594665965994617

0
0
0
0.003049781580124564

0
0
0
0
0
0
0
0
0
0
0
0
0
0
0
0
0
0
0
0
0
0
0
0
0
0
0
0
0
0
0
0
0
0
0
0
0
0
0
0
0
0
0
0
0
0
0
0
0
0
0
0
0.0005745036872216709

0
0
0
0
0
0
0
0
0
0
0
0
0
0
0
0
0
0
0
0
0
0.0021317058442835764

0
0
0
0
0
0
0
0
0
0
0
0
0
0
0
0
0
0
0
0
0
0
0
0
0.0017610993622071377

0
0
0
0
0
0
0
0
0
0
0
0
0
0
0
0
0
0.0005745036872216709

0
0
0
0
0
0
0
0
0
0
0
0
0
0
0
0
0
0
0.0004330638856997775

0
0
0
0
0
0
0
0
0
0
0
0
0
0.0006407841233521229

0
0
0
0
0
0
0
0
0
0
0
0
0
0
0
0
0
0.004134166220568658

0
0
0.0010658529221417882

0
0.00421244411165581

0
0.0010658529221417882

0
0
0
0
0
0
0
0
0
0
0
0
0
0
0
0
0
0
0
0
0
0
0
0
0
0
0
0
0
0
0
0.0009180757358409872

0
0
0
0
0
0.0009732953444098951

0
0
0
0
0
0
0.004263411688567153

0
0
0.009235373726174709

0.001594665965994617

0
0
0
0
0
0
0
0
0
0
0
0
0
0
0
0
0.0021317058442835764

0
0
0.0019839286579827753

0
0
0
0
0
0
0.001594665965994617

0
0
0
0
0
0
0
0
0
0
0
0
0
0
0
0
0
0
0
0
0
0
0
0
0
0
0
0
0
0
0
0
0
0
0
0
0
0
0
0
0
0
0
0.0046444475461191815

0
0
0
0
0
0
0
0
0
0
0
0
0
0
0
0
0
0
0
0
0
0
0
0
0
0
0
0
0
0
0
0.000866127771399555

0
0
0
0
0
0
0
0.001524890790062282

0
0
0
0
0
0.003049781580124564

0
0
0
0
0
0
0
0.004053418864622294

0
0
0
0
0
0
0
0
0
0
0
0
0
0
0
0
0
0
0
0
0
0.0017610993622071377

0
0
0
0.000866127771399555

0
0
0.0014041480372186032

0
0
0
0.001461771465688557

0
0
0
0
0
0
0
0
0
0
0
0
0
0
0
0
0
0
0
0
0
0
0
0
0
0
0
0
0
0
0
0
0
0
0
0
0
0
0
0
0
0
0
0
0
0
0
0
0
0
0
0
0
0
0
0
0
0
0
0
0
0
0
0
0
0
0
0
0
0
0
0
0
0
0
0
0
0
0
0
0
0
0
0
0
0
0
0
0
0
0
0
0
0
0
0
0.00039881469242903527

0.001595258769716141

0
0
0
0
0
0.0008921017536202712

0
0
0
0
0
0
0
0
0
0
0
0
0
0
0
0
0.003049781580124564

0
0
0
0
0
0
0
0
0
0
0
0
0
0
0
0
0
0
0
0
0
0
0
0
0.0012136301084425896

0
0
0
0
0
0
0
0
0
0
0
0
0
0
0
0.0013020614942866441

0.002512741701835604

0.0021317058442835764

0
0
0
0
0
0
0
0
0
0
0
0
0
0
0
0
0
0
0
0
0
0
0
0
0
0
0
0
0
0
0
0
0
0
0
0
0
0
0
0
0
0
0
0
0
0.004053418864622294

0
0
0
0
0
0
0
0
0
0
0
0
0
0
0
0
0
0
0
0
0.004653707211269981

0.004988654515806331

0
0.0017713869919545368

0
0
0
0
0
0
0
0
0
0
0
0
0
0
0
0
0
0
0
0
0
0
0
0
0
0
0
0.0023222237730595907

0
0
0
0
0
0.0026763052608608133

0
0
0
0.0012136301084425896

0
0
0
0.0046444475461191815

0
0
0.003049781580124564

0
0
0
0
0
0
0
0
0
0
0
0
0
0
0
0
0
0
0
0
0
0
0
0
0
0
0
0
0
0
0
0
0
0
0
0
0
0.001863185905139097

0
0
0
0
0
0
0
0.003049781580124564

0
0
0
0.0013168904282700223

0
0
0
0.0015946659659946173

0
0
0
0
0
0
0
0
0
0
0.003049781580124564

0
0
0
0.0017610993622071377

0
0
0
0
0
0
0
0
0
0
0
0
0
0
0.003049781580124564

0
0
0
0
0
0
0
0
0
0
0
0
0
0
0
0
0
0
0
0
0
0
0
0.0011356280980741235

0
0
0
0
0
0
0
0
0.006099563160249128

0.008526823377134306

0
0
0
0
0
0
0
0
0
0
0
0
0
0
0
0
0
0
0
0
0.00259074371220407

0
0
0
0
0
0
0
0
0
0
0
0
0
0
0
0
0.0008430236263661507

0
0
0
0
0
0
0
0
0.0003959185435467685

0
0
0
0
0
0
0
0
0
0
0
0
0.0016726679763630831

0
0
0
0
0
0
0
0
0
0
0
0
0.004574672370186847

0
0
0
0
0
0
0
0
0
0
0
0
0
0
0
0
0
0
0
0
0
0
0
0
0
0
0
0
0
0
0
0
0
0
0
0
0
0
0
0
0
0
0
0.00234696270454553

0
0.00038398575844565707

0
0.00033829511507681506

0
0
0
0
0
0
0
0
0
0
0
0
0
0
0
0
0.003049781580124564

0.0023222237730595907

0
0
0
0
0
0
0
0
0
0.003967857315965551

0
0
0
0.0023222237730595907

0.0023222237730595907

0
0
0
0
0
0.003049781580124564

0
0
0
0
0
0
0
0
0
0.001594665965994617

0
0
0
0
0
0
0
0
0.003049781580124564

0
0
0
0
0
0
0
0
0
0
0
0.0009180757358409872

0
0
0.0019839286579827753

0.00234696270454553

0
0
0
0
0
0
0
0
0
0
0.0023222237730595907

0
0
0
0
0
0
0
0
0
0
0
0
0
0
0.00048607230137761627

0
0
0
0
0
0
0
0.0018361514716819744

0
0
0
0
0
0
0
0
0
0
0
0
0
0.0019839286579827753

0
0
0
0
0
0
0
0
0.0021317058442835764

0
0
0
0
0
0.0010608677260851003

0
0
0
0
0
0
0
0.003049781580124564

0
0
0
0
0
0
0
0
0
0.0021317058442835764

0
0
0
0.001594665965994617

0
0
0
0
0
0
0
0
0
0
0
0
0
0
0
0
0
0
0
0
0
0
0
0
0
0
0
0
0
0
0
0
0
0
0
0
0
0
0
0
0
0
0
0
0
0
0.006755698107703823

0
0
0
0
0
0
0.00234161258464639

0
0
0
0
0
0.0009451101692981098

0
0
0
0
0.0014041480372186032

0
0
0
0
0
0
0
0
0
0
0
0
0
0
0
0.0008558600981969292

0
0
0
0
0
0
0
0
0
0
0
0
0
0
0
0.0010335415551421645

0
0
0
0
0.001594665965994617

0.0010658529221417882

0
0
0
0
0
0
0
0
0
0
0.0023222237730595907

0
0
0
0
0
0
0.005951785973948326

0
0
0
0
0
0
0
0
0
0
0
0
0
0
0
0
0
0
0
0
0
0
0
0
0
0
0
0
0.001461771465688557

0
0
0
0
0.003049781580124564

0
0
0
0
0
0
0
0
0.002427260216885179

0
0
0
0
0
0
0
0
0
0
0
0
0
0
0
0
0
0.0035221987244142753

0
0
0
0
0
0
0.002067083110284329

0
0
0
0
0
0
0
0
0
0
0
0
0
0
0
0
0
0
0
0
0
0
0.00259074371220407

0
0
0
0
0
0
0
0
0
0
0.006089312071382671

0
0
0
0
0.0013020614942866441

0
0
0
0
0
0.0005745036872216709

0
0
0
0
0
0
0
0
0
0
0
0.0021317058442835764

0
0
0
0
0
0
0
0
0
0
0
0
0
0
0
0
0
0
0
0
0
0.0010658529221417882

0
0
0
0
0
0
0
0
0
0
0
0
0.003049781580124564

0
0.0046444475461191815

0.0007756178685449967

0
0
0
0
0
0
0
0
0
0
0
0
0
0
0
0
0
0
0
0
0
0
0
0.004263411688567153

0
0
0
0
0
0
0
0
0
0.003049781580124564

0
0
0
0
0
0
0
0
0
0
0
0
0
0
0
0
0
0
0
0
0
0
0
0
0.0002852866993989764

0
0
0
0
0
0
0
0
0
0
0
0
0
0.00259074371220407

0
0
0
0
0
0
0
0
0
0
0
0
0
0
0
0
0.003967857315965551

0
0
0
0
0
0
0
0
0
0
0
0
0
0
0
0
0
0
0
0
0
0
0
0
0
0
0
0.00259074371220407

0
0
0
0
0
0
0
0
0
0
0
0
0
0
0
0
0
0
0.0006765902301536299

0
0
0
0
0
0
0
0
0
0
0
0
0
0
0
0
0
0
0
0
0
0
0
0.0014684273172471671

0.001256370850917802

0
0
0
0
0
0
0
0
0
0
0
0
0.000754592240522096

0.0008921017536202712

0
0
0
0.001256370850917802

0
0
0
0
0
0
0
0
0
0
0
0
0
0
0
0
0
0
0
0
0
0
0
0
0
0
0
0
0
0
0
0
0
0
0
0
0.0029198860332296855

0
0
0
0
0
0
0
0
0
0
0
0
0
0.0009721446027552325

0
0.0023222237730595907

0
0
0
0
0
0
0
0
0
0
0
0
0
0
0
0
0
0
0
0
0
0
0
0
0.0014041480372186032

0
0
0
0
0
0
0
0
0
0
0
0
0
0
0
0
0
0
0
0
0
0
0
0
0
0
0
0
0
0
0
0
0
0
0
0
0
0
0.00518148742440814

0
0
0
0.001524890790062282

0
0
0
0
0
0
0
0.0019839286579827753

0
0
0
0
0
0.00259074371220407

0
0
0
0
0
0
0
0
0
0
0
0
0
0
0
0
0
0
0
0
0
0
0
0
0
0
0
0
0
0
0
0
0
0
0
0
0
0
0
0.00259074371220407

0
0
0
0
0
0
0
0
0
0
0
0
0
0
0
0
0
0
0
0
0
0.00259074371220407

0
0
0
0
0
0
0
0
0
0
0
0
0.0023222237730595907

0
0
0
0
0
0
0.0005436957298475697

0
0
0
0
0
0
0
0
0.0026041229885732883

0
0
0
0
0
0
0
0
0
0
0
0.001863185905139097

0
0
0
0
0
0
0
0
0
0
0
0
0
0
0
0
0.00259074371220407

0
0
0
0.0010998219912726165

0
0
0
0
0.004053418864622294

0
0
0
0
0
0
0
0
0
0
0
0
0
0
0
0
0
0
0
0
0
0
0
0
0.003049781580124564

0.006395117532850729

0
0
0
0
0
0
0
0
0
0
0.0025226951222621307

0.0021317058442835764

0
0
0
0
0
0
0
0
0
0
0.003049781580124564

0
0
0.0019839286579827753

0.0009451101692981098

0
0
0
0
0
0
0
0
0.0028528669939897637

0
0
0
0
0
0
0
0
0
0
0.001461771465688557

0
0
0
0
0
0
0
0
0
0
0
0
0
0
0
0
0
0
0.0017610993622071377

0
0
0
0
0
0
0
0
0
0
0
0
0
0
0
0
0
0
0
0
0
0
0
0
0
0
0
0
0
0
0.0013020614942866441

0
0
0
0
0
0
0
0
0
0
0
0
0
0.001863185905139097

0
0
0.003049781580124564

0
0
0
0
0
0
0
0
0
0.0013020614942866441

0
0
0
0
0
0
0
0
0
0
0
0
0.001863185905139097

0
0
0
0
0
0
0
0.003049781580124564

0
0
0
0
0
0
0
0
0
0
0
0
0
0
0
0
0
0
0
0
0
0
0
0
0
0
0
0
0
0
0
0
0
0
0
0
0
0
0
0.0019839286579827753

0
0
0.0013511396215407647

0
0
0.0017610993622071377

0
0
0
0
0
0
0
0
0
0
0
0
0
0
0
0
0
0
0
0
0
0.0033453359527261663

0
0
0
0.00259074371220407

0
0
0.0021317058442835764

0
0
0
0
0
0
0
0
0.0021317058442835764

0
0
0
0
0
0
0
0
0
0
0
0
0.0003959185435467685

0
0.000997036731072588

0
0
0
0.00019976541686699827

0
0
0
0
0
0
0
0.00259074371220407

0
0
0
0
0
0
0
0
0
0
0
0
0
0
0
0
0
0
0
0
0
0
0
0
0
0
0
0
0
0.0014041480372186032

0
0
0
0.0026763052608608133

0
0
0
0
0
0
0
0
0
0
0
0
0
0
0
0
0
0.009149344740373693

0
0
0
0
0
0
0
0.000754592240522096

0
0
0
0
0
0
0
0
0
0
0
0
0
0
0
0
0
0
0
0
0
0
0
0
0
0
0
0
0
0
0
0
0
0
0
0
0.0016726679763630831

0.003049781580124564

0
0
0
0.001173481352272765

0.0019839286579827753

0
0
0
0
0
0.001256370850917802

0
0
0
0
0
0
0
0
0
0
0
0
0.0017842035072405424

0
0
0
0
0
0
0
0
0
0
0
0
0
0
0
0
0
0
0
0
0
0
0
0
0
0
0
0
0
0.0007342136586235836

0
0
0
0
0
0
0
0
0
0
0
0
0
0
0
0
0
0
0
0
0
0
0
0.003049781580124564

0
0
0
0
0
0
0
0
0
0
0
0
0
0
0
0
0
0
0
0
0
0
0
0
0
0
0
0
0
0.0007445283684152864

0
0
0.0007342136586235836

0
0
0
0.00259074371220407

0
0
0
0
0
0.003049781580124564

0.0021317058442835764

0
0
0
0
0
0
0
0
0
0
0
0
0
0
0
0
0
0
0
0
0
0
0
0
0
0
0
0
0
0
0
0
0
0
0
0
0
0
0.001256370850917802

0
0
0
0
0
0
0
0
0
0
0
0
0
0
0
0
0
0
0
0
0
0
0
0
0
0
0
0
0
0
0
0
0
0
0
0
0
0
0
0
0
0
0
0
0
0
0.003049781580124564

0
0
0
0
0
0
0
0
0
0
0
0
0
0
0
0
0
0
0
0
0
0
0
0
0
0
0
0
0
0
0
0
0
0
0
0
0
0
0
0
0
0
0
0.0023222237730595907

0
0
0
0
0
0
0
0
0
0
0
0
0
0
0
0.00259074371220407

0
0
0
0
0
0
0
0
0
0
0.00259074371220407

0
0
0
0
0
0
0
0
0
0
0
0
0
0
0
0
0
0
0
0
0
0
0
0
0.003049781580124564

0
0
0
0
0
0.006099563160249128

0
0
0
0
0
0
0
0
0
0
0
0
0
0
0
0
0
0
0
0
0
0
0
0
0
0
0
0.0007973329829973086

0.10103900477595873

0
0
0
0
0
0
0
0
0
0
0
0
0
0
0
0
0
0
0
0
0.0013511396215407647

0
0
0
0
0
0
0.0019839286579827753

0
0
0
0
0
0
0
0
0
0
0
0
0
0
0
0
0
0
0
0
0
0.001594665965994617

0
0
0
0
0
0
0
0
0
0
0
0
0
0
0
0
0
0
0
0
0
0
0
0
0
0
0
0
0
0.002529070879098452

0
0
0
0
0
0
0
0
0.0021317058442835764

0
0.0023222237730595907

0
0
0
0
0
0
0
0.0013511396215407647

0
0
0
0
0.0013511396215407647

0
0
0
0
0
0
0
0
0
0
0
0
0
0
0
0
0
0
0
0
0
0
0
0
0
0
0
0
0
0
0
0
0.0030082007933041896

0
0
0
0
0
0
0
0
0
0
0
0.0015946659659946173

0
0
0
0
0
0
0
0
0
0
0
0.0023222237730595907

0
0.003049781580124564

0
0
0
0
0
0
0
0
0
0
0
0
0
0.00518148742440814

0
0
0
0.0016726679763630831

0
0
0
0
0
0
0
0.0021317058442835764

0
0
0
0
0
0
0
0
0
0
0
0
0
0
0
0
0
0
0
0
0
0
0
0
0
0
0
0
0
0
0
0
0
0
0
0
0
0
0
0
0
0
0
0.003189331931989234

0.00259074371220407

0
0
0
0
0
0
0
0
0
0
0
0
0
0.0019839286579827753

0
0
0
0
0
0
0
0
0
0
0
0.003049781580124564

0
0
0.0023222237730595907

0
0
0.001863185905139097

0
0
0
0
0
0
0
0
0.003049781580124564

0
0
0
0
0
0
0
0
0
0
0
0
0
0
0
0
0
0
0
0
0
0
0
0
0
0
0
0
0
0
0.003049781580124564

0
0
0
0
0
0
0
0
0
0
0
0.001594665965994617

0
0
0
0
0
0
0
0
0
0
0
0
0
0
0
0
0
0
0
0.006099563160249128

0
0.003049781580124564

0
0
0
0
0
0
0
0
0
0
0
0
0
0
0
0
0
0
0
0
0
0
0
0
0
0.001524890790062282

0
0
0
0
0
0
0
0
0
0
0
0
0
0.002923542931377114

0
0
0
0
0
0
0
0
0
0
0
0
0
0
0
0
0
0
0
0
0.001594665965994617

0
0
0
0
0
0
0
0
0
0
0
0
0
0
0
0
0
0
0
0
0
0
0
0
0
0
0
0
0
0
0
0
0
0
0
0
0
0
0
0
0
0
0
0
0
0
0
0
0
0
0
0
0
0
0
0
0
0
0
0
0
0.0012613475611310653

0
0
0
0
0
0.003049781580124564

0
0
0
0
0
0
0
0
0
0
0
0
0
0
0
0
0
0
0
0
0
0
0
0
0
0
0
0
0
0
0
0
0
0
0
0
0
0
0
0
0
0.0012136301084425896

0
0
0
0
0
0
0
0
0.0013020614942866441

0
0
0
0
0
0
0
0
0
0
0
0
0
0
0
0
0
0
0
0
0
0
0
0
0
0
0
0
0.0005589205763539927

0
0
0
0
0
0
0
0
0
0
0
0
0
0
0
0
0
0
0
0
0
0
0
0
0
0
0
0
0
0
0
0
0
0
0
0
0
0
0.002512741701835604

0
0
0
0
0
0.0023222237730595907

0
0
0.000754592240522096

0
0
0
0
0
0
0.0013020614942866441

0
0
0
0
0
0
0
0.00033829511507681506

0
0
0
0
0
0
0
0
0
0
0
0
0
0
0
0
0
0
0
0.0028082960744372065

0
0
0
0
0
0
0
0
0
0
0
0
0
0
0.003049781580124564

0.003049781580124564

0
0
0
0
0
0
0
0
0
0
0
0
0
0.003049781580124564

0.003049781580124564

0
0
0
0
0
0
0.0013020614942866441

0
0
0
0
0
0
0
0
0
0
0
0
0
0
0.001594665965994617

0
0.0021317058442835764

0
0.003049781580124564

0
0
0.003049781580124564

0
0
0
0
0
0
0.003049781580124564

0
0
0
0
0
0
0
0
0
0
0.004263411688567153

0
0
0
0
0
0
0
0
0
0
0
0
0
0
0
0
0.006099563160249128

0
0
0
0
0
0
0
0
0
0
0
0
0
0
0
0
0
0
0
0
0
0
0
0
0
0
0
0
0
0
0
0
0
0
0
0
0
0
0
0
0
0
0
0
0
0
0
0
0
0
0
0
0
0
0
0
0
0
0
0
0
0
0
0
0
0
0
0
0
0
0
0
0
0
0.003049781580124564

0
0
0
0
0
0
0
0
0
0
0
0
0
0
0
0
0
0
0
0
0
0
0
0
0
0
0
0
0
0
0
0
0
0
0
0
0
0
0
0
0
0
0
0.00030572162217745323

0.0009448342885794236

0
0
0
0
0
0
0
0
0
0
0
0
0
0
0
0
0
0
0
0
0
0
0
0
0
0
0
0
0
0
0
0
0
0.00259074371220407

0
0.00421244411165581

0
0
0
0
0
0
0
0
0
0
0
0
0
0
0
0
0
0
0
0
0
0
0
0
0
0
0
0
0
0
0
0
0
0
0
0
0
0
0
0
0
0
0
0
0
