0
0
0
0
0
0
0
0
0
0
0
0
0
0
0
0
0
0
0
0
0
0
0
0
0
0
0
0
0
0
0
0
0
0
0
0
0
0
0
0
0
0
0
0
0
0
0
0
0
0
0
0
0
0
0
0
0
0
0
0
0
0
0
0
0
0
0
0
0
0
0
0
0
0
0
0
0
0
0
0
0
0
0
0
0
0
0
0
0
0
0
0
0
0
0
0
0
0
0
0
0
0
0
0
0
0
0
0
0
0
0
0
0
0
0
0
0
0
0
0
0
0
0
0
0
0
0
0
0
0
0
0
0
0
0
0
0
0
0
0
0
0
0
0
0
0
0
0
0
0
0
0.004812090058503754

0
0
0
0
0
0.002406045029251877

0
0
0
0
0
0
0
0
0
0
0
0
0
0
0
0
0
0
0
0
0
0
0
0
0
0
0
0
0
0
0
0
0
0
0
0
0
0
0
0
0
0
0
0
0
0
0
0
0
0
0
0
0
0
0
0
0
0
0
0
0
0
0
0
0
0
0
0
0
0
0
0
0
0
0
0
0
0
0
0
0
0
0
0
0
0
0
0
0
0
0
0
0
0
0
0
0
0
0
0
0
0
0
0
0
0
0
0
0
0
0
0
0
0
0
0
0
0
0
0
0
0
0
0
0
0
0
0
0
0
0
0
0
0
0
0.002043899166890359

0
0
0
0.002406045029251877

0
0.002406045029251877

0
0
0
0
0
0
0
0
0
0
0
0
0
0
0
0
0
0
0
0
0
0
0
0
0
0
0
0
0
0
0
0
0
0
0
0
0
0
0
0
0
0
0
0
0
0
0
0
0
0
0
0
0
0
0
0
0
0
0
0
0
0
0
0
0
0
0
0
0
0
0
0
0
0
0
0
0
0
0
0
0
0
0
0
0
0
0
0
0
0
0
0
0
0
0
0
0
0
0
0
0
0.009624180117007507

0
0.002406045029251877

0
0
0
0
0
0
0
0
0
0
0
0
0
0
0
0
0
0
0
0
0
0
0
0
0
0
0
0
0
0
0
0
0
0
0
0
0
0
0
0
0
0
0
0
0
0
0
0.002054454395373911

0
0
0
0
0
0
0
0
0
0
0
0
0
0
0
0
0
0
0
0
0
0
0
0
0
0
0
0
0
0
0
0
0
0
0
0
0
0
0
0
0
0
0
0
0
0
0
0
0
0
0
0
0
0
0
0
0
0
0
0
0
0
0
0
0
0
0
0
0
0
0
0
0
0
0
0
0
0
0
0
0
0
0
0
0
0
0
0
0
0
0
0
0
0
0
0
0
0
0
0
0
0
0
0
0
0
0
0
0
0
0
0
0
0
0
0
0
0
0
0
0
0
0
0
0
0
0
0
0
0
0
0
0
0
0
0
0
0
0
0
0
0
0
0
0
0
0
0
0
0
0
0
0
0
0
0
0
0
0
0
0
0
0
0
0
0
0
0.0016817533045288405

0
0
0
0
0
0
0
0
0
0
0
0
0
0
0
0
0
0
0
0
0
0
0
0
0
0
0
0
0
0
0
0
0
0
0
0
0
0
0
0
0
0
0
0
0
0
0
0
0
0
0
0
0
0
0
0
0
0
0
0
0
0
0
0
0
0
0
0
0
0
0
0
0
0
0
0
0
0
0
0
0
0
0
0
0
0
0
0
0
0
0
0
0
0
0
0
0
0
0
0
0
0
0
0
0
0
0
0
0
0.009725611420339314

0
0
0
0
0
0
0
0
0
0
0
0
0
0.0018320574176175456

0
0
0
0
0
0
0
0
0
0
0
0
0
0
0
0
0
0
0
0
0
0
0
0
0
0.0015651683769874563

0
0
0
0
0
0
0
0
0
0
0
0
0
0
0
0
0
0
0
0
0
0
0
0
0.00721813508775563

0
0
0
0
0
0
0
0
0
0
0
0
0
0
0
0
0
0
0
0
0
0
0
0
0
0
0
0
0
0
0
0
0
0
0
0
0
0
0
0
0
0
0
0
0
0
0
0
0
0
0
0
0
0
0
0
0
0
0
0
0
0
0
0
0
0.002406045029251877

0
0
0
0
0
0
0
0
0
0
0
0
0
0.002406045029251877

0
0
0
0
0
0
0
0
0
0
0
0
0
0
0
0
0
0
0
0
0
0
0
0
0
0
0
0
0
0
0
0
0
0
0
0
0
0
0
0
0
0
0
0
0
0
0
0
0
0
0
0
0
0
0
0
0
0
0
0
0
0
0
0
0
0
0
0
0
0
0
0
0
0
0
0
0
0
0
0
0
0
0
0
0
0
0
0
0
0
0
0
0
0
0
0
0
0
0
0
0
0
0
0
0
0
0
0
0
0
0
0
0
0.002406045029251877

0
0
0.004812090058503754

0
0
0
0
0
0
0
0
0
0
0
0
0
0
0
0
0
0
0
0
0
0
0
0
0
0
0
0
0
0
0
0
0
0
0
0
0
0
0
0
0
0
0
0
0.007328229670470182

0.013229203997304246

0.004812090058503754

0
0
0
0
0
0.0013196074421673227

0
0
0
0
0
0
0
0
0
0
0
0
0
0
0
0
0
0
0
0
0
0
0
0
0
0
0
0
0
0
0
0
0
0
0
0
0
0
0
0
0
0
0
0
0
0
0
0
0
0
0
0
0
0
0
0
0
0
0
0
0
0
0
0
0
0
0
0
0
0
0
0
0
0
0
0
0
0
0
0
0
0
0
0
0
0
0
0
0
0
0
0
0.002406045029251877

0
0
0
0
0
0
0
0
0
0
0
0
0.0014699115552560275

0
0
0
0.004812090058503754

0
0
0
0
0
0
0
0
0
0
0
0
0
0
0
0
0
0
0
0
0
0
0.0012580698059832143

0
0
0
0
0
0
0
0
0
0
0
0
0
0
0
0
0
0
0
0
0
0
0
0
0
0
0
0
0
0
0
0
0
0
0
0
0
0
0
0
0
0
0
0
0
0
0.0015651683769874563

0
0
0
0
0
0
0
0
0
0
0
0
0
0
0
0
0
0
0
0
0
0
0
0
0
0.002406045029251877

0
0
0
0
0
0
0
0
0
0
0
0
0
0
0
0
0
0
0
0
0
0
0
0
0
0
0.0011077656928945095

0.0014699115552560275

0
0
0.002406045029251877

0
0
0
0
0
0
0
0
0
0
0
0
0
0
0
0
0
0
0
0
0
0.009391010261924735

0
0
0
0
0
0
0
0
0
0
0
0
0
0
0
0
0
0
0
0
0
0
0
0
0
0
0
0
0
0
0
0
0
0
0
0
0
0
0
0
0
0
0
0
0
0
0
0
0
0
0
0
0
0
0
0
0
0
0.002406045029251877

0.002406045029251877

0
0
0
0
0.012030225146259383

0
0
0
0
0
0
0
0
0
0
0
0
0
0.002406045029251877

0
0
0
0
0
0
0
0
0
0
0
0
0
0
0
0
0
0
0
0
0
0
0
0
0
0
0
0
0
0
0
0
0
0
0
0
0
0
0
0
0
0
0
0
0
0
0
0
0
0
0
0
0
0
0
0
0
0
0
0
0
0.002406045029251877

0
0
0
0
0
0
0
0.009624180117007507

0
0
0
0
0
0
0
0
0
0
0
0
0
0
0
0
0
0
0
0
0
0
0
0
0
0
0
0
0
0
0
0
0
0
0
0
0
0
0
0
0
0
0
0
0
0
0
0
0
0
0
0
0
0
0
0
0
0
0
0
0
0
0
0
0
0
0
0
0
0
0
0
0.002406045029251877

0
0
0
0
0
0
0
0
0
0
0
0
0
0
0
0
0
0
0
0
0
0
0
0
0
0
0
0
0
0
0
0
0
0
0
0
0
0
0
0
0
0
0
0
0
0
0
0
0
0
0
0
0
0
0
0
0
0
0
0
0
0
0
0
0
0
0
0
0
0
0
0
0
0
0
0
0
0
0
0
0
0
0
0
0
0
0
0
0
0
0
0
0
0
0
0
0
0
0
0
0
0
0
0
0
0
0
0
0
0
0
0
0
0
0
0
0
0
0
0
0
0
0
0
0
0
0
0
0
0
0
0
0
0
0
0
0
0
0
0
0.002406045029251877

0
0
0
0
0
0
0
0
0
0
0
0
0
0
0
0
0
0
0
0
0
0
0
0
0
0
0
0
0
0
0
0
0
0
0
0
0
0
0
0
0
0
0
0
0
0
0
0
0
0
0
0.002406045029251877

0
0
0
0
0
0
0
0
0
0
0
0.002406045029251877

0
0
0
0
0
0
0
0
0
0
0
0
0
0
0
0
0
0
0
0
0
0
0
0
0
0
0
0
0
0
0
0
0
0
0
0
0
0
0
0
0
0
0
0
0
0
0
0
0
0
0
0
0
0
0
0
0
0
0
0
0
0
0
0
0
0
0
0
0
0
0
0
0
0
0
0
0
0
0
0
0
0
0
0
0
0
0
0
0
0
0
0
0
0
0
0
0
0
0
0
0
0
0
0
0
0
0
0
0
0
0
0
0
0
0
0
0
0
0
0
0
0
0
0
0
0
0
0
0
0
0
0
0
0
0
0
0
0
0
0
0
0
0
0
0
0.002406045029251877

0
0
0
0
0
0
0.004812090058503754

0
0
0
0
0.002406045029251877

0
0
0
0
0
0.00721813508775563

0
0
0
0
0
0
0
0
0
0
0
0
0
0
0
0
0
0
0
0
0
0
0
0
0
0
0
0
0
0
0
0
0
0
0
0
0
0
0
0
0
0
0
0
0
0
0
0
0
0
0
0
0
0
0
0
0
0
0
0
0
0
0
0
0
0
0
0.002406045029251877

0
0
0
0
0
0
0
0
0
0
0
0
0
0
0
0
0
0
0
0
0
0.002043899166890359

0
0
0
0
0
0
0.002406045029251877

0
0
0
0
0
0
0
0
0.002406045029251877

0
0
0
0
0
0
0
0
0
0
0
0
0
0
0
0
0
0
0
0
0
0
0
0
0
0
0
0
0
0
0
0
0
0
0
0
0
0
0
0
0
0
0
0
0
0
0
0
0
0
0
0
0
0
0.004087798333780718

0
0
0
0
0
0
0
0
0
0
0.003664114835235091

0
0
0
0
0
0
0
0
0
0
0
0
0
0
0
0
0
0
0
0
0
0
0
0
0
0
0.002406045029251877

0
0
0
0
0
0
0
0
0
0
0
0
0
0
0
0
0
0
0
0
0
0
0
0
0
0
0
0
0
0
0
0
0
0
0
0
0
0
0
0
0
0
0
0
0
0
0
0
0
0
0
0
0
0
0
0
0
0
0
0
0
0
0
0
0
0
0
0
0
0.005045259913586521

0
0.004087798333780718

0
0
0
0
0
0
0
0
0
0
0
0
0
0
0
0
0
0
0
0
0
0
0
0
0
0
0
0
0
0
0
0
0
0
0
0
0
0
0
0
0
0
0
0
0
0
0
0
0
0
0
0
0
0
0
0
0
0
0
0
0
0
0
0
0
0
0
0
0
0
0
0
0
0
0
0
0
0
0
0
0
0
0
0.002406045029251877

0
0
0
0
0
0
0
0
0
0
0
0
0
0
0
0
0
0
0
0
0
0
0
0
0
0
0
0
0
0
0
0
0
0
0
0
0
0
0
0
0
0
0
0
0
0
0
0
0
0
0
0
0
0
0
0
0
0
0
0
0
0
0
0
0
0
0
0
0
0
0
0
0
0
0
0
0
0
0
0
0
0
0
0
0
0
0
0
0
0
0
0
0
0
0
0
0
0
0
0
0
0
0
0
0
0
0
0
0
0
0
0
0
0
0
0
0
0
0
0
0
0
0
0
0
0
0
0
0
0
0
0
0
0
0
0
0
0
0
0
0
0
0
0
0
0
0
0
0
0
0
0
0
0
0
0
0
0
0
0
0
0
0
0
0
0
0
0
0
0
0
0
0
0
0
0
0
0
0
0
0
0
0
0
0
0
0
0
0
0
0
0
0
0
0
0
0
0
0
0
0
0
0
0
0
0
0
0
0
0
0
0
0
0
0
0
0
0
0
0
0
0
0
0
0
0
0
0
0
0
0
0
0
0
0
0
0
0
0
0
0
0
0
0
0
0
0
0
0
0
0
0
0
0
0
0
0
0
0
0
0
0
0
0
0
0
0
0
0
0
0
0
0
0
0
0
0
0
0
0
0
0
0
0
0
0
0.002406045029251877

0.004812090058503754

0
0
0
0
0
0
0
0
0
0
0
0
0
0
0
0
0
0
0
0
0
0
0
0
0
0
0
0
0
0
0
0
0
0
0
0
0
0
0
0
0
0
0
0
0
0
0
0
0
0
0
0
0
0
0
0
0
0
0
0
0
0
0
0
0
0
0
0
0
0
0
0
0
0
0
0
0
0
0
0
0
0
0
0
0
0
0
0
0
0
0
0
0
0
0
0
0
0
0
0
0
0
0
0
0
0
0
0
0
0
0
0
0
0
0
0
0
0
0
0
0
0
0
0
0
0
0
0
0
0
0
0
0
0
0
0
0
0
0
0
0
0
0
0
0
0
0
0
0
0
0
0
0
0
0
0
0
0
0
0
0
0
0
0
0
0
0
0
0
0
0
0
0
0
0
0
0
0
0
0
0
0
0
0
0
0
0
0
0
0
0
0
0
0
0
0
0
0
0
0
0
0
0
0
0
0
0
0
0
0
0
0
0
0
0
0
0
0
0
0
0
0
0
0
0
0
0
0
0
0
0
0
0
0
0
0
0
0
0
0
0
0
0
0
0
0
0
0
0
0
0
0
0
0
0
0
0
0
0
0
0
0
0
0
0
0
0
0
0
0
0
0
0
0
0
0
0
0
0
0
0
0
0
0
0
0
0
0
0
0
0
0
0
0
0
0
0
0
0
0
0
0
0
0
0
0
0
0
0
0
0
0
0
0
0
0
0
0
0.003964723061412501

0
0
0
0
0
0
0
0
0
0
0
0
0
0
0
0
0
0
0
0
0
0
0
0
0
0
0
0
0
0
0
0
0
0
0
0
0
0
0
0
0
0
0
0
0
0.002406045029251877

0
0
0
0.002406045029251877

0
0
0
0
0
0
0
0
0
0
0
0
0
0
0
0
0
0
0
0
0
0
0
0
0
0
0
0
0
0
0
0
0
0
0
0
0
0
0
0
0
0
0
0
0
0
0
0
0
0
0
0
0
0
0
0
0
0
0
0
0
0
0
0
0
0
0
0
0
0
0
0
0
0
0
0
0
0
0
0
0
0
0
0
0
0
0
0
0.002406045029251877

0.002406045029251877

0
0
0
0
0
0
0
0
0
0
0
0
0
0
0
0
0
0
0
0
0
0
0
0
0
0
0
0
0
0
0
0
0
0
0
0
0
0
0
0
0
0
0
0
0
0
0
0
0
0
0
0
0
0
0
0
0
0
0
0
0
0
0
0
0
0
0
0
0
0
0
0
0
0
0
0
0
0
0
0
0.002406045029251877

0
0
0
0
0
0
0
0
0
0
0
0
0
0
0
0.002406045029251877

0
0
0
0
0
0
0
0
0
0
0
0
0
0
0
0
0
0
0
0
0
0
0
0
0
0
0
0
0
0
0
0
0
0
0
0
0
0
0
0
0
0
0
0
0
0
0
0
0
0
0
0
0
0
0
0
0
0
0
0
0
0
0
0
0
0
0
0
0
0
0
0
0
0
0
0
0
0
0
0
0
0
0
0
0
0
0
0
0
0
0
0
0
0
0
0
0
0
0
0
0
0
0
0
0
0
0
0
0
0
0
0
0
0
0
0
0
0
0
0
0
0
0
0
0
0
0
0
0
0
0
0
0
0
0
0
0
0
0
0
0
0
0
0
0
0
0
0
0
0
0
0
0
0
0
0
0
0
0
0
0.002406045029251877

0.002406045029251877

0.002406045029251877

0.002406045029251877

0.002406045029251877

0.002406045029251877

0
0
0
0
0
0
0
0
0
0
0
0
0
0
0
0
0
0
0
0
0
0
0
0
0
0
0
0
0
0
0
0
0
0
0
0
0
0
0
0
0
0
0
0
0
0
0
0
0
0
0
0
0
0
0
0
0
0
0
0
0
0
0
0
0
0
0
0
0
0
0
0
0
0
0
0
0
0
0
0
0
0
0
0
0
0
0
0
0
0
0
0
0
0
0
0
0
0
0
0
0
0
0
0
0
0
0
0
0
0
0
0
0
0
0
0
0
0
0
0
0
0
0
0
0
0
0
0
0
0
0
0
0
0
0
0
0
0
0
0
0
0
0
0
0
0
0
0
0
0
0
0
0
0
0
0
0
0
0
0
0
0
0
0
0
0
0
0
0
0
0
0
0
0
0
0
0.0015651683769874563

0
0
0
0
0
0
0
0
0
0
0
0
0
0
0
0
0
0
0
0
0
0
0
0
0
0
0
0
0
0
0
0
0
0
0
0
0
0
0
0
0
0
0
0
0
0
0
0
0
0
0
0
0
0
0
0
0
0
0
0
0
0
0
0
0
0
0
0
0
0
0
0
0
0
0
0
0
0
0
0
0
0
0
0
0
0
0
0
0
0
0
0
0
0
0
0
0
0
0
0
0
0
0
0
0
0
0
0
0
0
0
0
0
0
0
0
0
0
0
0
0
0
0
0
0
0
0
0
0
0
0
0
0
0
0
0
0
0
0
0
0
0
0
0
0
0
0
0
0
0
0
0
0
0
0
0
0
0
0
0
0
0.0018320574176175456

0
0
0
0
0
0
0
0
0
0
0
0
0
0
0
0
0
0
0
0
0
0
0
0
0
0
0
0
0
0
0
0
0
0
0
0
0
0
0
0
0
0
0
0
0
0
0
0
0
0
0
0
0
0
0
0
0
0
0
0
0
0
0
0
0
0
0
0
0
0
0
0
0
0
0
0
0
0
0
0
0
0
0
0
0
0
0
0
0
0
0
0
0
0
0
0
0
0
0
0
0
0
0
0
0
0
0
0
0
0
0
0
0
0
0
0
0
0
0
0
0
0
0
0
0
0
0
0
0
0
0
0.002043899166890359

0
0
0
0
0
0
0
0
0
0
0
0
0
0
0
0
0
0
0
0
0.0008153854484141424

0
0
0
0
0
0
0
0
0
0
0
0
0
0
0
0
0
0
0
0
0
0
0
0
0
0
0
0
0
0
0
0
0
0
0.0013893730600484735

0
0
0
0
0
0
0
0
0
0
0
0
0
0
0
0
0
0
0
0
0
0
0
0
0
0
0
0
0
0
0
0
0
0
0
0
0
0
0
0
0
0
0
0
0
0
0
0
0
0
0
0
0
0
0
0
0
0
0
0
0
0
0
0
0.0013893730600484735

0
0
0
0
0
0
0
0
0
0
0
0
0
0
0
0
0
0
0
0
0
0
0
0
0
0
0
0
0
0
0
0
0
0
0
0
0.00721813508775563

0
0
0
0
0
0
0
0
0
0
0
0.002406045029251877

0
0
0
0
0
0
0
0
0
0
0
0
0
0
0
0
0
0
0
0
0
0
0
0
0
0
0
0
0
0
0
0
0
0
0
0
0
0
0
0
0
0
0
0
0
0
0
0
0
0
0
0
0
0
0
0
0
0
0
0
0
0
0
0
0
0
0
0
0
0
0
0
0
0
0
0
0
0
0
0
0
0
0
0
0
0
0
0
0
0
0
0
0
0
0
0
0
0
0
0
0
0
0
0
0
0
0
0
0
0
0
0
0
0
0
0
0
0
0
0
0
0
0
0
0
0
0
0
0
0
0
0
0
0
0
0
0
0
0
0
0
0
0
0
0
0
0
0
0
0
0
0
0
0
0
0.002406045029251877

0
0
0
0
0
0
0
0
0
0
0
0
0
0
0
0
0
0
0
0
0
0
0
0
0
0
0
0.00721813508775563

0
0
0
0
0
0
0
0
0
0
0
0
0
0
0
0
0
0
0
0
0
0
0
0
0
0
0
0
0
0
0
0
0
0
0
0
0
0
0
0
0
0
0
0
0
0
0
0
0
0
0
0
0
0
0
0
0
0
0
0
0
0
0
0
0
0
0
0
0
0
0
0
0
0
0
0
0
0
0
0
0
0.00721813508775563

0
0
0
0
0
0
0
0
0
0
0
0
0
0
0
0
0
0
0
0
0
0
0
0
0
0
0
0
0
0
0
0
0
0
0
0
0
0
0
0
0
0
0
0
0
0
0
0
0
0
0
0
0
0
0
0
0
0
0
0
0
0
0
0
0
0
0
0
0
0
0
0
0
0
0
0
0
0
0
0
0
0
0
0
0
0
0
0
0
0
0
0
0
0
0
0
0
0
0
0.002406045029251877

0
0
0.002406045029251877

0
0
0
0
0
0
0
0
0
0
0
0
0
0
0
0
0
0
0
0
0
0
0
0
0
0
0
0
0
0
0
0
0
0
0
0
0
0
0
0
0
0
0
0
0
0
0
0
0
0.009624180117007507

0.00721813508775563

0
0
0
0
0
0
0
0
0
0
0
0
0
0
0
0
0
0
0
0
0
0
0
0
0
0
0
0
0
0
0
0
0
0
0
0
0
0
0
0
0
0
0
0
0
0
0
0
0
0
0
0
0
0
0
0
0
0
0
0
0
0
0
0
0
0
0
0
0
0
0
0
0
0
0
0
0
0
0
0
0
0
0
0
0
0
0
0
0
0
0
0
0
0
0
0
0
0
0
0
0
0
0
0
0
0
0
0
0
0
0
0
0
0
0
0
0
0
0
0
0
0
0
0
0
0
0
0
0
0
0
0
0
0
0
0
0
0
0
0
0
0
0
0
0
0
0
0
0
0
0
0
0
0
0
0
0
0
0
0
0
0
0
0
0
0
0.002406045029251877

0
0
0
0
0
0
0
0
0
0
0
0
0
0
0
0
0
0
0
0
0
0
0
0
0
0
0
0
0
0
0
0
0
0
0
0
0
0
0
0.009624180117007507

0.002406045029251877

0
0
0
0
0
0
0
0
0
0
0
0
0
0
0
0
0
0
0
0
0
0
0
0
0
0
0
0
0
0
0
0
0
0
0
0
0
0
0
0
0
0
0
0
0
0
0
0
0
0.002939823110512055

0
0
0
0
0.002043899166890359

0
0
0
0
0
0
0
0
0
0
0
0
0
0
0
0
0
0
0
0
0
0
0
0
0
0
0
0
0
0
0
0
0
0
0
0
0
0
0
0
0
0
0
0
0
0
0
0
0
0
0
0
0
0
0
0
0
0
0
0.004812090058503754

0
0
0
0
0
0
0
0
0
0
0
0
0
0
0
0
0
0
0
0
0
0
0
0
0
0
0
0
0
0
0
0
0
0
0
0
0
0
0
0
0
0
0
0
0
0
0
0
0
0
0
0
0
0
0
0
0
0
0
0
0
0
0
0
0
0
0
0
0
0
0
0
0
0
0
0
0
0
0
0
0
0
0
0
0
0
0
0
0
0
0
0
0
0
0
0
0
0
0
0
0
0
0
0
0
0
0
0
0
0
0
0
0
0
0
0
0
0.003958822326501968

0
0
0
0
0
0.002406045029251877

0.002406045029251877

0
0
0
0
0
0
0
0.002406045029251877

0.002406045029251877

0
0
0
0
0
0
0
0
0
0
0
0
0
0
0
0
0
0
0
0
0
0
0
0
0
0
0
0
0.002406045029251877

0
0
0
0.002406045029251877

0
0
0
0
0
0
0
0
0
0
0
0
0
0
0
0
0
0
0
0
0
0
0
0
0
0
0
0
0
0
0
0
0
0
0
0
0
0
0
0
0
0
0
0
0
0
0
0
0.0018320574176175456

0
0
0
0
0
0
0
0
0
0
0
0
0
0
0
0
0
0
0
0
0
0
0
0
0
0
0
0
0
0
0
0
0
0
0
0
0
0
0
0
0
0
0
0
0
0
0
0
0
0
0
0
0
0
0
0
0
0
0
0
0
0
0
0
0
0
0
0
0
0
0
0
0
0
0
0
0.004812090058503754

0
0
0
0
0
0
0
0
0
0
0
0
0
0
0
0
0
0
0
0
0
0
0
0
0
0
0
0
0
0
0
0
0
0
0
0
0
0
0
0
0
0
0
0
0
0
0
0
0
0
0
0
0
0
0
0
0
0
0
0
0
0
0
0
0
0
0
0
0
0
0
0
0
0
0
0
0
0
0
0
0
0
0
0
0
0
0
0
0
0
0
0
0
0
0
0
0
0
0
0
0
0
0
0
0
0
0
0
0
0
0
0
0
0
0
0
0
0.0016817533045288405

0
0
0
0
0.002406045029251877

0
0
0
0
0
0
0
0
0
0
0
0
0
0
0
0
0
0
0
0
0
0
0
0
0
0
0
0
0
0
0
0
0
0
0
0
0
0
0
0
0
0
0
0
0
0
0
0
0
0
0
0
0
0
0
0
0
0
0
0
0
0
0
0
0
0
0
0
0
0
0
0
0
0
0
0
0
0
0
0
0
0
0
0
0
0
0
0
0
0
0
0
0
0
0
0
0
0
0
0
0
0
0
0
0
0
0
0
0
0
0
0
0
0
0
0
0
0
0
0
0
0
0
0
0
0
0
0
0
0
0
0
0
0
0
0
0
0
0
0
0
0
0
0
0
0
0
0
0
0
0
0
0
0
0
0
0
0
0
0
0
0
0
0
0
0
0
0
0
0
0
0
0
0
0
0
0
0
0
0
0
0
0
0
0
0
0
0
0
0
0
0
0
0
0
0
0
0
0
0
0
0
0
0
0
0.002406045029251877

0
0
0
0
0
0
0.004812090058503754

0
0
0
0
0
0
0
0
0
0
0
0
0
0
0
0
0
0
0
0
0
0
0
0
0
0
0
0
0
0
0
0
0
0
0
0
0
0
0
0
0
0
0
0
0
0
0
0
0
0
0
0
0
0
0
0
0
0
0
0
0
0
0
0
0
0
0
0
0
0
0
0
0
0
0
0
0
0
0
0
0
0
0
0
0
0
0
0
0
0
0
0
0
0
0
0
0
0
0
0
0
0
0
0
0
0
0
0
0
0
0
0
0
0
0
0
0
0
0
0
0
0
0
0
0
0
0
0
0
0
0
0
0
0
0
0
0
0
0
0
0
0
0
0
0
0
0
0
0
0
0
0
0
0
0
0
0
0
0
0
0
0
0
0
0
0
0
0
0
0
0
0
0
0
0
0
0
0
0
0
0
0
0
0
0
0
0
0
0
0
0
0
0
0
0
0
0
0
0
0
0
0
0
0
0
0
0
0
0
0
0
0
0
0
0
0
0
0
0
0
0
0
0
0
0
0
0
0
0
0
0
0
0
0
0
0
0
0
0
0
0
0
0
0
0
0
0
0
0
0
0
0
0
0
0
0
0
0
0
0
0
0
0
0
0
0
0
0
0
0
0
0
0
0
0
0
0
0
0
0
0
0
0
0
0
0
0
0
0
0
0
0
0
0
0
0
0
0
0
0
0
0
0
0
0
0
0
0
0
0
0
0
0
0
0
0
0
0
0
0
0
0
0
0
0
0
0
0
0
0
0
0
0
0
0
0
0
0
0
0
0
0
0
0
0
0
0
0
0
0
0
0
0
0
0
0
0
0
0
0
0
0
0
0
0
0
0
0
0
0
0
0
0
0
0
0
0
0
0
0
0
0
0
0
0
0
0
0
0
0
0
0
0
0
0
0
0
0
0
0
0
0
0
0
0
0
0
0
0
0
0
0
0
0
0
0
0
0
0
0
0
0
0
0
0
0
0
0
0
0
0
0
0
0
0
0
0
0
0
0
0
0
0
0
0
0
0
0
0
0
0
0
0
0
0
0
0
0
0
0
0
0
0
0
0
0
0
0
0
0
0
0
0
0
0
0
0
0
0
0
0
0
0
0
0
0
0
0
0
0
0
0
0
0
0
0
0
0
0
0
0
0
0
0
0
0
0
0
0
0
0
0
0
0
0
0
0
0
0
0.002406045029251877

0.002406045029251877

0
0
0
0
0
0
0
0
0
0
0
0
0
0
0
0
0
0
0
0
0
0
0
0
0
0
0
0
0
0
0
0
0
0
0
0
0
0
0
0
0
0
0
0
0
0
0
0
0
0
0
0
0
0
0
0
0
0
0
0
0
0
0
0
0
0
0
0
0
0
0
0
0
0
0
0
0
0
0
0
0
0
0
0
0
0
0
0
0
0
0
0
0
0
0
0
0
0
0
0
0
0
0
0
0
0
0
0
0
0
0
0
0
0
0
0
0
0
0
0
0
0
0
0
0
0
0
0
0
0
0
0
0
0
0
0
0
0
0
0
0
0
0
0
0
0
0
0
0
0
0
0
0
0
0
0
0
0
0
0
0
0
0
0
0
0
0
0
0
0
0
0
0
0
0
0
0
0
0
0
0
0
0
0
0
0
0
0
0
0
0
0
0
0
0
0
0
0
0
0
0
0
0
0
0
0
0
0
0
0
0
0
0
0
0
0
0
0
0
0
0
0
0
0
0
0
0
0
0
0
0
0
0
0
0
0
0
0
0
0
0
0
0
0
0
0
0
0
0
0
0
0
0
0
0
0
0
0
0
0
0
0
0
0
0
0
0
0
0
0
0
0
0
0
0
0
0
0
0
0
0
0
0
0
0
0
0
0
0
0
0
0
0
0
0
0
0
0
0
0
0
0
0
0
0
0
0
0
0
0
0
0
0
0
0
0
0
0
0
0
0
0
0
0
0
0
0
0
0
0
0
0
0
0.0006995095652483065

0
0
0
0
0
0
0
0.0016817533045288405

0
0
0
0
0
0
0
0
0
0
0
0
0
0
0
0
0
0
0
0
0
0
0
0
0
0
0
0
0
0
0
0
0
0
0
0
0
0
0
0
0
0
0
0
0
0
0
0
0
0
0
0
0
0
0
0
0
0
0
0
0
0
0
0
0
0
0
0
0
0
0
0
0
0
0
0
0
0
0
0
0
0
0
0
0
0
0
0
0
0
0
0
0
0
0
0
0
0
0
0
0
0
0
0
0
0
0
0
0
0
0
0
0
0
0
0
0
0
0
0
0
0
0
0
0
0
0
0
0.0030714231349194187

0
0
0
0
0
0
0
0
0
0
0
0
0
0
0
0
0
0
0
0
0
0
0
0
0
0
0
0
0
0
0
0
0
0
0
0
0
0.0008153854484141424

0
0
0
0
0
0
0
0
0
0
0
0
0
0
0
0
0
0
0
0
0
0
0
0
0
0
0
0
0
0
0
0
0
0
0
0
0
0
0
0
0
0
0
0
0
0
0
0
0
0
0
0
0
0
0
0
0
0
0
0
0
0
0
0
0
0
0
0
0
0
0
0
0
0
0
0
0
0
0
0
0
0.0019952440059763125

0
0
0
0
0
0
0
0
0
0
0
0
0
0
0
0
0
0
0
0
0
0
0
0
0
0
0
0
0
0
0
0
0
0
0
0
0
0
0
0
0
0
0
0
0
0
0
0
0
0
0
0
0
0
0
0
0
0
0
0
0
0
0
0
0
0
0
0
0.002043899166890359

0
0
0
0
0
0
0
0
0
0
0
0
0
0
0
0
0
0
0
0
0
0
0
0
0
0
0
0
0
0
0
0
0
0
0
0
0
0
0
0
0
0
0
0
0
0
0
0
0
0
0
0
0
0
0
0
0
0
0
0
0
0
0
0
0
0
0
0.002043899166890359

0
0
0
0
0
0
0
0
0
0
0.0016817533045288405

0
0
0
0
0
0
0
0
0
0
0
0
0
0
0
0
0
0
0
0
0
0
0
0
0
0
0
0
0
0
0
0
0
0
0
0.002406045029251877

0.002406045029251877

0
0.002043899166890359

0
0
0
0.00721813508775563

0
0
0
0
0
0
0
0
0
0
0
0
0
0
0
0
0
0
0
0
0
0
0
0
0
0
0
0.002406045029251877

0
0
0
0
0
0
0
0
0
0
0
0
0
0
0
0
0
0
0
0
0
0
0
0
0
0
0
0.004087798333780718

0
0
0
0
0
0
0
0
0
0
0
0
0
0
0
0
0
0
0
0
0
0
0
0
0
0
0
0
0
0
0
0
0
0
0
0
0
0
0
0.002814397296818247

0
0
0
0
0
0
0
0
0
0
0
0
0
0
0
0
0
0
0
0
0
0
0
0
0
0
0
0
0
0
0
0
0
0
0
0
0
0
0
0
0
0
0
0
0
0
0
0
0
0
0
0
0
0
0
0
0
0
0.0010659460964088582

0
0
0.002406045029251877

0.0017637828010334986

0
0
0
0
0
0.0003432644377973209

0
0
0
0
0
0
0
0
0
0
0
0
0
0
0
0.00025593726971946836

0
0
0
0
0
0
0
0
0
0
0
0
0
0
0
0
0
0
0
0
0
0
0
0
0
0
0
0
0
0
0.00040570992136833663

0
0
0
0
0
0
0
0
0
0.002043899166890359

0
0
0
0
0
0
0
0
0
0
0
0
0
0
0
0
0
0
0
0
0
0
0
0.004812090058503754

0.002406045029251877

0
0
0
0
0
0
0
0
0
0
0
0
0
0
0
0
0.0015651683769874563

0
0
0
0
0
0
0
0
0
0
0
0
0
0
0
0
0
0
0
0
0
0
0
0
0
0
0
0.004812090058503754

0
0
0
0
0
0.0004289344577167348

0
0
0
0
0
0.0015651683769874563

0
0.0018320574176175456

0.0025161396119664286

0
0
0
0
0
0.0012030225146259384

0
0
0.001359718758157873

0.0011532261824397708

0
0
0
0
0.0015651683769874563

0
0
0
0
0
0
0
0
0
0
0
0
0
0
0
0.0010272271976869555

0
0
0
0
0
0.0018320574176175456

0
0.0018320574176175456

0.0008959239436216964

0
0
0
0
0
0
0
0
0
0
0
0
0
0
0
0
0
0.0013681643886977663

0
0
0.0007035993242045617

0
0
0
0
0
0
0
0
0
0
0
0
0
0
0
0
0
0
0
0
0
0
0
0
0
0.0013196074421673227

0
0
0
0
0
0
0
0
0
0
0
0
0
0
0
0
0
0
0
0
0
0
0
0
0
0
0
0
0
0
0
0
0
0
0
0
0
0
0
0
0
0
0.002111400702142021

0
0
0
0
0
0
0
0
0
0
0
0
0.0026392148843346454

0
0
0
0
0
0
0
0
0
0
0
0
0
0
0
0
0
0
0
0
0
0
0
0
0
0
0
0
0
0
0
0
0
0
0
0
0
0
0
0
0
0
0
0.0005636414113750941

0
0
0
0
0
0
0
0
0
0
0
0
0
0
0
0
0
0
0
0
0
0
0
0
0
0
0
0
0.0018320574176175456

0.002973542296059375

0
0
0
0
0
0
0
0
0
0
0
0
0
0
0.0005953157174442868

0.0002497574717570532

0
0
0
0
0
0
0
0
0
0
0
0
0
0
0
0
0
0
0
0
0
0
0
0
0
0
0
0
0
0
0
0
0
0
0
0
0
0
0
0
0.004812090058503754

0
0
0
0.0016096816599368258

0
0
0
0
0
0
0
0
0
0.0008408766522644203

0
0
0
0
0
0
0
0
0
0
0
0
0
0
0
0
0
0
0
0
0.002406045029251877

0
0
0
0
0
0
0
0
0
0
0
0
0
0
0
0
0
0
0
0
0
0
0
0
0
0
0
0
0
0
0
0
0
0
0
0
0
0
0
0
0
0.0005462168529454703

0.003459678547319312

0
0
0
0
0.0006438726639747304

0
0
0
0
0
0
0
0
0
0
0
0
0
0
0
0
0
0
0
0
0
0
0
0
0
0
0
0
0
0
0
0
0
0
0
0
0
0
0
0
0
0
0
0
0
0
0
0
0
0
0
0
0
0
0
0.0011272828227501881

0
0
0
0
0
0
0
0
0
0
0
0
0
0
0
0.0016013342437805349

0
0
0
0
0
0
0
0
0
0
0
0
0
0
0
0
0
0.0018320574176175456

0
0
0
0
0
0
0
0
0
0
0
0
0
0.0006650813353254376

0
0
0
0
0
0
0
0.002043899166890359

0
0
0
0
0
0
0
0
0
0
0
0
0
0
0
0
0
0
0
0
0
0
0
0
0
0
0
0
0
0
0.0012238066682371423

0
0.0011504219045144208

0.0008153854484141424

0
0
0.0010659460964088582

0
0
0
0
0
0
0.010090519827173043

0
0
0
0
0
0
0
0
0
0
0
0
0
0
0
0
0
0
0
0
0
0
0.003664114835235091

0
0
0
0
0
0
0
0
0
0
0
0
0
0
0
0
0
0
0
0
0.002215531385789019

0
0.0025161396119664286

0
0
0
0
0
0
0
0
0
0
0
0
0
0
0
0
0
0
0
0
0
0
0
0
0
0
0
0
0
0
0
0
0
0
0
0
0
0
0
0.0015651683769874563

0
0
0
0
0
0
0
0
0
0
0
0
0
0
0.002406045029251877

0
0
0
0
0
0
0
0
0
0
0
0
0
0
0
0
0
0
0
0
0
0
0
0
0
0
0.0018320574176175456

0
0
0
0
0
0
0
0
0
0
0
0
0
0
0
0
0
0
0
0
0
0
0
0
0
0
0
0
0
0
0
0
0
0
0
0
0
0
0
0
0
0
0
0
0
0
0
0
0
0
0
0
0
0
0
0
0.0013196074421673227

0.0018320574176175456

0
0
0
0
0
0
0
0
0
0
0
0
0
0
0.0003727010908450705

0.0014699115552560275

0
0.00030293547296391966

0
0
0
0
0
0
0
0
0
0
0
0
0
0
0
0
0
0
0
0
0
0
0.002406045029251877

0
0
0
0
0
0
0
0
0
0.0018320574176175456

0
0
0
0
0
0
0
0
0
0
0
0
0
0
0
0
0
0
0
0
0
0
0
0
0
0
0
0
0.009624180117007507

0
0
0
0
0
0
0
0.0010272271976869555

0
0
0
0.007349557776280137

0
0
0
0
0
0
0
0
0
0
0
0
0
0
0
0
0
0
0
0
0
0
0
0.0015651683769874563

0
0
0
0
0
0
0
0
0
0
0
0
0
0
0
0
0
0
0
0
0
0
0
0
0
0.0025161396119664286

0
0.001490804363380282

0
0
0
0
0
0
0
0
0
0
0.0019823615307062504

0
0
0
0
0
0
0
0
0
0
0.0007242917247230359

0.0006438726639747304

0
0
0
0
0
0
0
0
0
0
0
0
0
0
0
0.0003727010908450705

0
0.0018320574176175456

0
0
0
0
0
0
0.009391010261924735

0
0
0
0
0
0
0
0
0
0
0
0
0
0
0
0
0
0
0
0
0
0
0
0
0
0
0
0
0
0
0
0
0
0
0
0
0
0
0
0
0
0
0
0.0015651683769874563

0
0
0
0
0
0
0
0
0
0
0
0
0
0
0
0.0005337780812601784

0
0
0
0
0
0
0
0
0.0004787307899029024

0
0
0
0
0.002406045029251877

0.004812090058503754

0.00721813508775563

0.002406045029251877

0
0
0
0
0
0
0
0
0
0
0
0
0
0
0
0
0
0.0011532261824397708

0
0
0
0
0
0
0
0
0
0
0.009160287088087728

0
0
0
0
0
0
0
0
0
0
0
0
0
0
0
0
0
0
0
0
0
0
0
0
0
0
0
0
0
0
0
0
0
0
0
0
0
0
0
0
0
0
0
0
0
0
0
0
0
0
0
0
0
0
0
0
0
0
0
0
0
0
0
0
0
0
0
0
0
0
0
0
0
0
0
0
0
0
0
0
0
0
0
0
0
0
0.0014699115552560275

0
0
0
0
0
0
0
0
0
0
0
0
0
0
0
0.0013196074421673227

0
0
0
0
0
0
0
0
0
0
0
0.0013196074421673227

0
0.002406045029251877

0
0
0
0
0
0
0
0
0
0
0
0
0
0
0
0
0
0
0
0
0
0
0
0
0
0
0
0
0
0
0
0
0
0.0011181032725352113

0
0
0
0
0.0009911807653531252

0.00030293547296391966

0
0.0033232970786835282

0
0
0
0
0
0
0
0
0
0
0
0
0
0
0
0
0
0
0
0
0.0005484964077840531

0
0
0
0
0
0
0
0
0
0
0
0
0
0
0
0
0
0
0
0
0
0
0
0
0
0
0.010659460964088582

0
0
0
0
0
0
0
0
0
0
0
0
0
0
0
0.0010553989863068425

0
0
0
0
0
0
0
0
0
0
0
0
0
0
0
0
0
0
0
0
0
0
0.0012580698059832143

0
0.00044094570025837466

0
0
0
0
0
0
0
0
0
0
0
0
0.0013196074421673227

0
0
0
0
0
0
0
0
0
0
0.0007242917247230359

0
0
0
0
0.0016817533045288405

0
0
0
0
0
0.0009839169695490546

0
0
0.0010110595885702255

0
0
0
0
0
0
0
0
0
0
0
0
0
0
0
0
0
0
0
0
0
0
0
0
0
0
0
0
0
0
0
0
0
0
0
0
0
0.0011906314348885737

0.000745402181690141

0
0
0
0.0018320574176175456

0.002406045029251877

0.002406045029251877

0
0
0
0
0.0007038002340473404

0
0
0
0
0
0
0
0
0
0
0
0
0
0
0
0
0
0
0
0
0
0
0
0
0
0
0
0
0
0
0
0
0
0
0
0
0
0
0
0
0
0
0
0
0
0
0
0
0
0
0
0
0
0
0
0
0
0
0.00046633971016553767

0
0
0
0
0
0
0.00121712976410501

0
0
0
0
0
0
0
0
0
0
0.0017918478872433927

0
0
0
0
0
0
0
0
0
0
0
0
0
0
0
0
0
0
0
0
0
0
0
0
0
0
0
0
0
0
0
0
0
0.0016817533045288405

0
0
0
0
0
0
0
0
0
0
0
0
0.002043899166890359

0
0
0
0
0
0
0
0
0
0
0
0
0
0
0
0
0
0
0
0
0
0
0
0
0
0
0
0
0
0
0
0
0
0
0
0
0
0
0
0
0
0
0
0
0
0
0
0
0
0
0
0
0
0
0
0
0
0.0017353513132932613

0
0
0
0
0.002777361821209836

0
0.0012580698059832143

0
0.0004995149435141064

0
0
0
0
0
0
0
0
0
0
0
0
0
0
0
0
0
0
0
0
0
0
0
0
0
0
0
0
0
0
0
0
0
0
0
0
0
0
0
0
0
0
0
0
0
0
0
0
0
0.0010659460964088582

0.0007038002340473404

0
0
0
0
0
0
0
0
0
0
0
0
0
0
0
0
0
0
0
0
0
0
0
0
0
0
0
0
0
0
0
0
0
0
0
0
0
0
0
0
0
0
0
0
0
0
0
0
0
0.0008408766522644203

0
0
0
0
0
0
0
0
0
0
0.007167391548973571

0
0
0.0013893730600484735

0
0
0
0
0
0
0
0
0
0
0
0
0
0
0
0.0012580698059832143

0
0
0
0
0
0
0
0
0
0
0
0
0
0.0023064523648795416

0
0
0
0
0
0.017661743622618326

0.002406045029251877

0
0
0
0.0007038002340473404

0.00045323958605262443

0.0013196074421673227

0
0
0
0
0
0
0
0
0
0
0
0
0
0
0
0
0
0
0
0
0
0
0
0
0
0
0
0
0
0
0.006467473124355367

0
0
0
0.0014699115552560275

0
0
0
0
0
0
0
0
0
0
0
0
0
0
0
0
0
0
0
0
0
0
0.0012030225146259384

0
0
0
0
0
0
0
0
0
0
0
0
0
0
0
0
0
0
0
0
0
0
0
0
0.0016817533045288405

0
0
0
0
0
0
0
0
0
0
0
0
0
0
0
0
0
0
0
0
0
0
0
0
0
0
0
0
0.0014699115552560275

0
0
0
0
0
0.0006290349029916073

0
0
0.0005055297942851127

0
0
0
0
0
0
0.0011077656928945095

0
0
0
0
0
0
0
0
0.0009257872737366121

0
0
0
0
0
0
0
0
0
0
0
0
0
0
0
0
0
0.0009911807653531252

0
0
0
0
0
0
0
0
0
0
0
0
0
0.010556859537338582

0
0
0
0
0.0014076004680946808

0
0.0006467473124355368

0
0
0
0
0.0006290349029916073

0
0
0.0009911807653531252

0.004812090058503754

0
0
0
0
0
0
0
0
0
0.0025161396119664286

0
0
0
0
0
0
0
0
0
0
0.0021728751741691074

0
0
0
0
0
0.0010675561625203567

0
0
0.0011532261824397708

0
0
0
0
0
0
0
0
0
0
0
0
0
0
0
0
0
0.0014699115552560275

0
0
0
0
0
0
0
0
0
0
0
0
0
0
0
0
0
0
0
0
0
0
0
0
0
0
0
0
0.0003944736594974049

0
0.0002668890406300892

0.0007910803200782527

0
0
0
0
0
0
0
0
0
0
0
0
0
0
0
0
0.0007242917247230359

0
0
0
0
0
0.006131697500671075

0
0
0
0
0
0
0.05478089319456096

0.002406045029251877

0.004812090058503754

0.01443627017551126

0.002406045029251877

0
0
0
0
0
0
0
0
0
0
0
0
0
0
0
0
0
0
0
0
0
0
0
0
0
0
0
0
0
0
0
0
0
0.002043899166890359

0
0.0016817533045288405

0
0.0007456198305329917

0
0
0
0
0
0
0
0
0
0
0
0
0
0
0
0
0
0
0
0
0
0
0
0
0
0
0
0
0
0
0
0.0015651683769874563

0
0
0.0010272271976869555

0.0005484964077840531

0.0016817533045288405

0
0
0
0
0
0
0
0
0
0
0
0
0
0
0
0
0
0
0
0
0
0
0
0
0.001397489215178344

0
0.0011077656928945095

0
0
0
0
0
0
0
0
0
0
0
0
0
0
0
0
0.0034204109717444154

0
0
0
0
0
0
0
0
0
0
0
0
0
0
0
0
0
0
0
0
0
0
0
0.0022362065450704225

0.0015020963456000432

0.001359718758157873

0
0.0011532261824397708

0
0
0
0
0
0
0
0
0
0
0
0
0
0
0
0
0
0.0013301626706508753

0
0
0
0
0
0.0017353513132932613

0
0
0
0
0
0.002043899166890359

0
0
0
0
0
0
0
0
0
0
0.0018320574176175456

0.009624180117007507

0
0
0
0
0
0
0
0
0
0
0
0
0.0012238066682371423

0
0
0
0
0
0
0.002908022581432852

0
0
0
0
0
0
0
0
0.0004029910980271523

0
0
0
0
0
0
0
0
0
0
0
0
0
0
0
0
0
0
0.0003944736594974049

0
0
0
0
0
0
0.0011532261824397708

0
0
0
0
0
0
0
0
0
0
0
0
0
0
0
0
0
0
0
0
0
0
0
0
0
0.002406045029251877

0
0
0
0
0
0
0
0
0
0
0
0
0
0
0
0
0
0
0
0
0
0
0.0012030225146259384

0
0
0
0
0
0
0
0
0
0
0
0
0
0
0
0
0
0
0
0
0
0
0
0
0
0.002043899166890359

0
0
0
0
0
0
0
0
0
0
0
0
0.00044094570025837466

0
0
0
0
0
0
0
0.004812090058503754

0
0
0
0
0
0
0
0
0
0
0
0
0
0
0.002406045029251877

0
0
0
0
0
0
0
0
0
0
0
0
0
0
0
0.002043899166890359

0.002406045029251877

0
0
0
0
0
0
0
0
0
0
0
0
0
0
0
0
0
0
0
0
0
0
0
0
0
0.0009257872737366121

0
0
0
0
0
0
0.005032279223932857

0
0
0
0
0
0
0
0
0
0
0
0
0
0
0
0
0
0
0
0
0.0024461563452424268

0.0007910803200782527

0
0
0
0
0
0
0
0
0
0
0
0
0
0.002406045029251877

0
0
0
0
0
0
0
0
0
0
0
0
0
0
0
0.006830434801776451

0
0
0
0
0
0
0
0
0
0
0
0
0
0
0
0.002043899166890359

0
0
0.004812090058503754

0
0
0
0
0
0
0
0
0
0
0
0.0011181032725352113

0
0
0.0010272271976869555

0
0
0
0
0
0
0
0
0
0
0
0
0
0
0
0
0
0
0
0
0
0
0
0
0
0
0
0
0
0
0
0
0
0
0
0
0
0
0
0
0.003664114835235091

0
0
0
0
0
0
0
0
0
0
0
0
0
0
0
0
0
0
0
0
0
0
0
0
0
0
0
0
0
0
0
0
0
0
0
0
0
0
0
0
0
0.0008153854484141424

0
0
0
0
0
0
0
0
0
0
0
0
0
0
0
0
0
0
0
0
0
0.0018357100023557132

0
0
0
0.0005953157174442868

0
0
0
0
0
0
0
0
0
0
0
0
0
0
0
0
0
0
0
0
0
0
0
0
0
0
0
0
0
0
0
0
0
0
0
0.0010272271976869555

0
0.007917644653003935

0.002406045029251877

0
0
0
0
0
0
0
0
0
0
0
0
0
0.0008408766522644203

0
0
0
0
0
0
0
0
0
0
0
0
0
0
0
0
0
0
0
0
0
0
0
0
0
0
0
0
0
0
0
0
0
0.0018320574176175456

0
0
0
0
0
0
0
0
0
0
0
0.0031303367539749125

0
0
0
0
0
0
0
0
0
0
0
0
0
0
0
0
0.0013196074421673227

0
0
0
0
0
0
0
0
0
0
0
0
0
0
0.002406045029251877

0
0
0
0
0
0
0
0
0
0
0
0
0
0
0
0
0
0.00022165979815460233

0
0
0
0
0
0
0
0
0
0
0
0
0
0
0
0
0
0
0
0
0
0
0
0
0
0
0
0
0
0
0.0026392148843346454

0
0
0
0
0
0
0.002406045029251877

0.009624180117007507

0.004812090058503754

0.002406045029251877

0
0
0
0
0
0
0
0
0
0
0
0
0
0
0
0
0
0
0
0
0
0
0
0
0
0
0
0
0
0
0
0
0
0
0
0
0
0
0
0
0
0
0
0
0
0
0
0
0
0
0
0
0
0
0
0
0
0
0
0
0
0
0
0
0
0
0
0
0
0
0
0
0
0
0
0
0
0
0
0
0
0.0013893730600484735

0
0
0
0
0
0
0
0
0
0
0
0
0
0
0
0
0
0
0
0
0
0
0
0
0
0
0.00833208546362951

0
0.0025161396119664286

0
0
0
0
0.0015651683769874563

0
0
0.0015651683769874563

0
0
0
0
0
0
0
0
0
0
0
0
0
0
0
0
0
0
0
0
0
0
0
0
0
0
0
0.002406045029251877

0
0
0
0
0
0
0
0
0
0
0
0
0
0
0
0
0
0
0
0.001558389143172205

0
0
0
0
0
0
0
0
0
0
0
0
0
0
0
0.0018320574176175456

0
0
0.002406045029251877

0
0
0
0
0
0
0
0
0
0
0
0
0
0
0.0017918478872433927

0
0
0
0
0
0
0
0
0
0
0
0
0
0
0
0
0
0
0
0
0
0
0
0
0
0
0
0
0
0
0
0
0
0
0
0
0
0
0
0
0
0
0
0
0
0
0
0
0
0
0
0.002406045029251877

0
0
0
0
0
0
0
0
0
0
0
0
0
0
0
0
0
0.00416811918014542

0
0
0
0
0
0
0
0
0
0
0
0
0
0
0
0
0
0
0
0
0
0
0
0
0
0
0
0
0
0
0
0
0
0.0002936880450122995

0
0
0
0
0
0
0
0
0
0
0
0
0
0
0
0
0
0
0
0
0
0
0
0
0
0
0
0
0
0
0
0.0008153854484141424

0
0
0
0
0
0
0
0
0
0
0
0
0
0
0
0
0.0013196074421673227

0
0
0
0
0
0
0
0
0
0
0
0
0
0
0
0
0
0
0
0
0
0
0
0
0
0
0
0
0.0031303367539749125

0
0
0
0
0.0013893730600484735

0
0
0
0
0
0
0
0
0
0
0.005557492240193894

0
0.0018320574176175456

0.005045259913586521

0
0
0
0.003363506609057681

0
0
0
0
0
0
0
0
0
0
0
0
0.0021318921928177165

0
0
0
0
0
0
0
0
0
0
0
0
0
0
0
0
0
0
0
0
0
0
0
0
0.003363506609057681

0
0
0
0.002043899166890359

0
0
0
0
0
0
0
0
0
0
0
0
0
0
0
0
0
0
0
0
0
0
0
0
0
0
0
0
0.0008959239436216964

0
0
0
0
0
0
0
0
0
0
0
0
0.0008578689154334696

0
0
0.003363506609057681

0
0.004087798333780718

0
0
0
0
0
0
0
0
0
0
0
0
0.0005636414113750941

0
0
0
0
0
0
0.0012580698059832143

0
0
0
0
0
0.0013893730600484735

0
0
0
0
0
0
0
0
0
0
0
0
0
0
0
0
0
0
0
0
0
0
0
0
0
0
0
0
0
0
0
0
0.003363506609057681

0
0.006598037210836613

0
0
0
0
0
0
0
0
0.0019149231596116095

0
0
0
0
0
0
0
0.0007242917247230359

0
0
0
0
0
0
0
0
0
0
0
0
0
0
0
0
0
0
0
0
0
0
0
0
0
0
0
0
0
0
0
0
0
0
0
0
0
0
0
0
0
0
0
0
0
0
0
0
0
0
0
0
0
0.0027363287773955326

0
0
0
0.0010659460964088582

0
0
0
0
0.0005337780812601783

0
0
0
0
0
0
0
0
0
0
0
0
0
0
0
0
0
0
0
0
0
0
0.0005194630477240685

0
0
0
0
0
0
0
0
0.0003123495301753503

0
0
0
0
0
0
0
0
0
0
0
0
0
0
0
0
0
0
0
0
0
0
0
0
0
0
0
0
0
0
0
0
0
0
0
0
0
0
0.000330283748143656

0
0
0
0
0.004087798333780718

0
0
0
0
0
0
0
0
0
0
0
0
0
0
0
0
0
0
0
0
0
0.004184718564233285

0
0
0
0
0
0
0
0
0
0
0
0
0
0
0
0.000775472688382094

0
0
0
0
0
0.0013196074421673227

0
0
0
0
0
0
0
0
0
0
0
0
0.0012030225146259384

0
0
0
0
0
0
0
0
0
0
0
0
0
0
0
0
0
0
0
0
0
0
0
0
0
0
0
0
0
0
0
0
0
0
0
0
0
0
0.0009574615798058048

0.0006650813353254376

0
0
0
0
0.001038926095448137

0.0007678557837298547

0
0
0
0
0
0
0
0
0
0
0.0013893730600484735

0
0
0
0
0
0
0
0.0012580698059832143

0
0
0
0
0
0
0
0
0
0
0
0
0
0
0.0006650813353254376

0
0
0
0
0
0
0
0
0
0
0
0
0
0
0
0
0
0
0.001038926095448137

0
0
0
0
0
0
0
0
0.0009574615798058048

0
0
0
0
0
0
0
0
0.00025825304170051214

0
0
0
0
0
0
0
0
0
0
0
0
0
0
0
0
0
0
0
0
0
0
0
0
0
0
0.0008959239436216964

0
0
0
0
0
0
0
0
0
0
0
0
0
0
0.0009574615798058048

0
0
0
0
0
0
0
0
0
0
0
0
0.002406045029251877

0
0
0
0
0
0
0
0
0
0
0
0
0
0
0
0
0.001967833939098109

0
0
0
0
0
0.0014699115552560275

0
0
0
0
0
0.002406045029251877

0
0
0
0
0
0.002066024333604097

0
0
0
0
0
0
0
0
0
0.0005636414113750941

0
0
0
0
0
0
0
0
0.002043899166890359

0
0
0
0
0
0
0
0
0
0
0
0
0
0
0
0
0
0
0
0
0
0
0
0
0
0
0
0
0
0
0
0
0
0
0
0
0.0010272271976869555

0.002939823110512055

0
0
0
0
0
0
0
0
0
0
0
0
0
0
0
0
0
0
0
0
0
0
0
0
0
0
0
0
0
0
0
0
0
0
0
0
0
0
0
0
0.0015651683769874563

0
0
0
0
0
0
0
0
0
0
0
0
0
0
0
0
0
0
0
0.0007678557837298547

0
0
0
0
0
0
0
0
0
0
0
0
0
0
0
0
0
0
0
0.001158477141610879

0
0.0011532261824397708

0
0
0
0
0
0
0
0
0
0
0
0.002976578587221434

0.0013681643886977663

0
0
0
0
0
0
0
0
0
0
0
0
0
0
0
0
0
0
0
0
0
0
0
0
0
0
0
0
0
0
0
0
0
0
0
0
0
0
0
0
0
0
0
0
0
0
0
0
0
0
0
0
0
0
0
0
0
0
0
0
0
0
0
0.0018320574176175456

0
0
0
0
0
0
0
0
0
0
0
0
0
0
0
0
0
0.0006512781253317645

0
0
0
0
0
0
0
0
0
0
0
0
0
0
0
0
0
0
0
0
0
0
0
0
0
0
0
0
0
0
0
0
0
0
0
0
0.002406045029251877

0
0
0
0
0
0
0
0
0
0
0
0
0
0
0
0
0
0
0
0
0
0
0.002043899166890359

0
0
0
0
0
0
0
0.0011077656928945095

0
0
0
0
0
0
0
0
0
0
0
0
0
0
0
0.00021709270844392153

0
0
0
0
0
0
0
0
0
0
0
0
0
0
0.0014646514974816498

0
0
0
0
0.002777361821209836

0
0
0
0
0
0
0
0
0
0
0
0
0
0
0
0
0
0
0
0.0018320574176175456

0
0
0
0
0
0
0
0
0
0
0
0.001610455998182332

0
0.0014485834494460718

0
0
0
0
0
0
0
0
0.0010659460964088582

0
0
0
0
0
0
0
0
0
0
0
0.0006650813353254376

0
0
0
0
0
0
0
0
0
0
0
0
0
0
0
0
0
0
0
0
0
0
0
0
0
0
0
0
0
0
0
0
0
0
0
0
0
0
0
0
0
0
0
0
0
0
0
0
0
0
0
0
0
0
0
0
0
0
0
0
0
0
0
0
0
0
0
0.0017353513132932613

0.0015651683769874563

0
0.005070042073061251

0
0
0.0011504219045144208

0
0
0
0
0
0
0
0.0008959239436216964

0
0
0.0015357115674597094

0
0
0
0
0
0
0
0
0
0
0
0
0
0
0
0
0
0
0
0
0
0
0.004087798333780718

0
0
0
0
0
0
0
0
0
0
0
0.002022119177140451

0
0
0.0016817533045288405

0.0010272271976869555

0
0.0014912396610659833

0
0
0
0
0
0
0
0.0021728751741691074

0
0
0
0
0
0.0008408766522644203

0
0
0
0
0
0
0
0.0005953157174442868

0.0008153854484141424

0
0
0
0.0008959239436216964

0
0
0
0
0
0
0
0
0
0
0
0
0
0
0
0
0
0.0011532261824397708

0
0
0.0007242917247230359

0
0
0
0
0
0
0
0.0005735357276943791

0
0
0
0
0
0
0
0
0
0
0
0
0.0018320574176175456

0.0014699115552560275

0
0
0
0
0
0
0
0
0
0
0
0
0
0
0
0
0
0
0
0
0
0.002043899166890359

0
0
0.004108908790747822

0
0
0
0
0
0
0
0
0
0
0
0
0
0
0
0.0032615417936565695

0
0
0
0
0
0
0
0
0
0
0
0
0
0
0
0
0
0
0
0
0
0
0.0003123495301753503

0
0
0
0.00044094570025837466

0
0
0
0
0
0
0
0
0
0
0.0014485834494460718

0
0
0
0
0
0
0
0
0
0
0.002406045029251877

0
0
0
0
0
0
0
0
0
0
0
0
0
0
0
0
0
0.0006290349029916073

0
0
0
0
0
0
0
0
0
0
0.0011077656928945095

0
0
0.0014485834494460718

0.0018633189535711256

0
0
0
0
0
0
0.0013196074421673227

0
0.002215531385789019

0.0012030225146259384

0
0
0
0
0
0
0
0
0
0.0018871047089748215

0
0
0
0
0
0
0
0
0
0
0
0
0
0
0
0
0
0
0
0
0
0
0
0
0
0
0
0
0
0.0014699115552560275

0
0
0
0
0
0
0
0
0
0
0
0
0
0
0
0
0
0
0
0
0
0
0
0
0
0
0
0
0.0021351123250407133

0
0
0
0.0011532261824397708

0.0008578689154334696

0
0
0
0.0014699115552560275

0.0007038002340473404

0.002872384739417414

0
0
0
0.0012580698059832143

0.0012580698059832143

0
0
0
0
0
0
0
0.0007678557837298547

0
0
0
0
0
0
0.004812090058503754

0
0
0
0
0
0
0
0
0
0
0.004812090058503754

0
0.0010659460964088582

0
0.002939823110512055

0
0
0
0
0
0
0
0
0.0010110595885702255

0
0
0
0
0
0.0017377157124163183

0
0
0
0
0
0
0
0
0
0
0
0
0
0
0
0
0.001668772614875176

0.0013893730600484735

0
0
0
0
0
0
0
0
0
0
0
0
0
0.0009574615798058048

0
0
0
0
0.002406045029251877

0.004087798333780718

0
0
0
0
0
0
0
0
0
0
0
0
0
0.0017353513132932613

0
0
0
0
0
0
0.0008153854484141424

0
0.0010272271976869555

0
0
0
0
0
0
0
0
0
0
0
0
0
0
0
0
0
0.0019823615307062504

0
0
0
0
0
0
0
0
0
0
0
0.0006650813353254376

0.0013893730600484735

0
0
0
0
0
0
0
0
0
0
0
0
0
0
0
0
0
0
0
0
0
0
0
0
0
0
0
0
0.0012580698059832143

0
0.004812090058503754

0.002406045029251877

0
0
0
0
0
0
0
0
0
0
0
0
0
0
0
0
0
0
0
0
0
0
0
0
0
0
0
0
0
0
0
0
0
0
0
0
0
0
0
0
0
0
0
0
0
0
0
0.0019149231596116095

0
0
0
0
0.0002936880450122995

0
0
0.0007038002340473404

0
0
0
0
0
0
0
0
0
0
0.0012030225146259384

0
0
0
0.002406045029251877

0
0
0
0
0
0
0
0.0015651683769874563

0
0
0
0
0
0
0
0
0
0.0030714231349194187

0
0
0
0
0
0
0
0
0
0
0
0
0
0
0
0
0
0.0014699115552560275

0
0
0
0
0
0
0
0
0
0
0
0
0
0
0
0
0
0
0
0
0
0
0
0
0
0
0
0
0
0
0
0
0
0
0
0
0
0
0
0
0
0
0.004812090058503754

0.00721813508775563

0
0
0
0
0
0
0
0
0
0
0
0
0
0
0
0
0
0
0.0015651683769874563

0
0
0
0
0.0018320574176175456

0.0008946977767679621

0
0
0
0
0
0
0
0
0
0
0
0
0
0
0
0
0
0
0
0
0
0
0
0
0
0
0.0006290349029916073

0
0
0
0
0
0
0
0
0
0
0
0
0
0
0
0
0
0
0
0
0
0
0
0
0
0
0
0
0
0
0
0
0
0
0
0
0
0
0
0
0
0
0
0
0
0
0.0013893730600484735

0
0
0
0
0
0
0
0
0
0
0
0
0
0
0
0
0
0
0
0
0
0
0
0
0.003664114835235091

0
0
0
0
0.002406045029251877

0
0
0
0
0
0
0
0
0
0
0
0.002406045029251877

0
0
0
0
0
0
0
0
0
0
0
0
0
0
0
0
0
0
0
0
0
0
0
0
0
0
0
0
0
0
0
0
0
0
0
0
0
0
0
0
0
0
0
0
0
0
0
0
0
0
0
0
0
0
0
0
0
0
0
0
0
0
0
0
0
0
0
0
0
0
0
0
0
0
0
0
0
0
0
0
0
0
0
0
0
0
0
0
0
0
0
0
0
0
0
0
0
0
0
0
0
0.0014699115552560275

0
0
0
0
0
0
0
0
0
0
0
0
0
0
0
0
0
0
0
0
0
0
0
0
0
0
0
0
0
0
0
0
0
0
0
0
0
0
0
0
0
0
0
0
0
0
0
0
0
0
0
0
0
0
0
0
0
0
0
0
0
0
0
0
0
0
0
0
0
0
0
0
0
0
0
0
0.00036214586236151794

0
0
0
0
0
0
0
0
0
0
0.0010272271976869555

0
0
0
0
0
0
0
0
0
0
0
0
0
0
0
0
0
0
0
0
0
0
0
0
0
0
0
0
0
0
0.0013893730600484735

0
0
0
0
0
0
0
0
0
0
0
0
0
0
0
0
0
0.0018320574176175456

0
0
0
0
0
0
0
0
0
0
0
0
0
0
0
0
0
0
0
0
0
0
0
0
0
0
0
0
0
0
0
0
0
0
0
0
0
0
0
0.0007038002340473404

0
0
0
0
0
0
0
0
0
0
0
0
0
0
0
0
0
0
0
0
0
0
0
0
0
0
0
0.0018320574176175456

0
0
0
0
0
0
0
0
0
0
0
0
0
0
0
0
0
0
0
0
0
0
0
0
0
0.0007910803200782527

0
0
0
0
0
0
0
0
0.003664114835235091

0
0
0
0
0
0
0
0
0
0
0
0
0
0
0
0.00721813508775563

0
0
0
0
0
0.0013893730600484735

0
0
0
0
0
0
0
0
0
0
0.0009839169695490546

0.0006467473124355368

0
0.0015651683769874563

0
0
0
0
0
0
0
0
0
0
0
0
0
0
0
0
0
0
0
0
0
0
0
0
0
0
0
0
0
0.0009002777765777521

0
0
0
0
0
0
0
0
0
0
0
0
0
0
0
0
0
0
0
0
0
0
0
0.013209732962823751

0
0
0.01252134701589965

0
0
0.002077852190896274

0
0
0
0
0
0
0
0
0
0
0
0
0
0
0
0
0
0
0
0
0
0
0
0
0
0
0
0
0
0
0
0
0
0
0
0
0
0.0011272828227501881

0
0
0
0
0
0
0
0
0
0
0
0
0
0
0
0
0
0
0
0
0
0.0014485834494460718

0
0
0
0
0
0
0
0
0
0
0
0
0
0
0
0
0.002406045029251877

0
0
0
0
0
0
0
0
0
0
0
0
0
0.001479831088587932

0.0016454892233521592

0.0014076004680946808

0
0
0
0
0
0
0.0019173698408573683

0
0.004812090058503754

0
0
0
0
0
0
0
0
0
0
0
0
0.002406045029251877

0
0
0
0
0
0
0.0010659460964088582

0
0
0
0
0.001302556250663529

0
0
0.002043899166890359

0
0
0
0
0
0
0.0008959239436216964

0.001490804363380282

0
0
0
0.0010272271976869555

0
0
0
0
0
0
0
0
0
0
0
0
0
0.0014076004680946808

0
0
0
0
0
0
0.0008959239436216964

0
0
0
0
0
0
0
0
0
0
0
0
0
0
0
0
0
0
0
0
0
0
0
0
0
0
0
0
0
0
0.004762525739554295

0
0
0
0
0
0
0
0
0.0007678557837298547

0.00045323958605262443

0
0
0
0.0012580698059832143

0
0
0
0
0
0
0.002043899166890359

0
0
0
0
0
0
0
0
0
0
0
0
0.0010659460964088582

0
0
0
0
0
0
0
0
0
0
0
0
0
0.0014076004680946808

0
0
0
0
0
0.0012030225146259384

0.0017918478872433927

0
0
0
0
0
0
0
0
0
0
0
0
0
0
0
0
0
0
0
0
0
0
0
0
0
0
0
0
0
0
0
0
0
0
0
0
0
0
0
0
0.0008676756566466307

0
0
0
0
0
0
0
0
0
0
0
0
0
0
0
0
0
0.0008959239436216964

0
0
0
0.0005953157174442868

0
0
0
0
0
0
0
0
0
0
0
0
0
0
0
0.0012493981207014012

0
0.00044094570025837466

0
0
0
0
0
0
0
0
0
0
0
0
0
0
0
0
0
0
0
0
0
0
0
0
0
0
0.0008153854484141424

0
0
0
0
0
0
0
0
0
0
0
0
0
0
0
0
0
0.0013196074421673227

0
0
0
0
0
0
0
0
0
0
0
0
0
0
0
0
0
0
0
0
0
0
0
0
0
0
0
0
0.0009911807653531252

0
0
0
0
0
0.0015651683769874563

0
0
0
0
0
0
0
0
0
0
0
0
0
0
0
0
0
0.0008818914005167493

0
0
0
0
0
0
0
0.002043899166890359

0.0008153854484141424

0
0
0.0008676756566466307

0
0
0
0
0
0
0.0018515745474732242

0
0
0
0
0
0
0
0
0
0
0
0
0
0.002406045029251877

0
0
0
0
0
0.002406045029251877

0
0
0
0
0
0
0
0
0
0
0
0
0
0
0
0
0
0
0
0
0
0
0
0.0007242917247230359

0
0
0
0
0
0
0.0018320574176175456

0
0
0
0
0
0
0
0
0
0
0
0
0
0
0
0
0
0
0
0
0
0
0
0
0
0.0009839169695490546

0
0
0
0
0
0
0
0
0
0
0
0
0
0
0
0
0
0
0
0
0
0
0
0.002939823110512055

0
0
0
0
0
0
0
0
0
0
0
0
0
0
0
0
0
0
0
0
0
0
0
0
0
0
0
0
0
0
0
0
0
0
0
0
0
0
0
0
0
0.0007910803200782527

0
0.0007456198305329917

0
0.0032593127612536616

0.0023812628697771473

0
0
0.0013893730600484735

0
0
0
0
0
0
0
0.0005194630477240685

0
0
0
0
0
0
0
0
0
0
0
0
0
0
0
0
0
0
0
0
0
0
0
0
0.0013893730600484735

0.004812090058503754

0
0
0
0
0
0
0
0
0
0
0
0
0
0
0
0
0
0
0
0
0.00045323958605262443

0
0
0
0
0
0
0
0
0
0
0
0
0
0
0
0
0
0
0.0013666174867432896

0
0
0
0
0
0
0
0
0
0
0
0.0014485834494460718

0
0.0005055297942851127

0
0
0
0.0006840821943488832

0
0
0
0
0
0
0
0
0
0
0
0
0.0018320574176175456

0
0
0
0.0025226299567932607

0
0
0
0
0
0
0
0
0
0
0
0
0
0
0
0
0
0
0
0
0
0
0
0
0
0
0
0.0031303367539749125

0
0
0
0
0
0
0
0.0007242917247230359

0
0
0
0
0
0.0015357115674597094

0
0
0
0
0
0
0
0
0
0.0007669479363429473

0
0
0
0
0
0
0
0
0
0
0
0
0
0
0
0
0
0
0
0
0
0
0.002215531385789019

0
0
0
0
0
0
0
0.006131697500671075

0.0018633189535711256

0
0
0
0
0
0
0
0
0
0
0
0
0
0
0
0
0
0
0
0
0
0
0
0
0
0
0
0
0
0
0
0
0
0
0
0
0
0
0
0
0
0
0
0
0
0
0
0
0
0
0
0
0
0
0
0
0
0
0
0
0
0.0012030225146259384

0
0.0012580698059832143

0
0
0
0
0
0
0.001174752180049198

0
0
0
0
0.0016307708968282847

0
0
0
0
0
0
0
0
0
0
0
0
0
0
0
0
0
0
0
0
0
0
0.0031303367539749125

0
0
0.01979411163250984

0
0
0
0
0
0
0
0
0
0.002406045029251877

0
0
0
0
0
0
0
0
0
0
0.002215531385789019

0.0018320574176175456

0
0
0
0
0
0
0
0
0
0
0
0
0
0
0
0
0
0
0
0
0
0.0009574615798058048

0
0
0
0
0
0
0
0
0
0
0
0
0
0
0
0
0
0.0013893730600484735

0.002043899166890359

0
0
0.002215531385789019

0
0
0
0
0
0
0
0
0
0
0
0
0
0
0
0
0
0
0
0
0
0
0
0
0
0
0
0.0012030225146259384

0
0
0.0017377157124163183

0
0
0
0.0016817533045288405

0
0
0
0
0
0.0016307708968282847

0
0
0
0
0
0
0
0
0
0
0
0
0
0
0.0009439031121753029

0.0014158546682629543

0
0
0
0
0
0
0
0
0
0.0018320574176175456

0
0
0
0
0
0
0
0
0
0
0
0
0
0
0
0
0
0
0
0
0
0
0
0
0
0
0
0
0
0
0
0
0
0
0
0
0.0018320574176175456

0
0.0008153854484141424

0
0
0
0
0
0.002406045029251877

0
0
0
0.0014699115552560275

0
0
0
0
0
0
0
0
0
0
0
0
0
0
0
0
0
0
0
0
0
0
0
0
0
0.0010272271976869555

0.0013893730600484735

0
0.0008676756566466307

0
0
0
0
0
0
0
0
0
0
0
0
0
0
0
0
0
0
0
0.00462893636868306

0
0
0
0.0010659460964088582

0
0
0
0
0
0
0
0
0
0.0014699115552560275

0
0
0
0
0
0
0
0
0
0
0
0.0004919584847745273

0
0.001397489215178344

0
0.002043899166890359

0
0
0
0
0.003459678547319312

0
0
0
0
0
0
0
0
0
0
0
0.002778746120096947

0
0
0
0
0
0
0
0
0
0
0
0
0
0
0
0
0
0
0
0.002043899166890359

0
0
0
0
0
0
0
0
0
0
0
0
0
0
0
0
0
0
0
0.002043899166890359

0
0
0
0
0
0
0
0
0
0
0
0
0
0
0
0
0
0
0.0012580698059832143

0
0.002778746120096947

0.002043899166890359

0
0
0
0
0
0.004812090058503754

0
0
0
0
0
0
0
0.001038926095448137

0
0
0
0.0012580698059832145

0
0
0.0018320574176175456

0
0
0
0
0
0
0
0
0
0
0
0
0
0
0
0
0
0
0
0
0
0
0
0
0
0
0
0
0
0
0
0.0023064523648795416

0
0
0
0
0
0
0
0
0
0
0
0
0
0
0
0
0
0
0
0
0
0
0
0
0
0
0
0
0
0.003664114835235091

0
0
0
0
0
0
0
0
0
0
0
0
0
0
0
0
0
0
0
0
0
0
0
0
0.007349557776280137

0
0
0
0
0
0
0
0
0
0
0
0
0.0016817533045288405

0
0
0
0.0014699115552560275

0
0.002406045029251877

0
0.0037481943621042032

0
0
0
0
0
0
0
0
0
0
0
0
0
0
0
0
0
0
0
0
0
0.002406045029251877

0.002043899166890359

0
0
0
0
0
0
0
0
0
0
0
0
0
0
0
0
0
0
0.002043899166890359

0
0.021064154755727704

0
0
0
0
0
0
0
0
0
0
0
0
0
0
0
0
0
0
0
0
0
0
0
0
0
0
0
0.00030293547296391966

0
0.002402001365670803

0
0
0
0
0
0
0
0
0
0
0
0
0
0.002043899166890359

0
0
0
0
0
0
0
0
0
0
0
0
0
0.0015651683769874563

0
0
0
0
0
0
0
0
0
0
0
0
0
0
0
0
0
0
0
0
0
0
0
0
0
0
0
0
0
0
0
0
0
0
0
0
0
0
0
0
0
0
0
0
0
0
0
0
0
0
0
0
0
0
0
0
0
0
0
0
0
0
0
0
0
0
0
0
0.0026030269699398915

0
0.0012580698059832143

0.0007669479363429473

0
0
0
0
0
0
0
0
0
0
0
0
0
0
0
0
0
0
0
0
0
0
0
0
0
0
0
0
0
0
0
0
0
0
0
0
0.00020923592821166427

0
0
0
0
0
0
0
0
0
0
0
0
0
0
0
0
0
0
0
0
0
0
0
0
0
0
0.0018320574176175456

0
0
0
0
0
0
0
0
0
0
0
0
0
0
0
0
0
0
0
0
0
0
0
0
0
0
0
0
0
0
0
0
0
0
0
0
0
0
0
0
0
0
0
0
0
0
0
0
0.0004926276562613793

0
0
0
0
0
0
0
0
0
0
0
0
0.0006119033341185711

0
0
0
0
0
0
0
0
0
0
0
0
0
0
0
0
0
0
0
0
0
0
0.0006650813353254376

0
0
0
0
0
0.002406045029251877

0
0
0
0
0
0
0.0008408766522644203

0
0
0.005554723642419672

0
0
0
0
0
0
0
0
0
0
0
0
0
0
0
0
0
0
0
0
0
0
0
0
0
0
0
0.0018357100023557132

0
0.0016013342437805349

0
0
0
0
0
0
0
0
0
0.002043899166890359

0
0
0
0.0011532261824397708

0
0
0
0
0
0
0
0
0
0
0
0
0
0
0
0
0
0.006260673507949825

0
0
0
0
0
0
0
0
0
0
0
0
0
0
0
0
0
0
0
0
0
0
0
0.004812090058503754

0
0
0.002043899166890359

0
0
0
0
0
0
0
0
0
0
0
0
0
0.0031303367539749125

0.0016817533045288405

0
0
0
0
0
0
0
0
0
0
0
0
0.0021351123250407137

0
0
0
0
0.0010272271976869555

0
0
0
0
0
0.00045323958605262443

0
0
0
0
0
0
0.002406045029251877

0
0
0
0
0
0
0
0
0
0
0
0
0
0
0
0
0
0
0
0
0
0
0
0.0014699115552560275

0
0
0
0
0
0
0
0
0
0
0
0
0
0
0
0
0
0
0
0
0
0
0
0
0
0
0
0
0
0
0
0
0
0.004812090058503754

0
0
0
0
0
0
0
0
0
0
0
0
0
0
0
0
0
0
0
0
0
0
0
0
0
0
0
0
0
0
0
0
0
0
0
0
0
0.0018320574176175456

0
0
0
0
0
0.00112534722072219

0
0
0
0
0
0
0
0
0
0.002586989249742147

0.002406045029251877

0
0
0
0
0
0
0
0
0
0.0007456198305329917

0
0.0009257872737366121

0.00044094570025837466

0
0
0
0
0
0
0.0015651683769874563

0
0
0.0008369437128466571

0
0
0
0
0
0
0
0.0013196074421673227

0
0
0
0
0
0
0
0
0
0
0
0
0
0
0
0
0
0
0
0
0
0
0
0
0
0
0
0
0
0
0
0
0
0
0
0.0005337780812601783

0
0.0006467473124355368

0
0.0006840821943488832

0
0
0
0.0012580698059832143

0
0.0012030225146259384

0
0
0
0
0.002872384739417414

0
0
0
0
0
0
0
0
0
0
0
0
0
0
0
0
0
0
0
0
0
0
0.0011906314348885737

0.0014076004680946808

0
0
0
0
0
0
0
0
0
0
0
0
0
0
0
0
0
0
0
0
0
0
0
0.0016817533045288405

0
0
0
0
0
0
0
0.006131697500671075

0.002406045029251877

0
0
0
0
0
0
0
0
0
0.00923725209517126

0
0.0009574615798058048

0.0012580698059832143

0
0
0
0
0
0.0020985286957449197

0.0011077656928945095

0
0.0019173698408573683

0
0
0
0
0
0
0
0.0013196074421673227

0
0
0
0
0
0
0
0
0
0
0
0
0
0
0
0
0.0009911807653531252

0.0007910803200782527

0
0
0
0
0
0
0
0
0
0
0
0
0
0
0.005496172252852636

0
0
0
0
0
0
0
0
0
0
0
0
0
0
0
0
0
0
0.002406045029251877

0.0014699115552560275

0
0
0
0
0
0
0
0
0
0
0.0022545656455003763

0
0
0
0.0014912396610659833

0
0
0
0
0
0
0
0
0
0
0
0
0
0
0
0
0
0
0
0
0
0
0
0
0
0
0
0
0
0
0
0
0
0
0
0
0
0
0
0
0
0
0
0
0
0
0
0
0
0.0012030225146259384

0
0.0008959239436216964

0
0
0
0
0
0
0
0
0
0
0
0
0
0
0
0.003381848468250564

0
0
0
0
0
0
0
0
0
0
0
0
0
0
0
0
0
0.0016817533045288405

0
0
0
0.0008578689154334696

0
0
0
0
0
0
0
0
0.0010272271976869555

0
0
0
0
0
0
0
0
0
0
0
0
0
0
0
0
0
0
0.003363506609057681

0
0
0.0007910803200782527

0.0011077656928945095

0
0
0
0
0
0
0.002406045029251877

0
0
0.0008676756566466307

0
0
0
0
0
0
0
0
0
0
0
0
0
0
0
0
0
0
0
0
0
0
0
0
0
0
0
0
0
0
0
0
0
0
0
0
0
0
0
0
0
0.0016585116834795441

0
0
0
0
0
0
0
0
0
0
0
0
0
0
0
0
0
0
0
0
0
0
0
0
0.00022506944414443802

0
0
0
0
0
0
0
0
0
0
0
0
0
0
0
0
0
0
0
0
0
0
0
0
0
0
0
0
0.0010272271976869555

0
0
0
0
0
0
0
0
0
0
0
0
0
0
0
0
0
0
0
0
0
0
0
0.0014076004680946808

0
0
0
0
0
0
0
0.002054454395373911

0
0
0
0
0
0
0
0
0
0
0
0
0
0.0014699115552560275

0
0
0
0
0
0
0
0
0
0
0
0
0
0
0
0.0013681643886977663

0
0
0
0.004473718983197949

0
0
0
0
0
0
0
0
0
0
0
0
0
0
0
0
0
0
0
0
0
0
0
0
0
0
0
0
0
0
0
0
0
0
0
0
0
0
0
0
0
0
0
0
0
0
0
0
0
0
0
0.0013196074421673227

0.0022545656455003763

0
0
0
0
0
0
0
0
0
0.0007910803200782527

0
0
0
0.012030225146259383

0
0
0
0
0
0
0
0
0.0009257872737366121

0
0.0006650813353254376

0
0
0
0
0
0
0
0
0
0
0
0
0
0
0
0.0014699115552560275

0
0.0019823615307062504

0
0
0
0
0
0
0
0
0
0
0
0
0
0
0.0003123495301753503

0
0.0011012202975378535

0
0
0
0.0007091985410717102

0
0
0
0
0
0
0
0
0
0.0011077656928945095

0
0
0
0
0
0
0
0
0
0
0
0
0
0.01226339500134215

0
0
0
0
0
0
0
0
0
0
0
0
0
0
0
0
0
0
0
0
0
0
0
0
0
0
0
0
0
0
0
0
0
0
0
0
0
0
0
0
0
0
0
0.0005953157174442868

0
0
0
0
0
0
0
0
0
0
0
0
0
0
0.0009257872737366121

0.0007038002340473404

0
0
0
0
0
0
0.0012580698059832143

0
0
0
0
0
0
0
0
0
0
0
0
0
0
0
0
0
0
0
0
0
0
0
0
0
0
0
0
0
0
0
0
0
0
0
0.0007242917247230359

0
0
0
0
0
0
0
0
0
0
0
0
0
0
0
0
0
0
0
0
0
0
0
0
0
0
0
0
0
0
0
0
0
0
0
0
0
0
0
0
0
0.002406045029251877

0
0
0
0
0
0
0
0
0
0
0
0
0
0
0
0
0
0
0
0
0
0
0
0.002406045029251877

0
0
0.002406045029251877

0
0
0
0
0
0
0
0
0
0
0
0
0
0
0
0
0
0
0
0
0.001158477141610879

0.0007456198305329917

0
0
0
0
0
0
0
0
0
0
0
0
0
0
0
0
0
0
0
0
0
0
0
0
0
0
0
0
0
0
0
0
0.0007242917247230359

0
0.0004787307899029024

0.0007678557837298547

0
0
0
0
0
0
0
0
0
0
0
0
0
0
0
0
0
0
0
0
0
0
0
0.00721813508775563

0.012030225146259383

0.004812090058503754

0
0.002043899166890359

0.002406045029251877

0
0
0
0
0
0
0
0
0
0
0
0
0
0
0
0
0
0
0
0
0
0
0
0
0
0
0
0
0
0
0
0
0
0
0
0
0
0
0
0
0
0
0
0
0
0
0
0
0
0
0
0
0
0
0
0
0
0
0
0
0.0005194630477240685

0
0
0
0
0
0
0
0
0
0
0
0
0
0
0
0
0
0
0
0
0
0
0
0
0.0013681643886977663

0
0
0
0
0
0
0
0
0
0
0
0
0
0
0
0
0
0
0
0
0
0
0
0
0
0
0.0008408766522644203

0.0011077656928945095

0
0
0
0
0
0.002043899166890359

0
0.0014699115552560275

0
0
0
0.002043899166890359

0
0
0.002406045029251877

0
0
0
0
0
0
0
0
0
0
0
0
0
0
0
0
0
0
0
0
0
0
0
0
0
0
0
0
0.0016817533045288405

0
0
0.0006290349029916073

0
0
0
0
0
0
0
0
0
0
0
0
0
0
0
0
0
0
0
0.0009574615798058048

0
0
0
0
0
0
0
0
0
0
0
0.0013893730600484735

0
0
0
0
0
0
0
0
0
0
0
0
0
0
0
0
0
0
0
0
0
0
0.005278429768669291

0
0
0
0
0
0
0
0
0
0
0
0
0
0
0
0
0
0
0
0
0
0.002406045029251877

0
0
0
0.0006650813353254376

0
0
0
0
0
0
0
0
0
0
0
0
0
0
0
0
0.0018129583442104977

0
0
0
0
0
0
0
0
0
0
0
0
0.0012580698059832145

0
0
0
0
0
0
0
0
0
0
0
0
0
0
0
0
0
0
0
0
0
0
0
0
0
0
0
0
0
0
0
0
0
0
0.0014699115552560275

0.0013893730600484735

0
0
0.0006290349029916073

0
0
0
0
0
0
0
0
0
0
0
0
0
0
0
0
0
0
0
0
0
0
0
0
0
0
0
0
0
0
0.0016817533045288405

0
0
0
0
0
0
0
0
0
0
0
0
0
0
0
0
0
0
0
0
0
0
0
0
0
0
0
0
0.009018262582001505

0
0
0
0
0
0
0.0010659460964088582

0
0
0
0
0
0
0
0
0
0
0
0
0
0
0
0
0
0
0
0
0
0
0
0
0
0
0
0
0
0
0
0
0
0
0
0
0
0
0
0
0
0
0
0
0
0
0
0
0
0.0014699115552560275

0
0.0016817533045288405

0
0
0
0
0
0
0
0
0
0
0
0
0
0
0
0
0
0
0
0
0
0
0
0
0
0
0
0
0
0
0
0
0
0
0
0
0
0
0
0
0
0
0
0
0
0
0
0
0
0
0
0
0
0
0
0
0
0
0
0
0
0
0
0
0
0
0
0
0
0
0
0
0
0
0
0
0
0
0
0
0
0
0
0
0
0
0.0025161396119664286

0
0
0
0
0
0
0
0
0
0
0
0
0
0
0.0005055297942851127

0
0
0
0
0
0
0
0
0
0
0
0
0
0
0
0
0
0
0
0
0.002406045029251877

0
0
0
0
0
0
0
0
0
0
0
0
0
0
0
0
0
0
0
0
0
0
0
0
0
0.002043899166890359

0
0
0
0
0
0
0
0
0
0
0
0
0
0
0
0
0
0
0
0
0
0
0
0
0
0
0
0
0
0
0
0
0
0
0
0
0.0004919584847745273

0
0.00416811918014542

0
0
0.002043899166890359

0
0
0
0.0006634046733918177

0.0008408766522644203

0
0
0.0005953157174442868

0
0
0
0.0009257872737366121

0
0
0
0
0
0
0
0
0
0
0
0
0
0
0.002406045029251877

0
0
0
0
0
0
0
0
0
0
0
0
0
0.0011532261824397708

0
0
0
0
0
0.0010272271976869555

0
0
0
0
0
0
0
0
0
0
0
0
0
0.0010272271976869555

0
0
0
0
0
0
0
0
0
0.002043899166890359

0
0
0
0
0
0
0
0.0015357115674597094

0
0
0
0
0
0.0013893730600484735

0.001359718758157873

0.0011532261824397708

0
0
0
0
0
0
0
0
0
0
0
0
0
0
0
0
0
0
0
0
0
0.0016817533045288405

0
0
0
0
0
0
0
0.0015651683769874563

0
0.0016817533045288405

0
0
0
0
0
0.002043899166890359

0
0
0
0.0009911807653531252

0
0
0
0
0
0
0
0
0.00357189430466572

0
0
0
0
0
0
0
0.0007678557837298547

0
0
0
0
0.0034707026265865227

0
0
0
0.0009574615798058048

0
0
0.0012934946248710736

0
0
0
0
0
0
0
0
0
0
0
0
0
0
0
0
0
0
0
0
0
0
0
0
0
0.033684630409526274

0.002406045029251877

0
0
0
0
0
0
0
0
0
0
0
0
0
0
0
0
0
0
0
0
0
0
0
0
0
0
0
0
0
0
0
0
0
0
0
0
0
0
0
0
0
0
0
0
0
0
0
0
0
0
0
0
0
0
0
0
0
0
0
0
0
0
0
0
0
0
0
0
0
0
0
0
0
0
0
0
0
0
0
0
0
0
0
0
0
0
0
0
0
0
0
0
0
0
0
0
0
0
0
0
0
0
0
0
0
0
0
0
0
0
0
0
0
0
0
0
0
0
0
0
0
0
0
0
0
0
0
0
0
0
0
0
0
0
0
0
0
0
0
0
0
0
0
0
0
0
0
0
0
0
0.0007910803200782527

0
0
0
0
0
0
0
0
0
0
0
0
0
0
0
0
0
0
0
0
0
0
0
0
0
0
0
0
0
0
0
0
0
0
0
0
0
0
0
0
0
0
0
0
0
0
0
0
0
0
0.00042878407011536456

0.001490804363380282

0
0
0
0
0
0.002215531385789019

0
0
0
0
0
0
0
0
0
0
0
0
0
0
0
0
0
0
0
0
0
0
0
0
0.0007242917247230359

0
0
0
0
0.002215531385789019

0.003945489879625659

0
0
0
0
0
0
0
0
0
0
0
0
0
0
0
0
0
0
0
0
0.01252134701589965

0
0
0
0
0
0
0
0
0
0
0
0
0
0
0
0
0
0
0
0
0
0
0
