"0";"https://habr.com/ru/post/718748/"
"1";"https://habr.com/ru/company/southbridge/blog/718728/"
"2";"https://habr.com/ru/company/alfa/blog/717892/"
"3";"https://habr.com/ru/post/718424/"
"4";"https://habr.com/ru/company/brave/blog/717174/"
"5";"https://habr.com/ru/post/718736/"
"6";"https://habr.com/ru/company/inDrive/blog/718526/"
"7";"https://habr.com/ru/post/718542/"
"8";"https://habr.com/ru/company/ruvds/blog/718446/"
"9";"https://habr.com/ru/post/718734/"
"10";"https://habr.com/ru/post/718718/"
"11";"https://habr.com/ru/company/timeweb/blog/718514/"
"12";"https://habr.com/ru/company/vivaldi/blog/718722/"
"13";"https://habr.com/ru/post/718712/"
"14";"https://habr.com/ru/post/718018/"
"15";"https://habr.com/ru/post/718704/"
"16";"https://habr.com/ru/post/718644/"
"17";"https://habr.com/ru/company/slidelab/blog/715698/"
"18";"https://habr.com/ru/post/718692/"
"19";"https://habr.com/ru/post/718678/"
"20";"https://habr.com/ru/post/718674/"
"21";"https://habr.com/ru/company/msw/blog/718672/"
"22";"https://habr.com/ru/post/718670/"
"23";"https://habr.com/ru/post/718662/"
"24";"https://habr.com/ru/post/718660/"
"25";"https://habr.com/ru/company/adminvps/blog/718654/"
"26";"https://habr.com/ru/post/718652/"
"27";"https://habr.com/ru/company/onlinepatent/blog/718596/"
"28";"https://habr.com/ru/company/cloud_mts/blog/718636/"
"29";"https://habr.com/ru/post/718632/"
"30";"https://habr.com/ru/company/otus/blog/718628/"
"31";"https://habr.com/ru/post/718574/"
"32";"https://habr.com/ru/post/718618/"
"33";"https://habr.com/ru/company/hiper/blog/718614/"
"34";"https://habr.com/ru/company/timeweb/blog/718254/"
"35";"https://habr.com/ru/post/718610/"
"36";"https://habr.com/ru/post/717900/"
"37";"https://habr.com/ru/company/otus/blog/718318/"
"38";"https://habr.com/ru/company/moex/blog/718504/"
"39";"https://habr.com/ru/company/serverspace/blog/718396/"
"40";"https://habr.com/ru/company/ruvds/blog/718448/"
"41";"https://habr.com/ru/company/habr_career/blog/718268/"
"42";"https://habr.com/ru/company/piter/blog/718576/"
"43";"https://habr.com/ru/post/718608/"
"44";"https://habr.com/ru/company/eaeconsult/blog/718600/"
"45";"https://habr.com/ru/post/718594/"
"46";"https://habr.com/ru/post/718444/"
"47";"https://habr.com/ru/company/qiwi/blog/718590/"
"48";"https://habr.com/ru/company/itglobalcom/blog/718588/"
"49";"https://habr.com/ru/company/click/blog/718584/"
"50";"https://habr.com/ru/post/718582/"
"51";"https://habr.com/ru/company/otus/blog/718572/"
"52";"https://habr.com/ru/company/skyeng/blog/718374/"
"53";"https://habr.com/ru/post/718560/"
"54";"https://habr.com/ru/company/selectel/blog/718068/"
"55";"https://habr.com/ru/company/otus/blog/718554/"
"56";"https://habr.com/ru/post/718550/"
"57";"https://habr.com/ru/company/joom/blog/718340/"
"58";"https://habr.com/ru/post/718536/"
"59";"https://habr.com/ru/company/vk/blog/717938/"
"60";"https://habr.com/ru/company/first/blog/717980/"
"61";"https://habr.com/ru/company/tochka/blog/718492/"
"62";"https://habr.com/ru/company/southbridge/blog/718534/"
"63";"https://habr.com/ru/company/ruvds/blog/718102/"
"64";"https://habr.com/ru/post/718528/"
"65";"https://habr.com/ru/post/718212/"
"66";"https://habr.com/ru/company/surfstudio/blog/718500/"
"67";"https://habr.com/ru/company/avito/blog/718412/"
"68";"https://habr.com/ru/company/oleg-bunin/blog/718302/"
"69";"https://habr.com/ru/company/ua-hosting/blog/718236/"
"70";"https://habr.com/ru/company/timeweb/blog/717608/"
"71";"https://habr.com/ru/company/first/blog/717944/"
"72";"https://habr.com/ru/company/sportmaster_lab/blog/718472/"
"73";"https://habr.com/ru/post/716594/"
"74";"https://habr.com/ru/company/maxilect/blog/718458/"
"75";"https://habr.com/ru/post/718474/"
"76";"https://habr.com/ru/company/eppie/blog/717456/"
"77";"https://habr.com/ru/post/718352/"
"78";"https://habr.com/ru/company/ru_mts/blog/718386/"
"79";"https://habr.com/ru/company/cloud4y/blog/718380/"
"80";"https://habr.com/ru/post/718454/"
"81";"https://habr.com/ru/post/718450/"
"82";"https://habr.com/ru/company/skillfactory/blog/718350/"
"83";"https://habr.com/ru/company/selectel/blog/716518/"
"84";"https://habr.com/ru/post/718428/"
"85";"https://habr.com/ru/post/718422/"
"86";"https://habr.com/ru/company/otus/blog/718410/"
"87";"https://habr.com/ru/company/otus/blog/718388/"
"88";"https://habr.com/ru/post/718406/"
"89";"https://habr.com/ru/post/718348/"
"90";"https://habr.com/ru/company/otus/blog/718400/"
"91";"https://habr.com/ru/company/southbridge/blog/718262/"
"92";"https://habr.com/ru/company/mvideo/blog/718382/"
"93";"https://habr.com/ru/post/718378/"
"94";"https://habr.com/ru/post/718376/"
"95";"https://habr.com/ru/company/otus/blog/718178/"
"96";"https://habr.com/ru/post/718366/"
"97";"https://habr.com/ru/post/718364/"
"98";"https://habr.com/ru/company/timeweb/blog/718320/"
"99";"https://habr.com/ru/company/nanosoft/blog/718362/"
