глубокий: 0.0003572704537334762 0.0008602878201685858
нейронный: 0.004287245444801715 0.012843439543639833
сеть: 0.016434440871739908 0.022782972708651292
добиваться: 0.0007145409074669524 0.0015150150312255026
ошеломительный: 0.0003572704537334762 0.0016452912418678427
успех: 0.0007145409074669524 0.0013555698355740488
множество: 0.0010718113612004287 0.0014033583279568728
область: 0.0014290818149339049 0.002532271299652555
применение: 0.0003572704537334762 0.0005409531020470795
благодаря: 0.0003572704537334762 0.000430143910084293
способность: 0.0007145409074669524 0.0016452912418678427
улавливать: 0.0003572704537334762 0.0012527895310182142
самый: 0.0017863522686673813 0.0007153940096411672
сложный: 0.0010718113612004287 0.0009045767098548006
нетривиальный: 0.0007145409074669524 0.002300018452924759
закономерность: 0.0007145409074669524 0.0021405732572733053
однако: 0.002500893176134334 0.0021106789896612015
выдающийся: 0.0003572704537334762 0.001397650234165111
современный: 0.0007145409074669524 0.0011500092264623795
модель: 0.006788138620936048 0.006935110290499336
сопровождаться: 0.0003572704537334762 0.0016452912418678427
существенный: 0.0010718113612004287 0.0025808634605057573
вычислительный: 0.0007145409074669524 0.0020102970466309654
затрата: 0.0007145409074669524 0.0020102970466309654
усложнять: 0.0003572704537334762 0.0011500092264623795
ограничивать: 0.0003572704537334762 0.0007024340322875429
применимость: 0.0007145409074669524 0.0032905824837356854
прикладной: 0.0003572704537334762 0.0016452912418678427
задача: 0.0057163272597356195 0.00273260908006002
поэтому: 0.0014290818149339049 0.0008543579860744843
огромный: 0.0003572704537334762 0.0004952820154054628
количество: 0.0021436227224008574 0.0015291530286762375
труд: 0.0003572704537334762 0.0006330678249131387
усилие: 0.0003572704537334762 0.0007289106211241709
потратить: 0.0003572704537334762 0.0007575075156127513
разработка: 0.0003572704537334762 0.0003364089102745427
разнообразный: 0.0003572704537334762 0.0012527895310182142
метод: 0.0003572704537334762 0.0003854268172104073
сжатие: 0.0003572704537334762 0.0010702866286366527
значительный: 0.0014290818149339049 0.0030300300624510053
просадка: 0.0010718113612004287 0.004935873725603528
качество: 0.006430868167202572 0.005427460259128804
прунинг: 0.0053590568060021436 0.02467936862801764
неструктурированный: 0.0010718113612004287 0.004935873725603528
квантизация: 0.0003572704537334762 0.0016452912418678427
матричный: 0.0003572704537334762 0.0016452912418678427
тензорный: 0.0003572704537334762 0.0016452912418678427
разложение: 0.0003572704537334762 0.0012527895310182142
knowledge: 0.0003572704537334762 0.001397650234165111
distillation: 0.0003572704537334762 0.0016452912418678427
многий: 0.0007145409074669524 0.0012661356498262775
другой: 0.0010718113612004287 0.0003822882571690594
тема: 0.0014290818149339049 0.0016283448134167414
сегодняшний: 0.0003572704537334762 0.0009023682187596483
разговор: 0.0003572704537334762 0.0007289106211241709
наиболее: 0.0003572704537334762 0.0006126468124658545
близкий: 0.0007145409074669524 0.0018047364375192965
смысл: 0.0007145409074669524 0.0008845118656674649
определение: 0.0007145409074669524 0.0015150150312255026
весы: 0.00857449088960343 0.039486989804828225
который: 0.005001786352268668 0.00010104962573964722
выбрасывать: 0.0003572704537334762 0.0012527895310182142
минимальный: 0.0003572704537334762 0.0006547272110569168
негативный: 0.0003572704537334762 0.0010051485233154827
последствие: 0.0003572704537334762 0.0009500750399902743
img: 0.005001786352268668 0.019567103278311557
маска: 0.011789924973204717 0.03531945874500954
прореживание: 0.012504465880671669 0.057585193465374496
разбиение: 0.0010718113612004287 0.003758368593054643
нулевой: 0.0017863522686673813 0.005025742616577414
ненулевой: 0.0021436227224008574 0.009871747451207056
вес: 0.006073597713469096 0.01462489294286596
иметь: 0.003929974991068239 0.002007531926197177
четкий: 0.0010718113612004287 0.002272522546838254
структура: 0.0014290818149339049 0.0020394660316400796
дисклеймер: 0.0003572704537334762 0.001397650234165111
дальнейший: 0.0007145409074669524 0.0009905640308109256
повествование: 0.0003572704537334762 0.001397650234165111
сколько: 0.0003572704537334762 0.0005750046132311897
практический: 0.0003572704537334762 0.0007575075156127513
польза: 0.0007145409074669524 0.0016452912418678427
производство: 0.0003572704537334762 0.0008602878201685858
феноменология: 0.0003572704537334762 0.0016452912418678427
на: 0.0007145409074669524 0.0002651401796290332
практика: 0.0007145409074669524 0.000935572218637915
обычно: 0.0010718113612004287 0.001221258610062556
брать: 0.0003572704537334762 0.0005750046132311897
прореживать: 0.0010718113612004287 0.004935873725603528
использовать: 0.0007145409074669524 0.00018675581574448553
некоторый: 0.0053590568060021436 0.007876077009962174
критерий: 0.0007145409074669524 0.0017205756403371715
важность: 0.0007145409074669524 0.0020102970466309654
дообучение: 0.0014290818149339049 0.006581164967471371
отсутствие: 0.0003572704537334762 0.0006126468124658545
достаточный: 0.0003572704537334762 0.0007024340322875429
ресурс: 0.0003572704537334762 0.00045479302458481156
существовать: 0.002500893176134334 0.0026979877204728513
процедура: 0.004644515898535191 0.012350975519873566
разреженный: 0.0028581636298678098 0.011181201873320888
обучение: 0.010718113612004287 0.018992034747394162
ноль: 0.0003572704537334762 0.0006330678249131387
поддерживаться: 0.0003572704537334762 0.0007575075156127513
постоянно: 0.0003572704537334762 0.00048126961342143956
состояние: 0.0003572704537334762 0.0005098665079100199
выбор: 0.0017863522686673813 0.002273965122924058
занулить: 0.0003572704537334762 0.0016452912418678427
меняться: 0.0014290818149339049 0.002450587249863418
течение: 0.0003572704537334762 0.0006126468124658545
время: 0.003929974991068239 0.0010271569865946705
возникать: 0.0014290818149339049 0.0014600232190524918
вопрос: 0.0010718113612004287 0.0006604353048486784
избыточность: 0.0007145409074669524 0.002795300468330222
параметр: 0.0021436227224008574 0.0023125609032624435
почему: 0.0003572704537334762 0.00040708620335418535
просто: 0.0010718113612004287 0.0006024854428226593
взять: 0.0007145409074669524 0.000935572218637915
мало: 0.0003572704537334762 0.0003960923989001826
как: 0.003929974991068239 0.0015156439045844346
показывать: 0.0010718113612004287 0.0008558496208121882
опыт: 0.0003572704537334762 0.000430143910084293
размер: 0.0014290818149339049 0.002532271299652555
значение: 0.004287245444801715 0.0041482702090534
меньший: 0.0017863522686673813 0.004301439100842929
сетка: 0.0003572704537334762 0.001397650234165111
способный: 0.0010718113612004287 0.0019641816331707504
воспроизводить: 0.0007145409074669524 0.0021405732572733053
свой: 0.0003572704537334762 8.421662505218646e-05
большой: 0.0053590568060021436 0.0036084917109526554
собрат: 0.0003572704537334762 0.001397650234165111
по: 0.0007145409074669524 0.0004952820154054628
весь: 0.0010718113612004287 0.0009297969643137439
видимость: 0.0007145409074669524 0.0018047364375192965
причина: 0.0007145409074669524 0.0010501436013282898
явление: 0.0035727045373347625 0.010702866286366528
лежать: 0.0003572704537334762 0.0006547272110569168
оптимизация: 0.0007145409074669524 0.0015150150312255026
обладать: 0.002500893176134334 0.004583090477398418
больший: 0.0010718113612004287 0.001672719987421938
гибкость: 0.0003572704537334762 0.0011500092264623795
потенциал: 0.0003572704537334762 0.0010051485233154827
возможность: 0.0003572704537334762 0.00017078806750375124
подстраивать: 0.0003572704537334762 0.0016452912418678427
оптимальный: 0.0003572704537334762 0.0009023682187596483
образ: 0.0010718113612004287 0.0007866765006218655
целевой: 0.0014290818149339049 0.0032905824837356854
но: 0.0014290818149339049 0.0005938055647898045
значительно: 0.0007145409074669524 0.0017205756403371715
число: 0.0021436227224008574 0.002442517220125112
исходный: 0.006430868167202572 0.010679943452229265
плотный: 0.003215434083601286 0.014807621176810585
менее: 0.0017863522686673813 0.002966650958952574
сильно: 0.0010718113612004287 0.001672719987421938
проигрывать: 0.0003572704537334762 0.0011500092264623795
значит: 0.0003572704537334762 0.0006777849177870244
подсеть: 0.010718113612004287 0.04935873725603528
зависимость: 0.0035727045373347625 0.004070862033541854
возможно: 0.0007145409074669524 0.0008141724067083707
хотя: 0.0010718113612004287 0.001221258610062556
гипотетически: 0.0003572704537334762 0.001397650234165111
обнаруживать: 0.0021436227224008574 0.004731564658498866
данный: 0.0028581636298678098 0.0017611608129298089
обучать: 0.0028581636298678098 0.006882302561348686
шаг: 0.009289031797070382 0.009235640981400691
сопоставимый: 0.0003572704537334762 0.0012527895310182142
некий: 0.0003572704537334762 0.0008226456209339214
высокий: 0.0017863522686673813 0.002150719550421465
разум: 0.0003572704537334762 0.0012527895310182142
мочь: 0.0007145409074669524 0.00015056879693865847
подсвечивать: 0.0003572704537334762 0.001397650234165111
неоновый: 0.0003572704537334762 0.0016452912418678427
свечение: 0.0003572704537334762 0.0016452912418678427
или: 0.0003572704537334762 0.0006330678249131387
получение: 0.0003572704537334762 0.00048126961342143956
эффективный: 0.0010718113612004287 0.002272522546838254
ответ: 0.0007145409074669524 0.0006913783681755667
обозначать: 0.0007145409074669524 0.0016452912418678427
высоко: 0.0007145409074669524 0.0013094544221138335
давать: 0.0003572704537334762 0.00012742941905635312
серия: 0.0003572704537334762 0.000788594109749811
работа: 0.004644515898535191 0.0013984873905648378
посвящать: 0.0003572704537334762 0.0007575075156127513
гипотеза: 0.0028581636298678098 0.008041188186523862
лотерейний: 0.0003572704537334762 0.0016452912418678427
билет: 0.005001786352268668 0.014984012800913138
The: 0.003929974991068239 0.011056633756470311
Lottery: 0.01429081814933905 0.06581164967471372
Ticket: 0.013933547695605574 0.05450835913243934
Hypothesis: 0.013933547695605574 0.06416635843284586
LTH: 0.0003572704537334762 0.0016452912418678427
Finding: 0.0003572704537334762 0.0016452912418678427
Sparse: 0.0003572704537334762 0.0016452912418678427
Trainable: 0.0003572704537334762 0.0016452912418678427
Neural: 0.0014290818149339049 0.005590600936660444
Networks: 0.0007145409074669524 0.0032905824837356854
впервые: 0.0003572704537334762 0.0009500750399902743
Frankle: 0.0014290818149339049 0.006581164967471371
amp: 0.0007145409074669524 0.002300018452924759
Carbin: 0.0007145409074669524 0.0032905824837356854
получать: 0.007859949982136478 0.0024736107132809593
Best: 0.0003572704537334762 0.0016452912418678427
ICLR: 0.0010718113612004287 0.004935873725603528
paper: 0.0007145409074669524 0.0032905824837356854
reward: 0.0003572704537334762 0.0016452912418678427
автор: 0.0035727045373347625 0.004422559328337325
ряд: 0.0007145409074669524 0.0011866603835810295
полносвязный: 0.0003572704537334762 0.0016452912418678427
сверточный: 0.0017863522686673813 0.006988251170825556
MNIST: 0.0010718113612004287 0.004935873725603528
CIFAR10: 0.0021436227224008574 0.009871747451207056
наглядно: 0.0003572704537334762 0.0011500092264623795
продемонстрировать: 0.0007145409074669524 0.0016452912418678427
существование: 0.0010718113612004287 0.002707104656278945
обучаться: 0.0010718113612004287 0.003450027679387139
эффективно: 0.0003572704537334762 0.0009500750399902743
зачастую: 0.0003572704537334762 0.0009023682187596483
прочий: 0.0003572704537334762 0.000788594109749811
равный: 0.0003572704537334762 0.0007575075156127513
оказываться: 0.0017863522686673813 0.001636818027642292
случайно: 0.0010718113612004287 0.0030154455699464484
очень: 0.0021436227224008574 0.0012049708856453187
удачно: 0.0003572704537334762 0.001397650234165111
пронициализировать: 0.0003572704537334762 0.0016452912418678427
выигрылять: 0.0003572704537334762 0.0016452912418678427
лотерея: 0.0007145409074669524 0.0032905824837356854
инициализация: 0.0014290818149339049 0.004281146514546611
тестовый: 0.002500893176134334 0.004744494424509171
выборка: 0.002500893176134334 0.007492006400456569
лотерейный: 0.005001786352268668 0.0230340773861498
различный: 0.0017863522686673813 0.0018753521337954227
прореженность: 0.0010718113612004287 0.004935873725603528
из: 0.015719899964272956 0.018926332043708895
статья: 0.02000714540907467 0.008618736442006947
инициализировать: 0.0010718113612004287 0.003450027679387139
содержать: 0.0003572704537334762 0.0005250718006641449
достигать: 0.0021436227224008574 0.0032457186122824768
итерация: 0.0053590568060021436 0.017250138396935694
такой: 0.0010718113612004287 0.0001616536867466063
оригинальный: 0.0007145409074669524 0.0017205756403371715
предлать: 0.0003572704537334762 0.0016452912418678427
Iterative: 0.0010718113612004287 0.004935873725603528
magnitude: 0.0010718113612004287 0.004935873725603528
pruning: 0.0021436227224008574 0.009871747451207056
стартовать: 0.0003572704537334762 0.0009500750399902743
плотно: 0.0003572704537334762 0.0016452912418678427
сходимость: 0.0017863522686673813 0.006988251170825556
убирать: 0.0007145409074669524 0.0015150150312255026
доля: 0.0010718113612004287 0.002850225119970823
маленький: 0.002500893176134334 0.004153311342533604
модуль: 0.0003572704537334762 0.0006126468124658545
бинарный: 0.0003572704537334762 0.0010702866286366527
фиксировать: 0.0010718113612004287 0.002707104656278945
возвращать: 0.0003572704537334762 0.0006777849177870244
далее: 0.0007145409074669524 0.0007300116095262459
повторять: 0.0007145409074669524 0.001577188219499622
процент: 0.0003572704537334762 0.0009500750399902743
снова: 0.0003572704537334762 0.0006547272110569168
переинициализировать: 0.0003572704537334762 0.0016452912418678427
и: 0.0021436227224008574 0.001095017414289369
несколько: 0.0014290818149339049 0.0005938055647898045
тот: 0.0021436227224008574 0.0012049708856453187
пора: 0.0010718113612004287 0.0018992034747394163
пока: 0.0014290818149339049 0.0014208678432924141
желать: 0.0003572704537334762 0.0010702866286366527
степень: 0.0021436227224008574 0.004731564658498866
о: 0.0003572704537334762 0.0007289106211241709
различие: 0.0003572704537334762 0.0011500092264623795
and: 0.007145409074669525 0.013555698355740489
Gradual: 0.0010718113612004287 0.004935873725603528
при: 0.0028581636298678098 0.0019811280616218513
постепенный: 0.0007145409074669524 0.002795300468330222
каждый: 0.0003572704537334762 0.0001325700898145166
увеличение: 0.0003572704537334762 0.0010051485233154827
продолжаться: 0.0003572704537334762 0.0010051485233154827
конфигурация: 0.0003572704537334762 0.0005409531020470795
итеративный: 0.0010718113612004287 0.003758368593054643
фиксироваться: 0.0003572704537334762 0.0012527895310182142
нулевыхненулевой: 0.0003572704537334762 0.0016452912418678427
возвращаться: 0.0003572704537334762 0.0008226456209339214
percent: 0.0003572704537334762 0.0016452912418678427
Fig: 0.0003572704537334762 0.0016452912418678427
What: 0.0003572704537334762 0.0016452912418678427
How: 0.0010718113612004287 0.004935873725603528
When: 0.0003572704537334762 0.0016452912418678427
often: 0.0003572704537334762 0.0016452912418678427
to: 0.0028581636298678098 0.005619472258300343
prune: 0.0007145409074669524 0.0032905824837356854
rank: 0.0003572704537334762 0.0016452912418678427
weights: 0.0007145409074669524 0.0032905824837356854
There: 0.0003572704537334762 0.001397650234165111
are: 0.0003572704537334762 0.0012527895310182142
many: 0.0003572704537334762 0.0016452912418678427
more: 0.0007145409074669524 0.002795300468330222
or: 0.0003572704537334762 0.0009023682187596483
less: 0.0007145409074669524 0.0025055790620364285
heuristic: 0.0003572704537334762 0.0016452912418678427
ways: 0.0003572704537334762 0.0016452912418678427
score: 0.0003572704537334762 0.0016452912418678427
the: 0.011432654519471239 0.024240240499608042
importance: 0.0003572704537334762 0.0016452912418678427
of: 0.0021436227224008574 0.004066709506722146
a: 0.0010718113612004287 0.0019641816331707504
particular: 0.0003572704537334762 0.0016452912418678427
weight: 0.0003572704537334762 0.0016452912418678427
in: 0.0010718113612004287 0.0019641816331707504
network: 0.0003572704537334762 0.001397650234165111
A: 0.0003572704537334762 0.0008226456209339214
common: 0.0003572704537334762 0.001397650234165111
rule: 0.0003572704537334762 0.001397650234165111
thumb: 0.0003572704537334762 0.0016452912418678427
is: 0.0003572704537334762 0.0009023682187596483
that: 0.0003572704537334762 0.001397650234165111
large: 0.0003572704537334762 0.0016452912418678427
have: 0.0003572704537334762 0.0012527895310182142
impact: 0.0003572704537334762 0.0016452912418678427
on: 0.0003572704537334762 0.0008226456209339214
function: 0.0003572704537334762 0.0009500750399902743
fit: 0.0003572704537334762 0.0016452912418678427
should: 0.0003572704537334762 0.0011500092264623795
be: 0.0003572704537334762 0.0011500092264623795
pruned: 0.0003572704537334762 0.0016452912418678427
While: 0.0003572704537334762 0.0016452912418678427
working: 0.0003572704537334762 0.0016452912418678427
well: 0.0003572704537334762 0.0016452912418678427
practice: 0.0003572704537334762 0.0016452912418678427
this: 0.0003572704537334762 0.0011500092264623795
intuitively: 0.0003572704537334762 0.0016452912418678427
may: 0.0003572704537334762 0.0016452912418678427
seem: 0.0003572704537334762 0.0016452912418678427
contradict: 0.0003572704537334762 0.0016452912418678427
ideas: 0.0003572704537334762 0.0016452912418678427
such: 0.0003572704537334762 0.001397650234165111
as: 0.0003572704537334762 0.0008226456209339214
L2: 0.0003572704537334762 0.0016452912418678427
место: 0.0021436227224008574 0.0017598725660660885
важный: 0.0003572704537334762 0.0003015255699516002
нюанс: 0.0003572704537334762 0.0008226456209339214
наблюдение: 0.0003572704537334762 0.0009023682187596483
привязывать: 0.0007145409074669524 0.0016452912418678427
конкретный: 0.0007145409074669524 0.0008141724067083707
иниализация: 0.0007145409074669524 0.0032905824837356854
если: 0.002500893176134334 0.0005580581847800887
инициализовать: 0.0003572704537334762 0.0016452912418678427
случайный: 0.0053590568060021436 0.012904317302528787
никакой: 0.0003572704537334762 0.0005250718006641449
чудесный: 0.0007145409074669524 0.0032905824837356854
свойство: 0.0017863522686673813 0.004301439100842929
расписание: 0.0003572704537334762 0.0012527895310182142
learning: 0.0017863522686673813 0.008226456209339214
rate: 0.0017863522686673813 0.006988251170825556
регуляризация: 0.0007145409074669524 0.0032905824837356854
сходиться: 0.0017863522686673813 0.005025742616577414
быстро: 0.0003572704537334762 0.0003015255699516002
зеленый: 0.0017863522686673813 0.004750375199951372
соответствующий: 0.0003572704537334762 0.0006126468124658545
хороший: 0.0017863522686673813 0.0016820445513727137
вероятно: 0.0003572704537334762 0.0007289106211241709
эффект: 0.0007145409074669524 0.0015150150312255026
вызывать: 0.0007145409074669524 0.0009095860491696231
запрунивать: 0.0003572704537334762 0.0016452912418678427
подверженный: 0.0003572704537334762 0.0012527895310182142
выучивание: 0.0010718113612004287 0.004935873725603528
ложный: 0.0003572704537334762 0.0009500750399902743
присущий: 0.0003572704537334762 0.0011500092264623795
специфичный: 0.0003572704537334762 0.0011500092264623795
семплирование: 0.0003572704537334762 0.0016452912418678427
происходить: 0.0010718113612004287 0.0009556249938732942
вероятность: 0.0010718113612004287 0.0019641816331707504
называть: 0.0010718113612004287 0.0010656508824693108
ибо: 0.0003572704537334762 0.0012527895310182142
потенциальный: 0.0003572704537334762 0.0009023682187596483
выигрыш: 0.0003572704537334762 0.0011500092264623795
немаленький: 0.0003572704537334762 0.0016452912418678427
шанс: 0.0003572704537334762 0.0010702866286366527
крайне: 0.0003572704537334762 0.0008226456209339214
для: 0.0014290818149339049 0.0005097176762254125
серьезный: 0.0014290818149339049 0.0028097361291501716
LeNet: 0.0007145409074669524 0.0032905824837356854
приходиться: 0.0010718113612004287 0.0009297969643137439
повозиться: 0.0003572704537334762 0.0012527895310182142
тонко: 0.0003572704537334762 0.0016452912418678427
настраивать: 0.0007145409074669524 0.0011151466582812921
добавлять: 0.0003572704537334762 0.00020715201688208007
warmup: 0.0003572704537334762 0.0016452912418678427
повышение: 0.0003572704537334762 0.0006777849177870244
максимальный: 0.0017863522686673813 0.003512170161437715
можно: 0.0007145409074669524 0.0008368581504129654
пытаться: 0.0007145409074669524 0.0011151466582812921
генерировать: 0.0007145409074669524 0.0013555698355740488
один: 0.0035727045373347625 0.0009804817638505194
выдавать: 0.0007145409074669524 0.0011866603835810295
синий: 0.0003572704537334762 0.001397650234165111
тезис: 0.0014290818149339049 0.004600036905849518
иллюстрация: 0.0010718113612004287 0.003210859885909958
основной: 0.0010718113612004287 0.0008799362830330443
итог: 0.0003572704537334762 0.0004677861093189575
действительно: 0.0003572704537334762 0.0005409531020470795
поиск: 0.0007145409074669524 0.000860287820168586
трудоемкий: 0.0003572704537334762 0.0016452912418678427
долгий: 0.0003572704537334762 0.0008226456209339214
процесс: 0.0010718113612004287 0.0007008858171561244
требовать: 0.0003572704537334762 0.0003273636055284584
это: 0.0010718113612004287 5.4976735677974794e-05
чегото: 0.0003572704537334762 0.0012527895310182142
серьезно: 0.0003572704537334762 0.0011500092264623795
тип: 0.0007145409074669524 0.0007708536344208145
ImageNet: 0.0014290818149339049 0.006581164967471371
говорить: 0.0007145409074669524 0.0005097176762254125
LLM: 0.0003572704537334762 0.0016452912418678427
подход: 0.0007145409074669524 0.0006728178205490854
становиться: 0.0003572704537334762 0.00022682324845872435
неприлично: 0.0003572704537334762 0.0016452912418678427
дорогой: 0.0003572704537334762 0.0009023682187596483
Stabilizing: 0.0010718113612004287 0.004935873725603528
критически: 0.0003572704537334762 0.0009500750399902743
читатель: 0.0003572704537334762 0.0007024340322875429
замечать: 0.0003572704537334762 0.0005750046132311897
сей: 0.0007145409074669524 0.0017205756403371715
рассматривать: 0.0014290818149339049 0.001720575640337172
игрушечный: 0.0003572704537334762 0.001397650234165111
архитектура: 0.0010718113612004287 0.0013643790737544346
очевидно: 0.0017863522686673813 0.003512170161437715
скольлибо: 0.0010718113612004287 0.004935873725603528
немного: 0.0003572704537334762 0.0003960923989001826
поколдовать: 0.0003572704537334762 0.0016452912418678427
увы: 0.0003572704537334762 0.0011500092264623795
последующий: 0.0003572704537334762 0.000788594109749811
Liu: 0.0003572704537334762 0.0016452912418678427
et: 0.003215434083601286 0.014807621176810585
al: 0.003215434083601286 0.014807621176810585
Gale: 0.0003572704537334762 0.0016452912418678427
описывать: 0.0003572704537334762 0.000430143910084293
позволять: 0.0014290818149339049 0.0006156240315719247
находить: 0.002500893176134334 0.0016354002400309569
замечательный: 0.0003572704537334762 0.0009023682187596483
скорректировать: 0.0003572704537334762 0.0016452912418678427
формулировка: 0.0003572704537334762 0.0010051485233154827
иницилизировать: 0.0003572704537334762 0.0016452912418678427
начальный: 0.0014290818149339049 0.003441151280674343
небольшой: 0.0007145409074669524 0.0007708536344208145
сравнение: 0.0007145409074669524 0.001081906204094159
находиться: 0.0007145409074669524 0.0006728178205490854
тонкий: 0.0010718113612004287 0.002707104656278945
настройка: 0.0007145409074669524 0.0010197330158200398
перемотка: 0.003215434083601286 0.012578852107485999
rewinding: 0.0007145409074669524 0.0032905824837356854
пусть: 0.0003572704537334762 0.0007024340322875429
тогда: 0.0003572704537334762 0.0006547272110569168
эксперимент: 0.0010718113612004287 0.002033354753361073
VGG19: 0.0007145409074669524 0.0032905824837356854
ResNet18: 0.0003572704537334762 0.0016452912418678427
приводить: 0.0007145409074669524 0.0006728178205490854
прирост: 0.0003572704537334762 0.0012527895310182142
момент: 0.002500893176134334 0.0014951264756303477
постановка: 0.0010718113612004287 0.003450027679387139
масшабироваться: 0.0003572704537334762 0.0016452912418678427
вполне: 0.0003572704537334762 0.0005750046132311897
представлять: 0.0007145409074669524 0.0006030511399032004
график: 0.0003572704537334762 0.0007289106211241709
accuracy: 0.0003572704537334762 0.0016452912418678427
vs: 0.0003572704537334762 0.0012527895310182142
sparsity: 0.0003572704537334762 0.0016452912418678427
актуальный: 0.0003572704537334762 0.000788594109749811
корректно: 0.0003572704537334762 0.0008602878201685858
паттерн: 0.0003572704537334762 0.0009500750399902743
придумывать: 0.0003572704537334762 0.0007289106211241709
термин: 0.0003572704537334762 0.0008602878201685858
matching: 0.0053590568060021436 0.02467936862801764
ticket: 0.0028581636298678098 0.013162329934942742
решение: 0.006788138620936048 0.003467555145249669
Linear: 0.0057163272597356195 0.026324659869885483
mode: 0.0057163272597356195 0.022362403746641776
connectivity: 0.0057163272597356195 0.026324659869885483
наблюдать: 0.0003572704537334762 0.0009023682187596483
исследователь: 0.0003572704537334762 0.0009023682187596483
хотеть: 0.0003572704537334762 0.00022682324845872435
понимать: 0.0003572704537334762 0.00025485883811270625
оно: 0.0003572704537334762 0.0004952820154054628
какоето: 0.0003572704537334762 0.0007575075156127513
логический: 0.0003572704537334762 0.0008602878201685858
обоснование: 0.0003572704537334762 0.0011500092264623795
заглядывать: 0.0003572704537334762 0.001397650234165111
внутрь: 0.0003572704537334762 0.0010702866286366527
в: 0.0021436227224008574 8.750695502734234e-05
прошлый: 0.0007145409074669524 0.0018047364375192965
исследовать: 0.0007145409074669524 0.0017205756403371715
связь: 0.0003572704537334762 0.0004184290752064827
линейный: 0.0014290818149339049 0.005590600936660444
связность: 0.0007145409074669524 0.0032905824837356854
суть: 0.0003572704537334762 0.0006330678249131387
следующий: 0.0021436227224008574 0.0009234360473578871
лосс: 0.0010718113612004287 0.004935873725603528
поверхность: 0.0014290818149339049 0.0038003001599610973
большинство: 0.0003572704537334762 0.0005098665079100199
встречаться: 0.0003572704537334762 0.000788594109749811
существенно: 0.0010718113612004287 0.003210859885909958
невыпуклый: 0.0003572704537334762 0.0016452912418678427
холм: 0.0003572704537334762 0.0016452912418678427
долина: 0.0017863522686673813 0.008226456209339214
впадина: 0.0003572704537334762 0.0016452912418678427
ResNet110: 0.0010718113612004287 0.004935873725603528
Visualizing: 0.0010718113612004287 0.004935873725603528
Loss: 0.0010718113612004287 0.004935873725603528
Landscape: 0.0010718113612004287 0.004935873725603528
Nets: 0.0010718113612004287 0.004935873725603528
обыкновенно: 0.0003572704537334762 0.0016452912418678427
использоваться: 0.0007145409074669524 0.0006198646428758292
иной: 0.0003572704537334762 0.0005098665079100199
вариация: 0.0003572704537334762 0.0016452912418678427
алгоритм: 0.0021436227224008574 0.0031504308039848696
стохастический: 0.0003572704537334762 0.001397650234165111
градиентный: 0.0003572704537334762 0.0016452912418678427
спуск: 0.0003572704537334762 0.0016452912418678427
SGD: 0.0028581636298678098 0.013162329934942742
пример: 0.0003572704537334762 0.0002476410077027314
вносить: 0.0003572704537334762 0.0006330678249131387
элемент: 0.0003572704537334762 0.0005409531020470795
случайность: 0.0007145409074669524 0.002795300468330222
совершать: 0.0003572704537334762 0.0008226456209339214
резкий: 0.0003572704537334762 0.0010051485233154827
непредсказуемый: 0.0003572704537334762 0.0011500092264623795
телодвижение: 0.0003572704537334762 0.0016452912418678427
результат: 0.0014290818149339049 0.0008543579860744843
запуск: 0.0003572704537334762 0.00048126961342143956
точка: 0.0007145409074669524 0.0007921847978003652
разный: 0.003929974991068239 0.0026462272546986143
фактор: 0.0010718113612004287 0.002186731863372513
разделять: 0.0007145409074669524 0.0011866603835810295
барьер: 0.0014290818149339049 0.005590600936660444
функция: 0.0021436227224008574 0.0020741351045267
потеря: 0.0014290818149339049 0.004020594093261931
понятие: 0.0017863522686673813 0.004301439100842929
нестабилность: 0.0010718113612004287 0.004935873725603528
определенный: 0.0014290818149339049 0.0019811280616218513
отсюда: 0.0007145409074669524 0.0025055790620364285
желание: 0.0003572704537334762 0.0006777849177870244
посмотреть: 0.0010718113612004287 0.0010656508824693108
соединять: 0.0021436227224008574 0.005161726921011515
прямой: 0.0003572704537334762 0.0006547272110569168
переход: 0.0007145409074669524 0.0013555698355740488
то: 0.0007145409074669524 0.0007921847978003652
комбинация: 0.0003572704537334762 0.0012527895310182142
c: 0.0003572704537334762 0.0008226456209339214
неизбежно: 0.0003572704537334762 0.001397650234165111
подниматься: 0.0003572704537334762 0.0010051485233154827
вверх: 0.0003572704537334762 0.0008226456209339214
лоссфункция: 0.0003572704537334762 0.0016452912418678427
располагать: 0.0003572704537334762 0.0008602878201685858
основание: 0.0003572704537334762 0.0009023682187596483
возрастание: 0.0003572704537334762 0.0016452912418678427
вводить: 0.0003572704537334762 0.0005933301917905148
нестабильность: 0.004287245444801715 0.019743494902414113
разница: 0.0007145409074669524 0.0020102970466309654
ошибка: 0.005001786352268668 0.0037764616576964846
путь: 0.0003572704537334762 0.0003960923989001826
средний: 0.0003572704537334762 0.0006126468124658545
арифметический: 0.0003572704537334762 0.0016452912418678427
под: 0.0003572704537334762 0.000788594109749811
подразумеваться: 0.0003572704537334762 0.001397650234165111
например: 0.0003572704537334762 0.0001765974711735549
неверный: 0.0003572704537334762 0.0010702866286366527
классификация: 0.0010718113612004287 0.003210859885909958
посчет: 0.0010718113612004287 0.004935873725603528
простой: 0.0010718113612004287 0.0007008858171561244
возникат: 0.0003572704537334762 0.0016452912418678427
пренебрежимо: 0.0003572704537334762 0.0016452912418678427
любой: 0.0003572704537334762 0.00020082848094088644
шагаэпоха: 0.0010718113612004287 0.004935873725603528
какой: 0.0003572704537334762 0.0002697472612640346
отношение: 0.0003572704537334762 0.0006777849177870244
спрашивать: 0.0003572704537334762 0.0007575075156127513
начинать: 0.0017863522686673813 0.0009425379458420362
networks: 0.0003572704537334762 0.001397650234165111
утверждаться: 0.0003572704537334762 0.0012527895310182142
разьезжаться: 0.0003572704537334762 0.0016452912418678427
интеполяция: 0.0010718113612004287 0.004935873725603528
два: 0.002500893176134334 0.0017840118667889438
IMP: 0.0035727045373347625 0.01645291241867843
центр: 0.0021436227224008574 0.003928363266341501
справа: 0.003215434083601286 0.008550675359912469
тесто: 0.0021436227224008574 0.00541420931255789
слева: 0.0010718113612004287 0.002850225119970823
кроме: 0.0010718113612004287 0.0009820908165853752
вводиться: 0.0003572704537334762 0.0012527895310182142
режим: 0.0021436227224008574 0.0027287581475088692
во: 0.0003572704537334762 0.0006547272110569168
второй: 0.0007145409074669524 0.0006728178205490854
требоваться: 0.0003572704537334762 0.0005250718006641449
исчезать: 0.0003572704537334762 0.0009500750399902743
стохастичность: 0.0003572704537334762 0.0016452912418678427
номер: 0.0003572704537334762 0.0007024340322875429
расти: 0.0003572704537334762 0.0007575075156127513
третий: 0.0003572704537334762 0.0006777849177870244
subnetworks: 0.0003572704537334762 0.0016452912418678427
стабильность: 0.0007145409074669524 0.002300018452924759
наблюдаться: 0.0003572704537334762 0.0012527895310182142
помощь: 0.0010718113612004287 0.00044535417359235346
нейросеть: 0.0003572704537334762 0.0010051485233154827
три: 0.0003572704537334762 0.0005409531020470795
Drawing: 0.0017863522686673813 0.008226456209339214
EarlyBird: 0.0017863522686673813 0.008226456209339214
Tickets: 0.002500893176134334 0.0115170386930749
Towards: 0.0003572704537334762 0.0016452912418678427
More: 0.0003572704537334762 0.0016452912418678427
Efficient: 0.0003572704537334762 0.0016452912418678427
Training: 0.0003572704537334762 0.0016452912418678427
Deep: 0.0003572704537334762 0.0012527895310182142
занятный: 0.0003572704537334762 0.0016452912418678427
интересный: 0.0007145409074669524 0.0007501408535181691
наука: 0.0003572704537334762 0.0012527895310182142
проблемный: 0.0003572704537334762 0.001397650234165111
оставаться: 0.0003572704537334762 0.0003015255699516002
проблема: 0.0003572704537334762 0.00023362860571870812
нахождение: 0.0017863522686673813 0.006988251170825556
удовольствие: 0.0003572704537334762 0.0009500750399902743
дешевый: 0.0003572704537334762 0.0009023682187596483
рано: 0.0003572704537334762 0.0005250718006641449
You: 0.0003572704537334762 0.0012527895310182142
предлагаться: 0.0003572704537334762 0.0011500092264623795
winning: 0.0007145409074669524 0.0032905824837356854
tickets: 0.003929974991068239 0.01809820366054627
уступать: 0.0003572704537334762 0.001397650234165111
замечание: 0.0007145409074669524 0.002300018452924759
отличие: 0.0003572704537334762 0.0007024340322875429
предыдущий: 0.0003572704537334762 0.0005575733291406461
структурированный: 0.0003572704537334762 0.001397650234165111
зануляться: 0.0003572704537334762 0.0016452912418678427
отдельный: 0.0003572704537334762 0.00028528320693739604
канал: 0.0007145409074669524 0.0012661356498262775
целиком: 0.0003572704537334762 0.000788594109749811
являться: 0.0021436227224008574 0.0014858460462163887
мультипликативный: 0.0003572704537334762 0.0016452912418678427
свертка: 0.0003572704537334762 0.001397650234165111
слой: 0.0014290818149339049 0.003609472875038593
батч: 0.0003572704537334762 0.0016452912418678427
нормализация: 0.0003572704537334762 0.001397650234165111
мотивация: 0.0003572704537334762 0.0010702866286366527
двухфазный: 0.0003572704537334762 0.0016452912418678427
характер: 0.0007145409074669524 0.0025055790620364285
низкочастотный: 0.0003572704537334762 0.0016452912418678427
компонент: 0.0003572704537334762 0.0005098665079100199
соотвествовать: 0.0014290818149339049 0.006581164967471371
сингулярный: 0.0007145409074669524 0.0032905824837356854
запоминание: 0.0003572704537334762 0.0016452912418678427
общий: 0.0003572704537334762 0.00034568918408778336
грубый: 0.0003572704537334762 0.0010702866286366527
черт: 0.0003572704537334762 0.0016452912418678427
фаза: 0.0003572704537334762 0.0012527895310182142
величина: 0.0014290818149339049 0.004020594093261931
изменение: 0.0007145409074669524 0.0007300116095262459
первоначальный: 0.0003572704537334762 0.0012527895310182142
далеко: 0.0003572704537334762 0.0003364089102745427
относительно: 0.0007145409074669524 0.0011151466582812921
слабо: 0.0003572704537334762 0.0016452912418678427
предполагать: 0.0007145409074669524 0.0013555698355740488
разумно: 0.0003572704537334762 0.001397650234165111
искать: 0.0003572704537334762 0.0004677861093189575
задолго: 0.0007145409074669524 0.0032905824837356854
оптимум: 0.0003572704537334762 0.0016452912418678427
ранний: 0.0010718113612004287 0.003758368593054643
стадия: 0.0003572704537334762 0.0010051485233154827
постепенно: 0.0007145409074669524 0.0014578212422483418
устаканиваться: 0.0003572704537334762 0.0016452912418678427
расстояние: 0.002500893176134334 0.0066505252799319205
хэмминг: 0.0003572704537334762 0.0016452912418678427
Hamming: 0.0003572704537334762 0.0016452912418678427
distance: 0.0003572704537334762 0.0016452912418678427
так: 0.0003572704537334762 0.00021358949651862106
конец: 0.0014290818149339049 0.0016737163008259308
предлагать: 0.0003572704537334762 0.00045479302458481156
earlybird: 0.0014290818149339049 0.006581164967471371
EB: 0.0003572704537334762 0.0016452912418678427
пташка: 0.0003572704537334762 0.0016452912418678427
t1: 0.0010718113612004287 0.004192950702495334
t2: 0.0010718113612004287 0.004935873725603528
псевдокод: 0.0010718113612004287 0.004935873725603528
следовать: 0.0003572704537334762 0.0005250718006641449
способ: 0.0003572704537334762 0.0002933120943443481
обнаружение: 0.0003572704537334762 0.0009023682187596483
увеличивать: 0.0003572704537334762 0.0006777849177870244
последовательный: 0.0010718113612004287 0.003210859885909958
заданный: 0.0007145409074669524 0.0020102970466309654
порог: 0.0003572704537334762 0.0008602878201685858
прекращать: 0.0003572704537334762 0.0010051485233154827
затем: 0.0003572704537334762 0.00044225593283373247
One: 0.0010718113612004287 0.003450027679387139
win: 0.0010718113612004287 0.004935873725603528
them: 0.0010718113612004287 0.004192950702495334
all: 0.0014290818149339049 0.004281146514546611
generalizing: 0.0003572704537334762 0.0016452912418678427
lottery: 0.0007145409074669524 0.0032905824837356854
initializations: 0.0003572704537334762 0.0016452912418678427
across: 0.0003572704537334762 0.0016452912418678427
datasets: 0.0003572704537334762 0.0016452912418678427
optimizers: 0.0003572704537334762 0.0016452912418678427
уместно: 0.0003572704537334762 0.001397650234165111
задаваться: 0.0003572704537334762 0.0011500092264623795
насколько: 0.0007145409074669524 0.001225293624931709
датасет: 0.004287245444801715 0.015033474372218572
оптимизатор: 0.0010718113612004287 0.004192950702495334
аугментация: 0.0007145409074669524 0.0032905824837356854
сегментация: 0.0003572704537334762 0.001397650234165111
детекция: 0.0003572704537334762 0.0016452912418678427
сходу: 0.0003572704537334762 0.001397650234165111
особый: 0.0003572704537334762 0.0008602878201685858
перечисленный: 0.0007145409074669524 0.0025055790620364285
ингридиент: 0.0003572704537334762 0.0016452912418678427
выучивать: 0.0003572704537334762 0.0011500092264623795
полезный: 0.0003572704537334762 0.0003854268172104073
inductive: 0.0003572704537334762 0.0016452912418678427
biases: 0.0003572704537334762 0.0016452912418678427
соединение: 0.0003572704537334762 0.0006547272110569168
Morcos: 0.0003572704537334762 0.0016452912418678427
решать: 0.0007145409074669524 0.00041430403376416014
проверять: 0.0007145409074669524 0.0006913783681755667
переносимость: 0.0007145409074669524 0.0032905824837356854
сложность: 0.0003572704537334762 0.0006330678249131387
FashionMNIST: 0.0003572704537334762 0.0016452912418678427
SVHN: 0.0003572704537334762 0.0016452912418678427
CIFAR100: 0.0003572704537334762 0.0016452912418678427
Places365: 0.0003572704537334762 0.0016452912418678427
довольно: 0.0003572704537334762 0.00037507042675908453
новый: 0.0003572704537334762 0.00014307880192823341
факт: 0.0007145409074669524 0.001225293624931709
входной: 0.0003572704537334762 0.0009500750399902743
изображение: 0.0003572704537334762 0.0007575075156127513
вариьроваться: 0.0003572704537334762 0.0016452912418678427
делать: 0.0007145409074669524 0.00036500580476312306
resize: 0.0003572704537334762 0.0016452912418678427
разрешение: 0.0003572704537334762 0.000788594109749811
различаться: 0.0003572704537334762 0.0012527895310182142
метка: 0.0003572704537334762 0.0010051485233154827
предполалаться: 0.0003572704537334762 0.0016452912418678427
предсказывать: 0.0003572704537334762 0.0009023682187596483
первый: 0.0017863522686673813 0.0006118083403836654
казус: 0.0003572704537334762 0.0016452912418678427
разрешаться: 0.0003572704537334762 0.001397650234165111
сравнительно: 0.0003572704537334762 0.0012527895310182142
легко: 0.0003572704537334762 0.00035521696082310353
случай: 0.0007145409074669524 0.00028615760385646683
вставка: 0.0003572704537334762 0.001397650234165111
умолчание: 0.0003572704537334762 0.0005933301917905148
ResNetах: 0.0003572704537334762 0.0016452912418678427
VGG: 0.0003572704537334762 0.0016452912418678427
адаптивный: 0.0003572704537334762 0.0016452912418678427
pooling: 0.0003572704537334762 0.0016452912418678427
собирать: 0.0003572704537334762 0.0003960923989001826
карта: 0.0003572704537334762 0.0007289106211241709
признак: 0.0003572704537334762 0.0009500750399902743
произвольный: 0.0003572704537334762 0.0010051485233154827
вектор: 0.0014290818149339049 0.004600036905849518
а: 0.0003572704537334762 0.00015944519565145392
литература: 0.0010718113612004287 0.003450027679387139
спарсифицировать: 0.0003572704537334762 0.0016452912418678427
последний: 0.0007145409074669524 0.0006728178205490854
получаться: 0.0003572704537334762 0.00037507042675908453
трансфер: 0.0007145409074669524 0.0032905824837356854
работать: 0.0014290818149339049 0.00043030381248148854
универсальность: 0.0003572704537334762 0.0016452912418678427
перенос: 0.0003572704537334762 0.0009500750399902743
обратный: 0.0003572704537334762 0.0006126468124658545
сторона: 0.0003572704537334762 0.0003099323214379146
столь: 0.0003572704537334762 0.0010702866286366527
что: 0.0003572704537334762 0.00018250290238156153
ожидать: 0.0003572704537334762 0.000788594109749811
ResNet50: 0.0003572704537334762 0.0016452912418678427
вывод: 0.0003572704537334762 0.000430143910084293
целое: 0.0003572704537334762 0.0004677861093189575
похожий: 0.0003572704537334762 0.0006126468124658545
плохо: 0.0003572704537334762 0.0005750046132311897
кажется: 0.0003572704537334762 0.0006777849177870244
примерно: 0.0003572704537334762 0.00040708620335418535
Adam: 0.0014290818149339049 0.006581164967471371
обобщаться: 0.0007145409074669524 0.0032905824837356854
взгляд: 0.0003572704537334762 0.0006126468124658545
весьма: 0.0003572704537334762 0.000788594109749811
траектория: 0.0003572704537334762 0.0011500092264623795
должный: 0.0003572704537334762 0.00024056611406351035
вообще: 0.0003572704537334762 0.000430143910084293
отличаться: 0.0003572704537334762 0.0005575733291406461
изза: 0.0003572704537334762 0.0004952820154054628
наличие: 0.0007145409074669524 0.0009095860491696231
обуславливание: 0.0003572704537334762 0.0016452912418678427
дисперсия: 0.0003572704537334762 0.0012527895310182142
градиент: 0.0003572704537334762 0.0016452912418678427
переноситься: 0.0007145409074669524 0.002795300468330222
наоборот: 0.0003572704537334762 0.0007289106211241709
интересно: 0.0007145409074669524 0.0014048680645750858
Vision: 0.0003572704537334762 0.0016452912418678427
Transformers: 0.0003572704537334762 0.001397650234165111
производный: 0.0003572704537334762 0.001397650234165111
RandomCropFlip: 0.0003572704537334762 0.0016452912418678427
RandAugment: 0.0003572704537334762 0.0016452912418678427
Mixup: 0.0003572704537334762 0.0016452912418678427
Cutmix: 0.0003572704537334762 0.0016452912418678427
SAM: 0.0003572704537334762 0.0016452912418678427
модный: 0.0003572704537334762 0.001397650234165111
наворот: 0.0003572704537334762 0.0016452912418678427
selfsupervised: 0.0003572704537334762 0.0016452912418678427
contrastive: 0.0003572704537334762 0.0016452912418678427
loss: 0.0003572704537334762 0.0016452912418678427
преобучение: 0.0003572704537334762 0.0016452912418678427
DINO: 0.0003572704537334762 0.0016452912418678427
CLIP: 0.0003572704537334762 0.0016452912418678427
MAE: 0.0003572704537334762 0.0016452912418678427
универсальный: 0.0003572704537334762 0.0008226456209339214
downstream: 0.0003572704537334762 0.0016452912418678427
Unmasking: 0.0035727045373347625 0.01645291241867843
Whats: 0.0003572704537334762 0.0016452912418678427
Encoded: 0.0003572704537334762 0.0016452912418678427
Winning: 0.0003572704537334762 0.0016452912418678427
Mask: 0.0003572704537334762 0.0016452912418678427
напоследок: 0.0003572704537334762 0.0011500092264623795
свежачок: 0.0003572704537334762 0.0016452912418678427
грядущий: 0.0003572704537334762 0.0016452912418678427
ICLR23: 0.0003572704537334762 0.0016452912418678427
Paul: 0.0003572704537334762 0.001397650234165111
попытка: 0.0003572704537334762 0.000788594109749811
разбираться: 0.0003572704537334762 0.0005575733291406461
зрение: 0.0003572704537334762 0.0006330678249131387
геометрия: 0.0003572704537334762 0.0011500092264623795
лоссповерхность: 0.0007145409074669524 0.0032905824837356854
еще: 0.0003572704537334762 0.00027743079296141344
однократный: 0.0003572704537334762 0.0016452912418678427
обьяснение: 0.0003572704537334762 0.0016452912418678427
находка: 0.0007145409074669524 0.002795300468330222
линейно: 0.0003572704537334762 0.001397650234165111
связанный: 0.0003572704537334762 0.0005098665079100199
себя: 0.0003572704537334762 0.00045479302458481156
они: 0.0007145409074669524 0.0006030511399032004
лоссбарьер: 0.0003572704537334762 0.0016452912418678427
отделять: 0.0003572704537334762 0.0009500750399902743
шум: 0.0003572704537334762 0.0011500092264623795
возмущение: 0.0003572704537334762 0.0012527895310182142
порядок: 0.0003572704537334762 0.00040708620335418535
возрастать: 0.0007145409074669524 0.002300018452924759
Magnitude: 0.0007145409074669524 0.0032905824837356854
выбирать: 0.0010718113612004287 0.0010092267308236282
плоский: 0.0007145409074669524 0.002795300468330222
направление: 0.0007145409074669524 0.0011500092264623795
поздний: 0.0003572704537334762 0.0011500092264623795
инициализиация: 0.0003572704537334762 0.0016452912418678427
with: 0.0003572704537334762 0.0008226456209339214
слишком: 0.0003572704537334762 0.00044225593283373247
нужный: 0.0003572704537334762 0.0002476410077027314
ломаный: 0.0010718113612004287 0.004935873725603528
последовательно: 0.0010718113612004287 0.0030154455699464484
левый: 0.0010718113612004287 0.002850225119970823
картинка: 0.0010718113612004287 0.0021073020968626287
какогото: 0.0003572704537334762 0.001397650234165111
попадать: 0.0010718113612004287 0.0018379404373975634
низкий: 0.0007145409074669524 0.0015150150312255026
предел: 0.0007145409074669524 0.0014578212422483418
окрестность: 0.0003572704537334762 0.0016452912418678427
вокруг: 0.0003572704537334762 0.0008602878201685858
прошлое: 0.0003572704537334762 0.0012527895310182142
откладывать: 0.0010718113612004287 0.003450027679387139
плоскость: 0.0010718113612004287 0.003758368593054643
образовывать: 0.0010718113612004287 0.003758368593054643
L: 0.0021436227224008574 0.006421719771819916
L1: 0.003215434083601286 0.014807621176810585
проекция: 0.0010718113612004287 0.004935873725603528
иллюстрировать: 0.0003572704537334762 0.0010702866286366527
стрелка: 0.0010718113612004287 0.003450027679387139
сдвиг: 0.0021436227224008574 0.007516737186109286
пространство: 0.0010718113612004287 0.001672719987421938
фиолетовый: 0.0010718113612004287 0.004935873725603528
NB: 0.0010718113612004287 0.004935873725603528
норма: 0.0010718113612004287 0.003450027679387139
одинаковый: 0.0010718113612004287 0.002365782329249433
иначе: 0.0010718113612004287 0.0018992034747394163
оранжевый: 0.0003572704537334762 0.0012527895310182142
заключение: 0.0003572704537334762 0.00048126961342143956
lotterymatching: 0.0003572704537334762 0.0016452912418678427
красочный: 0.0003572704537334762 0.0016452912418678427
убедительный: 0.0003572704537334762 0.001397650234165111
утверждение: 0.0003572704537334762 0.0010051485233154827
подмножество: 0.0003572704537334762 0.0012527895310182142
повышать: 0.0003572704537334762 0.0005098665079100199
возникновение: 0.0003572704537334762 0.0010702866286366527
фундаментальный: 0.0003572704537334762 0.0011500092264623795
нерешенный: 0.0003572704537334762 0.0016452912418678427
право: 0.0003572704537334762 0.0006330678249131387
Pruning: 0.0003572704537334762 0.0016452912418678427
Evci: 0.0003572704537334762 0.0016452912418678427
Peste: 0.0003572704537334762 0.0016452912418678427
какойто: 0.0010718113612004287 0.002272522546838254
Optimal: 0.0010718113612004287 0.004935873725603528
BERT: 0.0010718113612004287 0.004192950702495334
Surgeon: 0.0010718113612004287 0.004935873725603528
неплохо: 0.0003572704537334762 0.0011500092264623795
заходить: 0.0003572704537334762 0.0008602878201685858
топовый: 0.0003572704537334762 0.0016452912418678427
конференция: 0.0003572704537334762 0.0010051485233154827
машинный: 0.0003572704537334762 0.000788594109749811
NeurIPS: 0.0003572704537334762 0.0016452912418678427
ICML: 0.0003572704537334762 0.0016452912418678427
говориться: 0.0003572704537334762 0.0010051485233154827
hypothesis: 0.0003572704537334762 0.0016452912418678427
make: 0.0003572704537334762 0.001397650234165111
submits: 0.0003572704537334762 0.0016452912418678427
spotlights: 0.0003572704537334762 0.0016452912418678427
комментарий: 0.0007145409074669524 0.0011151466582812921
повод: 0.0003572704537334762 0.0010051485233154827
предложение: 0.0003572704537334762 0.0007289106211241709
отсылка: 0.0003572704537334762 0.001397650234165111
Rigging: 0.0003572704537334762 0.0016452912418678427
Making: 0.0003572704537334762 0.0016452912418678427
All: 0.0003572704537334762 0.0012527895310182142
Winners: 0.0003572704537334762 0.0016452912418678427
надеяться: 0.0003572704537334762 0.0006777849177870244
познавательный: 0.0003572704537334762 0.0016452912418678427
привествоваться: 0.0003572704537334762 0.0016452912418678427
дополнительный: 0.0003572704537334762 0.0003015255699516002
ссылка: 0.0003572704537334762 0.00045479302458481156
отличный: 0.0003572704537334762 0.0007289106211241709
блог: 0.0003572704537334762 0.0007289106211241709
многое: 0.0003572704537334762 0.0008602878201685858
опираться: 0.0003572704537334762 0.0009500750399902743
написание: 0.0003572704537334762 0.0005750046132311897
пост: 0.0003572704537334762 0.0007289106211241709
выступление: 0.0003572704537334762 0.0012527895310182142
сам: 0.0003572704537334762 0.0002933120943443481
творец: 0.0003572704537334762 0.0012527895310182142
семинар: 0.0003572704537334762 0.0016452912418678427
DeepMind: 0.0003572704537334762 0.001397650234165111
GitHub: 0.0007145409074669524 0.0020102970466309654
репозиторий: 0.0007145409074669524 0.0013094544221138335
tensorflow: 0.0003572704537334762 0.0016452912418678427
реализация: 0.0007145409074669524 0.0008141724067083707
pytorch: 0.0003572704537334762 0.0016452912418678427
фреймворок: 0.0003572704537334762 0.0009500750399902743
запускать: 0.0003572704537334762 0.0003099323214379146
