все: 0.001524390243902439 0.0009393081393655747
привет: 0.001524390243902439 0.0023790362016229702
термин: 0.001524390243902439 0.003670648793676634
Microsoft: 0.006097560975609756 0.018266660204597506
Active: 0.007621951219512195 0.02981724851698282
Directory: 0.007621951219512195 0.035100382515153135
Domain: 0.001524390243902439 0.005963449703396564
Services: 0.001524390243902439 0.005963449703396564
включать: 0.001524390243902439 0.002053465926778368
множество: 0.001524390243902439 0.0019959349389996376
технология: 0.003048780487804878 0.004106931853556736
поэтому: 0.003048780487804878 0.0018226737827915257
сразу: 0.001524390243902439 0.001557395194408508
уточнять: 0.001524390243902439 0.0040537500562999665
статья: 0.010670731707317074 0.004596768921718263
речь: 0.001524390243902439 0.002701153722457127
пойти: 0.001524390243902439 0.0023081215436429508
использование: 0.003048780487804878 0.0021748472191386124
контроллер: 0.006097560975609756 0.016215000225199866
домен: 0.018292682926829267 0.05146483018463481
аутентификация: 0.013719512195121951 0.027990834537711878
пользователь: 0.01676829268292683 0.012307409947991168
то: 0.001524390243902439 0.001690034488600017
финал: 0.001524390243902439 0.007020076503030628
нужный: 0.001524390243902439 0.001056626799634063
возможность: 0.001524390243902439 0.0007287131111935972
любой: 0.004573170731707317 0.0025706657842387553
сотрудник: 0.001524390243902439 0.0029971232566659038
предприятие: 0.004573170731707317 0.014720468711287502
садиться: 0.001524390243902439 0.004906822903762501
рабочий: 0.009146341463414634 0.012320795560670207
станция: 0.009146341463414634 0.029440937422575003
Linux: 0.010670731707317074 0.02695137272889907
использовать: 0.006097560975609756 0.0015936875861854117
свой: 0.003048780487804878 0.0007186656509788718
доменный: 0.004573170731707317 0.01789034911018969
логин: 0.004573170731707317 0.01789034911018969
пароль: 0.003048780487804878 0.007341297587353268
начинать: 0.003048780487804878 0.0016086364087877193
Windows: 0.001524390243902439 0.0038501961041284387
Server: 0.001524390243902439 0.005345362648353631
использоваться: 0.001524390243902439 0.001322409401988907
протокол: 0.003048780487804878 0.006220185452824862
Kerberos: 0.012195121951219513 0.05616061202424502
разрабатывать: 0.001524390243902439 0.0017853399108276602
80х: 0.001524390243902439 0.005963449703396564
год: 0.001524390243902439 0.0008838696573977777
столетие: 0.001524390243902439 0.005963449703396564
алгоритм: 0.001524390243902439 0.0022403597104557037
работа: 0.006097560975609756 0.0018360066633165953
который: 0.009146341463414634 0.00018478085961145854
имхо: 0.001524390243902439 0.007020076503030628
являть: 0.001524390243902439 0.007020076503030628
себя: 0.001524390243902439 0.0019404964570318409
пример: 0.003048780487804878 0.002113253599268126
отличный: 0.001524390243902439 0.003110092726412431
инженерный: 0.001524390243902439 0.004288735848719568
хак: 0.001524390243902439 0.007020076503030628
хороший: 0.003048780487804878 0.0028707577434708693
изначальный: 0.001524390243902439 0.004906822903762501
смысл: 0.001524390243902439 0.00188700359146588
слово: 0.001524390243902439 0.0014353788717354347
в: 0.009146341463414634 0.0003733719010998951
конец: 0.003048780487804878 0.0035706798216553204
ссылка: 0.004573170731707317 0.005821489371095522
описание: 0.001524390243902439 0.002113253599268126
сказать: 0.001524390243902439 0.001322409401988907
иметься: 0.001524390243902439 0.0023081215436429508
несколько: 0.001524390243902439 0.000633407688965954
реализация: 0.001524390243902439 0.0017369425048603122
решение: 0.004573170731707317 0.0023360927916127624
привязывать: 0.001524390243902439 0.003510038251515314
итак: 0.001524390243902439 0.0027935693044943755
развертывать: 0.001524390243902439 0.004288735848719568
вероятный: 0.001524390243902439 0.005345362648353631
мы: 0.001524390243902439 0.0006104840954224472
быть: 0.004573170731707317 0.0015023051843233355
Debian: 0.006097560975609756 0.02808030601212251
работать: 0.003048780487804878 0.0009180033316582976
другой: 0.001524390243902439 0.0005437118047846531
дистрибутив: 0.001524390243902439 0.005963449703396564
мой: 0.001524390243902439 0.0015156284654632118
FreeBSD: 0.003048780487804878 0.011926899406793128
как: 0.001524390243902439 0.0005879001231890011
вводить: 0.003048780487804878 0.005063204898846496
да: 0.003048780487804878 0.0047580724032459405
очень: 0.003048780487804878 0.0017137771894925038
просто: 0.003048780487804878 0.0017137771894925038
понадобиться: 0.003048780487804878 0.005228043988085142
редактировать: 0.001524390243902439 0.004906822903762501
убеждаться: 0.001524390243902439 0.0040537500562999665
необходимость: 0.001524390243902439 0.0019959349389996376
указывать: 0.001524390243902439 0.0019404964570318409
строка: 0.001524390243902439 0.0019959349389996376
файл: 0.001524390243902439 0.0016445269228230642
конфигурация: 0.006097560975609756 0.009232486174571803
клиент: 0.001524390243902439 0.0019404964570318409
достаточно: 0.004573170731707317 0.0031698803989021885
libdefaults: 0.001524390243902439 0.007020076503030628
defaultrealm: 0.003048780487804878 0.014040153006061255
CORPRU: 0.004573170731707317 0.021060229509091883
вместо: 0.001524390243902439 0.002175482249451442
должно: 0.001524390243902439 0.002113253599268126
имя: 0.001524390243902439 0.002113253599268126
сфера: 0.001524390243902439 0.003110092726412431
ваш: 0.001524390243902439 0.0011837329108216408
и: 0.001524390243902439 0.0007786975972042542
входить: 0.003048780487804878 0.005587138608988751
studentdebian: 0.010670731707317074 0.0491405355212144
kinit: 0.003048780487804878 0.014040153006061255
ivanovii: 0.010670731707317074 0.0491405355212144
Password: 0.004573170731707317 0.01603608794506089
for: 0.001524390243902439 0.0023790362016229702
ivanoviiCORPRU: 0.006097560975609756 0.02808030601212251
klist: 0.003048780487804878 0.014040153006061255
Ticket: 0.004573170731707317 0.01789034911018969
cache: 0.003048780487804878 0.010690725296707263
FILEtmpkrb5cc1000: 0.001524390243902439 0.007020076503030628
Default: 0.003048780487804878 0.014040153006061255
principal: 0.006097560975609756 0.02808030601212251
Valid: 0.003048780487804878 0.014040153006061255
starting: 0.003048780487804878 0.014040153006061255
Expires: 0.003048780487804878 0.014040153006061255
Service: 0.004573170731707317 0.012866207546158703
krbtgtCORPRUCORPRU: 0.003048780487804878 0.014040153006061255
renew: 0.003048780487804878 0.014040153006061255
until: 0.003048780487804878 0.014040153006061255
зарегистрировать: 0.003048780487804878 0.008577471697439136
заменять: 0.001524390243902439 0.0024534114518812507
вы: 0.003048780487804878 0.0032890538456461283
Administrator: 0.001524390243902439 0.007020076503030628
результат: 0.001524390243902439 0.0009113368913957629
команда: 0.001524390243902439 0.0012514947440088878
осуществлять: 0.001524390243902439 0.0045666650511493765
получать: 0.003048780487804878 0.0009594839781698176
TicketGranting: 0.001524390243902439 0.007020076503030628
TGT: 0.003048780487804878 0.014040153006061255
билет: 0.004573170731707317 0.013699995153448129
выдача: 0.001524390243902439 0.0040537500562999665
позволять: 0.001524390243902439 0.0006566812745311804
дальнейший: 0.001524390243902439 0.002113253599268126
доступ: 0.001524390243902439 0.0014353788717354347
сервис: 0.001524390243902439 0.001557395194408508
реализовать: 0.001524390243902439 0.002614021994042571
такой: 0.004573170731707317 0.000689738825005718
образ: 0.001524390243902439 0.0011188554498173789
единый: 0.001524390243902439 0.003364748343277014
вход: 0.004573170731707317 0.007594807348269744
single: 0.001524390243902439 0.007020076503030628
signon: 0.001524390243902439 0.007020076503030628
SSO: 0.001524390243902439 0.007020076503030628
можно: 0.001524390243902439 0.0017853399108276602
заканчивать: 0.001524390243902439 0.003510038251515314
постоять: 0.001524390243902439 0.007020076503030628
например: 0.003048780487804878 0.0015070009811426225
оснастка: 0.001524390243902439 0.007020076503030628
Users: 0.001524390243902439 0.007020076503030628
and: 0.001524390243902439 0.0028919511964723803
Computers: 0.001524390243902439 0.007020076503030628
никакой: 0.001524390243902439 0.0022403597104557037
появляться: 0.001524390243902439 0.0012865397413026358
действительно: 0.001524390243902439 0.0023081215436429508
прежний: 0.001524390243902439 0.004288735848719568
знать: 0.006097560975609756 0.005289637607955628
наш: 0.010670731707317074 0.005274503433999179
фактически: 0.001524390243902439 0.003510038251515314
наоборот: 0.001524390243902439 0.003110092726412431
это: 0.004573170731707317 0.00023457299262599304
благодаря: 0.001524390243902439 0.0018353243968383174
параметр: 0.001524390243902439 0.0016445269228230642
соответствующий: 0.001524390243902439 0.002614021994042571
SRV: 0.001524390243902439 0.007020076503030628
запись: 0.010670731707317074 0.015682517973189928
DNS: 0.001524390243902439 0.005345362648353631
nslookup: 0.001524390243902439 0.007020076503030628
qSRV: 0.001524390243902439 0.007020076503030628
kerberosudpcorpru: 0.001524390243902439 0.007020076503030628
kdccorpru: 0.001524390243902439 0.007020076503030628
internet: 0.001524390243902439 0.005963449703396564
address: 0.001524390243902439 0.005963449703396564
ABCD: 0.001524390243902439 0.007020076503030628
местоположение: 0.001524390243902439 0.004906822903762501
подсистема: 0.001524390243902439 0.0045666650511493765
для: 0.001524390243902439 0.0005437118047846531
регистрация: 0.001524390243902439 0.0027935693044943755
система: 0.01524390243902439 0.007786975972042542
сделать: 0.001524390243902439 0.0006566812745311804
тема: 0.001524390243902439 0.0017369425048603122
отдельный: 0.001524390243902439 0.0012172373417953836
вернуться: 0.001524390243902439 0.002701153722457127
задача: 0.004573170731707317 0.0021861393335807916
учетный: 0.006097560975609756 0.019627291615050006
за: 0.001524390243902439 0.0023081215436429508
процесс: 0.001524390243902439 0.000996839127144305
отвечать: 0.001524390243902439 0.001690034488600017
библиотека: 0.004573170731707317 0.005987804816998912
PAM: 0.004573170731707317 0.021060229509091883
Pluggable: 0.001524390243902439 0.007020076503030628
Authentication: 0.003048780487804878 0.014040153006061255
Modules: 0.001524390243902439 0.007020076503030628
упоминать: 0.001524390243902439 0.003510038251515314
случай: 0.006097560975609756 0.0024419363816897887
добавлять: 0.003048780487804878 0.0017677393147955555
модуль: 0.010670731707317074 0.018298153958297998
новый: 0.003048780487804878 0.0012209681908448944
добавляться: 0.001524390243902439 0.004288735848719568
автоматически: 0.001524390243902439 0.002614021994042571
сперва: 0.001524390243902439 0.0045666650511493765
логинпароль: 0.001524390243902439 0.005345362648353631
проверяться: 0.001524390243902439 0.004906822903762501
неудача: 0.001524390243902439 0.0045666650511493765
локальный: 0.004573170731707317 0.007842065982127713
база: 0.003048780487804878 0.003200677208837432
auth: 0.01524390243902439 0.053453626483536305
success2: 0.004573170731707317 0.021060229509091883
defaultignore: 0.009146341463414634 0.042120459018183766
pamkrb5so: 0.004573170731707317 0.021060229509091883
minimumuid1000: 0.004573170731707317 0.021060229509091883
success1: 0.003048780487804878 0.014040153006061255
pamunixso: 0.004573170731707317 0.021060229509091883
nullok: 0.003048780487804878 0.014040153006061255
tryfirstpas: 0.001524390243902439 0.007020076503030628
однако: 0.001524390243902439 0.0012865397413026358
попытка: 0.001524390243902439 0.003364748343277014
заканчиваться: 0.001524390243902439 0.0032321090490855047
неудачно: 0.001524390243902439 0.005963449703396564
sudo: 0.004573170731707317 0.021060229509091883
login: 0.006097560975609756 0.019627291615050006
debian: 0.006097560975609756 0.02808030601212251
failure: 0.001524390243902439 0.005963449703396564
журнал: 0.001524390243902439 0.004906822903762501
видный: 0.001524390243902439 0.0045666650511493765
причина: 0.001524390243902439 0.0022403597104557037
tail: 0.001524390243902439 0.005963449703396564
varlogauthlog: 0.001524390243902439 0.007020076503030628
Feb: 0.003048780487804878 0.014040153006061255
login1587: 0.003048780487804878 0.014040153006061255
pamkrb5loginauth: 0.001524390243902439 0.007020076503030628
user: 0.004573170731707317 0.012161250168899898
authenticated: 0.001524390243902439 0.007020076503030628
as: 0.001524390243902439 0.003510038251515314
pamunixloginaccount: 0.001524390243902439 0.007020076503030628
could: 0.001524390243902439 0.005345362648353631
not: 0.001524390243902439 0.0028919511964723803
identify: 0.001524390243902439 0.007020076503030628
from: 0.001524390243902439 0.003364748343277014
getpwnamivanovii: 0.001524390243902439 0.007020076503030628
проходить: 0.001524390243902439 0.0017853399108276602
успешно: 0.001524390243902439 0.0027935693044943755
далеко: 0.001524390243902439 0.0014353788717354347
UID: 0.001524390243902439 0.007020076503030628
GID: 0.001524390243902439 0.007020076503030628
прочий: 0.001524390243902439 0.003364748343277014
атрибут: 0.001524390243902439 0.005345362648353631
id: 0.006097560975609756 0.016215000225199866
no: 0.001524390243902439 0.004288735848719568
such: 0.001524390243902439 0.005963449703396564
вот: 0.001524390243902439 0.0019404964570318409
подходить: 0.004573170731707317 0.005661010774397639
этап: 0.001524390243902439 0.0017369425048603122
ради: 0.001524390243902439 0.0038501961041284387
писаться: 0.001524390243902439 0.004288735848719568
если: 0.003048780487804878 0.0006803157052262493
искать: 0.001524390243902439 0.0019959349389996376
традиционный: 0.001524390243902439 0.003670648793676634
скоро: 0.001524390243902439 0.0017853399108276602
узнавать: 0.001524390243902439 0.0018353243968383174
Name: 0.001524390243902439 0.005345362648353631
Switch: 0.001524390243902439 0.005963449703396564
NSS: 0.001524390243902439 0.007020076503030628
LDAP: 0.001524390243902439 0.007020076503030628
WinBIND: 0.001524390243902439 0.007020076503030628
SSSD: 0.001524390243902439 0.007020076503030628
но: 0.003048780487804878 0.001266815377931908
…: 0.001524390243902439 0.0045666650511493765
создавать: 0.003048780487804878 0.0013606314104524985
успешный: 0.003048780487804878 0.0059942465133318076
оказываться: 0.001524390243902439 0.0013967846522471878
расширять: 0.001524390243902439 0.0028919511964723803
собственный: 0.001524390243902439 0.0017369425048603122
скрипт: 0.003048780487804878 0.0059942465133318076
pamscript: 0.003048780487804878 0.014040153006061255
давать: 0.001524390243902439 0.0005437118047846531
здесь: 0.001524390243902439 0.0024534114518812507
автор: 0.001524390243902439 0.00188700359146588
пакет: 0.001524390243902439 0.002614021994042571
угадывать: 0.001524390243902439 0.007020076503030628
замысел: 0.001524390243902439 0.007020076503030628
располагать: 0.003048780487804878 0.007341297587353268
порядок: 0.001524390243902439 0.0017369425048603122
less: 0.001524390243902439 0.005345362648353631
etcpamdcommonauth: 0.001524390243902439 0.007020076503030628
success3: 0.001524390243902439 0.007020076503030628
sufficient: 0.003048780487804878 0.014040153006061255
pamscriptso: 0.003048780487804878 0.014040153006061255
tryfirstpass: 0.003048780487804878 0.014040153006061255
честно: 0.001524390243902439 0.004906822903762501
точка: 0.001524390243902439 0.001690034488600017
зрение: 0.001524390243902439 0.002701153722457127
безопасность: 0.001524390243902439 0.0023081215436429508
легко: 0.001524390243902439 0.0015156284654632118
доводить: 0.001524390243902439 0.004906822903762501
ситуация: 0.001524390243902439 0.00188700359146588
root: 0.001524390243902439 0.0045666650511493765
подключение: 0.001524390243902439 0.002701153722457127
любить: 0.001524390243902439 0.003510038251515314
делать: 0.001524390243902439 0.0007786975972042542
поправлять: 0.001524390243902439 0.005345362648353631
nulloksecure: 0.001524390243902439 0.007020076503030628
requisite: 0.001524390243902439 0.007020076503030628
pamdenyso: 0.001524390243902439 0.007020076503030628
required: 0.001524390243902439 0.004906822903762501
pampermitso: 0.001524390243902439 0.007020076503030628
учитывать: 0.003048780487804878 0.0046162430872859015
выполнение: 0.001524390243902439 0.0017853399108276602
перепрыгивать: 0.001524390243902439 0.007020076503030628
шаг: 0.001524390243902439 0.0015156284654632118
запускать: 0.001524390243902439 0.001322409401988907
оставаться: 0.003048780487804878 0.0025730794826052715
написать: 0.001524390243902439 0.0015156284654632118
проверять: 0.003048780487804878 0.002949951299578371
наличие: 0.001524390243902439 0.0019404964570318409
отсутствие: 0.001524390243902439 0.002614021994042571
binbash: 0.003048780487804878 0.010690725296707263
PAMUSER: 0.003048780487804878 0.014040153006061255
ampgtdevnull: 0.001524390243902439 0.007020076503030628
useradd: 0.001524390243902439 0.007020076503030628
m: 0.001524390243902439 0.004906822903762501
s: 0.001524390243902439 0.003364748343277014
ivanoviidebian: 0.003048780487804878 0.014040153006061255
uid1001ivanovii: 0.001524390243902439 0.007020076503030628
gid1001ivanovii: 0.001524390243902439 0.007020076503030628
groups1001ivanovii: 0.001524390243902439 0.007020076503030628
FILEtmpkrb5cc10010zzvqR: 0.001524390243902439 0.007020076503030628
ну: 0.001524390243902439 0.002614021994042571
карман: 0.001524390243902439 0.005963449703396564
очевидный: 0.001524390243902439 0.0029971232566659038
недостаток: 0.001524390243902439 0.0029971232566659038
данный: 0.001524390243902439 0.0009393081393655747
являться: 0.001524390243902439 0.001056626799634063
удаление: 0.001524390243902439 0.0032321090490855047
поскольку: 0.001524390243902439 0.0022403597104557037
воспользоваться: 0.001524390243902439 0.0024534114518812507
этот: 0.001524390243902439 0.0005437118047846531
невозможно: 0.001524390243902439 0.0029971232566659038
заблокировать: 0.001524390243902439 0.005963449703396564
пока: 0.001524390243902439 0.0015156284654632118
оставлять: 0.001524390243902439 0.002531602449423248
спасибо: 0.001524390243902439 0.003510038251515314
дочитывать: 0.001524390243902439 0.007020076503030628
надеяться: 0.001524390243902439 0.0028919511964723803
интересно: 0.001524390243902439 0.0029971232566659038
посмотреть: 0.001524390243902439 0.0015156284654632118
рад: 0.001524390243902439 0.004288735848719568
комментарий: 0.001524390243902439 0.0023790362016229702
встреча: 0.001524390243902439 0.0032321090490855047
минута: 0.001524390243902439 0.002113253599268126
знакомство: 0.001524390243902439 0.0038501961041284387
сетевой: 0.001524390243902439 0.0027935693044943755
зачем: 0.001524390243902439 0.003510038251515314
