когда: 0.000949667616334283 0.0009188832158230824
речь: 0.000949667616334283 0.001682770030324668
заходить: 0.001899335232668566 0.004573495932862055
готовый: 0.002849002849002849 0.002756649647469247
решение: 0.007597340930674264 0.003880916419874574
качество: 0.001899335232668566 0.0016029820898281653
сервер: 0.007597340930674264 0.008897876402681444
мобильный: 0.000949667616334283 0.0019375316510223692
приложение: 0.002849002849002849 0.002471511588902345
первый: 0.001899335232668566 0.0006505039106301537
приходить: 0.000949667616334283 0.0009969820745476521
ум: 0.000949667616334283 0.0022867479664310277
это: 0.011396011396011397 0.0005845389673794927
Firebase: 0.005698005698005698 0.026240285960046107
Amazon: 0.000949667616334283 0.0037151215626098255
часто: 0.000949667616334283 0.0008238371963007816
действительно: 0.000949667616334283 0.0014379180746721515
бывать: 0.001899335232668566 0.0038750633020447384
достаточно: 0.002849002849002849 0.0019747782921935766
рамка: 0.001899335232668566 0.0025585444405823543
Spark: 0.000949667616334283 0.0037151215626098255
тариф: 0.000949667616334283 0.0026718050491548306
менее: 0.000949667616334283 0.0015771426465542744
хотеться: 0.001899335232668566 0.003056862131878633
больший: 0.001899335232668566 0.0029641932540639478
включая: 0.001899335232668566 0.0038750633020447384
возможность: 0.004748338081671415 0.002269875598019942
расширять: 0.000949667616334283 0.0018016334139467059
функционал: 0.001899335232668566 0.003734307419511553
сила: 0.000949667616334283 0.0014379180746721515
Cloud: 0.000949667616334283 0.003056862131878633
Functions: 0.000949667616334283 0.0043733809933410184
этот: 0.000949667616334283 0.00033872264381646
цель: 0.000949667616334283 0.0008942151375673742
отлично: 0.000949667616334283 0.002096177505403344
подходить: 0.000949667616334283 0.0011755691889853916
Appwrite: 0.014245014245014245 0.06560071490011526
BaaS: 0.000949667616334283 0.0043733809933410184
который: 0.01899335232668566 0.0003837171380345578
содержать: 0.003798670465337132 0.005582814701078601
множество: 0.000949667616334283 0.0012434314529760325
модуль: 0.002849002849002849 0.004885465607099506
основной: 0.002849002849002849 0.0023389759318228785
база: 0.012345679012345678 0.012960766969119476
хранилище: 0.002849002849002849 0.008015415147464492
авторизация: 0.001899335232668566 0.0038750633020447384
функция: 0.015194681861348529 0.014702131453169318
конечно: 0.000949667616334283 0.0018671537097557766
единственный: 0.001899335232668566 0.002875836149344303
подобный: 0.000949667616334283 0.0014379180746721515
простор: 0.000949667616334283 0.0033300644798860226
Github: 0.000949667616334283 0.0023986027011474414
причина: 0.000949667616334283 0.0013957036752696502
приходиться: 0.002849002849002849 0.002471511588902345
душа: 0.000949667616334283 0.003056862131878633
рассматривать: 0.000949667616334283 0.001143373983215514
такой: 0.003798670465337132 0.000572926456731562
аналог: 0.002849002849002849 0.006860243899293082
Kuzzle: 0.000949667616334283 0.0043733809933410184
реалтайм: 0.000949667616334283 0.0043733809933410184
Purse: 0.000949667616334283 0.0043733809933410184
Server: 0.000949667616334283 0.0033300644798860226
иметь: 0.003798670465337132 0.001940458209937287
масса: 0.000949667616334283 0.0025254131404869686
различный: 0.003798670465337132 0.0039879282981906084
адаптер: 0.000949667616334283 0.003056862131878633
адапер: 0.000949667616334283 0.0043733809933410184
pushуведомлений: 0.000949667616334283 0.0043733809933410184
Strapi: 0.000949667616334283 0.0043733809933410184
функционировать: 0.000949667616334283 0.0033300644798860226
CMS: 0.001899335232668566 0.007430243125219651
интересный: 0.001899335232668566 0.0019939641490953042
среди: 0.001899335232668566 0.0038750633020447384
плагин: 0.000949667616334283 0.002013545618423638
Superbase: 0.000949667616334283 0.0043733809933410184
молодой: 0.000949667616334283 0.0033300644798860226
проект: 0.00949667616334283 0.006970267569612541
относительно: 0.000949667616334283 0.0014820966270319739
активно: 0.000949667616334283 0.0018016334139467059
развиваться: 0.001899335232668566 0.0036032668278934117
изначально: 0.000949667616334283 0.0023986027011474414
привлекать: 0.000949667616334283 0.0022867479664310277
свой: 0.003798670465337132 0.0008954314663668374
документация: 0.004748338081671415 0.007642155329696582
сложно: 0.000949667616334283 0.0013552861876924463
ориентироваться: 0.000949667616334283 0.0026718050491548306
опция: 0.001899335232668566 0.005050826280973937
рантайм: 0.004748338081671415 0.015284310659393164
сегодня: 0.000949667616334283 0.0014820966270319739
хотеть: 0.000949667616334283 0.0006029233356466947
рассказывать: 0.001899335232668566 0.0018884183729228241
именно: 0.000949667616334283 0.0007170204978898697
подводный: 0.000949667616334283 0.003056862131878633
камень: 0.000949667616334283 0.003056862131878633
сталкиваться: 0.000949667616334283 0.0015284310659393165
процесс: 0.000949667616334283 0.0006210127895599849
выход: 0.000949667616334283 0.0015771426465542744
продакшн: 0.000949667616334283 0.0033300644798860226
актуальный: 0.000949667616334283 0.002096177505403344
листинг: 0.000949667616334283 0.0033300644798860226
код: 0.000949667616334283 0.0005173097582541994
призывать: 0.000949667616334283 0.003056862131878633
смотреть: 0.001899335232668566 0.002417788558049169
официальный: 0.000949667616334283 0.0017403432704162492
источник: 0.000949667616334283 0.0014820966270319739
статья: 0.000949667616334283 0.00040910058508305256
деталь: 0.000949667616334283 0.0018671537097557766
развертка: 0.000949667616334283 0.0043733809933410184
находить: 0.001899335232668566 0.0012420255791199698
легко: 0.000949667616334283 0.0009442091864614121
пропускать: 0.000949667616334283 0.0022867479664310277
интеграция: 0.000949667616334283 0.0017403432704162492
у: 0.001899335232668566 0.0018884183729228241
SDK: 0.002849002849002849 0.009990193439658068
платформа: 0.001899335232668566 0.0027105723753848925
мочь: 0.002849002849002849 0.0006003448185631126
пригождаться: 0.000949667616334283 0.003056862131878633
iOS: 0.002849002849002849 0.007576239421460906
Android: 0.001899335232668566 0.005050826280973937
Web: 0.001899335232668566 0.005689899854803402
Flutter: 0.000949667616334283 0.0037151215626098255
замечать: 0.001899335232668566 0.003056862131878633
фреймворк: 0.000949667616334283 0.0021866904966705092
минимальный: 0.000949667616334283 0.0017403432704162492
версия: 0.001899335232668566 0.001559317287881919
спокойно: 0.000949667616334283 0.002844949927401701
работать: 0.000949667616334283 0.00028594975573021996
просто: 0.003798670465337132 0.0021353045323971175
форкнуть: 0.000949667616334283 0.0043733809933410184
поправлять: 0.001899335232668566 0.006660128959772045
самостоятельно: 0.002849002849002849 0.004585293197817949
если: 0.006647673314339981 0.0014833854313385264
нужно: 0.005698005698005698 0.0019515117318904612
поддерживать: 0.001899335232668566 0.0018884183729228241
API: 0.002849002849002849 0.0040658585630773385
REST: 0.000949667616334283 0.0022867479664310277
GraphQL: 0.000949667616334283 0.0043733809933410184
так: 0.002849002849002849 0.001703239318392081
вебсокет: 0.000949667616334283 0.0037151215626098255
называться: 0.000949667616334283 0.0013957036752696502
пользователь: 0.00949667616334283 0.006970267569612541
реализовать: 0.000949667616334283 0.0016284885356998354
помощь: 0.002849002849002849 0.0011838046836514695
почта: 0.001899335232668566 0.005050826280973937
номер: 0.001899335232668566 0.003734307419511553
телефон: 0.001899335232668566 0.005050826280973937
включать: 0.000949667616334283 0.0012792722202911771
смочь: 0.000949667616334283 0.0009702291049686432
создавать: 0.004748338081671415 0.0021191220447693234
аккаунт: 0.000949667616334283 0.002844949927401701
стандартный: 0.000949667616334283 0.0016284885356998354
набор: 0.001899335232668566 0.002351138377970783
поле: 0.006647673314339981 0.010699017461575215
имя: 0.000949667616334283 0.0013165188614623843
пр: 0.003798670465337132 0.017493523973364074
кастомный: 0.000949667616334283 0.0025254131404869686
также: 0.004748338081671415 0.0014297487786510998
юзер: 0.000949667616334283 0.002844949927401701
группировать: 0.000949667616334283 0.0043733809933410184
помогать: 0.003798670465337132 0.0036755328632923296
разграничивать: 0.000949667616334283 0.0043733809933410184
доступ: 0.00949667616334283 0.008942151375673743
бд: 0.008547008547008548 0.02560454934661531
файл: 0.008547008547008548 0.009220595396341283
храниться: 0.000949667616334283 0.002013545618423638
MariaDB: 0.000949667616334283 0.0043733809933410184
сожаление: 0.002849002849002849 0.005404900241840118
удобный: 0.000949667616334283 0.0014820966270319739
инструмент: 0.000949667616334283 0.001143373983215514
миграция: 0.000949667616334283 0.002844949927401701
однако: 0.000949667616334283 0.0008014910449140826
написать: 0.001899335232668566 0.0018884183729228241
скрипт: 0.000949667616334283 0.0018671537097557766
применять: 0.000949667616334283 0.0013552861876924463
изменение: 0.003798670465337132 0.003880916419874573
массово: 0.000949667616334283 0.0043733809933410184
например: 0.003798670465337132 0.001877668838802584
использовать: 0.005698005698005698 0.0014892579152957694
пример: 0.001899335232668566 0.0013165188614623843
питон: 0.001899335232668566 0.006113724263757266
httpsgithubcomappwriteplaygroundforpython: 0.000949667616334283 0.0043733809933410184
он: 0.001899335232668566 0.001135492878928054
спасать: 0.000949667616334283 0.002844949927401701
несчетный: 0.000949667616334283 0.0043733809933410184
количество: 0.000949667616334283 0.00067744528763292
прежде: 0.000949667616334283 0.0015771426465542744
начинать: 0.001899335232668566 0.0010021514569465754
полноценный: 0.000949667616334283 0.002096177505403344
встраивать: 0.000949667616334283 0.0023986027011474414
сделать: 0.001899335232668566 0.0008182011701661051
ремарка: 0.000949667616334283 0.0037151215626098255
повод: 0.000949667616334283 0.0026718050491548306
пагинация: 0.001899335232668566 0.008746761986682037
лимит: 0.002849002849002849 0.009990193439658068
запрашивать: 0.000949667616334283 0.002096177505403344
запись: 0.004748338081671415 0.006978518376348251
максимальный: 0.000949667616334283 0.0018671537097557766
offset: 0.002849002849002849 0.013120142980023054
поэтому: 0.002849002849002849 0.001703239318392081
полностью: 0.002849002849002849 0.003949556584387153
перебирать: 0.000949667616334283 0.0037151215626098255
двигаться: 0.000949667616334283 0.0021866904966705092
страница: 0.000949667616334283 0.0012792722202911771
курсор: 0.001899335232668566 0.006660128959772045
httpsappwriteiodocspaginationcursorpagination: 0.000949667616334283 0.0043733809933410184
хранение: 0.003798670465337132 0.006731080121298672
выбор: 0.001899335232668566 0.002417788558049169
место: 0.000949667616334283 0.0007796586439409595
довольно: 0.000949667616334283 0.0009969820745476521
большой: 0.000949667616334283 0.0006394535168696729
S3: 0.000949667616334283 0.0043733809933410184
DOSpaces: 0.002849002849002849 0.013120142980023054
Backblaze: 0.000949667616334283 0.0043733809933410184
Linode: 0.000949667616334283 0.0043733809933410184
Wasabi: 0.000949667616334283 0.0043733809933410184
локально: 0.000949667616334283 0.003056862131878633
быстро: 0.001899335232668566 0.0016029820898281653
выходить: 0.000949667616334283 0.0011122345503351806
дроплет: 0.002849002849002849 0.011145364687829477
разворачивать: 0.000949667616334283 0.0037151215626098255
Digital: 0.002849002849002849 0.011145364687829477
Ocean: 0.002849002849002849 0.013120142980023054
решать: 0.001899335232668566 0.0011012696965867848
подключать: 0.002849002849002849 0.005048310090974005
конфиг: 0.002849002849002849 0.009170586395635899
забывать: 0.000949667616334283 0.0018016334139467059
антивирус: 0.000949667616334283 0.0037151215626098255
вид: 0.000949667616334283 0.0006394535168696729
httpswwwclamavnet: 0.000949667616334283 0.0043733809933410184
доступный: 0.001899335232668566 0.0018377664316461648
обширный: 0.000949667616334283 0.0033300644798860226
язык: 0.000949667616334283 0.001024510599593476
список: 0.001899335232668566 0.002049021199186952
док: 0.000949667616334283 0.0043733809933410184
ограничивать: 0.000949667616334283 0.0018671537097557766
лишь: 0.000949667616334283 0.0014379180746721515
env: 0.002849002849002849 0.009990193439658068
конфигурация: 0.001899335232668566 0.002875836149344303
удобно: 0.002849002849002849 0.005221029811248747
создаваться: 0.001899335232668566 0.004027091236847276
CLI: 0.001899335232668566 0.007430243125219651
заменять: 0.000949667616334283 0.0015284310659393165
webинтерфейс: 0.000949667616334283 0.0043733809933410184
прочее: 0.000949667616334283 0.0023986027011474414
геолокация: 0.000949667616334283 0.0033300644798860226
IP: 0.000949667616334283 0.0025254131404869686
получение: 0.000949667616334283 0.0012792722202911771
изображение: 0.002849002849002849 0.006040636855270915
тип: 0.001899335232668566 0.002049021199186952
флаг: 0.000949667616334283 0.002844949927401701
иконка: 0.000949667616334283 0.0037151215626098255
платежный: 0.000949667616334283 0.0043733809933410184
карта: 0.000949667616334283 0.0019375316510223692
обрезка: 0.001899335232668566 0.008746761986682037
ресайз: 0.000949667616334283 0.0043733809933410184
url: 0.000949667616334283 0.0026718050491548306
настройка: 0.006647673314339981 0.009487003313847123
вебхук: 0.000949667616334283 0.003056862131878633
событие: 0.001899335232668566 0.0025585444405823543
установка: 0.000949667616334283 0.0014379180746721515
заводиться: 0.000949667616334283 0.0037151215626098255
запускать: 0.002849002849002849 0.002471511588902345
пользоваться: 0.001899335232668566 0.0027914073505393004
желание: 0.000949667616334283 0.0018016334139467059
тратить: 0.000949667616334283 0.0018016334139467059
существовать: 0.000949667616334283 0.001024510599593476
огромный: 0.000949667616334283 0.0013165188614623843
Docker: 0.002849002849002849 0.008015415147464492
Compose: 0.001899335232668566 0.007430243125219651
редактировать: 0.000949667616334283 0.003056862131878633
нужный: 0.003798670465337132 0.0026330377229247686
volumes: 0.001899335232668566 0.007430243125219651
добавлять: 0.004748338081671415 0.0027531742414669616
происходить: 0.000949667616334283 0.0008467218606683604
устанавливать: 0.000949667616334283 0.0010528609919483486
сразу: 0.000949667616334283 0.0009702291049686432
находиться: 0.001899335232668566 0.0017884302751347485
адрес: 0.001899335232668566 0.0038750633020447384
rootappwriteenv: 0.000949667616334283 0.0043733809933410184
правка: 0.000949667616334283 0.0033300644798860226
вносить: 0.000949667616334283 0.001682770030324668
указывать: 0.002849002849002849 0.003626682837073754
APPDOMAINTARGET: 0.000949667616334283 0.0043733809933410184
можно: 0.000949667616334283 0.0011122345503351806
настраивать: 0.002849002849002849 0.004446289881095921
SMTP: 0.000949667616334283 0.0043733809933410184
делать: 0.000949667616334283 0.0004851145524843217
обязательно: 0.000949667616334283 0.0016284885356998354
особенно: 0.000949667616334283 0.0012792722202911771
планировать: 0.000949667616334283 0.0015771426465542744
быть: 0.005698005698005698 0.0018718180454247069
регистрироваться: 0.000949667616334283 0.002844949927401701
планироваться: 0.000949667616334283 0.003056862131878633
хранить: 0.002849002849002849 0.00560146112926733
какойто: 0.000949667616334283 0.002013545618423638
предложеный: 0.000949667616334283 0.0043733809933410184
APPSTORAGEDOSPACESACCESSKEY: 0.000949667616334283 0.0043733809933410184
APPSTORAGEDOSPACESSECRET: 0.000949667616334283 0.0043733809933410184
APPSTORAGEDOSPACESREGION: 0.000949667616334283 0.0043733809933410184
APPSTORAGEDOSPACESBUCKET: 0.000949667616334283 0.0043733809933410184
тут: 0.001899335232668566 0.0034806865408324983
встречать: 0.000949667616334283 0.002844949927401701
APPFUNCTIONSRUNTIMES: 0.000949667616334283 0.0043733809933410184
на: 0.002849002849002849 0.0010571614854439657
данный: 0.000949667616334283 0.0005851720222448404
момент: 0.001899335232668566 0.001135492878928054
вариант: 0.000949667616334283 0.0010528609919483486
node145: 0.000949667616334283 0.0043733809933410184
node160: 0.000949667616334283 0.0043733809933410184
node180: 0.000949667616334283 0.0043733809933410184
php80: 0.000949667616334283 0.0043733809933410184
php81: 0.000949667616334283 0.0043733809933410184
ruby30: 0.000949667616334283 0.0043733809933410184
ruby31: 0.000949667616334283 0.0043733809933410184
python38: 0.000949667616334283 0.0043733809933410184
python39: 0.000949667616334283 0.0043733809933410184
python310: 0.000949667616334283 0.0043733809933410184
deno121: 0.000949667616334283 0.0043733809933410184
deno124: 0.000949667616334283 0.0043733809933410184
dart215: 0.000949667616334283 0.0043733809933410184
dart216: 0.000949667616334283 0.0043733809933410184
dart217: 0.000949667616334283 0.0043733809933410184
dotnet31: 0.000949667616334283 0.0043733809933410184
dotnet60: 0.000949667616334283 0.0043733809933410184
java80: 0.000949667616334283 0.0043733809933410184
java110: 0.000949667616334283 0.0043733809933410184
java170: 0.000949667616334283 0.0043733809933410184
java180: 0.000949667616334283 0.0043733809933410184
swift55: 0.000949667616334283 0.0043733809933410184
kotlin16: 0.000949667616334283 0.0043733809933410184
cpp170: 0.000949667616334283 0.0043733809933410184
вот: 0.000949667616334283 0.0012088942790245845
весь: 0.000949667616334283 0.0008238371963007816
после: 0.000949667616334283 0.0008238371963007816
ваш: 0.000949667616334283 0.000737444244538458
админ: 0.000949667616334283 0.0037151215626098255
сначала: 0.000949667616334283 0.0012434314529760325
требоваться: 0.000949667616334283 0.0013957036752696502
организация: 0.000949667616334283 0.0017403432704162492
очень: 0.004748338081671415 0.0026691306654963967
необходимо: 0.002849002849002849 0.0032462515190551707
давать: 0.002849002849002849 0.00101616793144938
группа: 0.001899335232668566 0.0026330377229247686
клиент: 0.001899335232668566 0.002417788558049169
в: 0.005698005698005698 0.00023260395738037152
подключаться: 0.001899335232668566 0.0038750633020447384
сгенерировать: 0.000949667616334283 0.0021866904966705092
токен: 0.008547008547008548 0.024046245442393477
несколько: 0.000949667616334283 0.0003946015612171565
два: 0.000949667616334283 0.00067744528763292
один: 0.000949667616334283 0.0002606237850918902
второй: 0.000949667616334283 0.0008942151375673742
контент: 0.000949667616334283 0.0023986027011474414
при: 0.002849002849002849 0.0019747782921935766
создание: 0.002849002849002849 0.0020910802708837624
очевидно: 0.000949667616334283 0.0018671537097557766
сам: 0.000949667616334283 0.0007796586439409595
выбирать: 0.000949667616334283 0.0008942151375673742
id: 0.001899335232668566 0.005050826280973937
тап: 0.000949667616334283 0.0043733809933410184
кнопка: 0.000949667616334283 0.0018016334139467059
название: 0.001899335232668566 0.002417788558049169
Database: 0.000949667616334283 0.0043733809933410184
ID: 0.003798670465337132 0.010687220196619322
форма: 0.000949667616334283 0.0015284310659393165
полезный: 0.000949667616334283 0.001024510599593476
прописывать: 0.000949667616334283 0.0025254131404869686
какой: 0.000949667616334283 0.0007170204978898697
либо: 0.000949667616334283 0.0016284885356998354
триггер: 0.000949667616334283 0.0037151215626098255
c: 0.001899335232668566 0.0043733809933410184
визуально: 0.000949667616334283 0.0033300644798860226
видно: 0.001899335232668566 0.003734307419511553
каждый: 0.004748338081671415 0.001761935809073276
коллекция: 0.007597340930674264 0.021374440393238645
таблица: 0.000949667616334283 0.0015284310659393165
наш: 0.003798670465337132 0.001877668838802584
данные: 0.001899335232668566 0.0013165188614623843
плюс: 0.001899335232668566 0.0032569770713996708
сюда: 0.000949667616334283 0.0026718050491548306
вписывать: 0.000949667616334283 0.0043733809933410184
Documents: 0.000949667616334283 0.0037151215626098255
содержимое: 0.000949667616334283 0.0023986027011474414
внизу: 0.000949667616334283 0.002844949927401701
документ: 0.000949667616334283 0.0019375316510223692
раз: 0.000949667616334283 0.0017403432704162492
возможно: 0.001899335232668566 0.002164167679370114
когданибудь: 0.000949667616334283 0.003056862131878633
Attributes: 0.000949667616334283 0.0043733809933410184
описание: 0.000949667616334283 0.0013165188614623843
Indexes: 0.000949667616334283 0.0043733809933410184
ускорение: 0.000949667616334283 0.0025254131404869686
а: 0.000949667616334283 0.0004238244089538647
необходимый: 0.000949667616334283 0.0013165188614623843
получать: 0.000949667616334283 0.0002988706028867048
какойнибудь: 0.000949667616334283 0.002844949927401701
сортировка: 0.000949667616334283 0.0026718050491548306
Activity: 0.000949667616334283 0.0037151215626098255
показывать: 0.000949667616334283 0.000758316900491711
последний: 0.000949667616334283 0.0008942151375673742
устройство: 0.000949667616334283 0.001143373983215514
производить: 0.000949667616334283 0.002013545618423638
время: 0.000949667616334283 0.0002482096525492949
Usage: 0.000949667616334283 0.0037151215626098255
график: 0.000949667616334283 0.0019375316510223692
чтение: 0.000949667616334283 0.0015771426465542744
удаление: 0.002849002849002849 0.006040636855270915
отдавать: 0.000949667616334283 0.0022867479664310277
статистика: 0.000949667616334283 0.0025254131404869686
другой: 0.001899335232668566 0.00067744528763292
сервис: 0.000949667616334283 0.0009702291049686432
практика: 0.000949667616334283 0.0012434314529760325
проверять: 0.000949667616334283 0.0009188832158230824
Settings: 0.000949667616334283 0.0043733809933410184
поменять: 0.000949667616334283 0.0022867479664310277
право: 0.001899335232668566 0.003365540060649336
мой: 0.000949667616334283 0.0009442091864614121
случай: 0.001899335232668566 0.0007606411521312923
авторизовать: 0.000949667616334283 0.0033300644798860226
регистрировать: 0.000949667616334283 0.0037151215626098255
практически: 0.000949667616334283 0.0014820966270319739
полный: 0.000949667616334283 0.0012434314529760325
кроме: 0.000949667616334283 0.0008701716352081246
readonly: 0.000949667616334283 0.0033300644798860226
разделяться: 0.000949667616334283 0.0033300644798860226
бакета: 0.001899335232668566 0.008746761986682037
бакет: 0.000949667616334283 0.0043733809933410184
отдельный: 0.000949667616334283 0.000758316900491711
интерфейс: 0.000949667616334283 0.0012088942790245845
обрезать: 0.000949667616334283 0.0033300644798860226
отмасштабировать: 0.000949667616334283 0.0043733809933410184
скругление: 0.000949667616334283 0.0043733809933410184
httpsappwriteiodocsclientstoragesdkwebdefaultstorageGetFilePreview: 0.000949667616334283 0.0043733809933410184
пулреквест: 0.000949667616334283 0.0043733809933410184
видеть: 0.000949667616334283 0.0008701716352081246
поддержка: 0.001899335232668566 0.0025585444405823543
HLS: 0.000949667616334283 0.0043733809933410184
будущее: 0.000949667616334283 0.0015284310659393165
грузить: 0.000949667616334283 0.0043733809933410184
видео: 0.002849002849002849 0.004731427939662823
для: 0.002849002849002849 0.00101616793144938
подготовка: 0.000949667616334283 0.0019375316510223692
превивать: 0.000949667616334283 0.0037151215626098255
ролик: 0.000949667616334283 0.0033300644798860226
сжатие: 0.000949667616334283 0.002844949927401701
ffmpeg: 0.000949667616334283 0.0043733809933410184
запускаться: 0.000949667616334283 0.0023986027011474414
видеоролик: 0.000949667616334283 0.0037151215626098255
операция: 0.001899335232668566 0.003154285293108549
пуша: 0.004748338081671415 0.021866904966705087
отправка: 0.000949667616334283 0.0022867479664310277
уведомление: 0.001899335232668566 0.004573495932862055
отмечать: 0.000949667616334283 0.0012088942790245845
по: 0.000949667616334283 0.0006582594307311922
умолчание: 0.000949667616334283 0.0015771426465542744
передаваться: 0.000949667616334283 0.0023986027011474414
ключ: 0.000949667616334283 0.0014820966270319739
иначе: 0.000949667616334283 0.001682770030324668
долго: 0.000949667616334283 0.002013545618423638
гадать: 0.000949667616334283 0.0043733809933410184
почему: 0.000949667616334283 0.001082083839685057
выполнение: 0.000949667616334283 0.0011122345503351806
падать: 0.000949667616334283 0.0023986027011474414
я: 0.001899335232668566 0.0017884302751347485
писать: 0.001899335232668566 0.0017403432704162492
лог: 0.002849002849002849 0.008534849782205103
контейнер: 0.002849002849002849 0.006860243899293082
чтото: 0.000949667616334283 0.0011755691889853916
крашиться: 0.000949667616334283 0.0043733809933410184
логово: 0.001899335232668566 0.008746761986682037
Id: 0.000949667616334283 0.0043733809933410184
активный: 0.001899335232668566 0.004027091236847276
Deployment: 0.000949667616334283 0.0043733809933410184
Pushуведомления: 0.000949667616334283 0.0043733809933410184
серьезный: 0.000949667616334283 0.0018671537097557766
недостаток: 0.000949667616334283 0.0018671537097557766
коробка: 0.000949667616334283 0.002096177505403344
остальное: 0.000949667616334283 0.002844949927401701
мы: 0.000949667616334283 0.00038032057606564616
пушить: 0.000949667616334283 0.003056862131878633
позволять: 0.000949667616334283 0.00040910058508305256
становиться: 0.000949667616334283 0.0006029233356466947
разрешать: 0.000949667616334283 0.0019375316510223692
читать: 0.000949667616334283 0.0013957036752696502
отвечать: 0.000949667616334283 0.0010528609919483486
принимать: 0.000949667616334283 0.0009442091864614121
отправитель: 0.000949667616334283 0.0043733809933410184
взять: 0.000949667616334283 0.0012434314529760325
go: 0.000949667616334283 0.003056862131878633
реализация: 0.000949667616334283 0.001082083839685057
appleboygorush: 0.001899335232668566 0.008746761986682037
gorush: 0.001899335232668566 0.008746761986682037
image: 0.000949667616334283 0.003056862131878633
containername: 0.000949667616334283 0.0043733809933410184
pushserver: 0.000949667616334283 0.0043733809933410184
restart: 0.000949667616334283 0.0037151215626098255
unlessstopped: 0.000949667616334283 0.0043733809933410184
networks: 0.000949667616334283 0.0037151215626098255
appwrite: 0.001899335232668566 0.008746761986682037
runtimes: 0.000949667616334283 0.0043733809933410184
PWDgorushconfigymlconfigymlrw: 0.000949667616334283 0.0043733809933410184
сеть: 0.000949667616334283 0.0013165188614623843
всякий: 0.000949667616334283 0.002013545618423638
самый: 0.002849002849002849 0.0011409617281969383
массовый: 0.000949667616334283 0.0026718050491548306
рассылка: 0.001899335232668566 0.007430243125219651
стоять: 0.001899335232668566 0.002875836149344303
учитывать: 0.000949667616334283 0.0014379180746721515
значение: 0.000949667616334283 0.0009188832158230824
хорошо: 0.001899335232668566 0.005343610098309661
собирать: 0.001899335232668566 0.0021057219838966973
путем: 0.000949667616334283 0.0021866904966705092
поминать: 0.000949667616334283 0.0043733809933410184
ранее: 0.000949667616334283 0.0017403432704162492
продумывать: 0.000949667616334283 0.003056862131878633
механизм: 0.000949667616334283 0.0016284885356998354
неактивный: 0.000949667616334283 0.0037151215626098255
терять: 0.000949667616334283 0.0023986027011474414
актуальность: 0.000949667616334283 0.0037151215626098255
к: 0.001899335232668566 0.002224469100670361
автоматический: 0.000949667616334283 0.0018671537097557766
пока: 0.000949667616334283 0.0009442091864614121
обходиться: 0.000949667616334283 0.0018671537097557766
парсинг: 0.000949667616334283 0.003056862131878633
выделение: 0.000949667616334283 0.0033300644798860226
проваливаться: 0.000949667616334283 0.0033300644798860226
частый: 0.000949667616334283 0.002844949927401701
bashем: 0.000949667616334283 0.0043733809933410184
cron: 0.000949667616334283 0.0037151215626098255
удалять: 0.000949667616334283 0.0022867479664310277
порядок: 0.000949667616334283 0.001082083839685057
половина: 0.000949667616334283 0.0023986027011474414
хранившехся: 0.000949667616334283 0.0043733809933410184
аналитика: 0.000949667616334283 0.0026718050491548306
замена: 0.000949667616334283 0.0022867479664310277
аналитик: 0.000949667616334283 0.0023986027011474414
отказываться: 0.000949667616334283 0.0017403432704162492
посмотреть: 0.000949667616334283 0.0009442091864614121
httpsgithubcomCountlycountlyserver: 0.000949667616334283 0.0043733809933410184
уметь: 0.000949667616334283 0.0018016334139467059
краша: 0.000949667616334283 0.0043733809933410184
отправлять: 0.000949667616334283 0.0012088942790245845
pushуведомления: 0.000949667616334283 0.0043733809933410184
уверенный: 0.000949667616334283 0.0017403432704162492
заключение: 0.000949667616334283 0.0012792722202911771
подавать: 0.000949667616334283 0.002844949927401701
надежный: 0.000949667616334283 0.002096177505403344
продолжать: 0.000949667616334283 0.0013165188614623843
сильный: 0.000949667616334283 0.0018671537097557766
потенциять: 0.000949667616334283 0.0043733809933410184
дискорд: 0.000949667616334283 0.0043733809933410184
задавать: 0.000949667616334283 0.001682770030324668
вопрос: 0.000949667616334283 0.0005851720222448404
чат: 0.000949667616334283 0.0026718050491548306
пора: 0.000949667616334283 0.001682770030324668
продакшень: 0.000949667616334283 0.0037151215626098255
3й: 0.000949667616334283 0.0037151215626098255
месяц: 0.000949667616334283 0.0015284310659393165
переживать: 0.000949667616334283 0.002844949927401701
нагрузка: 0.000949667616334283 0.0017403432704162492
тысяча: 0.000949667616334283 0.0017403432704162492
сутки: 0.000949667616334283 0.003056862131878633
дешевый: 0.000949667616334283 0.0023986027011474414
дроплета: 0.000949667616334283 0.0043733809933410184
DigitalOcean: 0.000949667616334283 0.0037151215626098255
