последний: 0.0007961783439490446 0.0007496883279127747
месяц: 0.0007961783439490446 0.0012813996118105895
мировой: 0.0007961783439490446 0.002562799223621179
сми: 0.0007961783439490446 0.0031146679979523455
пестреть: 0.0007961783439490446 0.003666536772283513
сообщение: 0.0007961783439490446 0.0012055157106924965
возможность: 0.0023885350318471337 0.001141805257029458
Chat: 0.0023885350318471337 0.010999610316850537
GPT: 0.0023885350318471337 0.009344003993857037
нейросеть: 0.01751592356687898 0.04927948707700701
успешно: 0.0023885350318471337 0.004377185024876537
сдавать: 0.0007961783439490446 0.002562799223621179
испытание: 0.0007961783439490446 0.002791845459649667
экзамен: 0.0015923566878980893 0.006229335995904691
технический: 0.0031847133757961785 0.004414950194649333
собеседование: 0.0007961783439490446 0.0021172452523350142
целый: 0.0007961783439490446 0.0014107936639584995
ряд: 0.0007961783439490446 0.0013222382219917604
профессия: 0.006369426751592357 0.0160874435943201
справляться: 0.0023885350318471337 0.004696129434011543
типовой: 0.0007961783439490446 0.0031146679979523455
задача: 0.007165605095541401 0.003425415771088374
SEO: 0.0007961783439490446 0.002562799223621179
изображение: 0.0007961783439490446 0.0016881079109873336
сгенерировать: 0.0031847133757961785 0.007333073544567026
Openjourney: 0.0007961783439490446 0.003666536772283513
помощь: 0.0007961783439490446 0.0003308243980586511
модель: 0.0015923566878980893 0.0016268331967069765
Stable: 0.0007961783439490446 0.0031146679979523455
Diffusion: 0.0007961783439490446 0.0031146679979523455
если: 0.0031847133757961785 0.0007106482525930248
смотреть: 0.0007961783439490446 0.0010135077036726812
ситуация: 0.0023885350318471337 0.002956706264335073
трезво: 0.0007961783439490446 0.003666536772283513
пока: 0.006369426751592357 0.006332817027667943
крайний: 0.0007961783439490446 0.002562799223621179
мера: 0.0007961783439490446 0.0016881079109873336
близкий: 0.0031847133757961785 0.00804372179716005
год: 0.004777070063694267 0.0027698335760490867
смочь: 0.007165605095541401 0.007320749385181394
полноценный: 0.0031847133757961785 0.007029537940094654
заменять: 0.003980891719745223 0.006406998059052947
программист: 0.005573248407643312 0.011816755376911334
да: 0.0007961783439490446 0.001242553939701169
уметь: 0.0015923566878980893 0.003020891695678155
писать: 0.003980891719745223 0.003647654187397114
код: 0.01751592356687898 0.009541399569838202
она: 0.0023885350318471337 0.0019609408090839895
ставить: 0.0015923566878980893 0.003834308294031643
определенный: 0.0007961783439490446 0.0011037375486623333
формировать: 0.0015923566878980893 0.004021860898580025
решение: 0.011146496815286623 0.005693916188474419
вид: 0.0015923566878980893 0.0010722047026493083
причем: 0.0007961783439490446 0.0014590616749588458
это: 0.005573248407643312 0.0002858702712681953
делать: 0.0015923566878980893 0.0008134165983534885
Python: 0.0007961783439490446 0.0018332683861417565
Java: 0.0007961783439490446 0.0016881079109873336
Javascript: 0.0007961783439490446 0.0031146679979523455
ассемблер: 0.0007961783439490446 0.0031146679979523455
разный: 0.0015923566878980893 0.0010722047026493083
экзотический: 0.0007961783439490446 0.0031146679979523455
язык: 0.0015923566878980893 0.0017178497792546658
тип: 0.0007961783439490446 0.0008589248896273329
Brainfuck: 0.0007961783439490446 0.003666536772283513
и: 0.0031847133757961785 0.001626833196706977
работать: 0.0007961783439490446 0.00023973335412732613
тестовый: 0.0007961783439490446 0.0015104458478390776
режим: 0.0007961783439490446 0.0010135077036726812
поручать: 0.0015923566878980893 0.006229335995904691
базовый: 0.0007961783439490446 0.001242553939701169
вещь: 0.0015923566878980893 0.002485107879402338
например: 0.004777070063694267 0.002361288161535574
делегировать: 0.0015923566878980893 0.005125598447242358
бот: 0.0007961783439490446 0.002791845459649667
небольшой: 0.0015923566878980893 0.0017178497792546658
игра: 0.0007961783439490446 0.0015104458478390776
правильно: 0.0007961783439490446 0.0013222382219917604
т: 0.0031847133757961785 0.00604178339135631
е: 0.0031847133757961785 0.008959906741274002
объяснять: 0.0007961783439490446 0.0012813996118105895
должно: 0.0023885350318471337 0.0033112126459869996
вход: 0.0007961783439490446 0.0013222382219917604
происходить: 0.0007961783439490446 0.0007098711140794455
какой: 0.003980891719745223 0.0030056631539730604
часто: 0.0007961783439490446 0.0006906851653700024
система: 0.004777070063694267 0.002440249795060465
корректность: 0.0007961783439490446 0.0022399766853185006
ответ: 0.0007961783439490446 0.0007703694476605937
дело: 0.0007961783439490446 0.0007295308374794229
время: 0.0023885350318471337 0.0006242788952254957
ChatGPT: 0.01592356687898089 0.04479953370637001
называть: 0.0015923566878980893 0.0015832042569169857
скоро: 0.0007961783439490446 0.0009324705266743194
ассистент: 0.0007961783439490446 0.003666536772283513
который: 0.012738853503184714 0.00025735932888559836
ускорять: 0.0015923566878980893 0.0042344905046700285
работа: 0.007961783439490446 0.002397333541273261
помогать: 0.0015923566878980893 0.0015407388953211875
находить: 0.0007961783439490446 0.0005206420918842867
ошибка: 0.0015923566878980893 0.0012022652615892243
скармливать: 0.0015923566878980893 0.006229335995904691
подсказывать: 0.0023885350318471337 0.007688397670863536
нетривиальный: 0.0007961783439490446 0.002562799223621179
написать: 0.0031847133757961785 0.0031664085138339714
что: 0.0007961783439490446 0.00040670829917674423
такой: 0.003980891719745223 0.0006004095928924509
образ: 0.0023885350318471337 0.0017531110869750013
простой: 0.0023885350318471337 0.0015619262756528599
автотест: 0.0007961783439490446 0.003666536772283513
разработчик: 0.0023885350318471337 0.0021296133422383364
поиск: 0.0007961783439490446 0.000958577073507911
уходить: 0.0007961783439490446 0.0013222382219917604
день: 0.0007961783439490446 0.0008826931723898178
неделя: 0.0007961783439490446 0.0014107936639584995
утрировать: 0.0007961783439490446 0.002791845459649667
кодер: 0.0007961783439490446 0.003666536772283513
проблема: 0.0007961783439490446 0.0005206420918842867
знание: 0.0007961783439490446 0.000958577073507911
платформа: 0.007165605095541401 0.010226152229905503
когда: 0.0031847133757961785 0.003081477790642375
создаваться: 0.0007961783439490446 0.0016881079109873336
коммерческий: 0.0031847133757961785 0.00954054864189169
продукт: 0.00875796178343949 0.012871365979815572
важно: 0.0015923566878980893 0.0023402483599664677
знать: 0.0031847133757961785 0.0027627406614800097
далеко: 0.0023885350318471337 0.002249064983738324
взять: 0.0007961783439490446 0.0010424628343819763
российский: 0.0007961783439490446 0.0019171541470158215
nocode: 0.0023885350318471337 0.009344003993857037
locode: 0.0007961783439490446 0.003666536772283513
elma: 0.0007961783439490446 0.003666536772283513
запрос: 0.0031847133757961785 0.0031664085138339714
написание: 0.0015923566878980893 0.002562799223621179
автотестирование: 0.0007961783439490446 0.0031146679979523455
давать: 0.0007961783439490446 0.0002839768661932583
результат: 0.0007961783439490446 0.0004759848732130736
потому: 0.0007961783439490446 0.0017573844850236634
требоваться: 0.0023885350318471337 0.003510372539949701
длительный: 0.0007961783439490446 0.002562799223621179
обучение: 0.003980891719745223 0.007053968319792498
сила: 0.0007961783439490446 0.0012055157106924965
этот: 0.0007961783439490446 0.0002839768661932583
вряд: 0.0015923566878980893 0.004021860898580025
являться: 0.0015923566878980893 0.0011037375486623333
приоритетный: 0.0007961783439490446 0.002791845459649667
Open: 0.0031847133757961785 0.010251196894484716
AI: 0.0031847133757961785 0.014666147089134052
маловероятный: 0.0007961783439490446 0.002562799223621179
осваивать: 0.0007961783439490446 0.0021172452523350142
способность: 0.0007961783439490446 0.0018332683861417565
в: 0.006369426751592357 0.00026001270395067006
системный: 0.0015923566878980893 0.0031307529560076954
интеграция: 0.0007961783439490446 0.0014590616749588458
говорить: 0.0007961783439490446 0.0005679537323865166
крупный: 0.0007961783439490446 0.0015104458478390776
предприятие: 0.0007961783439490446 0.002562799223621179
особенно: 0.0007961783439490446 0.0010725108662154534
россия: 0.0015923566878980893 0.004021860898580025
правило: 0.0007961783439490446 0.0010135077036726812
приложение: 0.0007961783439490446 0.0006906851653700024
решать: 0.0023885350318471337 0.0013849167880245433
рамка: 0.0015923566878980893 0.0021450217324309067
между: 0.0015923566878980893 0.006229335995904691
наш: 0.0007961783439490446 0.0003935480269225957
сфера: 0.0007961783439490446 0.00162437964054662
специалист: 0.004777070063694267 0.007455323638207014
представитель: 0.0015923566878980893 0.0033762158219746673
постепенно: 0.0015923566878980893 0.00324875928109324
вымирать: 0.0007961783439490446 0.003666536772283513
писатель: 0.0015923566878980893 0.007333073544567026
так: 0.0007961783439490446 0.0004759848732130736
тз: 0.0023885350318471337 0.008375536378949
гост: 0.0007961783439490446 0.0031146679979523455
целое: 0.0015923566878980893 0.0020849256687639527
способный: 0.003980891719745223 0.007295308374794228
генерировать: 0.0023885350318471337 0.004531337543517232
достаточно: 0.003980891719745223 0.002759343871655833
приличный: 0.0007961783439490446 0.002791845459649667
проектный: 0.0007961783439490446 0.002562799223621179
документация: 0.0015923566878980893 0.002562799223621179
кроме: 0.0007961783439490446 0.0007295308374794229
отнимать: 0.0015923566878980893 0.0042344905046700285
значительный: 0.0007961783439490446 0.0016881079109873336
количество: 0.0007961783439490446 0.0005679537323865166
бизнес: 0.0015923566878980893 0.00273057074536931
аналитик: 0.003980891719745223 0.010054652246450062
частность: 0.0015923566878980893 0.003666536772283513
заниматься: 0.0015923566878980893 0.0020270154073453624
преимущественно: 0.0007961783439490446 0.002562799223621179
формализация: 0.0015923566878980893 0.006229335995904691
требование: 0.0015923566878980893 0.0022074750973246665
готовый: 0.0015923566878980893 0.0015407388953211875
шаблон: 0.0007961783439490446 0.0016881079109873336
артефакт: 0.0007961783439490446 0.0023851371604729226
анализ: 0.0007961783439490446 0.001242553939701169
а: 0.0007961783439490446 0.0003553241262965124
тот: 0.0015923566878980893 0.00089509381871583
оставаться: 0.0007961783439490446 0.0006719506929096569
выявлять: 0.0007961783439490446 0.0020109304492900125
напротив: 0.0015923566878980893 0.005125598447242358
мочь: 0.0015923566878980893 0.00033554304349626203
серьезно: 0.0007961783439490446 0.002562799223621179
увеличивать: 0.0007961783439490446 0.0015104458478390776
производительность: 0.0007961783439490446 0.0015104458478390776
рутинный: 0.0007961783439490446 0.003666536772283513
хороший: 0.0023885350318471337 0.002249064983738324
пример: 0.0023885350318471337 0.0016556063229934998
использование: 0.0015923566878980893 0.0011359074647730332
генерация: 0.0015923566878980893 0.003514768970047327
служить: 0.0007961783439490446 0.0019171541470158215
видео: 0.0007961783439490446 0.0013222382219917604
андрей: 0.0007961783439490446 0.0031146679979523455
очевидно: 0.0023885350318471337 0.004696129434011543
искать: 0.0007961783439490446 0.0010424628343819763
новый: 0.003980891719745223 0.0015942578288102125
кол: 0.0007961783439490446 0.0031146679979523455
далекий: 0.0007961783439490446 0.0023851371604729226
будущее: 0.006369426751592357 0.010251196894484716
аналогичный: 0.0007961783439490446 0.0015653764780038477
вероятный: 0.0007961783439490446 0.002791845459649667
становиться: 0.005573248407643312 0.0035383343209011036
своеобразный: 0.0007961783439490446 0.0023851371604729226
оркестратор: 0.0007961783439490446 0.003666536772283513
быть: 0.004777070063694267 0.0015692869441339301
объединять: 0.0015923566878980893 0.0031307529560076954
автоматизированный: 0.0007961783439490446 0.0022399766853185006
функция: 0.0007961783439490446 0.0007703694476605937
разработка: 0.0015923566878980893 0.0014993766558255494
минимум: 0.0015923566878980893 0.00324875928109324
единый: 0.0007961783439490446 0.0017573844850236634
процесс: 0.0015923566878980893 0.0010412841837685735
момент: 0.0007961783439490446 0.0004759848732130736
ита: 0.0007961783439490446 0.0021172452523350142
футуристический: 0.0007961783439490446 0.0031146679979523455
прогноз: 0.0015923566878980893 0.004479953370637001
посмотреть: 0.0007961783439490446 0.0007916021284584928
немного: 0.0015923566878980893 0.0017653863447796357
перспектива: 0.0015923566878980893 0.00324875928109324
замечать: 0.0007961783439490446 0.0012813996118105895
стремительно: 0.0007961783439490446 0.0031146679979523455
развиваться: 0.0007961783439490446 0.0015104458478390776
постоянно: 0.0007961783439490446 0.0010725108662154534
все: 0.003980891719745223 0.0024529703002540483
качественно: 0.0007961783439490446 0.002791845459649667
конкретный: 0.0007961783439490446 0.000907192900627679
подобный: 0.0023885350318471337 0.003616547132077489
получать: 0.0007961783439490446 0.0002505658796494428
кусок: 0.0007961783439490446 0.0022399766853185006
модуль: 0.0007961783439490446 0.001365285372684655
но: 0.0023885350318471337 0.0009924731941759533
объединение: 0.0007961783439490446 0.002562799223621179
еще: 0.0015923566878980893 0.0012365108113041342
требовать: 0.0023885350318471337 0.0021885925124382685
участие: 0.0007961783439490446 0.0020109304492900125
я: 0.0007961783439490446 0.0007496883279127747
полагать: 0.0007961783439490446 0.0022399766853185006
скорый: 0.0007961783439490446 0.002791845459649667
тк: 0.0015923566878980893 0.004479953370637001
сугубо: 0.0007961783439490446 0.003666536772283513
эмпатия: 0.0023885350318471337 0.008375536378949
учет: 0.0007961783439490446 0.0014590616749588458
этический: 0.0015923566878980893 0.007333073544567026
критерий: 0.0007961783439490446 0.0019171541470158215
прекрасно: 0.0007961783439490446 0.0022399766853185006
решаться: 0.0007961783439490446 0.0019171541470158215
ия: 0.004777070063694267 0.014310822962837536
безусловно: 0.0007961783439490446 0.002562799223621179
человеческий: 0.0023885350318471337 0.006032791347870037
интеллект: 0.0007961783439490446 0.0019171541470158215
другой: 0.0007961783439490446 0.0002839768661932583
полный: 0.0007961783439490446 0.0010424628343819763
смысл: 0.0007961783439490446 0.0009855687547783577
понимать: 0.0015923566878980893 0.0011359074647730332
соответственно: 0.0007961783439490446 0.0014590616749588458
создавать: 0.003980891719745223 0.0017766206314825618
основание: 0.0007961783439490446 0.0020109304492900125
пусть: 0.0015923566878980893 0.0031307529560076954
подробный: 0.0007961783439490446 0.0015653764780038477
абстрактный: 0.0007961783439490446 0.002562799223621179
иной: 0.0015923566878980893 0.0022724782733123342
слово: 0.0015923566878980893 0.0014993766558255494
создание: 0.0007961783439490446 0.0005843703623250005
привязывать: 0.0007961783439490446 0.0018332683861417565
архитектор: 0.0007961783439490446 0.0022399766853185006
при: 0.0023885350318471337 0.0016556063229934998
отдаленный: 0.0007961783439490446 0.003666536772283513
скажем: 0.0007961783439490446 0.002791845459649667
зависимость: 0.0007961783439490446 0.000907192900627679
интенсивность: 0.0007961783439490446 0.0031146679979523455
качество: 0.0015923566878980893 0.0013439013858193138
возможно: 0.0007961783439490446 0.000907192900627679
правильный: 0.0007961783439490446 0.0014107936639584995
ключ: 0.0007961783439490446 0.001242553939701169
самостоятельно: 0.0007961783439490446 0.0012813996118105895
шаблонный: 0.0015923566878980893 0.005583690919299334
пользователь: 0.0007961783439490446 0.0005843703623250005
вероятно: 0.0007961783439490446 0.00162437964054662
скромный: 0.0007961783439490446 0.002562799223621179
живой: 0.0015923566878980893 0.003834308294031643
человек: 0.0015923566878980893 0.0013813703307400049
рынок: 0.0007961783439490446 0.0015653764780038477
врач: 0.0023885350318471337 0.007688397670863536
волноваться: 0.0007961783439490446 0.003666536772283513
нашуметь: 0.0007961783439490446 0.003666536772283513
сдача: 0.0007961783439490446 0.0031146679979523455
медицинский: 0.0015923566878980893 0.005583690919299334
едва: 0.0007961783439490446 0.0031146679979523455
угрожать: 0.0007961783439490446 0.0031146679979523455
сколько: 0.0015923566878980893 0.002562799223621179
степень: 0.0015923566878980893 0.003514768970047327
риск: 0.0023885350318471337 0.004696129434011543
юридический: 0.0007961783439490446 0.002791845459649667
ограничение: 0.0007961783439490446 0.001242553939701169
проблематика: 0.0007961783439490446 0.0031146679979523455
персональный: 0.0007961783439490446 0.0019171541470158215
ответственность: 0.0007961783439490446 0.0016881079109873336
долго: 0.0007961783439490446 0.0016881079109873336
сохранять: 0.0007961783439490446 0.0011701241799832339
медицина: 0.0007961783439490446 0.003666536772283513
консервативный: 0.0007961783439490446 0.003666536772283513
позволять: 0.0015923566878980893 0.0006859600574720611
принимать: 0.0007961783439490446 0.0007916021284584928
самостоятельный: 0.0007961783439490446 0.0023851371604729226
отношение: 0.0007961783439490446 0.0015104458478390776
здоровье: 0.0007961783439490446 0.0023851371604729226
случай: 0.0007961783439490446 0.0003188515657620425
связанный: 0.0007961783439490446 0.0011362391366561671
барьер: 0.0007961783439490446 0.0031146679979523455
лем: 0.0007961783439490446 0.003666536772283513
сопоставимый: 0.0007961783439490446 0.002791845459649667
возможный: 0.0007961783439490446 0.0010424628343819763
выгода: 0.0015923566878980893 0.004770274320945845
темуж: 0.0007961783439490446 0.003666536772283513
понятно: 0.0007961783439490446 0.0015653764780038477
рука: 0.0007961783439490446 0.0011037375486623333
инструмент: 0.0007961783439490446 0.000958577073507911
минимизация: 0.0007961783439490446 0.002562799223621179
фактор: 0.0007961783439490446 0.00162437964054662
диагностика: 0.0007961783439490446 0.002791845459649667
выбор: 0.0007961783439490446 0.0010135077036726812
лечение: 0.0007961783439490446 0.0031146679979523455
оценка: 0.0007961783439490446 0.0014590616749588458
изменение: 0.0015923566878980893 0.0016268331967069765
состояние: 0.0007961783439490446 0.0011362391366561671
правда: 0.0007961783439490446 0.001365285372684655
уверовать: 0.0007961783439490446 0.003666536772283513
мощь: 0.0007961783439490446 0.002791845459649667
самолечение: 0.0007961783439490446 0.003666536772283513
игнорировать: 0.0007961783439490446 0.0022399766853185006
традиционный: 0.0007961783439490446 0.0019171541470158215
поэтому: 0.0007961783439490446 0.0004759848732130736
бэкграунд: 0.0007961783439490446 0.0031146679979523455
регулирование: 0.0007961783439490446 0.002562799223621179
стоимость: 0.0015923566878980893 0.0031307529560076954
гуманизация: 0.0007961783439490446 0.003666536772283513
речь: 0.0023885350318471337 0.004232380991875498
идти: 0.0023885350318471337 0.002956706264335073
столь: 0.0015923566878980893 0.004770274320945845
смелый: 0.0007961783439490446 0.002562799223621179
предположение: 0.0007961783439490446 0.0023851371604729226
возникать: 0.0023885350318471337 0.0024402497950604648
вопрос: 0.0023885350318471337 0.001471782180152429
моделирование: 0.0007961783439490446 0.0023851371604729226
человекоподобный: 0.0007961783439490446 0.003666536772283513
подход: 0.0007961783439490446 0.0007496883279127747
воссоздание: 0.0007961783439490446 0.0031146679979523455
психика: 0.0007961783439490446 0.0031146679979523455
некий: 0.0007961783439490446 0.0018332683861417565
подобие: 0.0007961783439490446 0.002791845459649667
воображение: 0.0007961783439490446 0.003666536772283513
юмор: 0.0007961783439490446 0.002791845459649667
также: 0.0031847133757961785 0.0009589334165093045
относить: 0.0007961783439490446 0.002791845459649667
софт: 0.0007961783439490446 0.0031146679979523455
рассчитывать: 0.0007961783439490446 0.0031146679979523455
масштабный: 0.0007961783439490446 0.0022399766853185006
развитие: 0.0007961783439490446 0.0012813996118105895
сейчас: 0.0007961783439490446 0.0012813996118105895
сгребать: 0.0007961783439490446 0.003666536772283513
данные: 0.0015923566878980893 0.0011037375486623333
доступный: 0.0007961783439490446 0.0007703694476605937
источник: 0.0007961783439490446 0.001242553939701169
кормить: 0.0007961783439490446 0.0031146679979523455
они: 0.0007961783439490446 0.0006719506929096569
сотня: 0.0007961783439490446 0.0017573844850236634
тысяча: 0.0007961783439490446 0.0014590616749588458
сотрудник: 0.0007961783439490446 0.0015653764780038477
грустный: 0.0007961783439490446 0.003666536772283513
лицо: 0.0007961783439490446 0.0018332683861417565
бедный: 0.0007961783439490446 0.003666536772283513
африканский: 0.0007961783439490446 0.003666536772283513
страна: 0.0007961783439490446 0.00162437964054662
сидеть: 0.0007961783439490446 0.0021172452523350142
превращать: 0.0007961783439490446 0.0017573844850236634
чат: 0.0007961783439490446 0.0022399766853185006
копирайт: 0.0015923566878980893 0.007333073544567026
обучать: 0.0007961783439490446 0.0019171541470158215
предсказывать: 0.0007961783439490446 0.0020109304492900125
следующий: 0.0007961783439490446 0.00034298002873603054
использовать: 0.0015923566878980893 0.00041618593015033047
терабайт: 0.0007961783439490446 0.003666536772283513
Reddit: 0.0007961783439490446 0.003666536772283513
GitHub: 0.0007961783439490446 0.0022399766853185006
Quora: 0.0007961783439490446 0.003666536772283513
считать: 0.0015923566878980893 0.0020270154073453624
свободный: 0.0007961783439490446 0.00162437964054662
ведь: 0.0015923566878980893 0.004021860898580025
повторять: 0.0007961783439490446 0.0017573844850236634
чужой: 0.0007961783439490446 0.002791845459649667
корпорация: 0.0007961783439490446 0.002562799223621179
обладать: 0.0007961783439490446 0.0014590616749588458
право: 0.0023885350318471337 0.004232380991875498
закон: 0.0007961783439490446 0.0021172452523350142
свой: 0.0015923566878980893 0.0003753540342692197
юрисдикция: 0.0007961783439490446 0.003666536772283513
начинать: 0.0007961783439490446 0.0004200897628044362
защищать: 0.0007961783439490446 0.0015653764780038477
потребовать: 0.0007961783439490446 0.0022399766853185006
возмещение: 0.0007961783439490446 0.003666536772283513
упускать: 0.0007961783439490446 0.002562799223621179
наказание: 0.0007961783439490446 0.003666536772283513
штраф: 0.0007961783439490446 0.003666536772283513
правовой: 0.0007961783439490446 0.0031146679979523455
поле: 0.0007961783439490446 0.0012813996118105895
часть: 0.0007961783439490446 0.0006719506929096569
подставлять: 0.0007961783439490446 0.0023851371604729226
компания: 0.0015923566878980893 0.0014590616749588458
меч: 0.0007961783439490446 0.003666536772283513
фемида: 0.0007961783439490446 0.003666536772283513
карать: 0.0007961783439490446 0.003666536772283513
нарушение: 0.0007961783439490446 0.0023851371604729226
авторский: 0.0015923566878980893 0.005583690919299334
тяжело: 0.0007961783439490446 0.0022399766853185006
доказывать: 0.0007961783439490446 0.0016881079109873336
нарушать: 0.0007961783439490446 0.0023851371604729226
сознательно: 0.0007961783439490446 0.0031146679979523455
многие: 0.0007961783439490446 0.0015104458478390776
сценарий: 0.0007961783439490446 0.0019171541470158215
показываться: 0.0007961783439490446 0.0020109304492900125
абсурдный: 0.0007961783439490446 0.003666536772283513
реальность: 0.0007961783439490446 0.002562799223621179
корпоративный: 0.0007961783439490446 0.0019171541470158215
спор: 0.0015923566878980893 0.005583690919299334
претензия: 0.0007961783439490446 0.003666536772283513
авторство: 0.0007961783439490446 0.0031146679979523455
редкость: 0.0007961783439490446 0.0031146679979523455
вспомнить: 0.0007961783439490446 0.0021172452523350142
судебный: 0.0007961783439490446 0.002791845459649667
Niantic: 0.0007961783439490446 0.003666536772283513
конфликт: 0.0007961783439490446 0.0021172452523350142
Wargaming: 0.0007961783439490446 0.003666536772283513
c: 0.0007961783439490446 0.0018332683861417565
команда: 0.0007961783439490446 0.00065364693636133
Ex: 0.0007961783439490446 0.003666536772283513
заключение: 0.0007961783439490446 0.0010725108662154534
обобщать: 0.0007961783439490446 0.003666536772283513
сделать: 0.0023885350318471337 0.0010289400862080916
вывод: 0.0007961783439490446 0.000958577073507911
нечего: 0.0007961783439490446 0.003666536772283513
опасаться: 0.0007961783439490446 0.0031146679979523455
долгосрочный: 0.0007961783439490446 0.0020109304492900125
предполагать: 0.0007961783439490446 0.0015104458478390776
замена: 0.0007961783439490446 0.0019171541470158215
middle: 0.0007961783439490446 0.003666536772283513
level: 0.0007961783439490446 0.0031146679979523455
иметь: 0.0007961783439490446 0.00040670829917674423
четкий: 0.0007961783439490446 0.0016881079109873336
временный: 0.0007961783439490446 0.0020109304492900125
горизонт: 0.0007961783439490446 0.002791845459649667
ожидаться: 0.0007961783439490446 0.002791845459649667
рано: 0.0007961783439490446 0.0011701241799832339
зона: 0.0007961783439490446 0.0017573844850236634
низкоквалифицированный: 0.0007961783439490446 0.003666536772283513
джуна: 0.0007961783439490446 0.0031146679979523455
