этот: 0.002927400468384075 0.001044130397947109
цикл: 0.000585480093676815 0.0011511199393283563
публикация: 0.00117096018735363 0.0029575276865436246
своеобразный: 0.001756440281030445 0.0052618248364531455
бэкстейджистория: 0.000585480093676815 0.0026962354718899836
который: 0.015807962529274005 0.0003193636402652375
приводить: 0.000585480093676815 0.0005512930561232113
мой: 0.00585480093676815 0.005821149141357535
команда: 0.004098360655737705 0.0033646743937288132
результат: 0.00117096018735363 0.0007000433264117335
получаться: 0.006440281030444965 0.006761149513750266
облачный: 0.00234192037470726 0.005169262091779207
сервис: 0.001756440281030445 0.0017944694043301778
управление: 0.002927400468384075 0.0037264803156114978
онлайн: 0.00234192037470726 0.004965488375175857
офлайн: 0.00234192037470726 0.008212079384824314
торговля: 0.00351288056206089 0.01231811907723647
нативатор: 0.00702576112412178 0.032354825662679804
по: 0.001756440281030445 0.0012174716286181709
большой: 0.001756440281030445 0.0011826894963649277
счет: 0.000585480093676815 0.0010374454578055477
это: 0.015807962529274005 0.0008108424756814186
история: 0.00234192037470726 0.002981184252489198
часть: 0.00351288056206089 0.0029647660548988135
жизнь: 0.00117096018735363 0.0018274563797010168
длина: 0.000585480093676815 0.0014098042205221732
год: 0.00585480093676815 0.003394721869162425
мы: 0.009953161592505855 0.0039860179345147136
зарабатывать: 0.00234192037470726 0.005639216882088693
совершенно: 0.000585480093676815 0.0011107259864671436
другой: 0.001756440281030445 0.0006264782387682653
проект: 0.006440281030444965 0.004726967755200355
сделать: 0.007611241217798595 0.003278792686886362
не: 0.00117096018735363 0.0011642298282715069
привлекать: 0.00117096018735363 0.0028196084410443464
инвестиция: 0.000585480093676815 0.0018845877194778693
свой: 0.0117096018735363 0.0027602146782326692
заемный: 0.000585480093676815 0.0026962354718899836
деньги: 0.001756440281030445 0.003876946568834405
периодически: 0.00117096018735363 0.0031138876310688266
клиент: 0.007611241217798595 0.009688848820589893
ведь: 0.00234192037470726 0.005915055373087249
работать: 0.006440281030444965 0.0019392014172266614
обкатываться: 0.000585480093676815 0.0026962354718899836
наш: 0.01053864168618267 0.005209211822404006
вот: 0.000585480093676815 0.0007452960631222995
медленно: 0.000585480093676815 0.0014098042205221732
прирастать: 0.000585480093676815 0.0026962354718899836
функционал: 0.000585480093676815 0.0011511199393283563
становиться: 0.00351288056206089 0.0022302515425151152
мощно: 0.000585480093676815 0.0022904115956839262
сильно: 0.001756440281030445 0.002741184569551525
итог: 0.001756440281030445 0.0022997657845148047
собраный: 0.000585480093676815 0.0026962354718899836
воедино: 0.000585480093676815 0.0020530198462060784
появляться: 0.001756440281030445 0.0014823830274494068
свет: 0.000585480093676815 0.0014787638432718123
январь: 0.000585480093676815 0.0018845877194778693
лебедь: 0.000585480093676815 0.0022904115956839262
возле: 0.000585480093676815 0.0026962354718899836
суджукский: 0.000585480093676815 0.0026962354718899836
коса: 0.000585480093676815 0.0026962354718899836
новороссийск: 0.000585480093676815 0.0026962354718899836
мимо: 0.000585480093676815 0.0022904115956839262
проходить: 0.00117096018735363 0.0013714086434460716
придумывать: 0.000585480093676815 0.0011945086818071163
статья: 0.001756440281030445 0.0007566444662045451
Hidden: 0.000585480093676815 0.0022904115956839262
text: 0.000585480093676815 0.0013481177359449918
в: 0.006440281030444965 0.00026290511693372786
пока: 0.00117096018735363 0.0011642298282715069
облако: 0.002927400468384075 0.008235979850000108
запланировать: 0.00117096018735363 0.004106039692412157
конфигуратор: 0.00234192037470726 0.010784941887559935
суть: 0.001756440281030445 0.003112336373416643
среда: 0.001756440281030445 0.0029169751876258507
разработка: 0.00819672131147541 0.00771810278572496
прямо: 0.001756440281030445 0.0029169751876258507
браузер: 0.00117096018735363 0.0023890173636142327
визуальный: 0.001756440281030445 0.004941587910000064
создание: 0.00351288056206089 0.0025783460482911025
бэкенд: 0.00117096018735363 0.0025846310458896033
чтото: 0.002927400468384075 0.0036237539695597697
средний: 0.00117096018735363 0.0020079606886322324
NoCode: 0.00117096018735363 0.005392470943779967
LowCode: 0.00117096018735363 0.005392470943779967
такой: 0.005269320843091335 0.0007947341964937079
1С: 0.00819672131147541 0.03206576233957497
облачномобильный: 0.00117096018735363 0.005392470943779967
максималка: 0.00117096018735363 0.005392470943779967
как: 0.00117096018735363 0.00045159541078686736
рассказывать: 0.001756440281030445 0.0017463447424072604
конец: 0.000585480093676815 0.0006857043217230358
начало: 0.000585480093676815 0.0007247507939119539
предшествовать: 0.000585480093676815 0.0022904115956839262
первый: 0.005269320843091335 0.0018046913234900368
предыстория: 0.000585480093676815 0.0022904115956839262
описывать: 0.00117096018735363 0.0014098042205221734
один: 0.001756440281030445 0.0004820319303895088
причина: 0.000585480093676815 0.0008604660246246731
увольняться: 0.001756440281030445 0.006871234787051778
начинать: 0.00468384074941452 0.002471347738090735
находиться: 0.001756440281030445 0.0016538791683696342
опыт: 0.00351288056206089 0.00422941266156652
мобильный: 0.020491803278688523 0.04180780386324907
приложение: 0.019320843091334895 0.016760842350266897
касса: 0.001756440281030445 0.008088706415669951
склад: 0.00351288056206089 0.013742469574103557
заказ: 0.006440281030444965 0.01626640227598994
тд: 0.000585480093676815 0.0012413720937939643
важный: 0.00234192037470726 0.001976510703265876
неотъемлемый: 0.000585480093676815 0.0017539416121510486
для: 0.002927400468384075 0.001044130397947109
понятно: 0.00117096018735363 0.0023022398786567127
откуда: 0.000585480093676815 0.0017539416121510486
возникать: 0.000585480093676815 0.0005981564681100593
возможность: 0.002927400468384075 0.001399402227584894
новый: 0.00351288056206089 0.0014068298592404872
продукт: 0.005269320843091335 0.007744194221622058
считать: 0.000585480093676815 0.0007452960631222995
полезный: 0.000585480093676815 0.0006316215815994906
получать: 0.002927400468384075 0.0009212843818492395
все: 0.000585480093676815 0.0003607647186322113
начинаться: 0.000585480093676815 0.0008864916467387445
разрабатывать: 0.001756440281030445 0.0020571129651691072
называться: 0.000585480093676815 0.0008604660246246731
кпк: 0.001756440281030445 0.006871234787051778
компактный: 0.000585480093676815 0.0017539416121510486
персональный: 0.000585480093676815 0.0014098042205221732
компьютер: 0.00117096018735363 0.0018274563797010168
должно: 0.00234192037470726 0.0032465910096484557
предназначаться: 0.000585480093676815 0.0026962354718899836
торговый: 0.00351288056206089 0.01231811907723647
представитель: 0.002927400468384075 0.006206860468969822
ездить: 0.00117096018735363 0.004106039692412157
магазин: 0.000585480093676815 0.0013481177359449918
собирать: 0.00117096018735363 0.0012981997945217929
у: 0.00351288056206089 0.0034926894848145208
заказчик: 0.00234192037470726 0.007538350877911477
написать: 0.000585480093676815 0.0005821149141357534
C: 0.000585480093676815 0.0011511199393283563
Palm: 0.000585480093676815 0.0026962354718899836
Pilot: 0.000585480093676815 0.0022904115956839262
постепенно: 0.000585480093676815 0.0011945086818071163
выходить: 0.000585480093676815 0.0006857043217230358
строй: 0.000585480093676815 0.0018845877194778693
нигде: 0.00117096018735363 0.004106039692412157
запчасть: 0.00117096018735363 0.0045808231913678525
батарея: 0.000585480093676815 0.0020530198462060784
замена: 0.000585480093676815 0.0014098042205221732
чтобы: 0.00117096018735363 0.0010729399670657554
нужно: 0.00468384074941452 0.0016041700653244772
самый: 0.002927400468384075 0.0011723582160337394
малость: 0.000585480093676815 0.0026962354718899836
иметь: 0.00351288056206089 0.0017944694043301782
проблема: 0.004098360655737705 0.0026800265057650165
второй: 0.000585480093676815 0.0005512930561232113
увидеть: 0.000585480093676815 0.0007665885948382683
твой: 0.000585480093676815 0.0020530198462060784
рабочий: 0.00234192037470726 0.0031547392224042375
стол: 0.000585480093676815 0.0020530198462060784
желтый: 0.000585480093676815 0.0018845877194778693
коробка: 0.000585480093676815 0.0012923155229448017
1СПредприятие: 0.000585480093676815 0.0026962354718899836
расширение: 0.000585480093676815 0.0011107259864671436
вообще: 0.000585480093676815 0.0007049021102610867
удача: 0.000585480093676815 0.0016471959700000212
решать: 0.001756440281030445 0.0010184165607487275
прототип: 0.005269320843091335 0.014824763730000192
реальный: 0.00117096018735363 0.0015331771896765366
очень: 0.00585480093676815 0.0032910943685804522
тормозить: 0.000585480093676815 0.0018845877194778693
оптовик: 0.000585480093676815 0.0026962354718899836
момент: 0.005269320843091335 0.0031501949688528008
около: 0.000585480093676815 0.0009137281898505084
SKU: 0.000585480093676815 0.0022904115956839262
форма: 0.001756440281030445 0.0028268815792168037
подбор: 0.00117096018735363 0.0037691754389557386
выводиться: 0.000585480093676815 0.0022904115956839262
список: 0.001756440281030445 0.0018948647447984718
остаток: 0.001756440281030445 0.006159059538618235
дико: 0.000585480093676815 0.0026962354718899836
зависать: 0.000585480093676815 0.0022904115956839262
сейчас: 0.001756440281030445 0.0028268815792168037
операционный: 0.00117096018735363 0.0026962354718899836
система: 0.004098360655737705 0.002093547638385208
решаться: 0.000585480093676815 0.0014098042205221732
динамический: 0.000585480093676815 0.0014787638432718123
подгрузка: 0.000585480093676815 0.0020530198462060784
то: 0.000585480093676815 0.0006490998972608964
отображать: 0.000585480093676815 0.0011107259864671436
видимый: 0.000585480093676815 0.0022904115956839262
экран: 0.000585480093676815 0.0010039803443161162
строка: 0.00117096018735363 0.0015331771896765366
необходимость: 0.000585480093676815 0.0007665885948382683
данные: 0.000585480093676815 0.00040582387620605696
остальной: 0.000585480093676815 0.0008604660246246731
поэтому: 0.00234192037470726 0.001400086652823467
прокручиваться: 0.000585480093676815 0.0022904115956839262
быстро: 0.001756440281030445 0.0014823830274494068
эффект: 0.00117096018735363 0.0024827441875879285
инерционность: 0.000585480093676815 0.0026962354718899836
но: 0.007611241217798595 0.0031625882737129126
знать: 0.002927400468384075 0.0025395215682222573
мощность: 0.000585480093676815 0.0017539416121510486
процессор: 0.000585480093676815 0.0012413720937939643
хватать: 0.000585480093676815 0.0011945086818071163
приходиться: 0.00234192037470726 0.0020316172545778058
выкручиваться: 0.000585480093676815 0.0026962354718899836
виртуальный: 0.000585480093676815 0.0014098042205221732
группа: 0.000585480093676815 0.0008116477524121139
разделять: 0.000585480093676815 0.0009723250625419501
товар: 0.00117096018735363 0.0031138876310688266
поздно: 0.001756440281030445 0.002506644652763722
руководитель: 0.001756440281030445 0.003724116281381893
проектный: 0.000585480093676815 0.0018845877194778693
направление: 0.000585480093676815 0.0009422938597389346
москва: 0.001756440281030445 0.004941587910000064
узнавать: 0.000585480093676815 0.0007049021102610867
сколько: 0.000585480093676815 0.0009422938597389346
продавать: 0.005269320843091335 0.014012494339809719
автоматизация: 0.001756440281030445 0.0042294126615665196
называть: 0.00117096018735363 0.0011642298282715069
альтруист: 0.000585480093676815 0.0026962354718899836
невысокий: 0.000585480093676815 0.0026962354718899836
московский: 0.000585480093676815 0.0022904115956839262
мерка: 0.000585480093676815 0.0022904115956839262
цена: 0.00117096018735363 0.0023022398786567127
подготовить: 0.000585480093676815 0.0010729399670657554
уверенный: 0.000585480093676815 0.0010729399670657554
смочь: 0.000585480093676815 0.0005981564681100593
помогать: 0.00117096018735363 0.0011330023726717866
наличие: 0.00117096018735363 0.001490592126244599
наладонник: 0.000585480093676815 0.0026962354718899836
установленный: 0.000585480093676815 0.0014098042205221732
немой: 0.002927400468384075 0.006461577614724008
платформа: 0.001756440281030445 0.002506644652763722
тест: 0.000585480093676815 0.0009723250625419501
за: 0.000585480093676815 0.0008864916467387445
время: 0.00351288056206089 0.0009181431995353894
Windows: 0.00117096018735363 0.0029575276865436246
Mobile: 0.00117096018735363 0.005392470943779967
сотня: 0.000585480093676815 0.0012923155229448017
дополнительный: 0.000585480093676815 0.000494127675816469
лицензия: 0.00351288056206089 0.010523649672906291
повторяться: 0.000585480093676815 0.0018845877194778693
устройство: 0.000585480093676815 0.0007049021102610867
спешный: 0.000585480093676815 0.0022904115956839262
порядок: 0.000585480093676815 0.0006671160908596984
пропадать: 0.000585480093676815 0.0018845877194778693
рынок: 0.000585480093676815 0.0011511199393283563
делить: 0.000585480093676815 0.0017539416121510486
себя: 0.000585480093676815 0.0007452960631222995
iOS: 0.00234192037470726 0.006227775262137653
подоспевать: 0.000585480093676815 0.0026962354718899836
Android: 0.00351288056206089 0.00934166289320648
переписывать: 0.00117096018735363 0.0032943919400000425
если: 0.00234192037470726 0.0005225844293072828
легко: 0.000585480093676815 0.0005821149141357534
на: 0.000585480093676815 0.0002172503989407681
разработчик: 0.00468384074941452 0.004176103603202733
денис: 0.00351288056206089 0.016177412831339902
станислав: 0.001756440281030445 0.008088706415669951
просто: 0.001756440281030445 0.0009873283105741356
талантливый: 0.000585480093676815 0.0022904115956839262
20летний: 0.000585480093676815 0.0026962354718899836
студент: 0.000585480093676815 0.0016471959700000212
опытный: 0.000585480093676815 0.0016471959700000212
Java: 0.000585480093676815 0.0012413720937939643
ME: 0.000585480093676815 0.0026962354718899836
и: 0.00351288056206089 0.0017944694043301782
несколько: 0.001756440281030445 0.0007298280631645184
месяц: 0.00234192037470726 0.0037691754389557386
увольнение: 0.002927400468384075 0.010265099231030392
происходить: 0.000585480093676815 0.0005220129504003416
забавный: 0.000585480093676815 0.0018845877194778693
компания: 0.001756440281030445 0.001609409950598633
сильный: 0.000585480093676815 0.0011511199393283563
число: 0.00117096018735363 0.0013342321817193968
понимать: 0.000585480093676815 0.0004176521591788436
нужный: 0.00117096018735363 0.0008116477524121139
инструмент: 0.000585480093676815 0.0007049021102610867
както: 0.001756440281030445 0.003876946568834405
удешевлять: 0.000585480093676815 0.0026962354718899836
себестоимость: 0.000585480093676815 0.0026962354718899836
будущий: 0.00117096018735363 0.0031138876310688266
ускорять: 0.000585480093676815 0.0015569438155344133
повышать: 0.000585480093676815 0.0008355482175879074
прибыльность: 0.000585480093676815 0.0026962354718899836
планировать: 0.000585480093676815 0.0009723250625419501
сначала: 0.000585480093676815 0.0007665885948382683
собственный: 0.002927400468384075 0.003335580454298492
кроссплатформенный: 0.000585480093676815 0.0020530198462060784
фреймворк: 0.001756440281030445 0.0040443532078349755
упрощать: 0.000585480093676815 0.0010374454578055477
интеграция: 0.00117096018735363 0.0021458799341315107
доверчиво: 0.000585480093676815 0.0026962354718899836
останавливать: 0.000585480093676815 0.0016471959700000212
выбор: 0.000585480093676815 0.0007452960631222995
предлагать: 0.00117096018735363 0.001490592126244599
потомучто: 0.000585480093676815 0.0026962354718899836
производительность: 0.000585480093676815 0.0011107259864671436
удобство: 0.00117096018735363 0.0021458799341315107
фирма: 0.00234192037470726 0.007015766448604194
выдерживать: 0.000585480093676815 0.0018845877194778693
никакой: 0.00234192037470726 0.0034418640984986925
критика: 0.000585480093676815 0.0020530198462060784
взять: 0.000585480093676815 0.0007665885948382683
таймаут: 0.000585480093676815 0.0022904115956839262
минимум: 0.00117096018735363 0.0023890173636142327
затрата: 0.001756440281030445 0.004941587910000064
обосновывать: 0.000585480093676815 0.0022904115956839262
презентация: 0.001756440281030445 0.004941587910000064
фреймворок: 0.00117096018735363 0.0031138876310688266
конечно: 0.00117096018735363 0.0023022398786567127
свободный: 0.000585480093676815 0.0011945086818071163
работа: 0.00234192037470726 0.000705164151718786
понравиться: 0.000585480093676815 0.0015569438155344133
руководство: 0.000585480093676815 0.0010374454578055477
UI: 0.002927400468384075 0.007784719077672067
создавать: 0.00234192037470726 0.0010451688586145657
какойто: 0.00117096018735363 0.0024827441875879285
вауэффект: 0.000585480093676815 0.0026962354718899836
добавлять: 0.001756440281030445 0.0010184165607487275
скриптовый: 0.000585480093676815 0.0022904115956839262
язык: 0.000585480093676815 0.0006316215815994906
Lua: 0.000585480093676815 0.0026962354718899836
раскрашивать: 0.000585480093676815 0.0022904115956839262
редактор: 0.000585480093676815 0.0013481177359449918
код: 0.000585480093676815 0.0003189269177058969
цвет: 0.000585480093676815 0.0015569438155344133
причем: 0.000585480093676815 0.0010729399670657554
реально: 0.000585480093676815 0.0016471959700000212
заглушка: 0.000585480093676815 0.0026962354718899836
наверное: 0.000585480093676815 0.0017539416121510486
строить: 0.000585480093676815 0.0011511199393283563
основной: 0.00117096018735363 0.0009613355410653751
фишка: 0.00117096018735363 0.003507883224302097
чемто: 0.00117096018735363 0.0037691754389557386
производить: 0.000585480093676815 0.0012413720937939643
ровно: 0.00117096018735363 0.0028196084410443464
филиал: 0.00234192037470726 0.010784941887559935
восхищаться: 0.000585480093676815 0.0026962354718899836
генеральный: 0.00117096018735363 0.0037691754389557386
директор: 0.00117096018735363 0.0037691754389557386
посчитать: 0.000585480093676815 0.0016471959700000212
выгодный: 0.000585480093676815 0.0018845877194778693
открытие: 0.00117096018735363 0.0023890173636142327
опережение: 0.000585480093676815 0.0026962354718899836
технология: 0.000585480093676815 0.0007886848056010594
следующий: 0.000585480093676815 0.0002522148220681817
укреплять: 0.000585480093676815 0.0022904115956839262
мысль: 0.00117096018735363 0.0016710964351758148
сторона: 0.000585480093676815 0.0005079043136444514
известный: 0.00117096018735363 0.0019446501250839003
россия: 0.00117096018735363 0.0029575276865436246
производитель: 0.000585480093676815 0.0017539416121510486
пиво: 0.000585480093676815 0.0018845877194778693
однажды: 0.000585480093676815 0.0020530198462060784
выходной: 0.00117096018735363 0.0031138876310688266
позвонить: 0.000585480093676815 0.0020530198462060784
центральный: 0.000585480093676815 0.0016471959700000212
офис: 0.001756440281030445 0.0042294126615665196
санктпетербург: 0.000585480093676815 0.0026962354718899836
попросить: 0.000585480093676815 0.0014098042205221732
помощь: 0.000585480093676815 0.00024327602105483946
предпродажок: 0.000585480093676815 0.0026962354718899836
крупный: 0.000585480093676815 0.0011107259864671436
единственный: 0.00117096018735363 0.001772983293477489
случаться: 0.000585480093676815 0.0012413720937939643
к: 0.000585480093676815 0.0006857043217230358
понедельник: 0.000585480093676815 0.0020530198462060784
успех: 0.000585480093676815 0.0011107259864671436
демонстрация: 0.00117096018735363 0.0037691754389557386
крутой: 0.000585480093676815 0.0014787638432718123
угроза: 0.000585480093676815 0.0015569438155344133
присылать: 0.00117096018735363 0.004106039692412157
исходник: 0.00117096018735363 0.003507883224302097
день: 0.001756440281030445 0.0019472996917826893
программист: 0.00117096018735363 0.0024827441875879285
должный: 0.001756440281030445 0.0011826894963649277
мотивировать: 0.00117096018735363 0.0037691754389557386
возможный: 0.000585480093676815 0.0007665885948382683
участие: 0.00117096018735363 0.0029575276865436246
пройти: 0.000585480093676815 0.0022904115956839262
отлично: 0.000585480093676815 0.0012923155229448017
справляться: 0.000585480093676815 0.0011511199393283563
задача: 0.00117096018735363 0.0005597608910339575
успешно: 0.000585480093676815 0.0010729399670657554
приглашать: 0.000585480093676815 0.0014098042205221732
хотеть: 0.00351288056206089 0.0022302515425151152
осень: 0.000585480093676815 0.0020530198462060784
целый: 0.000585480093676815 0.0010374454578055477
тысяча: 0.00117096018735363 0.0021458799341315107
рубль: 0.00117096018735363 0.0031138876310688266
последний: 0.00117096018735363 0.0011025861122464227
фактор: 0.00117096018735363 0.0023890173636142327
держать: 0.000585480093676815 0.0014787638432718123
чисто: 0.000585480093676815 0.0018845877194778693
юридический: 0.00117096018735363 0.004106039692412157
формально: 0.000585480093676815 0.0017539416121510486
доля: 0.001756440281030445 0.00467083144660324
юридически: 0.000585480093676815 0.0026962354718899836
закреплять: 0.000585480093676815 0.0014098042205221732
продолжать: 0.000585480093676815 0.0008116477524121139
чувствовать: 0.00117096018735363 0.0023890173636142327
потенциал: 0.000585480093676815 0.0016471959700000212
продажа: 0.00234192037470726 0.005639216882088693
добиваться: 0.000585480093676815 0.0012413720937939643
хороший: 0.001756440281030445 0.0016538791683696342
город: 0.000585480093676815 0.0016471959700000212
почему: 0.001756440281030445 0.002001348272579095
весь: 0.001756440281030445 0.0015237129409333542
важно: 0.000585480093676815 0.0008604660246246731
гарантия: 0.000585480093676815 0.0016471959700000212
я: 0.005269320843091335 0.004961637505108902
готовый: 0.001756440281030445 0.0016995035590076798
выкладываться: 0.000585480093676815 0.0026962354718899836
долгий: 0.000585480093676815 0.0013481177359449918
быть: 0.00234192037470726 0.0007693303676160095
приносить: 0.00117096018735363 0.0029575276865436246
доход: 0.000585480093676815 0.0015569438155344133
внутри: 0.00117096018735363 0.0015331771896765366
чувство: 0.000585480093676815 0.0017539416121510486
наемный: 0.000585480093676815 0.0022904115956839262
сотрудник: 0.00117096018735363 0.0023022398786567127
полноценный: 0.00117096018735363 0.0025846310458896033
партнер: 0.00117096018735363 0.0032943919400000425
телефонный: 0.000585480093676815 0.0022904115956839262
разговор: 0.000585480093676815 0.0011945086818071163
отказывать: 0.000585480093676815 0.0020530198462060784
просьба: 0.000585480093676815 0.0022904115956839262
расстраиваться: 0.000585480093676815 0.0026962354718899836
курс: 0.000585480093676815 0.0010374454578055477
ситуация: 0.000585480093676815 0.0007247507939119539
полный: 0.000585480093676815 0.0007665885948382683
решительность: 0.000585480093676815 0.0022904115956839262
вместе: 0.000585480093676815 0.0007049021102610867
что: 0.000585480093676815 0.0002990782340550297
собственно: 0.000585480093676815 0.0017539416121510486
сразу: 0.001756440281030445 0.0017944694043301778
часто: 0.00117096018735363 0.0010158086272889029
думать: 0.00117096018735363 0.0015773696112021188
рано: 0.000585480093676815 0.0008604660246246731
находить: 0.00117096018735363 0.0007657218587900047
единомышленник: 0.000585480093676815 0.0022904115956839262
захотеть: 0.000585480093676815 0.0014787638432718123
вложиться: 0.00117096018735363 0.005392470943779967
базироваться: 0.000585480093676815 0.0018845877194778693
юг: 0.00117096018735363 0.005392470943779967
редкий: 0.000585480093676815 0.0017539416121510486
наезд: 0.000585480093676815 0.0026962354718899836
вид: 0.00117096018735363 0.0007884596642432852
тот: 0.00117096018735363 0.0006582188737160904
искать: 0.00117096018735363 0.0015331771896765366
какой: 0.002927400468384075 0.0022102534668560683
сам: 0.00117096018735363 0.0009613355410653751
с: 0.00117096018735363 0.0008594486827637009
софтверный: 0.000585480093676815 0.0026962354718899836
бизнес: 0.00351288056206089 0.006023882065896697
отталкиваться: 0.000585480093676815 0.0026962354718899836
мобильность: 0.000585480093676815 0.0026962354718899836
авторский: 0.000585480093676815 0.0020530198462060784
право: 0.00117096018735363 0.0020748909156110954
передавать: 0.000585480093676815 0.0007049021102610867
преемник: 0.000585480093676815 0.0022904115956839262
предупреждать: 0.000585480093676815 0.0020530198462060784
делать: 0.001756440281030445 0.0008972347021650891
потому: 0.00117096018735363 0.0025846310458896033
мочь: 0.001756440281030445 0.0003701189074630899
купить: 0.000585480093676815 0.0011945086818071163
успевать: 0.000585480093676815 0.0012413720937939643
окрепнуть: 0.000585480093676815 0.0026962354718899836
еще: 0.000585480093676815 0.0004546421484186161
станислава: 0.000585480093676815 0.0026962354718899836
выявлять: 0.000585480093676815 0.0014787638432718123
нездоровый: 0.000585480093676815 0.0022904115956839262
тяга: 0.000585480093676815 0.0018845877194778693
алкоголь: 0.000585480093676815 0.0022904115956839262
желание: 0.00117096018735363 0.002221451972934287
бороться: 0.000585480093676815 0.0017539416121510486
расставаться: 0.000585480093676815 0.0026962354718899836
разрываться: 0.000585480093676815 0.0026962354718899836
игра: 0.00351288056206089 0.006664355918802861
при: 0.000585480093676815 0.00040582387620605696
выплачивать: 0.000585480093676815 0.0026962354718899836
формальный: 0.000585480093676815 0.0017539416121510486
соглашение: 0.000585480093676815 0.0020530198462060784
подробность: 0.000585480093676815 0.0014098042205221732
раскрывать: 0.000585480093676815 0.0018845877194778693
оно: 0.001756440281030445 0.0024349432572363418
сила: 0.000585480093676815 0.0008864916467387445
юрлица: 0.000585480093676815 0.0026962354718899836
средство: 0.000585480093676815 0.0011945086818071163
потратить: 0.000585480093676815 0.0012413720937939643
небольшой: 0.000585480093676815 0.0006316215815994906
опубликовывать: 0.000585480093676815 0.0014787638432718123
чутьчуть: 0.000585480093676815 0.0018845877194778693
игорь: 0.000585480093676815 0.0026962354718899836
место: 0.000585480093676815 0.00048066777053268757
краснодарский: 0.000585480093676815 0.0026962354718899836
магнит: 0.000585480093676815 0.0022904115956839262
факт: 0.000585480093676815 0.0010039803443161162
плюс: 0.00117096018735363 0.0020079606886322324
закрывать: 0.000585480093676815 0.0013481177359449918
гештальт: 0.000585480093676815 0.0022904115956839262
казаться: 0.00117096018735363 0.0023022398786567127
сложный: 0.00117096018735363 0.000988255351632938
именно: 0.00117096018735363 0.0008841013867424271
заканчиваться: 0.000585480093676815 0.0012413720937939643
занимать: 0.000585480093676815 0.0010039803443161162
друг: 0.00117096018735363 0.0013342321817193968
оставаться: 0.000585480093676815 0.000494127675816469
плав: 0.000585480093676815 0.0026962354718899836
хотя: 0.00117096018735363 0.0013342321817193968
после: 0.000585480093676815 0.0005079043136444514
скрип: 0.000585480093676815 0.0022904115956839262
сдавать: 0.000585480093676815 0.0018845877194778693
чистый: 0.000585480093676815 0.0012413720937939643
лист: 0.000585480093676815 0.0017539416121510486
спокойный: 0.000585480093676815 0.0018845877194778693
обстановка: 0.00117096018735363 0.005392470943779967
подгонять: 0.000585480093676815 0.0026962354718899836
срок: 0.000585480093676815 0.0012413720937939643
позволять: 0.00117096018735363 0.0005044296441363634
красивый: 0.00117096018735363 0.0025846310458896033
удобный: 0.00117096018735363 0.0018274563797010168
интерфейс: 0.001756440281030445 0.0022358881893668986
стыдно: 0.00117096018735363 0.0045808231913678525
показывать: 0.000585480093676815 0.00046751036078323865
сервер: 0.000585480093676815 0.0006857043217230358
лицензирование: 0.000585480093676815 0.0026962354718899836
существенный: 0.000585480093676815 0.0014098042205221732
платить: 0.000585480093676815 0.0016471959700000212
ежегодно: 0.000585480093676815 0.0026962354718899836
бессрочный: 0.00117096018735363 0.005392470943779967
вариант: 0.001756440281030445 0.0019472996917826893
стоить: 0.000585480093676815 0.0015569438155344133
раз: 0.000585480093676815 0.0010729399670657554
долгосрочный: 0.000585480093676815 0.0014787638432718123
план: 0.00117096018735363 0.0019446501250839003
ежегодный: 0.000585480093676815 0.0020530198462060784
выгодно: 0.000585480093676815 0.0026962354718899836
смотреть: 0.00117096018735363 0.001490592126244599
выгода: 0.000585480093676815 0.0017539416121510486
сходиться: 0.000585480093676815 0.0016471959700000212
экономика: 0.000585480093676815 0.0020530198462060784
ежемесячный: 0.000585480093676815 0.0022904115956839262
оплата: 0.000585480093676815 0.0018845877194778693
изза: 0.001756440281030445 0.0024349432572363418
постоянно: 0.00117096018735363 0.0015773696112021188
подсос: 0.000585480093676815 0.0026962354718899836
основа: 0.00117096018735363 0.0011963129362201185
название: 0.000585480093676815 0.0007452960631222995
нативи: 0.000585480093676815 0.0026962354718899836
синхронизироваться: 0.000585480093676815 0.0022904115956839262
выгружаться: 0.000585480093676815 0.0026962354718899836
актуальный: 0.000585480093676815 0.0012923155229448017
обратно: 0.000585480093676815 0.0015569438155344133
поступать: 0.000585480093676815 0.0012413720937939643
нельзя: 0.000585480093676815 0.0017539416121510486
сказать: 0.001756440281030445 0.0015237129409333542
успешный: 0.000585480093676815 0.0011511199393283563
пользоваться: 0.001756440281030445 0.0025813980738740193
санкт: 0.000585480093676815 0.0022904115956839262
петербург: 0.000585480093676815 0.0022904115956839262
пенза: 0.000585480093676815 0.0026962354718899836
каркас: 0.000585480093676815 0.0026962354718899836
поддерживать: 0.000585480093676815 0.0005821149141357534
электронный: 0.000585480093676815 0.0011945086818071163
оборудование: 0.000585480093676815 0.0013481177359449918
а: 0.001756440281030445 0.0007838766439609243
впоследствии: 0.00117096018735363 0.0032943919400000425
импорт: 0.000585480093676815 0.0016471959700000212
автомобильный: 0.000585480093676815 0.0020530198462060784
примерно: 0.000585480093676815 0.0006671160908596984
пять: 0.000585480093676815 0.0014787638432718123
сборка: 0.000585480093676815 0.0013481177359449918
комплектация: 0.000585480093676815 0.0026962354718899836
предназначать: 0.000585480093676815 0.0011107259864671436
кладовщик: 0.000585480093676815 0.0026962354718899836
бегать: 0.000585480093676815 0.0026962354718899836
комплектовать: 0.000585480093676815 0.0026962354718899836
интернетзаказ: 0.000585480093676815 0.0026962354718899836
они: 0.000585480093676815 0.000494127675816469
путать: 0.000585480093676815 0.0022904115956839262
менеджер: 0.00117096018735363 0.003507883224302097
значительный: 0.000585480093676815 0.0012413720937939643
заниматься: 0.000585480093676815 0.0007452960631222995
вычерка: 0.000585480093676815 0.0026962354718899836
уменьшать: 0.000585480093676815 0.0014098042205221732
количество: 0.000585480093676815 0.0004176521591788436
ошибка: 0.000585480093676815 0.00044205069337121356
полностью: 0.00117096018735363 0.0016232955048242279
устранять: 0.000585480093676815 0.0015569438155344133
два: 0.00117096018735363 0.0008353043183576871
достойный: 0.000585480093676815 0.0022904115956839262
отдельный: 0.000585480093676815 0.00046751036078323865
мечтать: 0.001756440281030445 0.006159059538618235
когдатый: 0.000585480093676815 0.0026962354718899836
учетный: 0.000585480093676815 0.0018845877194778693
заменять: 0.000585480093676815 0.0009422938597389346
программный: 0.000585480093676815 0.0009422938597389346
писать: 0.00117096018735363 0.0010729399670657554
каждый: 0.002927400468384075 0.0010862519947038407
регистрироваться: 0.000585480093676815 0.0017539416121510486
человек: 0.00117096018735363 0.0010158086272889029
посмотреть: 0.000585480093676815 0.0005821149141357534
изнутри: 0.000585480093676815 0.0020530198462060784
далекий: 0.000585480093676815 0.0017539416121510486
мечта: 0.00117096018735363 0.0031138876310688266
предыдущий: 0.000585480093676815 0.0009137281898505084
скрин: 0.000585480093676815 0.0020530198462060784
стараться: 0.000585480093676815 0.0011945086818071163
запускать: 0.000585480093676815 0.0005079043136444514
руководить: 0.000585480093676815 0.0017539416121510486
заезженный: 0.000585480093676815 0.0026962354718899836
фраза: 0.001756440281030445 0.00467083144660324
версия: 0.00234192037470726 0.0019226710821307503
ваш: 0.00117096018735363 0.0009092842968372322
запуститься: 0.000585480093676815 0.0017539416121510486
слишком: 0.000585480093676815 0.0007247507939119539
рид: 0.000585480093676815 0.0026962354718899836
хофман: 0.000585480093676815 0.0026962354718899836
LinkedIn: 0.000585480093676815 0.0026962354718899836
повторять: 0.000585480093676815 0.0012923155229448017
коллега: 0.000585480093676815 0.0011511199393283563
нервничать: 0.000585480093676815 0.0026962354718899836
переживать: 0.000585480093676815 0.0017539416121510486
долго: 0.00117096018735363 0.0024827441875879285
главное: 0.000585480093676815 0.0011107259864671436
центр: 0.000585480093676815 0.0010729399670657554
мало: 0.000585480093676815 0.0006490998972608964
грань: 0.000585480093676815 0.0018845877194778693
выгорание: 0.000585480093676815 0.0022904115956839262
точно: 0.000585480093676815 0.0008355482175879074
также: 0.001756440281030445 0.0005288731137890895
участник: 0.000585480093676815 0.0012923155229448017
админки: 0.000585480093676815 0.0026962354718899836
уходить: 0.000585480093676815 0.0009723250625419501
три: 0.000585480093676815 0.0008864916467387445
выбрасывать: 0.000585480093676815 0.0020530198462060784
свалка: 0.000585480093676815 0.0026962354718899836
предпоследний: 0.000585480093676815 0.0026962354718899836
недавно: 0.000585480093676815 0.0012413720937939643
дергать: 0.000585480093676815 0.0026962354718899836
задирать: 0.000585480093676815 0.0026962354718899836
планка: 0.000585480093676815 0.0022904115956839262
заметно: 0.000585480093676815 0.0016471959700000212
плохо: 0.000585480093676815 0.0009422938597389346
устраивать: 0.000585480093676815 0.0012413720937939643
быстрый: 0.000585480093676815 0.0009137281898505084
ну: 0.00117096018735363 0.0020079606886322324
крайне: 0.000585480093676815 0.0013481177359449918
мера: 0.000585480093676815 0.0012413720937939643
убогий: 0.000585480093676815 0.0026962354718899836
третий: 0.000585480093676815 0.0011107259864671436
взаимодействие: 0.000585480093676815 0.0008355482175879074
пользователь: 0.000585480093676815 0.00042972434138185045
некоторые: 0.001756440281030445 0.00467083144660324
напоминать: 0.000585480093676815 0.0010729399670657554
дьявол: 0.000585480093676815 0.0026962354718899836
крыться: 0.000585480093676815 0.0022904115956839262
деталь: 0.00117096018735363 0.0023022398786567127
ингредиент: 0.000585480093676815 0.0026962354718899836
пропорция: 0.000585480093676815 0.0022904115956839262
рецепт: 0.000585480093676815 0.0022904115956839262
изображение: 0.000585480093676815 0.0012413720937939643
являться: 0.000585480093676815 0.00040582387620605696
скорость: 0.000585480093676815 0.0008604660246246731
прогрев: 0.000585480093676815 0.0018845877194778693
кеш: 0.000585480093676815 0.0015569438155344133
неважно: 0.000585480093676815 0.0017539416121510486
планшет: 0.00117096018735363 0.0037691754389557386
упоминать: 0.000585480093676815 0.0013481177359449918
учет: 0.000585480093676815 0.0010729399670657554
обходиться: 0.000585480093676815 0.0011511199393283563
пк: 0.00117096018735363 0.0029575276865436246
забегать: 0.000585480093676815 0.0022904115956839262
вперед: 0.000585480093676815 0.0014098042205221732
функция: 0.000585480093676815 0.0005665011863358933
мастерадминка: 0.000585480093676815 0.0026962354718899836
доступный: 0.000585480093676815 0.0005665011863358933
или: 0.000585480093676815 0.0010374454578055477
наоборот: 0.000585480093676815 0.0011945086818071163
подсознательно: 0.000585480093676815 0.0022904115956839262
реализовать: 0.000585480093676815 0.0010039803443161162
старый: 0.00117096018735363 0.0016710964351758148
принцип: 0.000585480093676815 0.0007665885948382683
Microsoft: 0.00117096018735363 0.003507883224302097
есть: 0.000585480093676815 0.0026962354718899836
ехать: 0.000585480093676815 0.0016471959700000212
собака: 0.00117096018735363 0.0045808231913678525
оригинал: 0.000585480093676815 0.0017539416121510486
Paul: 0.000585480093676815 0.0022904115956839262
Maritz: 0.000585480093676815 0.0026962354718899836
тестировщик: 0.000585480093676815 0.0020530198462060784
Brian: 0.000585480093676815 0.0026962354718899836
Valentine: 0.000585480093676815 0.0026962354718899836
письмо: 0.000585480093676815 0.0015569438155344133
тема: 0.000585480093676815 0.0006671160908596984
Eating: 0.00117096018735363 0.005392470943779967
our: 0.00117096018735363 0.005392470943779967
own: 0.00117096018735363 0.005392470943779967
Dogfood: 0.00117096018735363 0.005392470943779967
смысл: 0.00117096018735363 0.0014495015878239078
корм: 0.000585480093676815 0.0026962354718899836
честно: 0.000585480093676815 0.0018845877194778693
черта: 0.000585480093676815 0.0017539416121510486
продавец: 0.000585480093676815 0.0020530198462060784
Merсedes: 0.000585480093676815 0.0026962354718899836
Nissan: 0.000585480093676815 0.0026962354718899836
кроме: 0.000585480093676815 0.0005364699835328777
интегрировать: 0.00117096018735363 0.003507883224302097
интернетмагазин: 0.00117096018735363 0.005392470943779967
данный: 0.000585480093676815 0.0003607647186322113
вестись: 0.000585480093676815 0.0017539416121510486
ведущий: 0.000585480093676815 0.0017539416121510486
маркетплейс: 0.000585480093676815 0.0026962354718899836
промежуточный: 0.000585480093676815 0.0015569438155344133
вывод: 0.000585480093676815 0.0007049021102610867
сожаление: 0.00117096018735363 0.002221451972934287
надежда: 0.000585480093676815 0.0016471959700000212
доносить: 0.000585480093676815 0.0017539416121510486
бояться: 0.000585480093676815 0.0013481177359449918
шаг: 0.000585480093676815 0.0005821149141357534
звучать: 0.000585480093676815 0.0016471959700000212
возможно: 0.000585480093676815 0.0006671160908596984
эмоционально: 0.000585480093676815 0.0026962354718899836
розовенький: 0.000585480093676815 0.0026962354718899836
убирать: 0.000585480093676815 0.0012413720937939643
составлять: 0.000585480093676815 0.0006316215815994906
главный: 0.000585480093676815 0.0009422938597389346
заставлять: 0.000585480093676815 0.0012923155229448017
неисключительный: 0.000585480093676815 0.0026962354718899836
целиком: 0.000585480093676815 0.0012923155229448017
автор: 0.000585480093676815 0.0007247507939119539
иногда: 0.000585480093676815 0.0016471959700000212
мир: 0.000585480093676815 0.0008355482175879074
песочница: 0.000585480093676815 0.0020530198462060784
построить: 0.000585480093676815 0.0010039803443161162
граница: 0.000585480093676815 0.0011511199393283563
помешать: 0.000585480093676815 0.0022904115956839262
Worldwide: 0.000585480093676815 0.0026962354718899836
решение: 0.000585480093676815 0.0002990782340550297
текущий: 0.000585480093676815 0.0005981564681100593
препятствие: 0.00117096018735363 0.003507883224302097
существовать: 0.000585480093676815 0.0006316215815994906
почемуто: 0.000585480093676815 0.0022904115956839262
преодолимый: 0.000585480093676815 0.0026962354718899836
далеко: 0.000585480093676815 0.0005512930561232113
продолжение: 0.000585480093676815 0.0018845877194778693
мощный: 0.000585480093676815 0.0012413720937939643
лояльность: 0.000585480093676815 0.0020530198462060784
логистика: 0.000585480093676815 0.0026962354718899836
трагикомедия: 0.000585480093676815 0.0026962354718899836
нейросеть: 0.000585480093676815 0.0016471959700000212
Benzin: 0.000585480093676815 0.0026962354718899836
подписываться: 0.000585480093676815 0.0016471959700000212
рад: 0.000585480093676815 0.0016471959700000212
обсуждение: 0.000585480093676815 0.0013481177359449918
перспектива: 0.000585480093676815 0.0011945086818071163
отсутствие: 0.000585480093676815 0.0010039803443161162
телеграмма: 0.000585480093676815 0.0026962354718899836
канал: 0.000585480093676815 0.0010374454578055477
личный: 0.000585480093676815 0.0009723250625419501
сообщение: 0.000585480093676815 0.0008864916467387445
комментарий: 0.000585480093676815 0.0009137281898505084
