привет: 0.0010775862068965517 0.0016817324873541685
сергей: 0.0010775862068965517 0.002865581936349976
баранов: 0.0010775862068965517 0.004962467872831996
недавний: 0.0010775862068965517 0.0030316925827155563
время: 0.00646551724137931 0.0016898583888000486
Technical: 0.0010775862068965517 0.004962467872831996
Unit: 0.0010775862068965517 0.0042155420317113645
Leader: 0.0010775862068965517 0.004962467872831996
авито: 0.005387931034482759 0.02481233936415998
просто: 0.003232758620689655 0.001817194778513603
говорить: 0.0010775862068965517 0.0007686959998679578
тимлиды: 0.011853448275862068 0.05458714660115195
тимлид: 0.018318965517241378 0.08436195383814392
когда: 0.003232758620689655 0.003127965602139135
ситуация: 0.0021551724137931034 0.0026678326637965886
старт: 0.0010775862068965517 0.002481233936415998
реорганизация: 0.005387931034482759 0.02481233936415998
юнита: 0.01293103448275862 0.05954961447398394
предлагать: 0.0010775862068965517 0.001371730254108715
руководить: 0.003232758620689655 0.009684479332609883
юнит: 0.0021551724137931034 0.008431084063422729
он: 0.003232758620689655 0.0019326627179599798
два: 0.004310344827586207 0.003074783999471831
команда: 0.04525862068965517 0.03715644739971215
в: 0.011853448275862068 0.0004838814005633698
первый: 0.003232758620689655 0.0011071884987503531
повышение: 0.0021551724137931034 0.00408862065708164
человек: 0.005387931034482759 0.004674033231167689
фронтенд: 0.0010775862068965517 0.002594768974840379
бэкенд: 0.0010775862068965517 0.002378529001282027
мобильный: 0.003232758620689655 0.00659554147152981
разработчик: 0.005387931034482759 0.004803869177175558
QA: 0.0010775862068965517 0.003228159777536628
итог: 0.004310344827586207 0.005643678103378285
ребята: 0.0021551724137931034 0.005731163872699952
оставаться: 0.005387931034482759 0.004547252533914488
заниматься: 0.003232758620689655 0.004115190762326145
подготовка: 0.0010775862068965517 0.00219851382384327
преемник: 0.0010775862068965517 0.0042155420317113645
доверять: 0.0010775862068965517 0.003228159777536628
большой: 0.003232758620689655 0.0021767604092578626
новичок: 0.0010775862068965517 0.0030316925827155563
второй: 0.0021551724137931034 0.0020293287496949246
другой: 0.003232758620689655 0.0011530439998019366
сервис: 0.003232758620689655 0.003302751877797353
состоять: 0.0010775862068965517 0.001371730254108715
шесть: 0.0010775862068965517 0.003228159777536628
кроме: 0.0010775862068965517 0.0009873822541747361
впереди: 0.0010775862068965517 0.003778618423836187
процесс: 0.004310344827586207 0.0028186485664080346
меняться: 0.0010775862068965517 0.0018478431337197484
зона: 0.003232758620689655 0.007135587003846081
ответственность: 0.003232758620689655 0.0068543002247847765
маленький: 0.004310344827586207 0.007158324167334702
мой: 0.005387931034482759 0.005356962679654456
забирать: 0.0010775862068965517 0.003468616190590733
который: 0.011853448275862068 0.00023947174622059714
работать: 0.00646551724137931 0.0019468001688615622
добавлять: 0.0010775862068965517 0.0006248044129880842
незнакомый: 0.0021551724137931034 0.008431084063422729
восемь: 0.0010775862068965517 0.0030316925827155563
к: 0.0010775862068965517 0.001262050626619553
счастие: 0.0010775862068965517 0.002594768974840379
под: 0.0010775862068965517 0.002378529001282027
руководство: 0.004310344827586207 0.007637745008327049
оказываться: 0.004310344827586207 0.0039495290166989445
свой: 0.00646551724137931 0.0015240668115586418
руководитель: 0.009698275862068966 0.02056290067435433
поставлять: 0.0010775862068965517 0.0016817324873541685
четыре: 0.00646551724137931 0.012265861971244922
задача: 0.009698275862068966 0.0046361230694903
должный: 0.0021551724137931034 0.0014511736061719085
решать: 0.003232758620689655 0.0018744132389642526
не: 0.0021551724137931034 0.002142785071861782
развалить: 0.0010775862068965517 0.004962467872831996
принимать: 0.004310344827586207 0.004285570143723564
новый: 0.010775862068965518 0.004315491019365575
проводить: 0.0021551724137931034 0.0028218390516891426
сформулировать: 0.0021551724137931034 0.006456319555073256
долгосрочный: 0.0010775862068965517 0.002721690349470103
цель: 0.005387931034482759 0.005073321874237312
я: 0.009698275862068966 0.00913197937362716
нужно: 0.011853448275862068 0.004059691162084628
сделать: 0.003232758620689655 0.0013926171856437101
находить: 0.004310344827586207 0.0028186485664080346
составлять: 0.0021551724137931034 0.002325020821922263
сетап: 0.0010775862068965517 0.0042155420317113645
опыт: 0.004310344827586207 0.005189537949680759
легко: 0.0010775862068965517 0.001071392535930891
онбордиться: 0.0010775862068965517 0.004962467872831996
еще: 0.007543103448275862 0.00585743698975536
хотеться: 0.0010775862068965517 0.0017343080952953666
оставлять: 0.0010775862068965517 0.0017895810418336756
место: 0.0010775862068965517 0.0008846773190407654
дальнейший: 0.0010775862068965517 0.0014938516822412613
масштабирование: 0.0010775862068965517 0.003778618423836187
вспомнить: 0.0010775862068965517 0.002865581936349976
понимать: 0.00646551724137931 0.0046121759992077465
начинать: 0.005387931034482759 0.002842848825874849
стоить: 0.0010775862068965517 0.002865581936349976
управлять: 0.0021551724137931034 0.0039495290166989445
мало: 0.0021551724137931034 0.0023893591045724377
проект: 0.007543103448275862 0.005536405415475651
развиваться: 0.0021551724137931034 0.00408862065708164
погружаться: 0.0010775862068965517 0.003468616190590733
происходить: 0.0021551724137931034 0.001921547670870223
один: 0.004310344827586207 0.0011829174383696567
идея: 0.004310344827586207 0.005806351930890558
выделять: 0.0010775862068965517 0.0014515879827226394
отдельный: 0.003232758620689655 0.0025813826386350373
запрос: 0.0010775862068965517 0.001071392535930891
это: 0.007543103448275862 0.000386910625768161
внутри: 0.003232758620689655 0.004232758577533714
ложиться: 0.0010775862068965517 0.003778618423836187
план: 0.003232758620689655 0.005368743125501027
согласовывать: 0.0010775862068965517 0.003778618423836187
продуктовый: 0.0021551724137931034 0.0060633851654311125
направление: 0.0021551724137931034 0.003468616190590733
непросто: 0.0010775862068965517 0.003778618423836187
приходиться: 0.0021551724137931034 0.0018696132924670755
искать: 0.004310344827586207 0.005643678103378285
аргумент: 0.0010775862068965517 0.002865581936349976
отрабатывать: 0.0010775862068965517 0.003778618423836187
возражение: 0.0010775862068965517 0.0042155420317113645
но: 0.00646551724137931 0.0026865222669935286
удаваться: 0.0010775862068965517 0.0017343080952953666
убеждать: 0.0010775862068965517 0.002865581936349976
вариант: 0.0021551724137931034 0.0023893591045724377
пойти: 0.0010775862068965517 0.001631603160161396
польза: 0.0010775862068965517 0.002481233936415998
у: 0.0021551724137931034 0.002142785071861782
получаться: 0.004310344827586207 0.004525095364218438
структура: 0.004310344827586207 0.0061513636018971805
равномерно: 0.0010775862068965517 0.003778618423836187
распределенный: 0.0010775862068965517 0.003468616190590733
количество: 0.004310344827586207 0.003074783999471831
правило: 0.0010775862068965517 0.001371730254108715
инженер: 0.00646551724137931 0.014271174007692162
гласить: 0.0010775862068965517 0.0042155420317113645
крутить: 0.0010775862068965517 0.0042155420317113645
ручка: 0.0010775862068965517 0.004962467872831996
одновременно: 0.0021551724137931034 0.004757058002564054
именно: 0.0010775862068965517 0.0008136019227133974
изменяться: 0.0010775862068965517 0.002378529001282027
привычный: 0.0010775862068965517 0.002721690349470103
роль: 0.0021551724137931034 0.003695686267439497
анализировать: 0.0010775862068965517 0.00204431032854082
менять: 0.0010775862068965517 0.0021186560952293457
столько: 0.0010775862068965517 0.0030316925827155563
сразу: 0.0010775862068965517 0.0011009172925991178
хороший: 0.0010775862068965517 0.0010146643748474623
решение: 0.00646551724137931 0.003302751877797354
когнитивный: 0.0010775862068965517 0.0042155420317113645
нагрузка: 0.0021551724137931034 0.0039495290166989445
огромный: 0.0010775862068965517 0.0014938516822412613
готовый: 0.0021551724137931034 0.00208531040142609
подругой: 0.0010775862068965517 0.004962467872831996
создавать: 0.0010775862068965517 0.0004809128261082107
проделывать: 0.0010775862068965517 0.003228159777536628
незаметный: 0.0010775862068965517 0.004962467872831996
сторона: 0.0021551724137931034 0.0018696132924670755
работа: 0.004310344827586207 0.0012978667792410414
как: 0.0021551724137931034 0.0008311691396810016
учиться: 0.0010775862068965517 0.002481233936415998
фактически: 0.0010775862068965517 0.002481233936415998
запускать: 0.0010775862068965517 0.0009348066462335378
каждый: 0.004310344827586207 0.0015994124197880688
назначать: 0.0010775862068965517 0.002721690349470103
определять: 0.0021551724137931034 0.001921547670870223
отлаживать: 0.0010775862068965517 0.004962467872831996
и: 0.0021551724137931034 0.001100917292599118
самый: 0.003232758620689655 0.0012946473058096724
важный: 0.0021551724137931034 0.0018189010135657951
нужный: 0.003232758620689655 0.0022407775233618922
амбициозный: 0.0010775862068965517 0.0042155420317113645
смекалистый: 0.0010775862068965517 0.004962467872831996
временно: 0.0010775862068965517 0.003468616190590733
так: 0.0010775862068965517 0.0006442209059866599
становиться: 0.004310344827586207 0.002736544277741248
дважды: 0.0010775862068965517 0.003778618423836187
сутки: 0.0010775862068965517 0.003468616190590733
все: 0.004310344827586207 0.0026559747388957625
час: 0.0021551724137931034 0.00316740510788565
что: 0.003232758620689655 0.001651375938898677
делать: 0.0021551724137931034 0.001100917292599118
качество: 0.004310344827586207 0.0036378020271315903
понятно: 0.0021551724137931034 0.004237312190458691
отвечать: 0.003232758620689655 0.0035840386568586568
производительность: 0.0010775862068965517 0.00204431032854082
ментальный: 0.0010775862068965517 0.003778618423836187
состояние: 0.0010775862068965517 0.0015378409004742951
развитие: 0.004310344827586207 0.006937232381181466
технический: 0.0021551724137931034 0.0029877033644825227
показатель: 0.0010775862068965517 0.002481233936415998
если: 0.004310344827586207 0.0009618256522164214
возникать: 0.0021551724137931034 0.0022018345851982355
проблема: 0.0021551724137931034 0.0014093242832040173
появляться: 0.0021551724137931034 0.0018189010135657951
баг: 0.003232758620689655 0.012646626095134093
приходить: 0.0010775862068965517 0.0011312738410546096
вопрос: 0.0010775862068965517 0.0006639936847239406
пообщаться: 0.0021551724137931034 0.007557236847672374
они: 0.005387931034482759 0.004547252533914488
с: 0.005387931034482759 0.003954575296768322
сложно: 0.0021551724137931034 0.0030756818009485903
мочь: 0.0021551724137931034 0.000454140153697527
напрямую: 0.0010775862068965517 0.00219851382384327
обращаться: 0.0010775862068965517 0.001583702553942825
влезать: 0.0010775862068965517 0.004962467872831996
мешать: 0.0010775862068965517 0.003228159777536628
подрывать: 0.0010775862068965517 0.0042155420317113645
авторитет: 0.0010775862068965517 0.004962467872831996
завязывать: 0.0010775862068965517 0.004962467872831996
требовать: 0.0021551724137931034 0.0019747645083494723
хватать: 0.0010775862068965517 0.00219851382384327
какой: 0.0021551724137931034 0.0016272038454267948
метрика: 0.01293103448275862 0.03113722769808455
использовать: 0.003232758620689655 0.0008449291944000243
быстрый: 0.0010775862068965517 0.0016817324873541685
оценка: 0.004310344827586207 0.007899058033397889
чтобы: 0.0021551724137931034 0.0019747645083494723
вникать: 0.0010775862068965517 0.004962467872831996
нюанс: 0.0010775862068965517 0.002481233936415998
глубокий: 0.0010775862068965517 0.002594768974840379
вовлечение: 0.0010775862068965517 0.004962467872831996
помогать: 0.004310344827586207 0.00417062080285218
для: 0.0021551724137931034 0.0007686959998679578
регулярный: 0.003232758620689655 0.00909507774814667
выбирать: 0.0010775862068965517 0.0010146643748474623
тип: 0.0010775862068965517 0.0011625104109611315
бизнесовой: 0.0021551724137931034 0.009924935745663992
процессный: 0.003232758620689655 0.012646626095134093
дашборда: 0.0010775862068965517 0.004962467872831996
посмотреть: 0.0010775862068965517 0.001071392535930891
данные: 0.0010775862068965517 0.0007469258411206307
например: 0.0021551724137931034 0.0010652937970146124
активный: 0.0010775862068965517 0.002284766741594926
юзер: 0.0010775862068965517 0.003228159777536628
средний: 0.0010775862068965517 0.0018478431337197484
чек: 0.0010775862068965517 0.003468616190590733
конверсия: 0.0010775862068965517 0.0042155420317113645
попадание: 0.0010775862068965517 0.003468616190590733
воронка: 0.0010775862068965517 0.004962467872831996
помощь: 0.0010775862068965517 0.0004477537111655881
отслеживать: 0.0021551724137931034 0.005189537949680758
достигать: 0.0010775862068965517 0.001631603160161396
спринт: 0.00646551724137931 0.0208116971435444
Scope: 0.0021551724137931034 0.008431084063422729
Drop: 0.0021551724137931034 0.009924935745663992
показывать: 0.003232758620689655 0.0025813826386350373
сколько: 0.0021551724137931034 0.003468616190590733
запланировать: 0.0021551724137931034 0.007557236847672374
этот: 0.0021551724137931034 0.0007686959998679578
стабильно: 0.0021551724137931034 0.008431084063422729
высокий: 0.0021551724137931034 0.0025947689748403793
значит: 0.0010775862068965517 0.00204431032854082
уделять: 0.0010775862068965517 0.0030316925827155563
внимание: 0.0010775862068965517 0.0011625104109611315
планирование: 0.003232758620689655 0.007784306924521137
возможно: 0.0010775862068965517 0.0012278386672288414
брать: 0.0010775862068965517 0.0017343080952953666
выполнять: 0.0021551724137931034 0.0015818301187073287
равный: 0.0010775862068965517 0.002284766741594926
признак: 0.0010775862068965517 0.002865581936349976
наоборот: 0.0010775862068965517 0.00219851382384327
планировать: 0.0021551724137931034 0.003579162083667351
слишком: 0.0010775862068965517 0.0013339163318982943
тогда: 0.0010775862068965517 0.0019747645083494723
разбираться: 0.0021551724137931034 0.003363464974708337
причина: 0.0021551724137931034 0.00316740510788565
ктото: 0.0010775862068965517 0.002865581936349976
выгорать: 0.0010775862068965517 0.0042155420317113645
хотеть: 0.0010775862068965517 0.000684136069435312
прогрумленность: 0.0010775862068965517 0.004962467872831996
бэклога: 0.0010775862068965517 0.004962467872831996
она: 0.0010775862068965517 0.0008846773190407654
общий: 0.0010775862068965517 0.001042655200713045
список: 0.0010775862068965517 0.0011625104109611315
иметь: 0.0010775862068965517 0.000550458646299559
Story: 0.0010775862068965517 0.004962467872831996
Point: 0.0010775862068965517 0.0042155420317113645
следующий: 0.0010775862068965517 0.00046420572854790335
взять: 0.0010775862068965517 0.0014109195258445713
замена: 0.0010775862068965517 0.002594768974840379
текущий: 0.0021551724137931034 0.0022018345851982355
дропнуться: 0.0010775862068965517 0.004962467872831996
очередь: 0.0010775862068965517 0.0014515879827226394
приоритет: 0.0021551724137931034 0.006456319555073256
ошибка: 0.0010775862068965517 0.0008136019227133974
нормальный: 0.0010775862068965517 0.002865581936349976
часть: 0.0021551724137931034 0.0018189010135657951
жизнь: 0.0010775862068965517 0.0016817324873541685
регулярно: 0.0021551724137931034 0.005443380698940206
баги: 0.0010775862068965517 0.004962467872831996
попытаться: 0.0010775862068965517 0.0021186560952293457
смотреть: 0.0010775862068965517 0.001371730254108715
SLA: 0.0010775862068965517 0.004962467872831996
объем: 0.0010775862068965517 0.0014938516822412613
долг: 0.0010775862068965517 0.003778618423836187
оценивать: 0.0010775862068965517 0.00219851382384327
прогресс: 0.0021551724137931034 0.006456319555073256
начало: 0.0010775862068965517 0.0013339163318982943
контроль: 0.0021551724137931034 0.003468616190590733
передавать: 0.0010775862068965517 0.0012973844874201897
сам: 0.0021551724137931034 0.0017693546380815309
освобождаться: 0.0010775862068965517 0.004962467872831996
общаться: 0.0010775862068965517 0.0019094362520817622
курс: 0.0010775862068965517 0.0019094362520817622
дело: 0.0010775862068965517 0.0009873822541747361
стандартный: 0.0010775862068965517 0.0018478431337197484
подход: 0.0010775862068965517 0.0010146643748474623
скопировать: 0.0010775862068965517 0.003228159777536628
прошлое: 0.0010775862068965517 0.003778618423836187
встреча: 0.0021551724137931034 0.004569533483189852
1to1: 0.0021551724137931034 0.008431084063422729
член: 0.0010775862068965517 0.003778618423836187
познакомиться: 0.0010775862068965517 0.002481233936415998
повестка: 0.0021551724137931034 0.007557236847672374
обсуждение: 0.0021551724137931034 0.004962467872831996
набираться: 0.0010775862068965517 0.003228159777536628
разговор: 0.0010775862068965517 0.00219851382384327
быстро: 0.0010775862068965517 0.0009094505067828976
перерасти: 0.0010775862068965517 0.004962467872831996
пустой: 0.0010775862068965517 0.003228159777536628
трата: 0.0010775862068965517 0.003468616190590733
частично: 0.0010775862068965517 0.002865581936349976
отказываться: 0.0010775862068965517 0.0019747645083494723
вырастать: 0.0010775862068965517 0.0030316925827155563
минута: 0.0010775862068965517 0.0014938516822412613
включать: 0.0010775862068965517 0.0014515879827226394
блок: 0.0010775862068965517 0.0017895810418336756
операционный: 0.0010775862068965517 0.002481233936415998
ревивать: 0.0010775862068965517 0.002865581936349976
обсуждать: 0.003232758620689655 0.007784306924521137
достижение: 0.0010775862068965517 0.002865581936349976
ключевой: 0.0010775862068965517 0.001631603160161396
результат: 0.003232758620689655 0.0019326627179599798
OKR: 0.0010775862068965517 0.004962467872831996
также: 0.0021551724137931034 0.0006489333896205207
разбирать: 0.0021551724137931034 0.0039495290166989445
инцидент: 0.0021551724137931034 0.008431084063422729
продакшень: 0.0010775862068965517 0.0042155420317113645
повлиять: 0.0010775862068965517 0.003228159777536628
работоспособность: 0.0010775862068965517 0.003778618423836187
давно: 0.0010775862068965517 0.002594768974840379
практиковать: 0.0010775862068965517 0.004962467872831996
число: 0.0010775862068965517 0.0012278386672288414
локальный: 0.0010775862068965517 0.0018478431337197484
уровень: 0.0010775862068965517 0.0009348066462335378
отличаться: 0.0010775862068965517 0.0016817324873541685
точка: 0.0010775862068965517 0.0011946795522862189
зрение: 0.0010775862068965517 0.0019094362520817622
должность: 0.003232758620689655 0.00909507774814667
быть: 0.0021551724137931034 0.0007079829029569742
обычно: 0.0010775862068965517 0.0012278386672288414
максимум: 0.0010775862068965517 0.003228159777536628
квартал: 0.0010775862068965517 0.0030316925827155563
вперед: 0.0010775862068965517 0.002594768974840379
очень: 0.0010775862068965517 0.0006057315928378676
редко: 0.0010775862068965517 0.002865581936349976
занимать: 0.0010775862068965517 0.0018478431337197484
полгода: 0.0010775862068965517 0.002865581936349976
год: 0.0010775862068965517 0.0006248044129880842
целеполагание: 0.0010775862068965517 0.004962467872831996
условие: 0.0010775862068965517 0.0012973844874201897
вероятность: 0.0010775862068965517 0.0019747645083494723
исход: 0.0010775862068965517 0.004962467872831996
любой: 0.0010775862068965517 0.0006057315928378676
уменьшать: 0.0010775862068965517 0.002594768974840379
неопределенность: 0.0010775862068965517 0.003778618423836187
владелец: 0.0010775862068965517 0.002721690349470103
продукт: 0.004310344827586207 0.0063348102157713
будущее: 0.0010775862068965517 0.0017343080952953666
мы: 0.0021551724137931034 0.000863098203873115
мысль: 0.0010775862068965517 0.0015378409004742951
гипотетически: 0.0010775862068965517 0.0042155420317113645
ждать: 0.0010775862068965517 0.0018478431337197484
просить: 0.0010775862068965517 0.002378529001282027
обратный: 0.0010775862068965517 0.0018478431337197484
связь: 0.0010775862068965517 0.001262050626619553
разработка: 0.0010775862068965517 0.0010146643748474623
информация: 0.0010775862068965517 0.0009607738354351116
идти: 0.0010775862068965517 0.0013339163318982943
добиваться: 0.0010775862068965517 0.002284766741594926
приводить: 0.0010775862068965517 0.0010146643748474623
вид: 0.0010775862068965517 0.0007255868030859543
перестраивать: 0.0010775862068965517 0.0042155420317113645
архитектура: 0.0010775862068965517 0.001371730254108715
выдерживать: 0.0010775862068965517 0.003468616190590733
тонуть: 0.0010775862068965517 0.004962467872831996
legacyкоде: 0.0010775862068965517 0.004962467872831996
благодаря: 0.0010775862068965517 0.0012973844874201897
то: 0.0010775862068965517 0.0011946795522862189
взгляд: 0.0010775862068965517 0.0018478431337197484
разный: 0.0021551724137931034 0.0014511736061719085
отражать: 0.0010775862068965517 0.003778618423836187
блокер: 0.0010775862068965517 0.004962467872831996
устранять: 0.0010775862068965517 0.002865581936349976
прописывать: 0.0010775862068965517 0.002865581936349976
шаг: 0.0010775862068965517 0.001071392535930891
реализация: 0.0010775862068965517 0.0012278386672288414
сложный: 0.0010775862068965517 0.0009094505067828976
путь: 0.0010775862068965517 0.0011946795522862189
тяжело: 0.0010775862068965517 0.0030316925827155563
отпускать: 0.0010775862068965517 0.004962467872831996
привыкать: 0.0010775862068965517 0.003228159777536628
тесный: 0.0010775862068965517 0.004962467872831996
контакт: 0.0010775862068965517 0.002378529001282027
делегировать: 0.0010775862068965517 0.003468616190590733
обязанность: 0.0010775862068965517 0.003228159777536628
необходимо: 0.0010775862068965517 0.0012278386672288414
успевать: 0.0010775862068965517 0.002284766741594926
развивать: 0.0010775862068965517 0.0021186560952293457
непривычный: 0.0010775862068965517 0.004962467872831996
лично: 0.0010775862068965517 0.002594768974840379
участвовать: 0.0010775862068965517 0.003468616190590733
писать: 0.0010775862068965517 0.0009873822541747361
код: 0.0010775862068965517 0.0005869904907776638
намного: 0.0010775862068965517 0.002284766741594926
уверенный: 0.0010775862068965517 0.0019747645083494723
риск: 0.0010775862068965517 0.0021186560952293457
поддержка: 0.0021551724137931034 0.002903175965445279
совет: 0.0010775862068965517 0.002481233936415998
советовать: 0.0010775862068965517 0.003468616190590733
ментор: 0.0010775862068965517 0.003778618423836187
вы: 0.0010775862068965517 0.0011625104109611315
валидировать: 0.0010775862068965517 0.003468616190590733
а: 0.0010775862068965517 0.0004809128261082107
применять: 0.0010775862068965517 0.0015378409004742951
ваш: 0.0010775862068965517 0.0008367767128221943
выбор: 0.0010775862068965517 0.001371730254108715
скилла: 0.0010775862068965517 0.003228159777536628
прокачивать: 0.0010775862068965517 0.002865581936349976
бояться: 0.0010775862068965517 0.002481233936415998
среди: 0.0010775862068965517 0.00219851382384327
коллега: 0.0010775862068965517 0.0021186560952293457
вместе: 0.0010775862068965517 0.0012973844874201897
заинтересовывать: 0.0010775862068965517 0.0030316925827155563
предыдущий: 0.0010775862068965517 0.0016817324873541685
статья: 0.0010775862068965517 0.00046420572854790335
PostgreSQL: 0.0010775862068965517 0.003778618423836187
Go: 0.0010775862068965517 0.003468616190590733
