начинать: 0.0036363636363636364 0.0019186645166631704
23й: 0.0036363636363636364 0.016746073403593062
версия: 0.007272727272727273 0.005970767651416948
платформа: 0.025454545454545455 0.03632659814356735
nanoCAD: 0.025454545454545455 0.11722251382515143
пользователь: 0.0036363636363636364 0.0026689788184734563
доступный: 0.007272727272727273 0.007036974736448769
команда: 0.02909090909090909 0.023883070605667793
PY: 0.025454545454545455 0.11722251382515143
который: 0.007272727272727273 0.0001469287804910507
позволять: 0.0036363636363636364 0.0015664833312452886
выполнять: 0.01818181818181818 0.013344894092367282
скрипт: 0.04727272727272727 0.09294351684671573
язык: 0.0036363636363636364 0.003922944223170655
Python: 0.05818181818181818 0.1339685872287445
🔹: 0.007272727272727273 0.033492146807186124
вызывать: 0.0036363636363636364 0.004628966093865046
диалоговый: 0.0036363636363636364 0.012751119626618115
окно: 0.0036363636363636364 0.009670036497937374
следовать: 0.007272727272727273 0.010688552509519576
указывать: 0.0036363636363636364 0.004628966093865046
заранее: 0.0036363636363636364 0.007418984831005653
подготовить: 0.0036363636363636364 0.006663932595448401
выбирать: 0.0036363636363636364 0.0034240310540307093
запрашивать: 0.0036363636363636364 0.008026454229780804
путь: 0.007272727272727273 0.008063000905611717
вид: 0.007272727272727273 0.004897051296463749
строка: 0.0036363636363636364 0.004761212072668226
указанный: 0.0036363636363636364 0.009670036497937374
подготовка: 0.0036363636363636364 0.007418984831005653
среда: 0.0036363636363636364 0.006039022570260549
для: 0.007272727272727273 0.0025939995922816903
выполнение: 0.01090909090909091 0.012776541616395765
требоваться: 0.0036363636363636364 0.005344276254759788
расширение: 0.01818181818181818 0.03449309063428875
PythonAXScript2: 0.01090909090909091 0.050238220210779186
Active: 0.01090909090909091 0.04267661460467068
Scripting: 0.01090909090909091 0.050238220210779186
чтобы: 0.0036363636363636364 0.0033319662977242003
использовать: 0.01090909090909091 0.002851251972375355
работа: 0.0036363636363636364 0.0010949276101233512
нужно: 0.0036363636363636364 0.0012454193052610033
располагать: 0.0036363636363636364 0.00875616584964317
право: 0.0036363636363636364 0.00644347942520682
администратор: 0.0036363636363636364 0.01023058442458195
следующий: 0.0036363636363636364 0.0015664833312452886
шаг: 0.007272727272727273 0.007230925624319032
устанавливать: 0.007272727272727273 0.008063000905611717
установка: 0.014545454545454545 0.02202367611097855
внешний: 0.0036363636363636364 0.005505919027744638
источник: 0.0036363636363636364 0.00567508272096243
wwwpythonorgdownloadswindows: 0.0036363636363636364 0.016746073403593062
статья: 0.0036363636363636364 0.0015664833312452886
рассматриваться: 0.0036363636363636364 0.014225538201556894
примечание: 0.01090909090909091 0.029010109493812126
на: 0.0036363636363636364 0.0013493224777848434
первый: 0.0036363636363636364 0.0012454193052610033
включение: 0.0036363636363636364 0.00875616584964317
переменный: 0.007272727272727273 0.01605290845956161
PATH: 0.01090909090909091 0.050238220210779186
включать: 0.0036363636363636364 0.0048984496289694885
Add: 0.0036363636363636364 0.014225538201556894
to: 0.007272727272727273 0.01429900259180242
рис: 0.04363636363636364 0.1530134355194174
при: 0.007272727272727273 0.005041070404072329
Win32: 0.0036363636363636364 0.016746073403593062
extentions: 0.0036363636363636364 0.016746073403593062
поддержка: 0.007272727272727273 0.009796899257938977
win32comaxscript: 0.0036363636363636364 0.016746073403593062
зарегистрировать: 0.0036363636363636364 0.01023058442458195
автоматически: 0.0036363636363636364 0.006235630647607006
если: 0.007272727272727273 0.0016228621913760711
добавлять: 0.0036363636363636364 0.0021084308918288804
достаточно: 0.0036363636363636364 0.0025205352020361647
воспользоваться: 0.007272727272727273 0.01170500299952073
консоль: 0.0036363636363636364 0.012751119626618115
python: 0.007272727272727273 0.019340072995874747
m: 0.0036363636363636364 0.01170500299952073
pip: 0.007272727272727273 0.02341000599904146
install: 0.01090909090909091 0.029010109493812126
upgrade: 0.007272727272727273 0.033492146807186124
pywin32: 0.007272727272727273 0.033492146807186124
в: 0.0036363636363636364 0.00014844361643729165
случай: 0.0036363636363636364 0.001456282060353183
возникновение: 0.0036363636363636364 0.010893571903832694
ошибка: 0.0036363636363636364 0.0027455366701019377
например: 0.0036363636363636364 0.0017974411702355642
модуль: 0.0036363636363636364 0.006235630647607006
находить: 0.0036363636363636364 0.002377914426933324
ручной: 0.0036363636363636364 0.012751119626618115
регистрация: 0.0036363636363636364 0.006663932595448401
Scriptspywin32postinstallpy: 0.0036363636363636364 0.016746073403593062
загрузка: 0.0036363636363636364 0.006039022570260549
выполняться: 0.0036363636363636364 0.00567508272096243
проверка: 0.007272727272727273 0.010082140808144659
присутствовать: 0.0036363636363636364 0.010893571903832694
операционный: 0.0036363636363636364 0.008373036701796531
система: 0.0036363636363636364 0.001857547722785421
проходить: 0.0036363636363636364 0.004258847205465255
попытка: 0.0036363636363636364 0.008026454229780804
уведомлять: 0.0036363636363636364 0.012751119626618115
недостающий: 0.0036363636363636364 0.012751119626618115
сообщение: 0.0036363636363636364 0.005505919027744638
Unable: 0.0036363636363636364 0.016746073403593062
create: 0.0036363636363636364 0.007710049222545786
scripting: 0.0036363636363636364 0.014225538201556894
engine: 0.0036363636363636364 0.014225538201556894
for: 0.007272727272727273 0.01135016544192486
требовать: 0.0036363636363636364 0.0033319662977242003
параметр: 0.0036363636363636364 0.003922944223170655
запуск: 0.007272727272727273 0.009796899257938977
Windows: 0.0036363636363636364 0.009184467797484566
Pywin32: 0.0036363636363636364 0.016746073403593062
Release: 0.0036363636363636364 0.014225538201556894
запускать: 0.0036363636363636364 0.003154547518926266
убеждаться: 0.0036363636363636364 0.009670036497937374
находиться: 0.0036363636363636364 0.0034240310540307093
список: 0.0036363636363636364 0.003922944223170655
листинг: 0.0036363636363636364 0.012751119626618115
MyPythonScriptpy: 0.007272727272727273 0.033492146807186124
doc: 0.0036363636363636364 0.014225538201556894
ThisDrawing: 0.0036363636363636364 0.016746073403593062
ut: 0.0036363636363636364 0.016746073403593062
docUtility: 0.0036363636363636364 0.016746073403593062
utPromptПривет: 0.0036363636363636364 0.016746073403593062
результат: 0.007272727272727273 0.004347905460040876
представлять: 0.0036363636363636364 0.003068982073798287
пример: 0.0036363636363636364 0.0025205352020361647
использование: 0.0036363636363636364 0.0025939995922816903
показывать: 0.0036363636363636364 0.0029036643498828057
также: 0.0036363636363636364 0.0010949276101233512
редактор: 0.007272727272727273 0.016746073403593062
сервис: 0.0036363636363636364 0.003715095445570841
→: 0.007272727272727273 0.018368935594969132
перед: 0.0036363636363636364 0.009184467797484566
должный: 0.0036363636363636364 0.0024485256482318744
сохранять: 0.0036363636363636364 0.005344276254759788
компьютер: 0.0036363636363636364 0.00567508272096243
сергей: 0.0036363636363636364 0.009670036497937374
евсеев: 0.0036363636363636364 0.016746073403593062
специалист: 0.0036363636363636364 0.00567508272096243
группа: 0.0036363636363636364 0.005041070404072329
API: 0.0036363636363636364 0.005189514020509621
ооо: 0.0036363636363636364 0.014225538201556894
нанософт: 0.0036363636363636364 0.016746073403593062
разработка: 0.0036363636363636364 0.0034240310540307093
