В: 0.006659267480577136 0.0002718445806010335
году: 0.004439511653718091 0.006524643596266112
рынке: 0.0022197558268590455 0.004899611350032677
ПК: 0.005549389567147614 0.01401625218817012
безраздельно: 0.0011098779134295228 0.005111176677012311
властвовала: 0.0011098779134295228 0.005111176677012311
«: 0.011098779134295227 0.0034929050481653737
большая: 0.0011098779134295228 0.002033941691174595
тройка: 0.0011098779134295228 0.005111176677012311
»: 0.01220865704772475 0.003842195552981911
Apple: 0.003329633740288568 0.009367627247813662
II: 0.0011098779134295228 0.004341867930552881
Commodore: 0.005549389567147614 0.025555883385061554
PET: 0.0011098779134295228 0.005111176677012311
TRS80: 0.0011098779134295228 0.005111176677012311
Стоимости: 0.0011098779134295228 0.005111176677012311
соответственно: 0.0011098779134295228 0.0023532336694784585
И: 0.005549389567147614 0.002834770387158661
общедоступными: 0.0011098779134295228 0.004341867930552881
времени: 0.003329633740288568 0.0022419907433865664
вовсе: 0.0011098779134295228 0.002803250437634024
являлись: 0.0011098779134295228 0.004341867930552881
появились: 0.0022197558268590455 0.004706467338956917
Texas: 0.0011098779134295228 0.005111176677012311
Instruments: 0.0011098779134295228 0.005111176677012311
TI994: 0.0011098779134295228 0.005111176677012311
Atari: 0.0011098779134295228 0.005111176677012311
около: 0.0022197558268590455 0.003360993857113819
долларов: 0.0011098779134295228 0.003324897084965584
Эти: 0.0011098779134295228 0.0015386174929188576
модели: 0.003329633740288568 0.005041490785670728
дешевле: 0.004439511653718091 0.01249016966375155
кроме: 0.0011098779134295228 0.0019032169013228932
предлагали: 0.0011098779134295228 0.005111176677012311
неплохую: 0.0011098779134295228 0.005111176677012311
графику: 0.0011098779134295228 0.004341867930552881
звук: 0.0011098779134295228 0.0031225424159378873
Не: 0.0022197558268590455 0.002090141042971021
просто: 0.0022197558268590455 0.0013677827734157979
ЭВМ: 0.0011098779134295228 0.003891851162397316
давало: 0.0011098779134295228 0.003891851162397316
возможность: 0.0011098779134295228 0.0008618521526070991
поиграть: 0.0011098779134295228 0.005111176677012311
Но: 0.005549389567147614 0.002222406029950751
вышла: 0.0011098779134295228 0.0031225424159378873
странная: 0.0011098779134295228 0.003891851162397316
поделка: 0.0011098779134295228 0.005111176677012311
Science: 0.0022197558268590455 0.007145118368186905
of: 0.0022197558268590455 0.0042111431407011795
Cambridge: 0.0022197558268590455 0.010222353354024622
Великобритании: 0.0022197558268590455 0.008683735861105763
появление: 0.0011098779134295228 0.0031225424159378873
которой: 0.0011098779134295228 0.0009628197199830445
привело: 0.0011098779134295228 0.003324897084965584
значительному: 0.0011098779134295228 0.004341867930552881
снижению: 0.0011098779134295228 0.005111176677012311
цен: 0.0011098779134295228 0.004341867930552881
домашние: 0.0011098779134295228 0.005111176677012311
Это: 0.003329633740288568 0.0011403672883910406
Sinclair: 0.005549389567147614 0.025555883385061554
ZX80: 0.014428412874583796 0.06644529680116004
Его: 0.0011098779134295228 0.0021055715703505898
разработка: 0.0011098779134295228 0.0023532336694784585
преследовала: 0.0011098779134295228 0.005111176677012311
одну: 0.0011098779134295228 0.001631160899066528
цель: 0.0011098779134295228 0.0021821452345980384
сделать: 0.0022197558268590455 0.0013677827734157979
Реклама: 0.0011098779134295228 0.005111176677012311
Ради: 0.0011098779134295228 0.004341867930552881
справедливости: 0.0011098779134295228 0.004341867930552881
отмечу: 0.0011098779134295228 0.004341867930552881
первым: 0.0011098779134295228 0.0023532336694784585
всетаки: 0.0011098779134295228 0.0035725591840934526
Mk14: 0.0011098779134295228 0.005111176677012311
той: 0.0011098779134295228 0.0019666557624105165
Ltd: 0.0011098779134295228 0.005111176677012311
фунтов: 0.003329633740288568 0.015333530031036931
назвать: 0.0011098779134295228 0.0025555883385061555
компьютером: 0.0011098779134295228 0.003324897084965584
язык: 0.0011098779134295228 0.0019666557624105165
поворачивается: 0.0011098779134295228 0.005111176677012311
байт: 0.003329633740288568 0.010717677552280357
ОЗУ: 0.0022197558268590455 0.007783702324794632
блока: 0.0011098779134295228 0.002803250437634024
питания: 0.003329633740288568 0.008409751312902072
корпуса: 0.0022197558268590455 0.007783702324794632
комплекте: 0.0011098779134295228 0.003891851162397316
Комплект: 0.0022197558268590455 0.010222353354024622
самостоятельной: 0.0011098779134295228 0.005111176677012311
сборки: 0.0011098779134295228 0.002951453981057467
предлагался: 0.0011098779134295228 0.005111176677012311
готовый: 0.0011098779134295228 0.002803250437634024
компьютер: 0.004439511653718091 0.010690102591129286
продавался: 0.0011098779134295228 0.004341867930552881
Эта: 0.003329633740288568 0.006316714711051769
машина: 0.0011098779134295228 0.003324897084965584
разработана: 0.0011098779134295228 0.0035725591840934526
выводила: 0.0011098779134295228 0.005111176677012311
видео: 0.005549389567147614 0.009516084506614465
стандарте: 0.0011098779134295228 0.005111176677012311
PAL: 0.0011098779134295228 0.005111176677012311
экспортные: 0.0011098779134295228 0.005111176677012311
поставлялись: 0.0011098779134295228 0.005111176677012311
США: 0.0022197558268590455 0.005606500875268048
поддержкой: 0.0011098779134295228 0.0031225424159378873
NTSC: 0.0011098779134295228 0.005111176677012311
Как: 0.004439511653718091 0.0016473415378061352
удалось: 0.003329633740288568 0.005899967287231549
достичь: 0.0011098779134295228 0.0026725256477823215
дешевизны: 0.0011098779134295228 0.005111176677012311
Несмотря: 0.0022197558268590455 0.005345051295564643
первый: 0.0011098779134295228 0.0014532001331673276
взгляд: 0.0011098779134295228 0.0019666557624105165
выглядит: 0.0011098779134295228 0.0017321284664424733
эта: 0.0022197558268590455 0.002599740247509312
вещь: 0.0011098779134295228 0.002951453981057467
довольно: 0.0011098779134295228 0.0011339081548634642
приятно: 0.0011098779134295228 0.002951453981057467
познается: 0.0011098779134295228 0.005111176677012311
деталях: 0.0011098779134295228 0.003324897084965584
отдать: 0.0011098779134295228 0.004341867930552881
должное: 0.0011098779134295228 0.005111176677012311
нужно: 0.0011098779134295228 0.0003192919783038633
простота: 0.0011098779134295228 0.004341867930552881
машины: 0.0022197558268590455 0.006245084831875775
восхищает: 0.0011098779134295228 0.005111176677012311
❯: 0.005549389567147614 0.021709339652764406
Корпус: 0.0011098779134295228 0.004341867930552881
Две: 0.0011098779134295228 0.0035725591840934526
половинки: 0.0022197558268590455 0.010222353354024622
тонкого: 0.0011098779134295228 0.005111176677012311
пластика: 0.0022197558268590455 0.007145118368186905
Размер: 0.0011098779134295228 0.004341867930552881
компьютера: 0.008879023307436182 0.02858047347274762
меньше: 0.003329633740288568 0.005041490785670728
листа: 0.0011098779134295228 0.003891851162397316
А4: 0.0011098779134295228 0.005111176677012311
Заметили: 0.0011098779134295228 0.005111176677012311
первой: 0.0011098779134295228 0.0022643960361005046
картинке: 0.0011098779134295228 0.003891851162397316
вырезы: 0.0011098779134295228 0.005111176677012311
системы: 0.0011098779134295228 0.0010739001401350785
охлаждения: 0.0011098779134295228 0.003891851162397316
Ее: 0.0011098779134295228 0.0031225424159378873
нарисовано: 0.0011098779134295228 0.005111176677012311
Внутри: 0.0011098779134295228 0.002951453981057467
–: 0.003329633740288568 0.005041490785670728
экран: 0.005549389567147614 0.014757269905287335
помех: 0.0011098779134295228 0.005111176677012311
На: 0.005549389567147614 0.002059176922257669
самом: 0.0022197558268590455 0.0023946940319021755
деле: 0.0022197558268590455 0.003686417773189014
это: 0.004439511653718091 0.000274696575884961
лишь: 0.0011098779134295228 0.0015839249230190297
металлическое: 0.0011098779134295228 0.005111176677012311
напыление: 0.0011098779134295228 0.005111176677012311
пластике: 0.0011098779134295228 0.005111176677012311
Все: 0.0022197558268590455 0.002599740247509312
порты: 0.0011098779134295228 0.0035725591840934526
расположены: 0.0011098779134295228 0.004341867930552881
сзади: 0.0011098779134295228 0.004341867930552881
Кроме: 0.0011098779134295228 0.0015386174929188576
антенного: 0.0011098779134295228 0.005111176677012311
выхода: 0.0011098779134295228 0.002951453981057467
одинаковы: 0.0011098779134295228 0.004341867930552881
Один: 0.0011098779134295228 0.0022643960361005046
9В: 0.0011098779134295228 0.005111176677012311
магнитофона: 0.003329633740288568 0.015333530031036931
Если: 0.003329633740288568 0.0007429862973836063
перепутать: 0.0011098779134295228 0.005111176677012311
вполне: 0.0011098779134295228 0.001843208886594507
спалить: 0.0011098779134295228 0.005111176677012311
машинку: 0.0011098779134295228 0.003891851162397316
Задняя: 0.0011098779134295228 0.005111176677012311
панель: 0.0011098779134295228 0.003891851162397316
приглядеться: 0.0011098779134295228 0.005111176677012311
фото: 0.0011098779134295228 0.002803250437634024
выше: 0.0011098779134295228 0.0011973470159510878
заметить: 0.0011098779134295228 0.0024498056750163386
пластиковые: 0.0011098779134295228 0.005111176677012311
защелки: 0.0011098779134295228 0.005111176677012311
которых: 0.0011098779134295228 0.0010169708455872975
крепятся: 0.0011098779134295228 0.005111176677012311
две: 0.0011098779134295228 0.0014532001331673276
Пабам: 0.0011098779134295228 0.005111176677012311
Винтов: 0.0011098779134295228 0.005111176677012311
найдете: 0.0011098779134295228 0.004341867930552881
корпусе: 0.0011098779134295228 0.003891851162397316
выключателя: 0.0011098779134295228 0.005111176677012311
Даже: 0.0011098779134295228 0.0019666557624105165
решили: 0.0011098779134295228 0.002033941691174595
сэкономить: 0.0011098779134295228 0.004341867930552881
Железо: 0.0011098779134295228 0.005111176677012311
топлесс: 0.0011098779134295228 0.005111176677012311
Клавиатура: 0.0011098779134295228 0.005111176677012311
расположена: 0.0011098779134295228 0.005111176677012311
печатной: 0.0011098779134295228 0.004341867930552881
плате: 0.0022197558268590455 0.007145118368186905
Пленочная: 0.0011098779134295228 0.005111176677012311
Сердце: 0.0011098779134295228 0.005111176677012311
Z80: 0.0022197558268590455 0.010222353354024622
тактовой: 0.0011098779134295228 0.005111176677012311
частотой: 0.0011098779134295228 0.003891851162397316
МГц: 0.0022197558268590455 0.007783702324794632
некоторых: 0.0022197558268590455 0.0035725591840934526
стоял: 0.0011098779134295228 0.004341867930552881
дешевый: 0.0011098779134295228 0.004341867930552881
аналог: 0.0011098779134295228 0.0031225424159378873
NEC: 0.0011098779134295228 0.005111176677012311
ПЗУ: 0.0011098779134295228 0.005111176677012311
4КБ: 0.0011098779134295228 0.005111176677012311
Бейсик: 0.0011098779134295228 0.004341867930552881
знакогенератор: 0.0011098779134295228 0.005111176677012311
процедуры: 0.0011098779134295228 0.003324897084965584
IO: 0.0011098779134295228 0.004341867930552881
прочее: 0.0011098779134295228 0.0031225424159378873
1КБ: 0.0011098779134295228 0.005111176677012311
возможностью: 0.0011098779134295228 0.002951453981057467
расширения: 0.0022197558268590455 0.005345051295564643
остальное: 0.0011098779134295228 0.0031225424159378873
стандартные: 0.0011098779134295228 0.0035725591840934526
ТТЛ: 0.0011098779134295228 0.005111176677012311
А: 0.004439511653718091 0.0018446856557676617
аудио: 0.0011098779134295228 0.003891851162397316
процессоры: 0.0011098779134295228 0.003891851162397316
У: 0.003329633740288568 0.0032217004204052354
пищалки: 0.0011098779134295228 0.005111176677012311
хотя: 0.0022197558268590455 0.002747778814653978
подключении: 0.0011098779134295228 0.004341867930552881
ТВ: 0.0011098779134295228 0.004341867930552881
услышите: 0.0011098779134295228 0.005111176677012311
ужасный: 0.0022197558268590455 0.010222353354024622
скрежет: 0.0011098779134295228 0.005111176677012311
Лечится: 0.0011098779134295228 0.005111176677012311
убавлением: 0.0011098779134295228 0.005111176677012311
громкости: 0.0011098779134295228 0.005111176677012311
Вывод: 0.0011098779134295228 0.003891851162397316
осуществляется: 0.0011098779134295228 0.0023532336694784585
процессором: 0.0011098779134295228 0.004341867930552881
По: 0.0011098779134295228 0.0008618521526070991
пикселей: 0.0011098779134295228 0.005111176677012311
снова: 0.0011098779134295228 0.0021055715703505898
ожидание: 0.0011098779134295228 0.004341867930552881
следующей: 0.0011098779134295228 0.002803250437634024
порции: 0.0011098779134295228 0.005111176677012311
данных: 0.0011098779134295228 0.0005305613772952272
Кстати: 0.0022197558268590455 0.004364290469196077
частота: 0.0011098779134295228 0.005111176677012311
процессора: 0.0011098779134295228 0.002951453981057467
выбрана: 0.0011098779134295228 0.0035725591840934526
вероятно: 0.0011098779134295228 0.002951453981057467
помочь: 0.0011098779134295228 0.0024498056750163386
процессору: 0.0011098779134295228 0.005111176677012311
синхронизироваться: 0.0011098779134295228 0.005111176677012311
композитным: 0.0011098779134295228 0.005111176677012311
дисплеем: 0.0011098779134295228 0.005111176677012311
Фактически: 0.0011098779134295228 0.0031225424159378873
система: 0.0011098779134295228 0.00141283648813861
настолько: 0.0011098779134295228 0.0021055715703505898
дешева: 0.0011098779134295228 0.005111176677012311
вместо: 0.0011098779134295228 0.0022643960361005046
кварцевого: 0.0011098779134295228 0.005111176677012311
генератора: 0.0011098779134295228 0.003891851162397316
установлен: 0.0011098779134295228 0.0031225424159378873
керамический: 0.0011098779134295228 0.005111176677012311
резонатор: 0.0011098779134295228 0.005111176677012311
Обратите: 0.0011098779134295228 0.0026725256477823215
внимание: 0.0011098779134295228 0.00141283648813861
плату: 0.0011098779134295228 0.002803250437634024
ощущение: 0.0011098779134295228 0.003324897084965584
разводка: 0.0011098779134295228 0.005111176677012311
делалась: 0.0011098779134295228 0.005111176677012311
вручную: 0.0011098779134295228 0.0025555883385061555
Печатная: 0.0011098779134295228 0.005111176677012311
плата: 0.0011098779134295228 0.003891851162397316
Программирование: 0.0011098779134295228 0.0035725591840934526
комментариях: 0.0011098779134295228 0.0024498056750163386
предыдущим: 0.0011098779134295228 0.003891851162397316
моим: 0.0011098779134295228 0.002951453981057467
постам: 0.0011098779134295228 0.005111176677012311
некоторые: 0.0011098779134295228 0.0012646329447151662
ностальгировали: 0.0011098779134295228 0.005111176677012311
поводу: 0.0011098779134295228 0.002803250437634024
клавиатуры: 0.0011098779134295228 0.005111176677012311
Спекки: 0.0011098779134295228 0.005111176677012311
мол: 0.0011098779134295228 0.005111176677012311
удобно: 0.0011098779134295228 0.0021055715703505898
нажал: 0.0011098779134295228 0.004341867930552881
сразу: 0.0011098779134295228 0.001165174389010741
целая: 0.0011098779134295228 0.004341867930552881
команда: 0.0011098779134295228 0.0021821452345980384
экране: 0.003329633740288568 0.008017576943346965
Я: 0.0011098779134295228 0.0011034986385614505
обматюгался: 0.0011098779134295228 0.005111176677012311
перехода: 0.0011098779134295228 0.0031225424159378873
PC: 0.0022197558268590455 0.008683735861105763
Для: 0.0011098779134295228 0.00038012242946368027
нормального: 0.0011098779134295228 0.004341867930552881
человека: 0.0011098779134295228 0.001631160899066528
который: 0.004439511653718091 0.0011030471001043274
быстро: 0.0011098779134295228 0.0012304801604013443
печатает: 0.0011098779134295228 0.005111176677012311
клавиатуре: 0.0011098779134295228 0.004341867930552881
зажимать: 0.0011098779134295228 0.005111176677012311
регистры: 0.0011098779134295228 0.005111176677012311
искать: 0.0011098779134295228 0.0019032169013228932
наклейках: 0.0011098779134295228 0.005111176677012311
нужную: 0.0011098779134295228 0.0035725591840934526
кнопку: 0.0011098779134295228 0.0026725256477823215
командой: 0.0011098779134295228 0.002033941691174595
сущий: 0.0011098779134295228 0.005111176677012311
ад: 0.0011098779134295228 0.003891851162397316
Руководство: 0.0011098779134295228 0.003324897084965584
пользователя: 0.0022197558268590455 0.0031678498460380594
ужасно: 0.0011098779134295228 0.005111176677012311
либо: 0.0022197558268590455 0.0038064338026457863
отображать: 0.0022197558268590455 0.006649794169931168
чтото: 0.0011098779134295228 0.001373889407326989
получать: 0.0011098779134295228 0.0017862795920467263
команды: 0.003329633740288568 0.004238509464415829
То: 0.004439511653718091 0.005495557629307956
время: 0.003329633740288568 0.0011403672883910406
набора: 0.0011098779134295228 0.002951453981057467
программы: 0.0011098779134295228 0.0022643960361005046
постоянно: 0.0011098779134295228 0.00141283648813861
гаснет: 0.0011098779134295228 0.005111176677012311
зажигается: 0.0011098779134295228 0.005111176677012311
следствие: 0.0011098779134295228 0.0035725591840934526
видеочипа: 0.0011098779134295228 0.005111176677012311
Есть: 0.0022197558268590455 0.004706467338956917
одна: 0.0022197558268590455 0.0038064338026457863
удивительная: 0.0011098779134295228 0.005111176677012311
особенность: 0.0011098779134295228 0.0031225424159378873
Вы: 0.0011098779134295228 0.0017321284664424733
набираете: 0.0011098779134295228 0.005111176677012311
внизу: 0.0011098779134295228 0.003324897084965584
экрана: 0.0022197558268590455 0.005902907962114934
закончите: 0.0011098779134295228 0.005111176677012311
строку: 0.0011098779134295228 0.003324897084965584
отправит: 0.0011098779134295228 0.005111176677012311
наверх: 0.0011098779134295228 0.004341867930552881
почему: 0.0022197558268590455 0.002990174579282152
набрать: 0.0011098779134295228 0.004341867930552881
такую: 0.0011098779134295228 0.0017321284664424733
программу: 0.0011098779134295228 0.0031225424159378873
PRINT: 0.0011098779134295228 0.005111176677012311
“: 0.0011098779134295228 0.0017862795920467263
HELLO: 0.0011098779134295228 0.005111176677012311
HABR: 0.0011098779134295228 0.005111176677012311
”: 0.0011098779134295228 0.0019032169013228932
GOTO: 0.0011098779134295228 0.005111176677012311
прокручиваться: 0.0011098779134295228 0.005111176677012311
программа: 0.003329633740288568 0.00997469125489675
завершится: 0.0011098779134295228 0.005111176677012311
ошибкой: 0.0011098779134295228 0.002951453981057467
которые: 0.003329633740288568 0.000913774181026949
выводятся: 0.0011098779134295228 0.005111176677012311
виде: 0.0011098779134295228 0.0010450705214855105
кодов: 0.0011098779134295228 0.003891851162397316
слов: 0.0011098779134295228 0.0024498056750163386
экономии: 0.0011098779134295228 0.004341867930552881
памяти: 0.003329633740288568 0.0053588387761401785
места: 0.0011098779134295228 0.0017862795920467263
Процессор: 0.0011098779134295228 0.004341867930552881
выполняется: 0.0011098779134295228 0.0023532336694784585
текстовый: 0.0011098779134295228 0.004341867930552881
режим: 0.0022197558268590455 0.004899611350032677
Экран: 0.0011098779134295228 0.005111176677012311
шириной: 0.0011098779134295228 0.004341867930552881
символа: 0.0022197558268590455 0.007783702324794632
высотой: 0.0011098779134295228 0.004341867930552881
Набор: 0.0011098779134295228 0.003891851162397316
знаков: 0.0011098779134295228 0.004341867930552881
команд: 0.0011098779134295228 0.002033941691174595
плохо: 0.0011098779134295228 0.0021055715703505898
меркам: 0.0011098779134295228 0.004341867930552881
года: 0.0011098779134295228 0.0012304801604013443
верно: 0.0011098779134295228 0.004341867930552881
целых: 0.0011098779134295228 0.002803250437634024
оперативной: 0.0011098779134295228 0.003324897084965584
Из: 0.0011098779134295228 0.001843208886594507
кода: 0.0011098779134295228 0.0010169708455872975
остается: 0.0011098779134295228 0.0021821452345980384
операционка: 0.0011098779134295228 0.005111176677012311
использует: 0.0011098779134295228 0.0016804969285569096
своих: 0.0011098779134295228 0.0011339081548634642
целей: 0.0011098779134295228 0.0021055715703505898
часть: 0.0011098779134295228 0.0012304801604013443
Что: 0.0011098779134295228 0.0007257785431816472
туда: 0.0011098779134295228 0.0031225424159378873
уместить: 0.0011098779134295228 0.004341867930552881
сказывается: 0.0011098779134295228 0.005111176677012311
продуманность: 0.0011098779134295228 0.004341867930552881
простой: 0.0011098779134295228 0.0015839249230190297
используете: 0.0011098779134295228 0.002803250437634024
байтов: 0.0011098779134295228 0.003324897084965584
начинает: 0.0022197558268590455 0.004899611350032677
занимать: 0.0011098779134295228 0.0035725591840934526
экранную: 0.0011098779134295228 0.005111176677012311
память: 0.0011098779134295228 0.0024498056750163386
сжиматься: 0.0011098779134295228 0.005111176677012311
снизу: 0.0011098779134295228 0.004341867930552881
вверх: 0.0011098779134295228 0.0025555883385061555
Единственным: 0.0011098779134295228 0.004341867930552881
способом: 0.0011098779134295228 0.0031225424159378873
хранения: 0.0011098779134295228 0.0022643960361005046
программ: 0.0011098779134295228 0.002803250437634024
подключение: 0.0011098779134295228 0.002803250437634024
кассетного: 0.0011098779134295228 0.005111176677012311
стандартным: 0.0011098779134295228 0.0035725591840934526
решением: 0.0011098779134295228 0.0026725256477823215
домашних: 0.003329633740288568 0.013025603791658643
компьютеров: 0.0011098779134295228 0.0035725591840934526
других: 0.0022197558268590455 0.001925639439966089
носителей: 0.0011098779134295228 0.005111176677012311
появилось: 0.0011098779134295228 0.002803250437634024
имелся: 0.0011098779134295228 0.004341867930552881
слот: 0.0011098779134295228 0.005111176677012311
картриджа: 0.0022197558268590455 0.010222353354024622
отличие: 0.0011098779134295228 0.0024498056750163386
приставок: 0.0022197558268590455 0.010222353354024622
использовался: 0.0011098779134295228 0.003324897084965584
игр: 0.0022197558268590455 0.005606500875268048
разъем: 0.0011098779134295228 0.003891851162397316
папа: 0.0022197558268590455 0.010222353354024622
думаете: 0.0011098779134295228 0.003891851162397316
Вероятно: 0.0011098779134295228 0.002803250437634024
помните: 0.0011098779134295228 0.003324897084965584
картриджы: 0.0011098779134295228 0.005111176677012311
таким: 0.0011098779134295228 0.001495087289641076
разъемом: 0.0011098779134295228 0.005111176677012311
Игры: 0.0011098779134295228 0.005111176677012311
Было: 0.0011098779134295228 0.0025555883385061555
несколько: 0.003329633740288568 0.001538408855482437
клонов: 0.0011098779134295228 0.005111176677012311
Space: 0.0022197558268590455 0.008683735861105763
Invaders: 0.0022197558268590455 0.010222353354024622
Kong: 0.0022197558268590455 0.010222353354024622
Pacman: 0.0022197558268590455 0.010222353354024622
игры: 0.0022197558268590455 0.005111176677012311
замечательны: 0.0011098779134295228 0.005111176677012311
вообще: 0.0011098779134295228 0.0013362628238911612
Donkey: 0.0011098779134295228 0.005111176677012311
Удивительно: 0.0011098779134295228 0.005111176677012311
способны: 0.0011098779134295228 0.0031225424159378873
переключаться: 0.0011098779134295228 0.003891851162397316
игрового: 0.0011098779134295228 0.004341867930552881
процесса: 0.0011098779134295228 0.0021821452345980384
отображение: 0.0011098779134295228 0.004341867930552881
Итак: 0.0011098779134295228 0.002033941691174595
точки: 0.0011098779134295228 0.001843208886594507
зрения: 0.0011098779134295228 0.0019032169013228932
разработали: 0.0011098779134295228 0.0035725591840934526
одной: 0.0011098779134295228 0.001165174389010741
целью: 0.0011098779134295228 0.0025555883385061555
дешевым: 0.0011098779134295228 0.005111176677012311
Тем: 0.0011098779134295228 0.0021821452345980384
менее: 0.0011098779134295228 0.001495087289641076
коммерчески: 0.0011098779134295228 0.005111176677012311
успешным: 0.0011098779134295228 0.003891851162397316
продали: 0.0011098779134295228 0.004341867930552881
экземпляров: 0.0011098779134295228 0.003891851162397316
Второе: 0.0011098779134295228 0.0035725591840934526
пришествие: 0.0011098779134295228 0.005111176677012311
Уже: 0.0011098779134295228 0.0026725256477823215
следующем: 0.0011098779134295228 0.0025555883385061555
представлена: 0.0011098779134295228 0.004341867930552881
новая: 0.0011098779134295228 0.0026725256477823215
модель: 0.0022197558268590455 0.0038064338026457863
названием: 0.0011098779134295228 0.0024498056750163386
ZX81: 0.005549389567147614 0.025555883385061554
картриджем: 0.0011098779134295228 0.005111176677012311
16К: 0.0022197558268590455 0.010222353354024622
принтером: 0.0011098779134295228 0.005111176677012311
популярнее: 0.0011098779134295228 0.005111176677012311
размером: 0.0011098779134295228 0.003891851162397316
практически: 0.0011098779134295228 0.0017321284664424733
такая: 0.0011098779134295228 0.001843208886594507
пленочная: 0.0011098779134295228 0.005111176677012311
клавиатура: 0.0011098779134295228 0.005111176677012311
задней: 0.0011098779134295228 0.003891851162397316
панели: 0.0011098779134295228 0.0031225424159378873
имеется: 0.0011098779134295228 0.002803250437634024
порт: 0.0022197558268590455 0.005345051295564643
различия: 0.0011098779134295228 0.005111176677012311
Здесь: 0.0011098779134295228 0.0017321284664424733
используются: 0.0011098779134295228 0.0019666557624105165
настоящие: 0.0011098779134295228 0.004341867930552881
металлические: 0.0011098779134295228 0.005111176677012311
винты: 0.0011098779134295228 0.004341867930552881
материнской: 0.0011098779134295228 0.005111176677012311
микросхем: 0.0011098779134295228 0.0035725591840934526
8К: 0.0011098779134295228 0.005111176677012311
ROM: 0.0011098779134295228 0.004341867930552881
1K: 0.0011098779134295228 0.005111176677012311
RAM: 0.003329633740288568 0.015333530031036931
ULA: 0.0011098779134295228 0.005111176677012311
снижения: 0.0022197558268590455 0.007145118368186905
стоимости: 0.003329633740288568 0.008854361943172401
Внутренности: 0.0011098779134295228 0.005111176677012311
Главные: 0.0011098779134295228 0.005111176677012311
изменения: 0.0011098779134295228 0.0015386174929188576
коснулись: 0.0011098779134295228 0.005111176677012311
BASIC: 0.0022197558268590455 0.008683735861105763
Оригинальный: 0.0011098779134295228 0.005111176677012311
мог: 0.0011098779134295228 0.001843208886594507
обрабатывать: 0.0011098779134295228 0.002803250437634024
целые: 0.0011098779134295228 0.004341867930552881
числа: 0.0011098779134295228 0.0022643960361005046
новый: 0.0011098779134295228 0.0011034986385614505
позволял: 0.0022197558268590455 0.007783702324794632
работать: 0.0011098779134295228 0.0007046373722929739
плавающей: 0.0011098779134295228 0.0035725591840934526
точкой: 0.0011098779134295228 0.002951453981057467
Появились: 0.0011098779134295228 0.005111176677012311
рисования: 0.0011098779134295228 0.004341867930552881
примитивной: 0.0011098779134295228 0.005111176677012311
графики: 0.0011098779134295228 0.0026725256477823215
появился: 0.0022197558268590455 0.004528792072201009
SLOW: 0.0011098779134295228 0.005111176677012311
Он: 0.0022197558268590455 0.002090141042971021
генерировать: 0.0011098779134295228 0.003324897084965584
одновременно: 0.0011098779134295228 0.0024498056750163386
выполнять: 0.0011098779134295228 0.001631160899066528
программный: 0.0011098779134295228 0.003324897084965584
код: 0.0011098779134295228 0.000814616176559601
режиме: 0.0011098779134295228 0.001843208886594507
процессор: 0.0011098779134295228 0.0035725591840934526
становится: 0.0011098779134295228 0.0016804969285569096
многозадачным: 0.0011098779134295228 0.005111176677012311
своего: 0.0011098779134295228 0.001165174389010741
тратит: 0.0011098779134295228 0.004341867930552881
рисование: 0.0011098779134295228 0.005111176677012311
оставшееся: 0.0011098779134295228 0.005111176677012311
занят: 0.0011098779134295228 0.005111176677012311
всем: 0.0011098779134295228 0.0014532001331673276
остальным: 0.0011098779134295228 0.003891851162397316
Во: 0.0011098779134295228 0.0021055715703505898
всяком: 0.0011098779134295228 0.005111176677012311
случае: 0.0011098779134295228 0.0005305613772952272
мерцания: 0.0011098779134295228 0.005111176677012311
также: 0.0022197558268590455 0.0008889624119803004
предложил: 0.0011098779134295228 0.003324897084965584
владельцам: 0.0011098779134295228 0.005111176677012311
способ: 0.0011098779134295228 0.0013362628238911612
обновления: 0.0011098779134295228 0.002951453981057467
Можно: 0.0011098779134295228 0.0012646329447151662
заменить: 0.0011098779134295228 0.0025555883385061555
чип: 0.0011098779134295228 0.003891851162397316
обновить: 0.0011098779134295228 0.002951453981057467
клавиатуру: 0.0011098779134295228 0.004341867930552881
помощью: 0.0011098779134295228 0.0005856079268394804
наклеек: 0.0011098779134295228 0.005111176677012311
дополнительными: 0.0011098779134295228 0.004341867930552881
функциями: 0.0011098779134295228 0.002951453981057467
Всего: 0.0011098779134295228 0.003891851162397316
Честная: 0.0011098779134295228 0.005111176677012311
сделка: 0.0011098779134295228 0.005111176677012311
Интересно: 0.0011098779134295228 0.0031225424159378873
оказал: 0.0011098779134295228 0.004341867930552881
большее: 0.0011098779134295228 0.003324897084965584
влияние: 0.0011098779134295228 0.0031225424159378873
рынок: 0.0011098779134295228 0.003324897084965584
Timex: 0.006659267480577136 0.030667060062073863
двумя: 0.0011098779134295228 0.0023532336694784585
килобайтами: 0.0011098779134295228 0.005111176677012311
борту: 0.0011098779134295228 0.003891851162397316
продавал: 0.0011098779134295228 0.005111176677012311
модуль: 0.0011098779134295228 0.0026725256477823215
16K: 0.0022197558268590455 0.010222353354024622
крошечный: 0.0011098779134295228 0.005111176677012311
персональный: 0.0011098779134295228 0.004341867930552881
принтер: 0.0011098779134295228 0.004341867930552881
Синклера: 0.0011098779134295228 0.005111176677012311
похожий: 0.0011098779134295228 0.004341867930552881
Были: 0.0011098779134295228 0.0031225424159378873
приложений: 0.0011098779134295228 0.001843208886594507
кассетах: 0.0011098779134295228 0.005111176677012311
продавались: 0.0011098779134295228 0.005111176677012311
магазинах: 0.0011098779134295228 0.003891851162397316
вместе: 0.0011098779134295228 0.001373889407326989
стояла: 0.0011098779134295228 0.004341867930552881
отметка: 0.0011098779134295228 0.005111176677012311
Примечательно: 0.0011098779134295228 0.003891851162397316
энтузиасты: 0.0011098779134295228 0.005111176677012311
всётаки: 0.0011098779134295228 0.003891851162397316
нашли: 0.0011098779134295228 0.0031225424159378873
способы: 0.0011098779134295228 0.0023532336694784585
получения: 0.0011098779134295228 0.0016804969285569096
звука: 0.0011098779134295228 0.0035725591840934526
используя: 0.0011098779134295228 0.0021055715703505898
генерации: 0.0011098779134295228 0.0026725256477823215
простых: 0.0011098779134295228 0.0021821452345980384
звуковых: 0.0011098779134295228 0.004341867930552881
сигналов: 0.0011098779134295228 0.0035725591840934526
Цена: 0.0011098779134295228 0.005111176677012311
доходила: 0.0011098779134295228 0.005111176677012311
Была: 0.0011098779134295228 0.004341867930552881
забавная: 0.0011098779134295228 0.005111176677012311
ситуация: 0.0011098779134295228 0.0031225424159378873
которую: 0.0011098779134295228 0.0011973470159510878
создал: 0.0011098779134295228 0.0026725256477823215
Проводя: 0.0011098779134295228 0.005111176677012311
рекламную: 0.0011098779134295228 0.005111176677012311
кампанию: 0.0011098779134295228 0.005111176677012311
производитель: 0.0011098779134295228 0.004341867930552881
предоставлял: 0.0011098779134295228 0.004341867930552881
скидку: 0.0011098779134295228 0.003891851162397316
обмене: 0.0011098779134295228 0.005111176677012311
любой: 0.0011098779134295228 0.001165174389010741
игровую: 0.0011098779134295228 0.005111176677012311
систему: 0.0011098779134295228 0.0012304801604013443
купить: 0.0011098779134295228 0.0031225424159378873
обменять: 0.0011098779134295228 0.005111176677012311
скидкой: 0.0011098779134295228 0.004341867930552881
Через: 0.0022197558268590455 0.005902907962114934
пару: 0.0022197558268590455 0.004364290469196077
лет: 0.0022197558268590455 0.002599740247509312
представил: 0.0011098779134295228 0.003891851162397316
улучшенной: 0.0011098779134295228 0.005111176677012311
клавиатурой: 0.0011098779134295228 0.005111176677012311
провалился: 0.0011098779134295228 0.005111176677012311
изза: 0.0011098779134295228 0.0017862795920467263
ужесточения: 0.0011098779134295228 0.005111176677012311
конкуренции: 0.0011098779134295228 0.003891851162397316
VIC20: 0.0011098779134295228 0.005111176677012311
ZX: 0.0022197558268590455 0.010222353354024622
Spectrum: 0.0022197558268590455 0.010222353354024622
Начало: 0.0011098779134295228 0.0035725591840934526
80х: 0.0011098779134295228 0.004341867930552881
богатым: 0.0011098779134295228 0.005111176677012311
взлеты: 0.0011098779134295228 0.004341867930552881
падения: 0.0011098779134295228 0.0035725591840934526
компьютерной: 0.0011098779134295228 0.004341867930552881
индустрии: 0.0011098779134295228 0.004341867930552881
III: 0.0011098779134295228 0.005111176677012311
снят: 0.0011098779134295228 0.004341867930552881
продаж: 0.0022197558268590455 0.006649794169931168
Или: 0.0011098779134295228 0.0019666557624105165
настольный: 0.0011098779134295228 0.005111176677012311
портативный: 0.0011098779134295228 0.004341867930552881
IBM: 0.0022197558268590455 0.010222353354024622
стоимостью: 0.0011098779134295228 0.004341867930552881
год: 0.0011098779134295228 0.0019032169013228932
выпущен: 0.0011098779134295228 0.003891851162397316
Ему: 0.0011098779134295228 0.003324897084965584
выйти: 0.0011098779134295228 0.0024498056750163386
первое: 0.0011098779134295228 0.002803250437634024
место: 0.0011098779134295228 0.001843208886594507
объему: 0.0011098779134295228 0.005111176677012311
оставив: 0.0011098779134295228 0.005111176677012311
позади: 0.0011098779134295228 0.004341867930552881
продукцию: 0.0011098779134295228 0.005111176677012311
многих: 0.0011098779134295228 0.0017862795920467263
производителей: 0.0011098779134295228 0.005111176677012311
неказистость: 0.0011098779134295228 0.005111176677012311
ограниченность: 0.0011098779134295228 0.005111176677012311
ZX8081: 0.0011098779134295228 0.005111176677012311
сыграли: 0.0011098779134295228 0.005111176677012311
значительную: 0.0011098779134295228 0.004341867930552881
роль: 0.0011098779134295228 0.0022643960361005046
поиске: 0.0011098779134295228 0.003891851162397316
путей: 0.0011098779134295228 0.0035725591840934526
появлении: 0.0011098779134295228 0.005111176677012311
любимых: 0.0011098779134295228 0.004341867930552881
многими: 0.0011098779134295228 0.004341867930552881
C64: 0.0011098779134295228 0.005111176677012311
Amstrad: 0.0011098779134295228 0.005111176677012311
CPC: 0.0011098779134295228 0.005111176677012311
стали: 0.0011098779134295228 0.0019032169013228932
доступными: 0.0011098779134295228 0.0031225424159378873
обычных: 0.0011098779134295228 0.0031225424159378873
пользователей: 0.0011098779134295228 0.0016804969285569096
