Когда: 0.000949667616334283 0.0009188832158230824
речь: 0.000949667616334283 0.0018671537097557766
заходит: 0.000949667616334283 0.0037151215626098255
готовых: 0.001899335232668566 0.005343610098309661
решениях: 0.000949667616334283 0.002844949927401701
качестве: 0.001899335232668566 0.002164167679370114
сервера: 0.002849002849002849 0.006040636855270915
мобильного: 0.000949667616334283 0.003056862131878633
приложения: 0.002849002849002849 0.003336703651005542
первое: 0.000949667616334283 0.0023986027011474414
приходит: 0.000949667616334283 0.0019375316510223692
ум: 0.000949667616334283 0.003056862131878633
это: 0.011396011396011397 0.0007051328059041306
Firebase: 0.005698005698005698 0.026240285960046107
решения: 0.002849002849002849 0.0035267075669561747
Amazon: 0.000949667616334283 0.0037151215626098255
Часто: 0.000949667616334283 0.002096177505403344
действительно: 0.000949667616334283 0.0014379180746721515
бывает: 0.001899335232668566 0.004573495932862055
достаточно: 0.002849002849002849 0.0020910802708837624
рамках: 0.000949667616334283 0.0013957036752696502
Spark: 0.000949667616334283 0.0037151215626098255
тарифа: 0.000949667616334283 0.003056862131878633
Тем: 0.000949667616334283 0.0018671537097557766
менее: 0.000949667616334283 0.0012792722202911771
хочется: 0.001899335232668566 0.004192355010806688
большего: 0.000949667616334283 0.0033300644798860226
включая: 0.001899335232668566 0.003734307419511553
возможность: 0.004748338081671415 0.00368722122269229
расширять: 0.000949667616334283 0.002844949927401701
функционал: 0.000949667616334283 0.002096177505403344
силами: 0.000949667616334283 0.0033300644798860226
Cloud: 0.000949667616334283 0.003056862131878633
Functions: 0.000949667616334283 0.0043733809933410184
этих: 0.000949667616334283 0.001143373983215514
целей: 0.000949667616334283 0.0018016334139467059
отлично: 0.000949667616334283 0.002096177505403344
подойти: 0.000949667616334283 0.0026718050491548306
Appwrite: 0.014245014245014245 0.06560071490011526
открытое: 0.000949667616334283 0.003056862131878633
BaaS: 0.000949667616334283 0.0043733809933410184
решение: 0.002849002849002849 0.002682645412702123
которое: 0.000949667616334283 0.0011122345503351806
содержит: 0.002849002849002849 0.00560146112926733
множество: 0.000949667616334283 0.0013552861876924463
модулей: 0.000949667616334283 0.002844949927401701
основные: 0.000949667616334283 0.002013545618423638
которых: 0.003798670465337132 0.0034806865408324983
база: 0.002849002849002849 0.006560071490011527
данных: 0.00949667616334283 0.004539751196039884
хранилище: 0.000949667616334283 0.003056862131878633
авторизация: 0.000949667616334283 0.0023986027011474414
функции: 0.003798670465337132 0.005751672298688606
Конечно: 0.000949667616334283 0.0018016334139467059
единственное: 0.001899335232668566 0.005689899854803402
подобное: 0.000949667616334283 0.002844949927401701
просторах: 0.000949667616334283 0.0043733809933410184
Github: 0.000949667616334283 0.0023986027011474414
причине: 0.000949667616334283 0.0025254131404869686
пришелся: 0.000949667616334283 0.0043733809933410184
душе: 0.000949667616334283 0.0037151215626098255
рассмотреть: 0.000949667616334283 0.0033300644798860226
такие: 0.002849002849002849 0.003336703651005542
аналоги: 0.000949667616334283 0.0033300644798860226
Kuzzle: 0.000949667616334283 0.0043733809933410184
реалтайм: 0.000949667616334283 0.0043733809933410184
Purse: 0.000949667616334283 0.0043733809933410184
Server: 0.000949667616334283 0.0033300644798860226
имеет: 0.003798670465337132 0.003880916419874573
массу: 0.000949667616334283 0.0037151215626098255
различных: 0.002849002849002849 0.004187111025808951
адаптеров: 0.000949667616334283 0.0043733809933410184
адапер: 0.000949667616334283 0.0043733809933410184
pushуведомлений: 0.000949667616334283 0.0043733809933410184
Strapi: 0.000949667616334283 0.0043733809933410184
функционирует: 0.000949667616334283 0.0043733809933410184
CMS: 0.001899335232668566 0.007430243125219651
интересное: 0.000949667616334283 0.0022867479664310277
среди: 0.000949667616334283 0.0018671537097557766
плагинов: 0.000949667616334283 0.003056862131878633
Superbase: 0.000949667616334283 0.0043733809933410184
молодой: 0.000949667616334283 0.0037151215626098255
проект: 0.002849002849002849 0.0038378166608735312
относительно: 0.000949667616334283 0.0014820966270319739
аналогов: 0.000949667616334283 0.0033300644798860226
активно: 0.000949667616334283 0.0018671537097557766
развивается: 0.000949667616334283 0.002844949927401701
Изначально: 0.000949667616334283 0.0026718050491548306
привлек: 0.000949667616334283 0.0033300644798860226
своей: 0.000949667616334283 0.0009969820745476521
документацией: 0.000949667616334283 0.0033300644798860226
которой: 0.000949667616334283 0.0008238371963007816
сложно: 0.000949667616334283 0.0013165188614623843
ориентироваться: 0.000949667616334283 0.0033300644798860226
опциями: 0.000949667616334283 0.0043733809933410184
рантаймов: 0.002849002849002849 0.013120142980023054
функций: 0.002849002849002849 0.006288532516210032
Сегодня: 0.000949667616334283 0.0018671537097557766
хотел: 0.000949667616334283 0.0021866904966705092
рассказать: 0.000949667616334283 0.0019375316510223692
именно: 0.000949667616334283 0.0008238371963007816
подводных: 0.000949667616334283 0.0043733809933410184
камнях: 0.000949667616334283 0.0043733809933410184
которыми: 0.000949667616334283 0.002013545618423638
пришлось: 0.000949667616334283 0.0018016334139467059
столкнуться: 0.000949667616334283 0.0033300644798860226
процессе: 0.000949667616334283 0.0014820966270319739
выхода: 0.000949667616334283 0.0025254131404869686
продакшн: 0.000949667616334283 0.0033300644798860226
Актуальную: 0.000949667616334283 0.0043733809933410184
документацию: 0.000949667616334283 0.0023986027011474414
листинги: 0.000949667616334283 0.0043733809933410184
кода: 0.000949667616334283 0.0008701716352081246
призываю: 0.000949667616334283 0.0043733809933410184
смотреть: 0.001899335232668566 0.004573495932862055
официальном: 0.000949667616334283 0.0037151215626098255
источнике: 0.000949667616334283 0.0037151215626098255
статье: 0.000949667616334283 0.0009442091864614121
расскажу: 0.000949667616334283 0.0016284885356998354
основных: 0.001899335232668566 0.004192355010806688
деталях: 0.000949667616334283 0.002844949927401701
развертки: 0.000949667616334283 0.0043733809933410184
документации: 0.001899335232668566 0.0038750633020447384
найти: 0.000949667616334283 0.0009188832158230824
легко: 0.000949667616334283 0.001024510599593476
пропустить: 0.000949667616334283 0.002844949927401701
Функционал: 0.000949667616334283 0.0033300644798860226
Интеграция: 0.000949667616334283 0.0037151215626098255
У: 0.001899335232668566 0.0018377664316461648
SDK: 0.002849002849002849 0.009990193439658068
платформ: 0.000949667616334283 0.002844949927401701
которые: 0.003798670465337132 0.0010424951403675607
могут: 0.001899335232668566 0.001135492878928054
пригодится: 0.000949667616334283 0.0033300644798860226
iOS: 0.002849002849002849 0.007195808103442324
Android: 0.001899335232668566 0.005050826280973937
Web: 0.001899335232668566 0.005343610098309661
Flutter: 0.000949667616334283 0.0037151215626098255
Стоит: 0.002849002849002849 0.007195808103442324
заметить: 0.001899335232668566 0.004192355010806688
фреймворк: 0.000949667616334283 0.0021866904966705092
минимальную: 0.000949667616334283 0.0037151215626098255
версию: 0.001899335232668566 0.0034806865408324983
спокойно: 0.000949667616334283 0.002844949927401701
работать: 0.000949667616334283 0.0006029233356466947
просто: 0.003798670465337132 0.0023406880889793617
форкнуть: 0.000949667616334283 0.0043733809933410184
поправить: 0.000949667616334283 0.0043733809933410184
самостоятельно: 0.002849002849002849 0.004446289881095921
Если: 0.006647673314339981 0.0014833854313385264
нужно: 0.005698005698005698 0.0016392140880443354
поддержать: 0.001899335232668566 0.005689899854803402
API: 0.002849002849002849 0.0040658585630773385
REST: 0.000949667616334283 0.0022867479664310277
GraphQL: 0.000949667616334283 0.0043733809933410184
Так: 0.002849002849002849 0.001503227185419863
вебсокеты: 0.000949667616334283 0.0037151215626098255
называется: 0.000949667616334283 0.001682770030324668
Пользователи: 0.000949667616334283 0.0037151215626098255
Авторизация: 0.000949667616334283 0.0043733809933410184
реализована: 0.000949667616334283 0.0025254131404869686
помощью: 0.002849002849002849 0.001503227185419863
почты: 0.000949667616334283 0.003056862131878633
номера: 0.000949667616334283 0.0037151215626098255
телефона: 0.001899335232668566 0.006113724263757266
модуль: 0.000949667616334283 0.0022867479664310277
включен: 0.000949667616334283 0.0033300644798860226
пользователи: 0.001899335232668566 0.0043733809933410184
смогут: 0.000949667616334283 0.0026718050491548306
создавать: 0.002849002849002849 0.0038378166608735312
аккаунты: 0.000949667616334283 0.0043733809933410184
стандартным: 0.000949667616334283 0.003056862131878633
набором: 0.000949667616334283 0.003056862131878633
полей: 0.002849002849002849 0.009170586395635899
имя: 0.000949667616334283 0.002013545618423638
почта: 0.000949667616334283 0.003056862131878633
номер: 0.000949667616334283 0.0021866904966705092
пр: 0.003798670465337132 0.017493523973364074
кастомных: 0.000949667616334283 0.0033300644798860226
Также: 0.003798670465337132 0.003118634575763838
юзеров: 0.000949667616334283 0.0037151215626098255
группировать: 0.000949667616334283 0.0043733809933410184
помогает: 0.001899335232668566 0.0038750633020447384
разграничить: 0.000949667616334283 0.0043733809933410184
доступ: 0.004748338081671415 0.0058778459449269575
БД: 0.008547008547008548 0.024046245442393477
файлам: 0.000949667616334283 0.0043733809933410184
функциям: 0.000949667616334283 0.003056862131878633
База: 0.002849002849002849 0.011145364687829477
хранится: 0.000949667616334283 0.0025254131404869686
MariaDB: 0.000949667616334283 0.0043733809933410184
сожалению: 0.002849002849002849 0.00560146112926733
удобных: 0.000949667616334283 0.003056862131878633
инструментов: 0.000949667616334283 0.0019375316510223692
миграций: 0.000949667616334283 0.0043733809933410184
Однако: 0.000949667616334283 0.0010528609919483486
написать: 0.000949667616334283 0.0015284310659393165
скрипты: 0.000949667616334283 0.003056862131878633
применить: 0.000949667616334283 0.002096177505403344
изменения: 0.002849002849002849 0.003949556584387153
массово: 0.000949667616334283 0.0043733809933410184
например: 0.001899335232668566 0.001474888489076916
использовав: 0.000949667616334283 0.0037151215626098255
готовый: 0.000949667616334283 0.0023986027011474414
пример: 0.000949667616334283 0.0013957036752696502
питоне: 0.001899335232668566 0.007430243125219651
httpsgithubcomappwriteplaygroundforpython: 0.000949667616334283 0.0043733809933410184
Он: 0.001899335232668566 0.0017884302751347485
спасал: 0.000949667616334283 0.0043733809933410184
несчетное: 0.000949667616334283 0.0043733809933410184
количество: 0.000949667616334283 0.0008014910449140826
прежде: 0.000949667616334283 0.0019375316510223692
начал: 0.000949667616334283 0.0017403432704162492
полноценно: 0.000949667616334283 0.0033300644798860226
встраивать: 0.000949667616334283 0.0033300644798860226
стоит: 0.001899335232668566 0.0018377664316461648
сделать: 0.001899335232668566 0.0011703440444896808
ремарку: 0.000949667616334283 0.0037151215626098255
поводу: 0.000949667616334283 0.0023986027011474414
пагинации: 0.001899335232668566 0.008746761986682037
лимит: 0.000949667616334283 0.0043733809933410184
запрашиваемых: 0.000949667616334283 0.0043733809933410184
записей: 0.000949667616334283 0.0033300644798860226
максимальный: 0.000949667616334283 0.0033300644798860226
offset: 0.002849002849002849 0.013120142980023054
Поэтому: 0.000949667616334283 0.0008701716352081246
большая: 0.000949667616334283 0.0017403432704162492
полностью: 0.002849002849002849 0.0037302943589280976
перебрать: 0.000949667616334283 0.0043733809933410184
записи: 0.003798670465337132 0.007750126604089477
двигаться: 0.000949667616334283 0.002844949927401701
страницам: 0.000949667616334283 0.003056862131878633
курсора: 0.000949667616334283 0.0033300644798860226
httpsappwriteiodocspaginationcursorpagination: 0.000949667616334283 0.0043733809933410184
Хранение: 0.000949667616334283 0.0033300644798860226
файлов: 0.002849002849002849 0.005404900241840118
Выбор: 0.000949667616334283 0.002844949927401701
места: 0.000949667616334283 0.0015284310659393165
хранения: 0.002849002849002849 0.005812594953067108
довольно: 0.000949667616334283 0.0009702291049686432
велик: 0.000949667616334283 0.0043733809933410184
S3: 0.000949667616334283 0.0043733809933410184
DOSpaces: 0.002849002849002849 0.013120142980023054
Backblaze: 0.000949667616334283 0.0043733809933410184
Linode: 0.000949667616334283 0.0043733809933410184
Wasabi: 0.000949667616334283 0.0043733809933410184
локально: 0.000949667616334283 0.003056862131878633
быстро: 0.000949667616334283 0.0010528609919483486
выйти: 0.000949667616334283 0.002096177505403344
рамки: 0.000949667616334283 0.0026718050491548306
дроплета: 0.000949667616334283 0.0043733809933410184
разворачивали: 0.000949667616334283 0.0043733809933410184
сервер: 0.002849002849002849 0.004313754224016455
Digital: 0.002849002849002849 0.011145364687829477
Ocean: 0.002849002849002849 0.013120142980023054
решили: 0.000949667616334283 0.0017403432704162492
использовать: 0.003798670465337132 0.0015212823042625846
подключили: 0.000949667616334283 0.0037151215626098255
конфиг: 0.002849002849002849 0.009170586395635899
забыли: 0.000949667616334283 0.0033300644798860226
подключить: 0.001899335232668566 0.004797205402294883
антивирус: 0.000949667616334283 0.0043733809933410184
виде: 0.000949667616334283 0.0008942151375673742
httpswwwclamavnet: 0.000949667616334283 0.0043733809933410184
Функции: 0.003798670465337132 0.017493523973364074
доступны: 0.001899335232668566 0.0043733809933410184
обширном: 0.000949667616334283 0.0043733809933410184
наборе: 0.000949667616334283 0.002844949927401701
языков: 0.000949667616334283 0.0025254131404869686
список: 0.001899335232668566 0.002875836149344303
доках: 0.000949667616334283 0.0043733809933410184
выбор: 0.000949667616334283 0.0018016334139467059
ограничен: 0.000949667616334283 0.0037151215626098255
лишь: 0.000949667616334283 0.0013552861876924463
env: 0.002849002849002849 0.009990193439658068
конфигурацией: 0.000949667616334283 0.002844949927401701
которая: 0.003798670465337132 0.0025578140674786917
поможет: 0.000949667616334283 0.002013545618423638
рантайм: 0.000949667616334283 0.0033300644798860226
удобно: 0.002849002849002849 0.005404900241840118
создаются: 0.000949667616334283 0.0037151215626098255
CLI: 0.001899335232668566 0.007430243125219651
который: 0.003798670465337132 0.0009438228273447283
заменить: 0.000949667616334283 0.0021866904966705092
webинтерфейс: 0.000949667616334283 0.0043733809933410184
Прочее: 0.000949667616334283 0.0037151215626098255
геолокации: 0.000949667616334283 0.0037151215626098255
IP: 0.000949667616334283 0.0026718050491548306
получение: 0.000949667616334283 0.002096177505403344
изображений: 0.000949667616334283 0.0037151215626098255
типа: 0.000949667616334283 0.0012088942790245845
флагов: 0.000949667616334283 0.0037151215626098255
иконок: 0.000949667616334283 0.0043733809933410184
платежных: 0.000949667616334283 0.0043733809933410184
карт: 0.000949667616334283 0.003056862131878633
обрезка: 0.001899335232668566 0.008746761986682037
ресайз: 0.000949667616334283 0.0043733809933410184
изображения: 0.001899335232668566 0.005689899854803402
url: 0.000949667616334283 0.0026718050491548306
настройки: 0.001899335232668566 0.003734307419511553
вебхуков: 0.000949667616334283 0.0037151215626098255
событие: 0.000949667616334283 0.0025254131404869686
Установка: 0.000949667616334283 0.003056862131878633
Заводится: 0.000949667616334283 0.0043733809933410184
запустить: 0.000949667616334283 0.0016284885356998354
дроплет: 0.001899335232668566 0.008746761986682037
пользоваться: 0.000949667616334283 0.002096177505403344
желания: 0.000949667616334283 0.003056862131878633
тратить: 0.000949667616334283 0.0022867479664310277
существует: 0.000949667616334283 0.0015771426465542744
огромный: 0.000949667616334283 0.003056862131878633
Docker: 0.002849002849002849 0.008015415147464492
Compose: 0.001899335232668566 0.007430243125219651
Редактируем: 0.000949667616334283 0.0043733809933410184
нужными: 0.000949667616334283 0.0037151215626098255
volumes: 0.001899335232668566 0.007430243125219651
добавляем: 0.000949667616334283 0.0019375316510223692
файл: 0.002849002849002849 0.0037302943589280976
запускать: 0.000949667616334283 0.0018671537097557766
Настройка: 0.001899335232668566 0.006113724263757266
происходит: 0.000949667616334283 0.0012792722202911771
файла: 0.000949667616334283 0.0018671537097557766
устанавливали: 0.000949667616334283 0.0037151215626098255
сразу: 0.000949667616334283 0.0009969820745476521
находится: 0.001899335232668566 0.002417788558049169
адресу: 0.000949667616334283 0.002844949927401701
rootappwriteenv: 0.000949667616334283 0.0043733809933410184
Правок: 0.000949667616334283 0.0043733809933410184
вносить: 0.000949667616334283 0.0026718050491548306
указать: 0.001899335232668566 0.0038750633020447384
APPDOMAINTARGET: 0.000949667616334283 0.0043733809933410184
адресом: 0.000949667616334283 0.0043733809933410184
хоста: 0.000949667616334283 0.003056862131878633
Можно: 0.000949667616334283 0.001082083839685057
настроить: 0.002849002849002849 0.005812594953067108
SMTP: 0.000949667616334283 0.0043733809933410184
делать: 0.000949667616334283 0.000758316900491711
обязательно: 0.000949667616334283 0.0016284885356998354
особенно: 0.000949667616334283 0.0015284310659393165
планируете: 0.000949667616334283 0.0033300644798860226
будут: 0.003798670465337132 0.0025578140674786917
регистрироваться: 0.000949667616334283 0.0037151215626098255
планируется: 0.000949667616334283 0.0043733809933410184
хранить: 0.002849002849002849 0.006860243899293082
какойто: 0.000949667616334283 0.002013545618423638
предложеных: 0.000949667616334283 0.0043733809933410184
конфигурации: 0.000949667616334283 0.0017403432704162492
решений: 0.000949667616334283 0.002096177505403344
Например: 0.001899335232668566 0.001559317287881919
поля: 0.001899335232668566 0.004797205402294883
APPSTORAGEDOSPACESACCESSKEY: 0.000949667616334283 0.0043733809933410184
APPSTORAGEDOSPACESSECRET: 0.000949667616334283 0.0043733809933410184
APPSTORAGEDOSPACESREGION: 0.000949667616334283 0.0043733809933410184
APPSTORAGEDOSPACESBUCKET: 0.000949667616334283 0.0043733809933410184
Тут: 0.001899335232668566 0.0034806865408324983
встретить: 0.000949667616334283 0.0033300644798860226
APPFUNCTIONSRUNTIMES: 0.000949667616334283 0.0043733809933410184
На: 0.002849002849002849 0.0010571614854439657
данный: 0.000949667616334283 0.0014379180746721515
момент: 0.001899335232668566 0.00135489057526584
варианты: 0.000949667616334283 0.002013545618423638
node145: 0.000949667616334283 0.0043733809933410184
node160: 0.000949667616334283 0.0043733809933410184
node180: 0.000949667616334283 0.0043733809933410184
php80: 0.000949667616334283 0.0043733809933410184
php81: 0.000949667616334283 0.0043733809933410184
ruby30: 0.000949667616334283 0.0043733809933410184
ruby31: 0.000949667616334283 0.0043733809933410184
python38: 0.000949667616334283 0.0043733809933410184
python39: 0.000949667616334283 0.0043733809933410184
python310: 0.000949667616334283 0.0043733809933410184
deno121: 0.000949667616334283 0.0043733809933410184
deno124: 0.000949667616334283 0.0043733809933410184
dart215: 0.000949667616334283 0.0043733809933410184
dart216: 0.000949667616334283 0.0043733809933410184
dart217: 0.000949667616334283 0.0043733809933410184
dotnet31: 0.000949667616334283 0.0043733809933410184
dotnet60: 0.000949667616334283 0.0043733809933410184
java80: 0.000949667616334283 0.0043733809933410184
java110: 0.000949667616334283 0.0043733809933410184
java170: 0.000949667616334283 0.0043733809933410184
java180: 0.000949667616334283 0.0043733809933410184
swift55: 0.000949667616334283 0.0043733809933410184
kotlin16: 0.000949667616334283 0.0043733809933410184
cpp170: 0.000949667616334283 0.0043733809933410184
Вот: 0.000949667616334283 0.0011755691889853916
вся: 0.000949667616334283 0.0021866904966705092
настройка: 0.000949667616334283 0.0026718050491548306
После: 0.000949667616334283 0.0008014910449140826
заходить: 0.000949667616334283 0.0033300644798860226
ваш: 0.000949667616334283 0.0016284885356998354
админа: 0.000949667616334283 0.0043733809933410184
начать: 0.000949667616334283 0.0017403432704162492
настройку: 0.000949667616334283 0.0026718050491548306
первого: 0.000949667616334283 0.0018671537097557766
проекта: 0.001899335232668566 0.002486862905952065
Проект: 0.001899335232668566 0.005343610098309661
Сначала: 0.000949667616334283 0.0019375316510223692
требуется: 0.000949667616334283 0.0014820966270319739
создать: 0.000949667616334283 0.0010528609919483486
организацию: 0.000949667616334283 0.0043733809933410184
создаваться: 0.000949667616334283 0.0043733809933410184
проекты: 0.000949667616334283 0.002096177505403344
Очень: 0.000949667616334283 0.0022867479664310277
необходимо: 0.002849002849002849 0.0029909462236429566
дать: 0.000949667616334283 0.0019375316510223692
группе: 0.000949667616334283 0.0025254131404869686
проектов: 0.000949667616334283 0.0015771426465542744
клиенту: 0.000949667616334283 0.0025254131404869686
В: 0.005698005698005698 0.00023260395738037152
добавить: 0.000949667616334283 0.0012088942790245845
подключаться: 0.000949667616334283 0.0033300644798860226
серверу: 0.001899335232668566 0.0043733809933410184
сгенерировать: 0.000949667616334283 0.0026718050491548306
токен: 0.002849002849002849 0.008534849782205103
доступа: 0.004748338081671415 0.006978518376348251
содержать: 0.000949667616334283 0.0025254131404869686
несколько: 0.000949667616334283 0.00043878011357697876
баз: 0.000949667616334283 0.0026718050491548306
своего: 0.000949667616334283 0.0009969820745476521
создал: 0.000949667616334283 0.0022867479664310277
две: 0.000949667616334283 0.0012434314529760325
базы: 0.003798670465337132 0.008746761986682037
Одну: 0.000949667616334283 0.0037151215626098255
токенов: 0.003798670465337132 0.01332025791954409
вторую: 0.000949667616334283 0.0037151215626098255
контента: 0.000949667616334283 0.003056862131878633
пользователя: 0.002849002849002849 0.0040658585630773385
При: 0.002849002849002849 0.0019747782921935766
создании: 0.001899335232668566 0.004027091236847276
очень: 0.003798670465337132 0.001940458209937287
очевидно: 0.000949667616334283 0.002096177505403344
самому: 0.000949667616334283 0.0022867479664310277
выбрать: 0.000949667616334283 0.0019375316510223692
id: 0.001899335232668566 0.005050826280973937
тапом: 0.000949667616334283 0.0043733809933410184
кнопке: 0.000949667616334283 0.003056862131878633
полем: 0.000949667616334283 0.0037151215626098255
названия: 0.000949667616334283 0.002844949927401701
Database: 0.000949667616334283 0.0043733809933410184
ID: 0.003798670465337132 0.010687220196619322
Форма: 0.000949667616334283 0.0037151215626098255
создания: 0.000949667616334283 0.001082083839685057
Свой: 0.000949667616334283 0.0037151215626098255
полезен: 0.000949667616334283 0.0023986027011474414
прописывая: 0.000949667616334283 0.0043733809933410184
какие: 0.000949667616334283 0.0012434314529760325
либо: 0.000949667616334283 0.0016284885356998354
триггеры: 0.000949667616334283 0.0043733809933410184
события: 0.000949667616334283 0.0025254131404869686
подключаясь: 0.000949667616334283 0.0043733809933410184
c: 0.001899335232668566 0.0043733809933410184
клиента: 0.000949667616334283 0.0017403432704162492
визуально: 0.000949667616334283 0.002844949927401701
видно: 0.001899335232668566 0.0034806865408324983
Каждая: 0.000949667616334283 0.0023986027011474414
коллекции: 0.003798670465337132 0.01332025791954409
таблицы: 0.000949667616334283 0.0023986027011474414
наши: 0.000949667616334283 0.0016284885356998354
данные: 0.001899335232668566 0.0012058466712933894
Плюс: 0.000949667616334283 0.002096177505403344
также: 0.000949667616334283 0.00038032057606564616
сюда: 0.000949667616334283 0.003056862131878633
вписать: 0.000949667616334283 0.0043733809933410184
свой: 0.000949667616334283 0.0009188832158230824
самой: 0.001899335232668566 0.0034806865408324983
настройках: 0.000949667616334283 0.002844949927401701
дан: 0.000949667616334283 0.0043733809933410184
развернутый: 0.000949667616334283 0.0043733809933410184
опций: 0.000949667616334283 0.003056862131878633
Documents: 0.000949667616334283 0.0037151215626098255
содержимое: 0.000949667616334283 0.0025254131404869686
нашей: 0.000949667616334283 0.0012434314529760325
Лимит: 0.000949667616334283 0.0043733809933410184
поэтому: 0.001899335232668566 0.0016934437213367208
внизу: 0.000949667616334283 0.002844949927401701
написано: 0.000949667616334283 0.0037151215626098255
коллекция: 0.001899335232668566 0.008746761986682037
документов: 0.000949667616334283 0.002844949927401701
разы: 0.000949667616334283 0.0043733809933410184
Возможно: 0.000949667616334283 0.0018671537097557766
когданибудь: 0.000949667616334283 0.003056862131878633
поправят: 0.000949667616334283 0.0043733809933410184
Attributes: 0.000949667616334283 0.0043733809933410184
описание: 0.000949667616334283 0.0018671537097557766
типами: 0.000949667616334283 0.0033300644798860226
Indexes: 0.000949667616334283 0.0043733809933410184
нужны: 0.000949667616334283 0.0017403432704162492
ускорения: 0.000949667616334283 0.0026718050491548306
базе: 0.000949667616334283 0.0014379180746721515
А: 0.000949667616334283 0.0003946015612171565
необходимы: 0.000949667616334283 0.002844949927401701
получить: 0.000949667616334283 0.0008942151375673742
какойнибудь: 0.000949667616334283 0.002844949927401701
сортировке: 0.000949667616334283 0.0043733809933410184
Activity: 0.000949667616334283 0.0037151215626098255
показывает: 0.000949667616334283 0.0018016334139467059
последние: 0.000949667616334283 0.002096177505403344
устройства: 0.000949667616334283 0.0018016334139467059
произведены: 0.000949667616334283 0.0043733809933410184
время: 0.000949667616334283 0.00032525195531507686
Usage: 0.000949667616334283 0.0037151215626098255
различные: 0.000949667616334283 0.0018016334139467059
графики: 0.000949667616334283 0.0022867479664310277
чтения: 0.000949667616334283 0.0018671537097557766
удаления: 0.001899335232668566 0.0043733809933410184
актуально: 0.000949667616334283 0.0026718050491548306
отдавать: 0.000949667616334283 0.003056862131878633
статистику: 0.000949667616334283 0.0033300644798860226
другие: 0.001899335232668566 0.002049021199186952
сервисы: 0.000949667616334283 0.0019375316510223692
плюс: 0.000949667616334283 0.0023986027011474414
практике: 0.000949667616334283 0.0014820966270319739
проверял: 0.000949667616334283 0.0037151215626098255
Settings: 0.000949667616334283 0.0043733809933410184
поменять: 0.000949667616334283 0.0026718050491548306
название: 0.000949667616334283 0.001682770030324668
права: 0.001899335232668566 0.004797205402294883
групп: 0.000949667616334283 0.002096177505403344
пользователей: 0.002849002849002849 0.004313754224016455
моем: 0.000949667616334283 0.0022867479664310277
случае: 0.000949667616334283 0.0004539751196039884
авторизовать: 0.000949667616334283 0.0033300644798860226
регистрировать: 0.000949667616334283 0.0043733809933410184
дал: 0.000949667616334283 0.0026718050491548306
практически: 0.000949667616334283 0.0014820966270319739
полный: 0.000949667616334283 0.0023986027011474414
кроме: 0.000949667616334283 0.0016284885356998354
readonly: 0.000949667616334283 0.0033300644798860226
коллекций: 0.000949667616334283 0.0043733809933410184
Хранилище: 0.001899335232668566 0.007430243125219651
разделяется: 0.000949667616334283 0.0043733809933410184
бакеты: 0.000949667616334283 0.0043733809933410184
каждый: 0.001899335232668566 0.0017403432704162492
бакет: 0.000949667616334283 0.0043733809933410184
бакете: 0.000949667616334283 0.0043733809933410184
будете: 0.000949667616334283 0.0022867479664310277
отдельный: 0.000949667616334283 0.002096177505403344
интерфейс: 0.000949667616334283 0.0015284310659393165
обрежет: 0.000949667616334283 0.0043733809933410184
отмасштабирует: 0.000949667616334283 0.0043733809933410184
добавит: 0.000949667616334283 0.0043733809933410184
скругление: 0.000949667616334283 0.0043733809933410184
httpsappwriteiodocsclientstoragesdkwebdefaultstorageGetFilePreview: 0.000949667616334283 0.0043733809933410184
Среди: 0.000949667616334283 0.0033300644798860226
пулреквестов: 0.000949667616334283 0.0043733809933410184
видел: 0.000949667616334283 0.0033300644798860226
поддержку: 0.000949667616334283 0.002013545618423638
HLS: 0.000949667616334283 0.0043733809933410184
возможно: 0.000949667616334283 0.0012088942790245845
будущем: 0.000949667616334283 0.0018671537097557766
грузить: 0.000949667616334283 0.0043733809933410184
видео: 0.002849002849002849 0.004885465607099506
файлы: 0.000949667616334283 0.0021866904966705092
быстрее: 0.000949667616334283 0.0014820966270319739
Для: 0.002849002849002849 0.0009757558659452306
примеров: 0.000949667616334283 0.0025254131404869686
нашем: 0.000949667616334283 0.0015771426465542744
проекте: 0.000949667616334283 0.002013545618423638
использовали: 0.000949667616334283 0.0018671537097557766
подготовки: 0.000949667616334283 0.0021866904966705092
превью: 0.000949667616334283 0.0037151215626098255
роликов: 0.000949667616334283 0.0043733809933410184
сжатие: 0.000949667616334283 0.003056862131878633
ffmpeg: 0.000949667616334283 0.0043733809933410184
запускалась: 0.000949667616334283 0.0043733809933410184
каждом: 0.000949667616334283 0.002013545618423638
изменении: 0.000949667616334283 0.002844949927401701
видеороликами: 0.000949667616334283 0.0043733809933410184
операции: 0.000949667616334283 0.002096177505403344
пуш: 0.000949667616334283 0.0043733809933410184
отправке: 0.000949667616334283 0.0033300644798860226
уведомлений: 0.001899335232668566 0.007430243125219651
отметить: 0.000949667616334283 0.0015771426465542744
интересный: 0.000949667616334283 0.0026718050491548306
По: 0.000949667616334283 0.000737444244538458
умолчанию: 0.000949667616334283 0.0015771426465542744
функцию: 0.000949667616334283 0.0018016334139467059
передается: 0.000949667616334283 0.0033300644798860226
запустил: 0.000949667616334283 0.0037151215626098255
нужен: 0.000949667616334283 0.0012792722202911771
ключи: 0.000949667616334283 0.0026718050491548306
токеном: 0.000949667616334283 0.0037151215626098255
Иначе: 0.000949667616334283 0.0033300644798860226
можете: 0.000949667616334283 0.001082083839685057
долго: 0.000949667616334283 0.002096177505403344
гадать: 0.000949667616334283 0.0043733809933410184
почему: 0.000949667616334283 0.0012792722202911771
выполнение: 0.000949667616334283 0.002096177505403344
падает: 0.000949667616334283 0.0025254131404869686
мной: 0.000949667616334283 0.0022867479664310277
писал: 0.000949667616334283 0.0025254131404869686
приходилось: 0.000949667616334283 0.0019375316510223692
логи: 0.001899335232668566 0.007430243125219651
контейнера: 0.002849002849002849 0.008534849782205103
чтото: 0.000949667616334283 0.0011755691889853916
крашится: 0.000949667616334283 0.0043733809933410184
логов: 0.001899335232668566 0.008746761986682037
помогут: 0.000949667616334283 0.002844949927401701
Id: 0.000949667616334283 0.0043733809933410184
активного: 0.000949667616334283 0.0043733809933410184
рантайма: 0.000949667616334283 0.0043733809933410184
указано: 0.000949667616334283 0.003056862131878633
поле: 0.000949667616334283 0.002013545618423638
Deployment: 0.000949667616334283 0.0043733809933410184
Pushуведомления: 0.000949667616334283 0.0043733809933410184
Серьезный: 0.000949667616334283 0.0043733809933410184
недостаток: 0.000949667616334283 0.002844949927401701
поддержки: 0.000949667616334283 0.0019375316510223692
пушей: 0.003798670465337132 0.017493523973364074
коробки: 0.000949667616334283 0.0022867479664310277
реализовать: 0.000949667616334283 0.0018016334139467059
остальное: 0.000949667616334283 0.0026718050491548306
функциями: 0.000949667616334283 0.0025254131404869686
базой: 0.000949667616334283 0.0026718050491548306
нам: 0.000949667616334283 0.0006970267569612541
нужна: 0.000949667616334283 0.0018671537097557766
будем: 0.000949667616334283 0.0012792722202911771
пуши: 0.000949667616334283 0.0037151215626098255
функция: 0.001899335232668566 0.003734307419511553
позволит: 0.000949667616334283 0.0018671537097557766
писать: 0.000949667616334283 0.0015284310659393165
Я: 0.000949667616334283 0.0009442091864614121
стал: 0.000949667616334283 0.0015284310659393165
разрешать: 0.000949667616334283 0.0037151215626098255
пользователям: 0.000949667616334283 0.0026718050491548306
читать: 0.000949667616334283 0.002096177505403344
коллекцию: 0.000949667616334283 0.003056862131878633
отвечать: 0.000949667616334283 0.0022867479664310277
принимать: 0.000949667616334283 0.0021866904966705092
платформу: 0.000949667616334283 0.0025254131404869686
отправителя: 0.000949667616334283 0.0043733809933410184
взял: 0.000949667616334283 0.0033300644798860226
go: 0.000949667616334283 0.003056862131878633
реализацию: 0.000949667616334283 0.002844949927401701
appleboygorush: 0.001899335232668566 0.008746761986682037
добавил: 0.000949667616334283 0.0026718050491548306
gorush: 0.001899335232668566 0.008746761986682037
image: 0.000949667616334283 0.003056862131878633
containername: 0.000949667616334283 0.0043733809933410184
pushserver: 0.000949667616334283 0.0043733809933410184
restart: 0.000949667616334283 0.0037151215626098255
unlessstopped: 0.000949667616334283 0.0043733809933410184
networks: 0.000949667616334283 0.0037151215626098255
appwrite: 0.001899335232668566 0.008746761986682037
runtimes: 0.000949667616334283 0.0043733809933410184
PWDgorushconfigymlconfigymlrw: 0.000949667616334283 0.0043733809933410184
добавляю: 0.000949667616334283 0.0037151215626098255
сетям: 0.000949667616334283 0.0043733809933410184
всякий: 0.000949667616334283 0.0026718050491548306
случай: 0.000949667616334283 0.0018671537097557766
массовой: 0.000949667616334283 0.0037151215626098255
рассылке: 0.000949667616334283 0.0043733809933410184
учесть: 0.000949667616334283 0.0026718050491548306
лимиты: 0.000949667616334283 0.0037151215626098255
значения: 0.000949667616334283 0.0013957036752696502
Лучше: 0.000949667616334283 0.002844949927401701
собрать: 0.000949667616334283 0.0023986027011474414
токены: 0.000949667616334283 0.0037151215626098255
рассылки: 0.000949667616334283 0.0043733809933410184
путем: 0.000949667616334283 0.0025254131404869686
курсор: 0.000949667616334283 0.0033300644798860226
котором: 0.000949667616334283 0.0009969820745476521
поминал: 0.000949667616334283 0.0043733809933410184
ранее: 0.000949667616334283 0.001682770030324668
документация: 0.000949667616334283 0.003056862131878633
продумать: 0.000949667616334283 0.0033300644798860226
механизм: 0.000949667616334283 0.0019375316510223692
неактивных: 0.000949667616334283 0.0043733809933410184
терять: 0.000949667616334283 0.0033300644798860226
актуальность: 0.000949667616334283 0.0043733809933410184
К: 0.001899335232668566 0.0021057219838966973
автоматического: 0.000949667616334283 0.0033300644798860226
нашел: 0.000949667616334283 0.003056862131878633
пока: 0.000949667616334283 0.0009702291049686432
обхожусь: 0.000949667616334283 0.0043733809933410184
парсингом: 0.000949667616334283 0.0043733809933410184
выделением: 0.000949667616334283 0.0037151215626098255
провалились: 0.000949667616334283 0.0043733809933410184
удалением: 0.000949667616334283 0.0043733809933410184
Хорошо: 0.000949667616334283 0.002844949927401701
операция: 0.000949667616334283 0.0025254131404869686
такая: 0.000949667616334283 0.0015771426465542744
частая: 0.000949667616334283 0.0043733809933410184
решить: 0.000949667616334283 0.0012088942790245845
bashем: 0.000949667616334283 0.0043733809933410184
cron: 0.000949667616334283 0.0037151215626098255
Пользуясь: 0.000949667616334283 0.0043733809933410184
логами: 0.000949667616334283 0.0043733809933410184
удалил: 0.000949667616334283 0.0037151215626098255
порядка: 0.000949667616334283 0.0019375316510223692
половины: 0.000949667616334283 0.003056862131878633
хранившехся: 0.000949667616334283 0.0043733809933410184
Аналитика: 0.000949667616334283 0.0037151215626098255
замены: 0.000949667616334283 0.003056862131878633
аналитики: 0.000949667616334283 0.0025254131404869686
отказаться: 0.000949667616334283 0.002096177505403344
посмотреть: 0.000949667616334283 0.0013552861876924463
httpsgithubcomCountlycountlyserver: 0.000949667616334283 0.0043733809933410184
умеет: 0.000949667616334283 0.0022867479664310277
собирать: 0.000949667616334283 0.0021866904966705092
краши: 0.000949667616334283 0.0043733809933410184
отправлять: 0.000949667616334283 0.0022867479664310277
pushуведомления: 0.000949667616334283 0.0043733809933410184
Уверен: 0.000949667616334283 0.0037151215626098255
Заключение: 0.000949667616334283 0.0014820966270319739
подающий: 0.000949667616334283 0.0043733809933410184
надежны: 0.000949667616334283 0.0043733809933410184
аналог: 0.000949667616334283 0.0026718050491548306
продолжает: 0.000949667616334283 0.0023986027011474414
развиваться: 0.000949667616334283 0.0023986027011474414
сильный: 0.000949667616334283 0.0033300644798860226
потенциял: 0.000949667616334283 0.0043733809933410184
активный: 0.000949667616334283 0.0037151215626098255
дискорд: 0.000949667616334283 0.0043733809933410184
задать: 0.000949667616334283 0.003056862131878633
вопросы: 0.000949667616334283 0.0013957036752696502
каждому: 0.000949667616334283 0.0016284885356998354
модулю: 0.000949667616334283 0.003056862131878633
чатах: 0.000949667616334283 0.0043733809933410184
порой: 0.000949667616334283 0.0043733809933410184
Наш: 0.000949667616334283 0.002844949927401701
продакшене: 0.000949667616334283 0.0037151215626098255
3й: 0.000949667616334283 0.0037151215626098255
месяц: 0.000949667616334283 0.002013545618423638
переживал: 0.000949667616334283 0.0037151215626098255
нагрузку: 0.000949667616334283 0.0026718050491548306
тысяч: 0.000949667616334283 0.0021866904966705092
сутки: 0.000949667616334283 0.0043733809933410184
самом: 0.000949667616334283 0.001024510599593476
дешевом: 0.000949667616334283 0.0043733809933410184
дроплете: 0.000949667616334283 0.0043733809933410184
DigitalOcean‑а: 0.000949667616334283 0.0043733809933410184
серьезных: 0.000949667616334283 0.0033300644798860226
проблем: 0.000949667616334283 0.0015771426465542744
загрузкой: 0.000949667616334283 0.0037151215626098255
заметил: 0.000949667616334283 0.003056862131878633
Следил: 0.000949667616334283 0.0043733809933410184
Performance: 0.000949667616334283 0.0037151215626098255
отдельным: 0.000949667616334283 0.0037151215626098255
моментам: 0.000949667616334283 0.0037151215626098255
скорость: 0.000949667616334283 0.0018016334139467059
загрузки: 0.000949667616334283 0.0022867479664310277
Сами: 0.000949667616334283 0.0033300644798860226
запросы: 0.000949667616334283 0.0016284885356998354
нашему: 0.000949667616334283 0.0023986027011474414
автоматически: 0.000949667616334283 0.0015284310659393165
трекает: 0.000949667616334283 0.0043733809933410184
целом: 0.000949667616334283 0.0012088942790245845
результат: 0.000949667616334283 0.001024510599593476
устроил: 0.000949667616334283 0.0043733809933410184
Не: 0.000949667616334283 0.0008942151375673742
хватает: 0.000949667616334283 0.0021866904966705092
какого: 0.000949667616334283 0.0037151215626098255
дополнительного: 0.000949667616334283 0.002844949927401701
Заполнять: 0.000949667616334283 0.0043733809933410184
вручную: 0.000949667616334283 0.0021866904966705092
утомительно: 0.000949667616334283 0.0037151215626098255
