Какоето: 0.0027397260273972603 0.012616904619145457
время: 0.0027397260273972603 0.0009383296135528107
модификатор: 0.005479452054794521 0.025233809238290914
onHoverperform: 0.0027397260273972603 0.012616904619145457
SwiftUI: 0.010958904109589041 0.04287148499099338
который: 0.0027397260273972603 0.000680716052872602
вызывается: 0.0027397260273972603 0.009607007937862963
пользователь: 0.005479452054794521 0.009709352558530825
перемещает: 0.0027397260273972603 0.009607007937862963
указатель: 0.005479452054794521 0.025233809238290914
рамкой: 0.0027397260273972603 0.012616904619145457
view: 0.0136986301369863 0.053589356238741725
представление: 0.0027397260273972603 0.006047328529286907
вью: 0.0027397260273972603 0.012616904619145457
вьюшка: 0.0027397260273972603 0.012616904619145457
неё: 0.0027397260273972603 0.005808941195068742
Раньше: 0.0027397260273972603 0.008818837876351234
официального: 0.0027397260273972603 0.010717871247748345
способа: 0.0027397260273972603 0.007707974566465854
непрерывного: 0.0027397260273972603 0.010717871247748345
отслеживания: 0.0027397260273972603 0.009607007937862963
местоположения: 0.005479452054794521 0.019214015875725927
указателя: 0.021917808219178082 0.10093523695316366
Это: 0.0027397260273972603 0.0009383296135528107
изменилось: 0.0027397260273972603 0.012616904619145457
введением: 0.0027397260273972603 0.012616904619145457
onContinuousHovercoordinateSpaceperform: 0.0027397260273972603 0.012616904619145457
macOS: 0.00821917808219178 0.037850713857436366
iPadOS: 0.0027397260273972603 0.010717871247748345
Новый: 0.0027397260273972603 0.008818837876351234
позволяет: 0.0027397260273972603 0.0021274761356136884
нам: 0.005479452054794521 0.0040217489045490445
читать: 0.0027397260273972603 0.006047328529286907
текущую: 0.0027397260273972603 0.010717871247748345
HoverPhase: 0.0027397260273972603 0.012616904619145457
сообщает: 0.005479452054794521 0.016414971361939677
точное: 0.0027397260273972603 0.010717871247748345
местоположение: 0.00821917808219178 0.0264565136290537
находится: 0.005479452054794521 0.0069751543880158225
пределах: 0.0027397260273972603 0.008818837876351234
границ: 0.0027397260273972603 0.009607007937862963
Давайте: 0.0027397260273972603 0.004148295157889796
посмотрим: 0.0027397260273972603 0.005808941195068742
это: 0.0027397260273972603 0.0001695216540221574
действии: 0.0027397260273972603 0.010717871247748345
Чтение: 0.0027397260273972603 0.010717871247748345
фазы: 0.0027397260273972603 0.010717871247748345
наведения: 0.010958904109589041 0.04287148499099338
В: 0.005479452054794521 0.00022368216175482303
примере: 0.0027397260273972603 0.005020771133557015
собираемся: 0.00821917808219178 0.03215361374324503
определить: 0.0027397260273972603 0.0045499485118401396
простой: 0.0027397260273972603 0.003909907823671632
прямоугольник: 0.005479452054794521 0.02143574249549669
скруглёнными: 0.0027397260273972603 0.012616904619145457
углами: 0.005479452054794521 0.02143574249549669
применить: 0.0027397260273972603 0.006047328529286907
нему: 0.0027397260273972603 0.004409418938175617
onContinuousHover: 0.010958904109589041 0.05046761847658183
Активная: 0.0027397260273972603 0.010717871247748345
фаза: 0.0027397260273972603 0.010717871247748345
содержит: 0.0027397260273972603 0.005386610565405021
сохранить: 0.0027397260273972603 0.007285643936802131
переменной: 0.0027397260273972603 0.007707974566465854
State: 0.019178082191780823 0.07502509873423842
Мы: 0.005479452054794521 0.004137110050838536
также: 0.0027397260273972603 0.001097198812594864
зарегистрироваться: 0.0027397260273972603 0.008818837876351234
struct: 0.00821917808219178 0.024622457042909513
ContentView: 0.00821917808219178 0.03215361374324503
View: 0.01643835616438356 0.05764204762717778
private: 0.01643835616438356 0.04371386362081278
var: 0.024657534246575342 0.06937177109819267
hoverLocation: 0.01643835616438356 0.07570142771487273
CGPoint: 0.00821917808219178 0.037850713857436366
zero: 0.00821917808219178 0.03215361374324503
isHovering: 0.030136986301369864 0.13878595081060002
false: 0.01643835616438356 0.03353787663331322
body: 0.00821917808219178 0.024622457042909513
some: 0.00821917808219178 0.024622457042909513
RoundedRectanglecornerRadius: 0.00821917808219178 0.037850713857436366
style: 0.00821917808219178 0.03215361374324503
continuous: 0.00821917808219178 0.037850713857436366
fillindigo: 0.00821917808219178 0.037850713857436366
phase: 0.01643835616438356 0.07570142771487273
in: 0.01643835616438356 0.031185533998124074
switch: 0.00821917808219178 0.03215361374324503
case: 0.01643835616438356 0.049244914085819026
activelet: 0.00821917808219178 0.037850713857436366
location: 0.019178082191780823 0.07502509873423842
true: 0.00821917808219178 0.01814198558786072
ended: 0.00821917808219178 0.037850713857436366
Чтобы: 0.00821917808219178 0.007130141652367586
проверить: 0.0027397260273972603 0.004698077885183361
работает: 0.0027397260273972603 0.0023122467679302164
наш: 0.005479452054794521 0.0069751543880158225
код: 0.0027397260273972603 0.0020108744522745223
должным: 0.0027397260273972603 0.012616904619145457
образом: 0.0027397260273972603 0.0021274761356136884
поместим: 0.005479452054794521 0.025233809238290914
Text: 0.0027397260273972603 0.010717871247748345
координатами: 0.0027397260273972603 0.012616904619145457
overlay: 0.00821917808219178 0.037850713857436366
Текст: 0.0027397260273972603 0.008818837876351234
отображаться: 0.0027397260273972603 0.012616904619145457
наводит: 0.0027397260273972603 0.012616904619145457
курсор: 0.0027397260273972603 0.009607007937862963
if: 0.005479452054794521 0.009396155770366722
Textx: 0.0027397260273972603 0.012616904619145457
hoverLocationx: 0.005479452054794521 0.025233809238290914
y: 0.00821917808219178 0.037850713857436366
hoverLocationy: 0.005479452054794521 0.025233809238290914
foregroundColorwhite: 0.0027397260273972603 0.010717871247748345
увидим: 0.0027397260273972603 0.007285643936802131
текст: 0.0027397260273972603 0.005020771133557015
координаты: 0.00821917808219178 0.037850713857436366
x: 0.0027397260273972603 0.008207485680969838
локальном: 0.005479452054794521 0.016414971361939677
координатном: 0.0027397260273972603 0.012616904619145457
пространстве: 0.005479452054794521 0.015415949132931707
RoundedRectangle: 0.0027397260273972603 0.012616904619145457
local: 0.0027397260273972603 0.012616904619145457
локальное: 0.0027397260273972603 0.010717871247748345
координатное: 0.005479452054794521 0.025233809238290914
пространство: 0.00821917808219178 0.01615983169621506
используется: 0.0027397260273972603 0.003208720497268343
умолчанию: 0.0027397260273972603 0.0045499485118401396
onContinuousHoverperform: 0.0027397260273972603 0.012616904619145457
При: 0.0027397260273972603 0.0018990333713971104
необходимости: 0.0027397260273972603 0.004026509507010799
можем: 0.00821917808219178 0.008866928723604903
указать: 0.005479452054794521 0.011179292211104409
global: 0.0027397260273972603 0.010717871247748345
глобальное: 0.005479452054794521 0.025233809238290914
named: 0.0027397260273972603 0.010717871247748345
именованное: 0.005479452054794521 0.025233809238290914
Добавляем: 0.0027397260273972603 0.007707974566465854
круг: 0.00821917808219178 0.02882102381358889
месте: 0.005479452054794521 0.009709352558530825
продемонстрировать: 0.0027397260273972603 0.008207485680969838
использовать: 0.00821917808219178 0.0032915964377845915
информацию: 0.0027397260273972603 0.0045499485118401396
координатах: 0.0027397260273972603 0.012616904619145457
маленький: 0.0027397260273972603 0.0065971112565804705
текущее: 0.0027397260273972603 0.007285643936802131
курсора: 0.0027397260273972603 0.009607007937862963
Положение: 0.0027397260273972603 0.012616904619145457
круга: 0.0027397260273972603 0.012616904619145457
иметь: 0.0027397260273972603 0.004409418938175617
Circle: 0.0027397260273972603 0.012616904619145457
fillwhite: 0.0027397260273972603 0.012616904619145457
opacity05: 0.0027397260273972603 0.012616904619145457
positionx: 0.0027397260273972603 0.012616904619145457
Обратите: 0.0027397260273972603 0.0065971112565804705
внимание: 0.0027397260273972603 0.0034875771940079113
поскольку: 0.0027397260273972603 0.005197588999687346
помещаем: 0.0027397260273972603 0.010717871247748345
наложение: 0.0027397260273972603 0.012616904619145457
прямоугольника: 0.005479452054794521 0.025233809238290914
скругленными: 0.0027397260273972603 0.012616904619145457
просто: 0.0027397260273972603 0.0016881812039008684
данные: 0.0027397260273972603 0.0017393925272218343
координат: 0.0027397260273972603 0.010717871247748345
других: 0.0027397260273972603 0.002376713884122529
случаях: 0.0027397260273972603 0.005589646105552204
потребоваться: 0.0027397260273972603 0.009607007937862963
Связанные: 0.0027397260273972603 0.012616904619145457
посты: 0.0027397260273972603 0.012616904619145457
·: 0.010958904109589041 0.05046761847658183
Adjust: 0.0027397260273972603 0.012616904619145457
the: 0.0027397260273972603 0.005808941195068742
direction: 0.0027397260273972603 0.010717871247748345
of: 0.0027397260273972603 0.005197588999687346
focusbased: 0.0027397260273972603 0.012616904619145457
navigation: 0.0027397260273972603 0.012616904619145457
Programmatically: 0.0027397260273972603 0.012616904619145457
open: 0.0027397260273972603 0.009607007937862963
a: 0.0027397260273972603 0.0048546762792654125
new: 0.0027397260273972603 0.005808941195068742
window: 0.005479452054794521 0.025233809238290914
on: 0.005479452054794521 0.012616904619145457
Detect: 0.0027397260273972603 0.010717871247748345
focused: 0.0027397260273972603 0.012616904619145457
Get: 0.0027397260273972603 0.010717871247748345
tap: 0.0027397260273972603 0.010717871247748345
Если: 0.0027397260273972603 0.0006113521953813966
нравится: 0.0027397260273972603 0.005808941195068742
блог: 0.0027397260273972603 0.008818837876351234
хотите: 0.0027397260273972603 0.0048546762792654125
поддержать: 0.0027397260273972603 0.008207485680969838
можете: 0.0027397260273972603 0.0031217377621599036
спонсировать: 0.0027397260273972603 0.012616904619145457
GitHub: 0.0027397260273972603 0.007707974566465854
получать: 0.0027397260273972603 0.004409418938175617
новости: 0.0027397260273972603 0.007707974566465854
блоге: 0.0027397260273972603 0.008207485680969838
советы: 0.0027397260273972603 0.008818837876351234
разработке: 0.0027397260273972603 0.0065971112565804705
следите: 0.0027397260273972603 0.012616904619145457
нами: 0.0027397260273972603 0.005386610565405021
Твиттере: 0.0027397260273972603 0.012616904619145457
