Привет: 0.0005834305717619603 0.0012370265672112548
Хабр: 0.0005834305717619603 0.001404869083227463
Это: 0.0029171528588098016 0.0009990965838587394
команда: 0.0005834305717619603 0.0011470903479421427
Eppie: 0.003500583430571762 0.016120782448032993
Подробнее: 0.0005834305717619603 0.0013433985373360827
нашем: 0.001750291715285881 0.0029067640726166584
проекте: 0.0005834305717619603 0.0012370265672112548
бессерверной: 0.0005834305717619603 0.0026867970746721655
электронной: 0.0005834305717619603 0.0016414298230805345
почты: 0.0005834305717619603 0.0018779905629336057
почитать: 0.0005834305717619603 0.001747801793205362
посте: 0.0005834305717619603 0.001747801793205362
Мы: 0.0005834305717619603 0.0004405032580385255
параллельно: 0.0005834305717619603 0.0018779905629336057
созданием: 0.0005834305717619603 0.0014735873070643264
собственного: 0.0005834305717619603 0.0014735873070643264
децентрализованного: 0.0005834305717619603 0.0026867970746721655
протокола: 0.0029171528588098016 0.008207149115402674
интегрируем: 0.0005834305717619603 0.0026867970746721655
клиентское: 0.0011668611435239206 0.004564787637605771
приложение: 0.001750291715285881 0.0023577718459158858
популярные: 0.0005834305717619603 0.0015514936038114222
классические: 0.0005834305717619603 0.001747801793205362
сервисы: 0.0011668611435239206 0.0023806544090158163
Осенью: 0.0005834305717619603 0.0026867970746721655
познакомились: 0.0005834305717619603 0.0026867970746721655
основателем: 0.0005834305717619603 0.0026867970746721655
Proton: 0.002333722287047841 0.010747188298688662
Энди: 0.0005834305717619603 0.0026867970746721655
Йеном: 0.0005834305717619603 0.0026867970746721655
договорились: 0.0005834305717619603 0.0026867970746721655
добавить: 0.0005834305717619603 0.0007426870920728631
возможность: 0.0005834305717619603 0.0004530506356470223
подключения: 0.0005834305717619603 0.0013433985373360827
почтового: 0.0011668611435239206 0.004564787637605771
ящика: 0.0011668611435239206 0.004564787637605771
ProtonMail: 0.004667444574095682 0.021494376597377324
Насколько: 0.0005834305717619603 0.0022823938188028855
нам: 0.0005834305717619603 0.0004282200554726957
известно: 0.0005834305717619603 0.0018779905629336057
нативный: 0.0005834305717619603 0.0026867970746721655
десктопный: 0.0005834305717619603 0.0026867970746721655
клиент: 0.004667444574095682 0.010302333317104883
умеет: 0.0005834305717619603 0.001404869083227463
авторизоваться: 0.0005834305717619603 0.002045833078949814
сервере: 0.004667444574095682 0.009896212537690038
первым: 0.0005834305717619603 0.0012370265672112548
В: 0.007001166861143524 0.00028580159524099324
реализована: 0.0005834305717619603 0.0015514936038114222
собственная: 0.0005834305717619603 0.0022823938188028855
версия: 0.0005834305717619603 0.0010004658273581836
SRP: 0.005250875145857643 0.024181173672049493
Secure: 0.0011668611435239206 0.005373594149344331
Remote: 0.0011668611435239206 0.005373594149344331
Password: 0.0011668611435239206 0.004091666157899628
Наш: 0.0005834305717619603 0.001747801793205362
криптограф: 0.0005834305717619603 0.0026867970746721655
портировал: 0.0005834305717619603 0.0026867970746721655
библиотеку: 0.0005834305717619603 0.001404869083227463
C: 0.0005834305717619603 0.001106837797483011
Если: 0.0029171528588098016 0.0006509438486412187
хотите: 0.0005834305717619603 0.0010338137934258315
посмотреть: 0.0005834305717619603 0.0008326233113419753
код: 0.0005834305717619603 0.0004282200554726957
ссылка: 0.0005834305717619603 0.001404869083227463
репозиторий: 0.0005834305717619603 0.0013433985373360827
GitHub: 0.0005834305717619603 0.0016414298230805345
пример: 0.002333722287047841 0.003429815566065208
«: 0.012252042007001166 0.0038558492658306324
доказательства: 0.0011668611435239206 0.004564787637605771
нулевым: 0.0011668611435239206 0.005373594149344331
разглашением: 0.0011668611435239206 0.005373594149344331
»: 0.010501750291715286 0.0033050136564262565
Смысл: 0.0005834305717619603 0.002045833078949814
процедуры: 0.0011668611435239206 0.003495603586410724
доказать: 0.0011668611435239206 0.003282859646161069
факт: 0.0011668611435239206 0.0029471746141286528
владения: 0.0011668611435239206 0.0037559811258672114
определенной: 0.0005834305717619603 0.002045833078949814
информацией: 0.0011668611435239206 0.003495603586410724
раскрывая: 0.0011668611435239206 0.005373594149344331
саму: 0.0005834305717619603 0.0022823938188028855
информацию: 0.0005834305717619603 0.0009689213575388861
частности: 0.0005834305717619603 0.0012877916646381103
аутентификация: 0.002333722287047841 0.006565719292322138
позволяет: 0.002333722287047841 0.0018122025425880892
пользователю: 0.0011668611435239206 0.002809738166454926
знает: 0.0011668611435239206 0.0021383681023900932
пароль: 0.008751458576429404 0.023272404057171334
передавая: 0.0005834305717619603 0.0018779905629336057
серверу: 0.0011668611435239206 0.0026867970746721655
Сейчас: 0.0005834305717619603 0.0009105296080890713
расскажем: 0.0005834305717619603 0.001747801793205362
это: 0.005834305717619603 0.00036100002169245886
устроено: 0.0005834305717619603 0.0026867970746721655
изнутри: 0.0005834305717619603 0.002045833078949814
статье: 0.0005834305717619603 0.0005800771723126411
несколько: 0.0005834305717619603 0.0002695656123667203
несложных: 0.0005834305717619603 0.0026867970746721655
формул: 0.0011668611435239206 0.004564787637605771
текст: 0.0005834305717619603 0.0010691840511950466
рассчитан: 0.0005834305717619603 0.0026867970746721655
математиков: 0.0005834305717619603 0.0022823938188028855
специалистов: 0.0005834305717619603 0.001404869083227463
безопасности: 0.0005834305717619603 0.0011470903479421427
Здесь: 0.0005834305717619603 0.0009105296080890713
неформальный: 0.0005834305717619603 0.0026867970746721655
рассказ: 0.0011668611435239206 0.003495603586410724
некоторыми: 0.0005834305717619603 0.0016414298230805345
упрощениями: 0.0005834305717619603 0.0026867970746721655
тех: 0.0011668611435239206 0.0012249966446892387
хочет: 0.001750291715285881 0.003570981613523725
уровне: 0.0005834305717619603 0.0010004658273581836
интуиции: 0.0005834305717619603 0.0026867970746721655
понять: 0.0005834305717619603 0.0007222137432914919
устроены: 0.0005834305717619603 0.0026867970746721655
современные: 0.0005834305717619603 0.0014735873070643264
криптографические: 0.0005834305717619603 0.0026867970746721655
протоколы: 0.0005834305717619603 0.001747801793205362
Немного: 0.0005834305717619603 0.001404869083227463
теории: 0.0005834305717619603 0.0012370265672112548
Со: 0.0005834305717619603 0.0014735873070643264
средней: 0.0005834305717619603 0.0026867970746721655
школы: 0.0005834305717619603 0.0022823938188028855
помним: 0.0005834305717619603 0.0022823938188028855
любой: 0.0005834305717619603 0.0006124983223446194
математической: 0.0011668611435239206 0.005373594149344331
операции: 0.003500583430571762 0.007726749987828662
существует: 0.001750291715285881 0.0029067640726166584
обратная: 0.001750291715285881 0.006137499236849443
операция: 0.001750291715285881 0.004654480811434267
Вычитание: 0.0005834305717619603 0.0026867970746721655
сложению: 0.0005834305717619603 0.0026867970746721655
деление: 0.0005834305717619603 0.0026867970746721655
умножению: 0.0005834305717619603 0.0026867970746721655
далее: 0.0011668611435239206 0.0014444274865829838
С: 0.0005834305717619603 0.00041619013295067953
помощью: 0.0029171528588098016 0.0015391853619672459
обратной: 0.001750291715285881 0.004924289469241604
зная: 0.002333722287047841 0.007511962251734423
результат: 0.001750291715285881 0.0018882316126696559
одно: 0.0029171528588098016 0.004044032558692796
слагаемых: 0.001750291715285881 0.008060391224016496
получить: 0.001750291715285881 0.0016480896263566718
второе: 0.0005834305717619603 0.002045833078949814
слагаемое: 0.0011668611435239206 0.005373594149344331
Теперь: 0.002333722287047841 0.003055620350020448
пусть: 0.001750291715285881 0.00421460724968239
слагаемые: 0.0011668611435239206 0.005373594149344331
принадлежат: 0.001750291715285881 0.006137499236849443
конечному: 0.0005834305717619603 0.0022823938188028855
множеству: 0.001750291715285881 0.006847181456408657
чисел: 0.002333722287047841 0.006565719292322138
сложение: 0.0005834305717619603 0.0026867970746721655
производится: 0.0011668611435239206 0.004564787637605771
модулю: 0.005834305717619603 0.01877990562933606
N: 0.010501750291715286 0.03146043227769652
который: 0.0029171528588098016 0.0007247997645813877
равен: 0.0029171528588098016 0.008207149115402674
количеству: 0.0011668611435239206 0.0037559811258672114
элементов: 0.0011668611435239206 0.0023806544090158163
множества: 0.0011668611435239206 0.0031029872076228445
Сумма: 0.0005834305717619603 0.0022823938188028855
равна: 0.0005834305717619603 0.002045833078949814
остатку: 0.0005834305717619603 0.0026867970746721655
деления: 0.0005834305717619603 0.0026867970746721655
суммы: 0.0005834305717619603 0.0026867970746721655
значение: 0.005834305717619603 0.007859239486386286
модуля: 0.002333722287047841 0.007511962251734423
принадлежит: 0.0005834305717619603 0.0016414298230805345
этому: 0.0005834305717619603 0.0009389952814668029
Допустим: 0.0011668611435239206 0.002809738166454926
группе: 0.006417736289381563 0.017066429641925646
целых: 0.0005834305717619603 0.0014735873070643264
Множество: 0.0005834305717619603 0.0026867970746721655
состоит: 0.0011668611435239206 0.001714907783032604
значит: 0.0005834305717619603 0.0009389952814668029
модуль: 0.003500583430571762 0.00842921449936478
Такое: 0.0005834305717619603 0.0015514936038114222
множество: 0.0011668611435239206 0.0016652466226839506
заданной: 0.0011668611435239206 0.004564787637605771
операцией: 0.0011668611435239206 0.005373594149344331
называют: 0.0005834305717619603 0.0016414298230805345
конечной: 0.004084014002333722 0.0143208315526487
группой: 0.0011668611435239206 0.004564787637605771
порядком: 0.0005834305717619603 0.002045833078949814
группы: 0.002333722287047841 0.0038756854301555442
строго: 0.0005834305717619603 0.0012877916646381103
говоря: 0.0005834305717619603 0.0012370265672112548
любое: 0.0005834305717619603 0.0012370265672112548
считаться: 0.0005834305717619603 0.0026867970746721655
должны: 0.001750291715285881 0.0023577718459158858
выполняться: 0.0005834305717619603 0.0018779905629336057
некоторые: 0.0005834305717619603 0.0006647807953257671
обязательные: 0.0005834305717619603 0.0022823938188028855
условия: 0.0005834305717619603 0.0011903272045079081
будем: 0.001750291715285881 0.0023577718459158858
разбирать: 0.0005834305717619603 0.0022823938188028855
усложнять: 0.0005834305717619603 0.0022823938188028855
Наглядный: 0.0005834305717619603 0.0026867970746721655
сложения: 0.0005834305717619603 0.0022823938188028855
движение: 0.0005834305717619603 0.0014735873070643264
стрелки: 0.0005834305717619603 0.002045833078949814
циферблату: 0.0005834305717619603 0.0026867970746721655
Будем: 0.0005834305717619603 0.0022823938188028855
считать: 0.0005834305717619603 0.0011903272045079081
циферблате: 0.0005834305717619603 0.0022823938188028855
делений: 0.0011668611435239206 0.005373594149344331
часовая: 0.0005834305717619603 0.0022823938188028855
стрелка: 0.0011668611435239206 0.004091666157899628
указывает: 0.0005834305717619603 0.002045833078949814
оказываясь: 0.0005834305717619603 0.0026867970746721655
Когда: 0.002333722287047841 0.002258072406678426
доходит: 0.0005834305717619603 0.0022823938188028855
последнего: 0.0005834305717619603 0.0016414298230805345
элемента: 0.0005834305717619603 0.0018779905629336057
часов: 0.0005834305717619603 0.0010004658273581836
счет: 0.0005834305717619603 0.001404869083227463
продолжается: 0.0005834305717619603 0.002045833078949814
нуля: 0.0005834305717619603 0.0011903272045079081
Циферблат: 0.0005834305717619603 0.0026867970746721655
конечная: 0.0011668611435239206 0.004564787637605771
группа: 0.0011668611435239206 0.003282859646161069
сложением: 0.001750291715285881 0.008060391224016496
Для: 0.002333722287047841 0.0007992772670869916
выполнения: 0.0005834305717619603 0.0008326233113419753
нужно: 0.0005834305717619603 0.0001678425160162082
знать: 0.0005834305717619603 0.0010338137934258315
сумму: 0.0005834305717619603 0.0026867970746721655
Зная: 0.0005834305717619603 0.0026867970746721655
параметра: 0.0005834305717619603 0.001747801793205362
можем: 0.0005834305717619603 0.0006294105375565518
вычислить: 0.0011668611435239206 0.005373594149344331
неизвестное: 0.0005834305717619603 0.0026867970746721655
Где: 0.0005834305717619603 0.0014735873070643264
n: 0.002333722287047841 0.006565719292322138
условию: 0.0011668611435239206 0.005373594149344331
оба: 0.0005834305717619603 0.001404869083227463
поэтому: 0.0011668611435239206 0.0010403712010312526
сумма: 0.0005834305717619603 0.0022823938188028855
превышает: 0.0005834305717619603 0.0018779905629336057
правильным: 0.0005834305717619603 0.0022823938188028855
ответом: 0.0005834305717619603 0.0022823938188028855
элемент: 0.0005834305717619603 0.0012370265672112548
единственное: 0.0005834305717619603 0.001747801793205362
решение: 0.0011668611435239206 0.0010987264175711144
данной: 0.0005834305717619603 0.0010691840511950466
Пока: 0.0011668611435239206 0.0023806544090158163
просто: 0.0005834305717619603 0.0003595018316358325
рассмотрим: 0.0005834305717619603 0.0010691840511950466
умножение: 0.0011668611435239206 0.004564787637605771
умножением: 0.001750291715285881 0.008060391224016496
исключается: 0.0005834305717619603 0.0026867970746721655
a: 0.0029171528588098016 0.005169068967129158
должно: 0.0005834305717619603 0.0007222137432914919
простым: 0.0005834305717619603 0.0012877916646381103
числом: 0.0011668611435239206 0.003282859646161069
Пусть: 0.0011668611435239206 0.0031029872076228445
новой: 0.0005834305717619603 0.0009689213575388861
качестве: 0.0005834305717619603 0.0006647807953257671
множителей: 0.0005834305717619603 0.0026867970746721655
возьмем: 0.0005834305717619603 0.0022823938188028855
Попробуем: 0.0005834305717619603 0.002045833078949814
найти: 0.001750291715285881 0.0016935543050088197
неизвестный: 0.0005834305717619603 0.0022823938188028855
второй: 0.0011668611435239206 0.002000931654716367
множитель: 0.0005834305717619603 0.0026867970746721655
целое: 0.0011668611435239206 0.005373594149344331
число: 0.006417736289381563 0.01477738391069691
Чтобы: 0.002333722287047841 0.002024505408879167
правильное: 0.0005834305717619603 0.0018779905629336057
x: 0.0029171528588098016 0.008739008966026812
подставлять: 0.0005834305717619603 0.0026867970746721655
значения: 0.0011668611435239206 0.001714907783032604
пока: 0.0005834305717619603 0.0005960625714889038
окажется: 0.0005834305717619603 0.001747801793205362
положительным: 0.0005834305717619603 0.0026867970746721655
целым: 0.0005834305717619603 0.002045833078949814
принадлежащим: 0.0005834305717619603 0.0026867970746721655
данном: 0.0005834305717619603 0.0009105296080890713
случае: 0.0011668611435239206 0.0005578014013337219
Таким: 0.0011668611435239206 0.0016176130234771184
образом: 0.001750291715285881 0.001359151906941067
представляет: 0.0005834305717619603 0.0010004658273581836
собой: 0.0005834305717619603 0.0007222137432914919
сложную: 0.0005834305717619603 0.001747801793205362
вычислительную: 0.0005834305717619603 0.0026867970746721655
задачу: 0.0005834305717619603 0.0008833884087688304
которую: 0.0005834305717619603 0.0006294105375565518
решить: 0.0005834305717619603 0.0007426870920728631
самым: 0.0005834305717619603 0.0010338137934258315
неэффективным: 0.0005834305717619603 0.0026867970746721655
способом: 0.0005834305717619603 0.0016414298230805345
полным: 0.0011668611435239206 0.004091666157899628
перебором: 0.001750291715285881 0.006847181456408657
возможных: 0.0005834305717619603 0.0022823938188028855
вариантов: 0.0029171528588098016 0.007024345416137315
Еще: 0.0005834305717619603 0.0010691840511950466
важное: 0.0005834305717619603 0.0015514936038114222
свойство: 0.0011668611435239206 0.003282859646161069
конечных: 0.0005834305717619603 0.0018779905629336057
групп: 0.0005834305717619603 0.0012877916646381103
ассоциативность: 0.0011668611435239206 0.005373594149344331
учат: 0.0005834305717619603 0.0026867970746721655
школе: 0.0005834305717619603 0.0022823938188028855
зависит: 0.0005834305717619603 0.0010338137934258315
расстановки: 0.0005834305717619603 0.0026867970746721655
скобок: 0.0005834305717619603 0.002045833078949814
Благодаря: 0.0005834305717619603 0.0009689213575388861
этим: 0.0005834305717619603 0.0006833039565361406
некоторым: 0.0005834305717619603 0.002045833078949814
другим: 0.0005834305717619603 0.0009389952814668029
особенностям: 0.0005834305717619603 0.0026867970746721655
конечные: 0.0005834305717619603 0.001747801793205362
часто: 0.0005834305717619603 0.0006294105375565518
используются: 0.001750291715285881 0.003101441380277495
криптографии: 0.0029171528588098016 0.013433985373360827
Например: 0.0005834305717619603 0.0004789851528995509
лежат: 0.0005834305717619603 0.0018779905629336057
основе: 0.001750291715285881 0.0022280612762185896
генерации: 0.002333722287047841 0.005619476332909852
совместного: 0.002333722287047841 0.008183332315799256
ключа: 0.004667444574095682 0.012411948830491378
ДиффиХеллмана: 0.002333722287047841 0.010747188298688662
защищенной: 0.0005834305717619603 0.0026867970746721655
парольной: 0.002333722287047841 0.010747188298688662
аутентификации: 0.005250875145857643 0.013262285763578938
Обмен: 0.0005834305717619603 0.002045833078949814
ключами: 0.002333722287047841 0.009129575275211542
протоколу: 0.002333722287047841 0.007511962251734423
DiffieHellman: 0.0005834305717619603 0.0026867970746721655
Договоримся: 0.0005834305717619603 0.0026867970746721655
процесс: 0.0005834305717619603 0.000646827668915759
шифрования: 0.005250875145857643 0.014772868407724812
компьютере: 0.0011668611435239206 0.0026867970746721655
преобразование: 0.0005834305717619603 0.0016414298230805345
одного: 0.0011668611435239206 0.0011601543446252821
числа: 0.0011668611435239206 0.0023806544090158163
другое: 0.0005834305717619603 0.0012877916646381103
Можно: 0.0005834305717619603 0.0006647807953257671
сказать: 0.0005834305717619603 0.0006833039565361406
зашифровали: 0.0005834305717619603 0.0022823938188028855
прибавив: 0.0005834305717619603 0.0026867970746721655
нему: 0.0005834305717619603 0.0009389952814668029
расшифровали: 0.0005834305717619603 0.0026867970746721655
Число: 0.0005834305717619603 0.0022823938188028855
называется: 0.0011668611435239206 0.002067627586851663
ключом: 0.002333722287047841 0.006565719292322138
примере: 0.001750291715285881 0.0032075521535851405
ключ: 0.011668611435239206 0.023806544090158165
исходное: 0.0011668611435239206 0.004564787637605771
Самая: 0.0005834305717619603 0.0018779905629336057
примитивная: 0.0005834305717619603 0.0026867970746721655
схема: 0.0005834305717619603 0.0015514936038114222
шифр: 0.001750291715285881 0.006847181456408657
Цезаря: 0.0011668611435239206 0.005373594149344331
устроена: 0.0005834305717619603 0.0022823938188028855
буквы: 0.0005834305717619603 0.0026867970746721655
тексте: 0.0005834305717619603 0.0022823938188028855
смещаются: 0.0005834305717619603 0.0026867970746721655
k: 0.0029171528588098016 0.010229165394749072
позиций: 0.0005834305717619603 0.0022823938188028855
алфавите: 0.001750291715285881 0.008060391224016496
Так: 0.0005834305717619603 0.00030783707239344913
превращается: 0.0005834305717619603 0.0022823938188028855
г: 0.0005834305717619603 0.002045833078949814
б: 0.0005834305717619603 0.0022823938188028855
д: 0.0005834305717619603 0.001404869083227463
Позиции: 0.0005834305717619603 0.0026867970746721655
букв: 0.0011668611435239206 0.004091666157899628
Модуль: 0.0005834305717619603 0.0018779905629336057
превратиться: 0.0005834305717619603 0.0018779905629336057
Один: 0.0005834305717619603 0.0011903272045079081
участник: 0.0011668611435239206 0.004091666157899628
переписки: 0.0011668611435239206 0.005373594149344331
прибавляет: 0.0005834305717619603 0.0026867970746721655
каждой: 0.0005834305717619603 0.0008833884087688304
букве: 0.0005834305717619603 0.0026867970746721655
сообщении: 0.0005834305717619603 0.0022823938188028855
расшифровывает: 0.0005834305717619603 0.002045833078949814
отнимая: 0.0005834305717619603 0.0026867970746721655
понимать: 0.0005834305717619603 0.0010338137934258315
друг: 0.001750291715285881 0.0022280612762185896
друга: 0.0005834305717619603 0.0009389952814668029
обе: 0.0005834305717619603 0.0016414298230805345
стороны: 0.0005834305717619603 0.0007222137432914919
владеть: 0.0005834305717619603 0.002045833078949814
одним: 0.0005834305717619603 0.0008088065117385592
Такой: 0.0005834305717619603 0.0012370265672112548
способ: 0.0005834305717619603 0.0007024345416137317
симметричным: 0.0005834305717619603 0.0026867970746721655
Его: 0.0005834305717619603 0.001106837797483011
самое: 0.0011668611435239206 0.0016176130234771184
слабое: 0.0005834305717619603 0.002045833078949814
звено: 0.0005834305717619603 0.0022823938188028855
момент: 0.0005834305717619603 0.00041619013295067953
передачи: 0.0005834305717619603 0.0010691840511950466
подслушать: 0.0005834305717619603 0.0026867970746721655
украсть: 0.0011668611435239206 0.005373594149344331
человека: 0.0005834305717619603 0.000857453891516302
везет: 0.0005834305717619603 0.0026867970746721655
записанным: 0.0005834305717619603 0.0026867970746721655
бумажке: 0.0005834305717619603 0.0026867970746721655
Но: 0.002333722287047841 0.0009346034226303975
изобретения: 0.0005834305717619603 0.0022823938188028855
асимметричной: 0.0011668611435239206 0.005373594149344331
70х: 0.0005834305717619603 0.0026867970746721655
годах: 0.0005834305717619603 0.001747801793205362
XX: 0.0005834305717619603 0.0022823938188028855
века: 0.0005834305717619603 0.0018779905629336057
других: 0.0011668611435239206 0.0010122527044395834
Симметричное: 0.0005834305717619603 0.0026867970746721655
шифрование: 0.0005834305717619603 0.001747801793205362
используют: 0.0011668611435239206 0.002067627586851663
например: 0.0011668611435239206 0.0009061012712940446
бухгалтерия: 0.0005834305717619603 0.0026867970746721655
присылает: 0.0005834305717619603 0.0026867970746721655
почте: 0.0005834305717619603 0.002045833078949814
архив: 0.0005834305717619603 0.0022823938188028855
паролем: 0.0005834305717619603 0.0022823938188028855
устроен: 0.0005834305717619603 0.0018779905629336057
сложнее: 0.0005834305717619603 0.001404869083227463
Асимметричная: 0.0005834305717619603 0.0026867970746721655
криптография: 0.0005834305717619603 0.0022823938188028855
обмениваться: 0.0011668611435239206 0.004564787637605771
вовсе: 0.0005834305717619603 0.0014735873070643264
Или: 0.0005834305717619603 0.0010338137934258315
точнее: 0.0005834305717619603 0.0018779905629336057
участникам: 0.0005834305717619603 0.0026867970746721655
договориться: 0.0005834305717619603 0.0026867970746721655
совместном: 0.0005834305717619603 0.0026867970746721655
секретном: 0.0005834305717619603 0.0026867970746721655
ключе: 0.0005834305717619603 0.002045833078949814
использовать: 0.001750291715285881 0.0007009525669727982
впоследствии: 0.0005834305717619603 0.002045833078949814
обмениваясь: 0.0005834305717619603 0.0026867970746721655
несекретной: 0.0005834305717619603 0.0026867970746721655
Подслушивающая: 0.0005834305717619603 0.0026867970746721655
сторона: 0.0011668611435239206 0.003495603586410724
воспроизвести: 0.0011668611435239206 0.003495603586410724
кроме: 0.0011668611435239206 0.002000931654716367
Самый: 0.0005834305717619603 0.001747801793205362
известный: 0.0005834305717619603 0.0022823938188028855
схемы: 0.0005834305717619603 0.0015514936038114222
генерация: 0.0005834305717619603 0.002045833078949814
Метод: 0.0005834305717619603 0.001747801793205362
основан: 0.0005834305717619603 0.002045833078949814
вычислениях: 0.0005834305717619603 0.0026867970746721655
Алиса: 0.005834305717619603 0.020458330789498144
Боб: 0.006417736289381563 0.025106332006831742
традиционные: 0.0005834305717619603 0.0018779905629336057
имена: 0.0005834305717619603 0.0022823938188028855
учебников: 0.0005834305717619603 0.0026867970746721655
хотят: 0.0005834305717619603 0.0018779905629336057
зашифрованными: 0.0005834305717619603 0.0026867970746721655
сообщениями: 0.0011668611435239206 0.0037559811258672114
Ева: 0.004084014002333722 0.01880757952270516
узнать: 0.0029171528588098016 0.005169068967129158
содержание: 0.0005834305717619603 0.0022823938188028855
нужен: 0.0005834305717619603 0.0007859239486386286
звонит: 0.0005834305717619603 0.0022823938188028855
Алисе: 0.0005834305717619603 0.0022823938188028855
создать: 0.0005834305717619603 0.000646827668915759
прослушивает: 0.0005834305717619603 0.0026867970746721655
разговор: 0.0005834305717619603 0.001747801793205362
самого: 0.0011668611435239206 0.001714907783032604
начала: 0.0005834305717619603 0.0007222137432914919
конечную: 0.0005834305717619603 0.0022823938188028855
группу: 0.0005834305717619603 0.0018779905629336057
умножения: 0.001750291715285881 0.008060391224016496
На: 0.0011668611435239206 0.0004329797915879019
практике: 0.0005834305717619603 0.0009105296080890713
большого: 0.0005834305717619603 0.0015514936038114222
порядка: 0.0005834305717619603 0.0011903272045079081
Дальше: 0.0005834305717619603 0.0014735873070643264
выбирает: 0.0011668611435239206 0.003495603586410724
случайное: 0.001750291715285881 0.008060391224016496
секретное: 0.0005834305717619603 0.0026867970746721655
сообщая: 0.0005834305717619603 0.0022823938188028855
Бобу: 0.0005834305717619603 0.0022823938188028855
А: 0.0005834305717619603 0.00024242441304647943
b: 0.001750291715285881 0.005633971688800818
Эти: 0.0005834305717619603 0.0008088065117385592
называются: 0.0005834305717619603 0.001747801793205362
приватными: 0.0005834305717619603 0.0022823938188028855
Алисы: 0.001750291715285881 0.006137499236849443
Боба: 0.001750291715285881 0.008060391224016496
которые: 0.0011668611435239206 0.0003202296916006538
разглашать: 0.0005834305717619603 0.0026867970746721655
должна: 0.0005834305717619603 0.0008833884087688304
меньше: 0.0005834305717619603 0.0008833884087688304
–: 0.0005834305717619603 0.0008833884087688304
иначе: 0.0005834305717619603 0.0011470903479421427
легко: 0.0005834305717619603 0.0006294105375565518
Предположим: 0.0005834305717619603 0.0018779905629336057
Далее: 0.0011668611435239206 0.0019378427150777721
выбирают: 0.0005834305717619603 0.0026867970746721655
генератор: 0.002333722287047841 0.010747188298688662
g: 0.003500583430571762 0.012274998473698886
обладающее: 0.0005834305717619603 0.0026867970746721655
определенными: 0.0005834305717619603 0.0026867970746721655
криптографическими: 0.0005834305717619603 0.0026867970746721655
свойствами: 0.0005834305717619603 0.0022823938188028855
опустим: 0.0005834305717619603 0.0026867970746721655
Каждый: 0.0005834305717619603 0.0011470903479421427
возводит: 0.0011668611435239206 0.005373594149344331
степень: 0.001750291715285881 0.006847181456408657
равную: 0.0011668611435239206 0.005373594149344331
своему: 0.0011668611435239206 0.0023806544090158163
приватному: 0.0011668611435239206 0.005373594149344331
ключу: 0.0011668611435239206 0.004091666157899628
вычисляет: 0.004667444574095682 0.016366664631598513
этапе: 0.0011668611435239206 0.001766776817537661
сообщили: 0.0005834305717619603 0.0022823938188028855
другу: 0.0011668611435239206 0.0037559811258672114
свои: 0.0005834305717619603 0.0005061263522197917
результаты: 0.0005834305717619603 0.000857453891516302
могла: 0.0005834305717619603 0.0015514936038114222
секретные: 0.0005834305717619603 0.0026867970746721655
ключи: 0.0011668611435239206 0.003282859646161069
логарифмирования: 0.0005834305717619603 0.0026867970746721655
условии: 0.0005834305717619603 0.0018779905629336057
вычисления: 0.004084014002333722 0.010315111149450286
ведутся: 0.0005834305717619603 0.0026867970746721655
целыми: 0.0005834305717619603 0.0022823938188028855
числами: 0.0005834305717619603 0.0022823938188028855
проводят: 0.0005834305717619603 0.002045833078949814
таком: 0.0005834305717619603 0.0010691840511950466
A: 0.003500583430571762 0.008060391224016496
B: 0.004667444574095682 0.015023924503468846
публичные: 0.0005834305717619603 0.0022823938188028855
открытые: 0.0005834305717619603 0.0022823938188028855
сообщают: 0.0005834305717619603 0.0022823938188028855
Не: 0.001750291715285881 0.0016480896263566718
эффективного: 0.0005834305717619603 0.0016414298230805345
алгоритма: 0.0005834305717619603 0.0016414298230805345
позволит: 0.0005834305717619603 0.0011470903479421427
Еве: 0.0005834305717619603 0.0026867970746721655
приватный: 0.002333722287047841 0.009129575275211542
публичный: 0.0029171528588098016 0.00938995281466803
дает: 0.0005834305717619603 0.0012370265672112548
перебора: 0.0005834305717619603 0.0022823938188028855
равно: 0.001750291715285881 0.0032075521535851405
перебор: 0.0005834305717619603 0.0026867970746721655
самом: 0.0005834305717619603 0.0006294105375565518
мощном: 0.0005834305717619603 0.0026867970746721655
займет: 0.0005834305717619603 0.0022823938188028855
миллиарды: 0.0005834305717619603 0.0026867970746721655
лет: 0.0005834305717619603 0.0006833039565361406
Остался: 0.0005834305717619603 0.0026867970746721655
последний: 0.0005834305717619603 0.0012370265672112548
шаг: 0.0011668611435239206 0.0018779905629336057
вычисляют: 0.0011668611435239206 0.004564787637605771
совместный: 0.001750291715285881 0.008060391224016496
секретный: 0.001750291715285881 0.006847181456408657
K: 0.002333722287047841 0.007511962251734423
дальнейшем: 0.0005834305717619603 0.0011470903479421427
будут: 0.0005834305717619603 0.00039284979770348044
сообщений: 0.0011668611435239206 0.0025755833292762207
делает: 0.0005834305717619603 0.0009689213575388861
публичным: 0.0005834305717619603 0.0022823938188028855
своим: 0.0005834305717619603 0.0009689213575388861
приватным: 0.0011668611435239206 0.005373594149344331
Совместный: 0.0005834305717619603 0.0026867970746721655
совпадает: 0.0011668611435239206 0.003495603586410724
благодаря: 0.0005834305717619603 0.0010004658273581836
ассоциативности: 0.0005834305717619603 0.0026867970746721655
групповой: 0.0005834305717619603 0.0026867970746721655
При: 0.001750291715285881 0.0012132097676078389
замене: 0.0005834305717619603 0.0022823938188028855
обычного: 0.0005834305717619603 0.0022823938188028855
возведение: 0.0005834305717619603 0.0026867970746721655
частный: 0.0005834305717619603 0.0026867970746721655
случай: 0.0005834305717619603 0.0011470903479421427
сохраняется: 0.0005834305717619603 0.0018779905629336057
Схема: 0.0011668611435239206 0.003495603586410724
могут: 0.0005834305717619603 0.0003487963831713071
каждый: 0.0011668611435239206 0.0010691840511950466
использовал: 0.0005834305717619603 0.0011903272045079081
свой: 0.001750291715285881 0.0016935543050088197
собеседника: 0.0005834305717619603 0.001747801793205362
приватного: 0.001750291715285881 0.008060391224016496
Что: 0.0011668611435239206 0.0007630413855386978
аутентификацией: 0.0011668611435239206 0.004091666157899628
Отвлечемся: 0.0005834305717619603 0.0026867970746721655
ненадолго: 0.0005834305717619603 0.002045833078949814
наивной: 0.0005834305717619603 0.0026867970746721655
сервер: 0.007584597432905484 0.011484049313994797
хранит: 0.0005834305717619603 0.0022823938188028855
оригиналы: 0.0005834305717619603 0.0022823938188028855
паролей: 0.0005834305717619603 0.002045833078949814
пользователь: 0.001750291715285881 0.003101441380277495
залогиниться: 0.0011668611435239206 0.004564787637605771
вводит: 0.0005834305717619603 0.0018779905629336057
идентификатор: 0.002333722287047841 0.0058943492282573055
обычно: 0.0005834305717619603 0.0008088065117385592
имя: 0.002333722287047841 0.004948106268845019
пользователя: 0.005250875145857643 0.007493609802077779
email: 0.0005834305717619603 0.0015514936038114222
Сервер: 0.0029171528588098016 0.008739008966026812
находит: 0.0005834305717619603 0.0018779905629336057
базе: 0.002333722287047841 0.003533553635075322
данных: 0.003500583430571762 0.001673404204001166
идентификатору: 0.0005834305717619603 0.0026867970746721655
сравнивает: 0.0011668611435239206 0.005373594149344331
полученный: 0.0011668611435239206 0.003495603586410724
своей: 0.001750291715285881 0.0018374949670338582
копией: 0.0011668611435239206 0.004564787637605771
пароли: 0.001750291715285881 0.006847181456408657
совпадают: 0.002333722287047841 0.010747188298688662
авторизует: 0.001750291715285881 0.008060391224016496
Приличные: 0.0005834305717619603 0.0026867970746721655
хранят: 0.0005834305717619603 0.0018779905629336057
открытом: 0.001750291715285881 0.005243405379616087
виде: 0.001750291715285881 0.0016480896263566718
солят: 0.0005834305717619603 0.0026867970746721655
хешируют: 0.0011668611435239206 0.005373594149344331
вдаваясь: 0.0005834305717619603 0.0026867970746721655
детали: 0.0005834305717619603 0.001404869083227463
скажем: 0.0005834305717619603 0.0018779905629336057
хеширование: 0.0005834305717619603 0.0026867970746721655
математическая: 0.0005834305717619603 0.0022823938188028855
функция: 0.0005834305717619603 0.0011470903479421427
преобразования: 0.0005834305717619603 0.0018779905629336057
По: 0.0005834305717619603 0.0004530506356470223
хешу: 0.0005834305717619603 0.0026867970746721655
невозможно: 0.0011668611435239206 0.0021383681023900932
восстановить: 0.0005834305717619603 0.0022823938188028855
одних: 0.0005834305717619603 0.002045833078949814
исходных: 0.0005834305717619603 0.001747801793205362
получается: 0.0005834305717619603 0.0012370265672112548
хеш: 0.003500583430571762 0.016120782448032993
Соль: 0.0005834305717619603 0.0026867970746721655
которым: 0.0005834305717619603 0.0008326233113419753
усложнить: 0.0005834305717619603 0.0026867970746721655
подбор: 0.0005834305717619603 0.0022823938188028855
новый: 0.0005834305717619603 0.0005800771723126411
заводит: 0.0005834305717619603 0.0026867970746721655
учетную: 0.0005834305717619603 0.0022823938188028855
запись: 0.0005834305717619603 0.001106837797483011
сохраняет: 0.0005834305717619603 0.0018779905629336057
пароля: 0.0029171528588098016 0.010229165394749072
пытается: 0.0005834305717619603 0.0014735873070643264
хеширует: 0.0005834305717619603 0.0026867970746721655
хеши: 0.0005834305717619603 0.0026867970746721655
считается: 0.0011668611435239206 0.0031029872076228445
пройдена: 0.0005834305717619603 0.0022823938188028855
успешно: 0.0011668611435239206 0.002213675594966022
храня: 0.0005834305717619603 0.0026867970746721655
подхода: 0.0005834305717619603 0.0009105296080890713
больших: 0.0005834305717619603 0.0011470903479421427
недостатка: 0.0005834305717619603 0.0022823938188028855
Вопервых: 0.0005834305717619603 0.001404869083227463
базу: 0.0005834305717619603 0.0012370265672112548
попытаться: 0.0005834305717619603 0.0016414298230805345
взломать: 0.0005834305717619603 0.0026867970746721655
словарной: 0.0005834305717619603 0.0026867970746721655
атакой: 0.0005834305717619603 0.0026867970746721655
атакующая: 0.0005834305717619603 0.0026867970746721655
ваше: 0.0005834305717619603 0.0014735873070643264
девичью: 0.0005834305717619603 0.0026867970746721655
фамилию: 0.0005834305717619603 0.0026867970746721655
матери: 0.0005834305717619603 0.0022823938188028855
любимые: 0.0005834305717619603 0.002045833078949814
фильмы: 0.0005834305717619603 0.0022823938188028855
книги: 0.0005834305717619603 0.001404869083227463
дату: 0.0005834305717619603 0.0022823938188028855
рождения: 0.0005834305717619603 0.002045833078949814
слишком: 0.0005834305717619603 0.0007024345416137317
изобретательны: 0.0005834305717619603 0.0026867970746721655
выборе: 0.0005834305717619603 0.001747801793205362
ваши: 0.0005834305717619603 0.0011903272045079081
данные: 0.001750291715285881 0.00111122218045969
обречены: 0.0005834305717619603 0.0026867970746721655
Вся: 0.0005834305717619603 0.001404869083227463
нужная: 0.0005834305717619603 0.0026867970746721655
взлома: 0.0011668611435239206 0.005373594149344331
информация: 0.0005834305717619603 0.0009689213575388861
храниться: 0.0005834305717619603 0.002045833078949814
той: 0.0005834305717619603 0.0010338137934258315
ранее: 0.0005834305717619603 0.0010338137934258315
украденных: 0.0011668611435239206 0.005373594149344331
базах: 0.0005834305717619603 0.0022823938188028855
Достаточно: 0.0005834305717619603 0.0016414298230805345
совпадения: 0.0005834305717619603 0.0018779905629336057
связать: 0.0005834305717619603 0.0018779905629336057
записи: 0.0005834305717619603 0.0011903272045079081
разных: 0.0005834305717619603 0.0005345920255975233
баз: 0.0005834305717619603 0.0016414298230805345
материал: 0.0011668611435239206 0.0031029872076228445
автоматическом: 0.0005834305717619603 0.0022823938188028855
режиме: 0.0005834305717619603 0.0009689213575388861
Вторая: 0.0005834305717619603 0.0015514936038114222
проблема: 0.0005834305717619603 0.0008833884087688304
безопасность: 0.0005834305717619603 0.0012370265672112548
ваших: 0.0005834305717619603 0.0015514936038114222
опирается: 0.0005834305717619603 0.0026867970746721655
доверие: 0.0005834305717619603 0.002045833078949814
сервису: 0.0005834305717619603 0.0015514936038114222
именно: 0.0011668611435239206 0.0010122527044395834
зашифровано: 0.0005834305717619603 0.0026867970746721655
неизвестно: 0.0005834305717619603 0.002045833078949814
Действительно: 0.0005834305717619603 0.0016414298230805345
сервис: 0.0005834305717619603 0.0008833884087688304
расшифровать: 0.0005834305717619603 0.002045833078949814
ваш: 0.0005834305717619603 0.0010004658273581836
Нужен: 0.0005834305717619603 0.0026867970746721655
доступа: 0.0005834305717619603 0.000857453891516302
данным: 0.0005834305717619603 0.0012370265672112548
Ответы: 0.0005834305717619603 0.0018779905629336057
вопросы: 0.0011668611435239206 0.001714907783032604
полностью: 0.0005834305717619603 0.000763905087505112
зависят: 0.0011668611435239206 0.005373594149344331
добросовестности: 0.0005834305717619603 0.0026867970746721655
сервиса: 0.001750291715285881 0.003320513392449034
никак: 0.0005834305717619603 0.0012370265672112548
Реализация: 0.0011668611435239206 0.004564787637605771
протокол: 0.0005834305717619603 0.001404869083227463
вообще: 0.0005834305717619603 0.0007024345416137317
отправлять: 0.0005834305717619603 0.001404869083227463
zero: 0.0005834305717619603 0.0022823938188028855
knowledge: 0.0005834305717619603 0.0022823938188028855
proof: 0.0005834305717619603 0.0022823938188028855
доказываете: 0.0005834305717619603 0.0026867970746721655
знаете: 0.0005834305717619603 0.0016414298230805345
отличается: 0.0005834305717619603 0.0013433985373360827
описанной: 0.0005834305717619603 0.001747801793205362
RFC: 0.0005834305717619603 0.0026867970746721655
рассматривать: 0.0005834305717619603 0.0016414298230805345
модифицированную: 0.0005834305717619603 0.0026867970746721655
версию: 0.0005834305717619603 0.0010691840511950466
регистрации: 0.001750291715285881 0.004654480811434267
браузер: 0.0005834305717619603 0.0014735873070643264
отправляет: 0.0029171528588098016 0.00938995281466803
называемый: 0.0005834305717619603 0.0016414298230805345
верификатор: 0.002333722287047841 0.010747188298688662
верификатора: 0.002333722287047841 0.010747188298688662
используется: 0.0005834305717619603 0.0006833039565361406
попадает: 0.0011668611435239206 0.004091666157899628
Восстановить: 0.0005834305717619603 0.0026867970746721655
используя: 0.0011668611435239206 0.002213675594966022
профиле: 0.0005834305717619603 0.0026867970746721655
хранится: 0.002333722287047841 0.006205974415245689
I: 0.001750291715285881 0.005243405379616087
v: 0.002333722287047841 0.008183332315799256
соль: 0.001750291715285881 0.008060391224016496
s: 0.001750291715285881 0.003863374993914331
используемые: 0.0005834305717619603 0.001747801793205362
следующие: 0.001750291715285881 0.0025723616745489063
параметры: 0.002333722287047841 0.004001863309432734
Параметр: 0.0005834305717619603 0.0026867970746721655
Создание: 0.0005834305717619603 0.0013433985373360827
Хранение: 0.0005834305717619603 0.002045833078949814
За: 0.0005834305717619603 0.0008833884087688304
каждым: 0.0005834305717619603 0.001404869083227463
пользователем: 0.002333722287047841 0.005619476332909852
закреплено: 0.0005834305717619603 0.0022823938188028855
свое: 0.0005834305717619603 0.0010338137934258315
2048битное: 0.0005834305717619603 0.0026867970746721655
Оно: 0.0005834305717619603 0.0015514936038114222
выбирается: 0.0005834305717619603 0.0022823938188028855
случайным: 0.0005834305717619603 0.002045833078949814
подготовленных: 0.0005834305717619603 0.0022823938188028855
специалистами: 0.0005834305717619603 0.0016414298230805345
Хранится: 0.002333722287047841 0.010747188298688662
реализации: 0.0005834305717619603 0.0009105296080890713
клиента: 0.003500583430571762 0.006415104307170281
Задан: 0.0011668611435239206 0.005373594149344331
P: 0.0011668611435239206 0.003282859646161069
Никуда: 0.0011668611435239206 0.005373594149344331
отправляется: 0.0011668611435239206 0.004091666157899628
нигде: 0.0011668611435239206 0.004091666157899628
Выбирается: 0.0005834305717619603 0.0022823938188028855
клиентским: 0.0005834305717619603 0.0026867970746721655
приложением: 0.0005834305717619603 0.001404869083227463
случайно: 0.0005834305717619603 0.0016414298230805345
фиксируется: 0.0005834305717619603 0.0022823938188028855
последующих: 0.0005834305717619603 0.002045833078949814
вычислений: 0.0011668611435239206 0.0029471746141286528
вспомогательный: 0.0011668611435239206 0.005373594149344331
параметр: 0.0011668611435239206 0.0025755833292762207
играет: 0.0005834305717619603 0.0018779905629336057
роль: 0.0005834305717619603 0.0011903272045079081
Хеш: 0.0011668611435239206 0.005373594149344331
генерируемый: 0.0011668611435239206 0.005373594149344331
клиентом: 0.001750291715285881 0.005243405379616087
соли: 0.0005834305717619603 0.0026867970746721655
процессе: 0.0029171528588098016 0.0045526480404453566
Используется: 0.0005834305717619603 0.001747801793205362
сервером: 0.0011668611435239206 0.003495603586410724
генератора: 0.0005834305717619603 0.002045833078949814
mod: 0.0005834305717619603 0.0026867970746721655
Генерируется: 0.0005834305717619603 0.0026867970746721655
хеширования: 0.0005834305717619603 0.0022823938188028855
алгоритм: 0.0005834305717619603 0.0013433985373360827
Bcrypt: 0.0005834305717619603 0.0026867970746721655
модифицированная: 0.0005834305717619603 0.0026867970746721655
хешфункция: 0.0005834305717619603 0.0026867970746721655
SHA512: 0.0005834305717619603 0.0026867970746721655
Обратите: 0.0005834305717619603 0.001404869083227463
внимание: 0.0005834305717619603 0.0007426870920728631
формулу: 0.0005834305717619603 0.0026867970746721655
Она: 0.0005834305717619603 0.0009689213575388861
аналогична: 0.0005834305717619603 0.0026867970746721655
формуле: 0.0005834305717619603 0.002045833078949814
публичного: 0.0005834305717619603 0.002045833078949814
протоколе: 0.0005834305717619603 0.0026867970746721655
выполняют: 0.0005834305717619603 0.001747801793205362
шаги: 0.0005834305717619603 0.001404869083227463
Клиент: 0.0011668611435239206 0.004091666157899628
ответ: 0.0005834305717619603 0.0008088065117385592
направляет: 0.0005834305717619603 0.0022823938188028855
клиенту: 0.0011668611435239206 0.0031029872076228445
закреплённые: 0.0005834305717619603 0.002045833078949814
Клиентское: 0.0005834305717619603 0.0026867970746721655
генерирует: 0.0011668611435239206 0.0031029872076228445
допустимого: 0.0005834305717619603 0.0022823938188028855
диапазона: 0.0005834305717619603 0.002045833078949814
…: 0.0005834305717619603 0.001747801793205362
нулю: 0.0005834305717619603 0.0022823938188028855
убедиться: 0.0011668611435239206 0.004564787637605771
одну: 0.0005834305717619603 0.000857453891516302
сторон: 0.0005834305717619603 0.0018779905629336057
подменили: 0.0005834305717619603 0.0026867970746721655
обмениваются: 0.0005834305717619603 0.0022823938188028855
проверочными: 0.0011668611435239206 0.005373594149344331
значениями: 0.0005834305717619603 0.0018779905629336057
см: 0.0011668611435239206 0.002809738166454926
таблицу: 0.0011668611435239206 0.0031029872076228445
предварительный: 0.0011668611435239206 0.004564787637605771
общий: 0.001750291715285881 0.003863374993914331
секрет: 0.0011668611435239206 0.004564787637605771
premaster: 0.0011668611435239206 0.005373594149344331
secret: 0.0011668611435239206 0.005373594149344331
значений: 0.0005834305717619603 0.0011470903479421427
S: 0.004084014002333722 0.011490008761563742
проверочное: 0.001750291715285881 0.008060391224016496
M1: 0.001750291715285881 0.006847181456408657
M: 0.0011668611435239206 0.004091666157899628
проверочные: 0.0005834305717619603 0.0026867970746721655
прошел: 0.0005834305717619603 0.002045833078949814
проверку: 0.0005834305717619603 0.0015514936038114222
Затем: 0.0005834305717619603 0.0012370265672112548
аналогичный: 0.0005834305717619603 0.0018779905629336057
обмен: 0.0005834305717619603 0.0018779905629336057
убедился: 0.0005834305717619603 0.0026867970746721655
аутентичности: 0.0005834305717619603 0.0026867970746721655
сервера: 0.001750291715285881 0.003711079701633765
созданный: 0.0005834305717619603 0.0018779905629336057
вычисляется: 0.0005834305717619603 0.0022823938188028855
стороне: 0.0011668611435239206 0.0022941806958842854
оно: 0.0005834305717619603 0.0008326233113419753
полученным: 0.0005834305717619603 0.002045833078949814
успешной: 0.0005834305717619603 0.001747801793205362
После: 0.0005834305717619603 0.0004923979406619188
завершения: 0.0005834305717619603 0.001404869083227463
предварительного: 0.001750291715285881 0.006847181456408657
секрета: 0.001750291715285881 0.008060391224016496
генерируется: 0.0005834305717619603 0.0018779905629336057
Суть: 0.0005834305717619603 0.0018779905629336057
описанных: 0.0005834305717619603 0.0026867970746721655
разные: 0.0005834305717619603 0.0009105296080890713
формулы: 0.0011668611435239206 0.004564787637605771
подставим: 0.0005834305717619603 0.0026867970746721655
выражения: 0.0005834305717619603 0.002045833078949814
Формула: 0.0011668611435239206 0.004564787637605771
вычисляемая: 0.0011668611435239206 0.005373594149344331
Напомним: 0.0005834305717619603 0.0026867970746721655
Учитывая: 0.0005834305717619603 0.002045833078949814
операций: 0.0005834305717619603 0.0016414298230805345
уберем: 0.0005834305717619603 0.0026867970746721655
читаемости: 0.0005834305717619603 0.0026867970746721655
уравнения: 0.0005834305717619603 0.0026867970746721655
Как: 0.0005834305717619603 0.00021648989579395095
видно: 0.0005834305717619603 0.0010691840511950466
упрощения: 0.0005834305717619603 0.0022823938188028855
вычисляемый: 0.0005834305717619603 0.0026867970746721655
идентичен: 0.0005834305717619603 0.0026867970746721655
вычисляемому: 0.0005834305717619603 0.0026867970746721655
Используя: 0.0005834305717619603 0.002045833078949814
метод: 0.0005834305717619603 0.0009689213575388861
обмена: 0.0005834305717619603 0.0012370265672112548
закрывает: 0.0005834305717619603 0.0026867970746721655
самую: 0.0005834305717619603 0.001747801793205362
заметную: 0.0005834305717619603 0.0026867970746721655
уязвимость: 0.0005834305717619603 0.0026867970746721655
серверной: 0.0005834305717619603 0.001747801793205362
архитектуры: 0.0005834305717619603 0.0009689213575388861
сеть: 0.0005834305717619603 0.0013433985373360827
зашифрованном: 0.0005834305717619603 0.0026867970746721655
большой: 0.0005834305717619603 0.0010338137934258315
вперед: 0.0005834305717619603 0.0015514936038114222
сравнению: 0.0005834305717619603 0.001106837797483011
привычной: 0.0005834305717619603 0.0022823938188028855
Однако: 0.0005834305717619603 0.000646827668915759
использование: 0.0005834305717619603 0.000857453891516302
само: 0.0005834305717619603 0.0016414298230805345
гарантирует: 0.0005834305717619603 0.002045833078949814
надежность: 0.0005834305717619603 0.0022823938188028855
компании: 0.0005834305717619603 0.0006833039565361406
системе: 0.0005834305717619603 0.000857453891516302
посредник: 0.0005834305717619603 0.0022823938188028855
повышенными: 0.0005834305717619603 0.0022823938188028855
правами: 0.0005834305717619603 0.0018779905629336057
уполномоченный: 0.0005834305717619603 0.0026867970746721655
хранить: 0.0005834305717619603 0.001404869083227463
авторизовать: 0.0005834305717619603 0.002045833078949814
профиль: 0.0005834305717619603 0.0026867970746721655
остается: 0.0005834305717619603 0.0011470903479421427
сути: 0.0005834305717619603 0.0011470903479421427
собственности: 0.0005834305717619603 0.0022823938188028855
Репутация: 0.0005834305717619603 0.0026867970746721655
вызывает: 0.0005834305717619603 0.0015514936038114222
сомнений: 0.0005834305717619603 0.0022823938188028855
скорее: 0.0005834305717619603 0.0007859239486386286
исключение: 0.0005834305717619603 0.002045833078949814
правило: 0.0005834305717619603 0.0010691840511950466
Принципиальное: 0.0005834305717619603 0.0026867970746721655
возможно: 0.0005834305717619603 0.0007426870920728631
децентрализованной: 0.0005834305717619603 0.0026867970746721655
архитектуре: 0.0005834305717619603 0.0016414298230805345
Никакие: 0.0005834305717619603 0.0022823938188028855
привязаны: 0.0005834305717619603 0.0018779905629336057
профилю: 0.0005834305717619603 0.0022823938188028855
профиля: 0.0005834305717619603 0.002045833078949814
базы: 0.0005834305717619603 0.0013433985373360827
Децентрализованная: 0.0005834305717619603 0.0026867970746721655
почта: 0.0005834305717619603 0.0018779905629336057
такая: 0.0005834305717619603 0.0009689213575388861
техническом: 0.0005834305717619603 0.002045833078949814
понимании: 0.0005834305717619603 0.0018779905629336057
слова: 0.0005834305717619603 0.0010691840511950466
Пользователь: 0.0005834305717619603 0.001747801793205362
p2p: 0.0005834305717619603 0.0026867970746721655
сети: 0.0005834305717619603 0.0009389952814668029
является: 0.0005834305717619603 0.0004405032580385255
единственным: 0.0005834305717619603 0.0018779905629336057
владельцем: 0.0005834305717619603 0.0026867970746721655
своего: 0.0005834305717619603 0.0006124983223446194
Никто: 0.0005834305717619603 0.001747801793205362
несет: 0.0005834305717619603 0.0022823938188028855
ответственности: 0.0005834305717619603 0.0014735873070643264
уверен: 0.0011668611435239206 0.0029471746141286528
приватности: 0.0005834305717619603 0.0026867970746721655
настолько: 0.0005834305717619603 0.001106837797483011
насколько: 0.0005834305717619603 0.0010004658273581836
формулах: 0.0005834305717619603 0.0026867970746721655
стоящих: 0.0005834305717619603 0.0026867970746721655
шифрованием: 0.0005834305717619603 0.0022823938188028855
заинтересовал: 0.0005834305717619603 0.0022823938188028855
подписывайтесь: 0.0005834305717619603 0.0022823938188028855
наш: 0.0005834305717619603 0.0007426870920728631
блог: 0.0005834305717619603 0.0018779905629336057
Хабре: 0.0005834305717619603 0.0016414298230805345
задавайте: 0.0005834305717619603 0.0026867970746721655
комментариях: 0.0005834305717619603 0.0012877916646381103
И: 0.0005834305717619603 0.00029803128574445195
записывайтесь: 0.0005834305717619603 0.0022823938188028855
бетатест: 0.0005834305717619603 0.0026867970746721655
