Время: 0.0013468013468013469 0.0035814949992360647
узнавать: 0.0006734006734006734 0.0026343589262142397
используя: 0.0006734006734006734 0.001277521875344028
песок: 0.0006734006734006734 0.0031011247043690854
воду: 0.0006734006734006734 0.0031011247043690854
положение: 0.0006734006734006734 0.0021675931480593944
солнца: 0.003367003367003367 0.015505623521845426
перемещение: 0.0006734006734006734 0.0026343589262142397
стрелок: 0.0013468013468013469 0.006202249408738171
циферблате: 0.0013468013468013469 0.005268717852428479
электронными: 0.0006734006734006734 0.0031011247043690854
циферками…: 0.0006734006734006734 0.0031011247043690854
Казалось: 0.0006734006734006734 0.0017907474996180324
человечество: 0.0006734006734006734 0.002361318449373725
исчерпало: 0.0006734006734006734 0.0031011247043690854
возможные: 0.0006734006734006734 0.0016215121943783648
способы: 0.0006734006734006734 0.0014277868930640345
измерения: 0.0006734006734006734 0.0026343589262142397
времени: 0.0047138047138047135 0.003174014729189467
Но: 0.00202020202020202 0.0008090455890851018
Представляем: 0.0006734006734006734 0.0031011247043690854
часы: 0.010774410774410775 0.03468149036895031
которые: 0.003367003367003367 0.0009240297835076106
показывают: 0.0006734006734006734 0.0021675931480593944
время: 0.009427609427609427 0.00322886486549149
цветом: 0.00202020202020202 0.009303374113107256
Хорошая: 0.0006734006734006734 0.002361318449373725
новость: 0.0006734006734006734 0.0017907474996180324
сами: 0.0006734006734006734 0.0011547464162235197
сможете: 0.0013468013468013469 0.0034016547398090986
собрать: 0.0006734006734006734 0.0017008273699045493
такие: 0.0013468013468013469 0.0015773508168389833
Итак: 0.00202020202020202 0.0037021847752491117
Pingo: 0.019528619528619527 0.08993261642670347
Это: 0.0053872053872053875 0.0018450656374237086
изображают: 0.0006734006734006734 0.0031011247043690854
С: 0.0013468013468013469 0.0009607405897339593
латыни: 0.0006734006734006734 0.0031011247043690854
название: 0.0006734006734006734 0.0011932369305938555
переводится: 0.0006734006734006734 0.0026343589262142397
«: 0.006734006734006734 0.002119264275014816
Краска: 0.0006734006734006734 0.0031011247043690854
»: 0.007407407407407408 0.0023311907025162977
Рисовать: 0.0006734006734006734 0.0031011247043690854
совершенно: 0.0006734006734006734 0.001323981721463187
инновационный: 0.0006734006734006734 0.0031011247043690854
единственный: 0.0006734006734006734 0.0015505623521845427
своём: 0.0006734006734006734 0.0017008273699045493
роде: 0.0006734006734006734 0.0026343589262142397
смелому: 0.0006734006734006734 0.0031011247043690854
заявлению: 0.0006734006734006734 0.0031011247043690854
автора: 0.0006734006734006734 0.0021675931480593944
способ: 0.0013468013468013469 0.0016215121943783653
узнать: 0.0006734006734006734 0.0011932369305938555
В: 0.009427609427609427 0.0003848538203929783
качестве: 0.0013468013468013469 0.001534591627189717
приятного: 0.0006734006734006734 0.0031011247043690854
бонуса: 0.0006734006734006734 0.0031011247043690854
цвета: 0.0026936026936026937 0.007578210684875519
отображают: 0.0006734006734006734 0.0031011247043690854
могут: 0.0026936026936026937 0.0016103353555706947
влиять: 0.0006734006734006734 0.0026343589262142397
ваше: 0.0006734006734006734 0.0017008273699045493
настроение: 0.0006734006734006734 0.0026343589262142397
течение: 0.0006734006734006734 0.001234061591749704
дня: 0.0006734006734006734 0.0017907474996180324
Днём: 0.0006734006734006734 0.0031011247043690854
внешнее: 0.00202020202020202 0.007083955348121175
кольцо: 0.006060606060606061 0.027910122339321768
окрашивается: 0.0006734006734006734 0.0031011247043690854
ярко‑жёлтым: 0.0006734006734006734 0.0031011247043690854
солнце: 0.0006734006734006734 0.0026343589262142397
теплый: 0.0006734006734006734 0.0026343589262142397
дружелюбный: 0.0006734006734006734 0.0026343589262142397
цвет: 0.0053872053872053875 0.021074871409713918
который: 0.00404040404040404 0.0010038842799939382
прекрасно: 0.0006734006734006734 0.0017907474996180324
подходит: 0.0006734006734006734 0.0015505623521845427
дневному: 0.0006734006734006734 0.0031011247043690854
суток: 0.0013468013468013469 0.005268717852428479
На: 0.00202020202020202 0.0007496235987693575
восходе: 0.0006734006734006734 0.0031011247043690854
закате: 0.0006734006734006734 0.0031011247043690854
меняется: 0.0006734006734006734 0.0014277868930640345
успокаивающий: 0.0006734006734006734 0.0031011247043690854
красный: 0.00202020202020202 0.00790307677864272
ночью: 0.0006734006734006734 0.002017328130339388
превращается: 0.0006734006734006734 0.0026343589262142397
умиротворяющий: 0.0006734006734006734 0.0031011247043690854
расслабляющий: 0.0006734006734006734 0.0031011247043690854
оттенок: 0.0013468013468013469 0.006202249408738171
фиолетового: 0.0006734006734006734 0.0031011247043690854
общем: 0.0013468013468013469 0.0027477721596317235
настоящее: 0.0006734006734006734 0.0017907474996180324
волшебство: 0.0006734006734006734 0.0026343589262142397
определять: 0.00202020202020202 0.006502779444178183
изменению: 0.0006734006734006734 0.0031011247043690854
также: 0.0026936026936026937 0.001078727452113469
часовая: 0.0013468013468013469 0.005268717852428479
минутная: 0.0006734006734006734 0.0031011247043690854
стрелки: 0.00202020202020202 0.007083955348121175
Случайный: 0.0006734006734006734 0.0031011247043690854
пользователь: 0.0006734006734006734 0.0011932369305938555
увидит: 0.0006734006734006734 0.0026343589262142397
просто: 0.0013468013468013469 0.0008298803224563192
какое‑то: 0.0006734006734006734 0.0026343589262142397
завораживающее: 0.0006734006734006734 0.0031011247043690854
устройство: 0.0013468013468013469 0.0029727608258447425
цветами: 0.0006734006734006734 0.0026343589262142397
узнаете: 0.0006734006734006734 0.0017907474996180324
секретный: 0.0006734006734006734 0.0026343589262142397
нему: 0.0006734006734006734 0.0010837965740296972
устройстве: 0.0006734006734006734 0.0016215121943783648
используется: 0.0013468013468013469 0.0015773508168389833
кольца: 0.00404040404040404 0.018606748226214512
светодиодов: 0.0026936026936026937 0.012404498817476342
показывает: 0.00202020202020202 0.0038325656260320834
сплошной: 0.0013468013468013469 0.005268717852428479
минутной: 0.0006734006734006734 0.0031011247043690854
среднее: 0.0006734006734006734 0.0018945526712188798
радугу: 0.0006734006734006734 0.0031011247043690854
цветов: 0.0006734006734006734 0.0031011247043690854
внутреннее: 0.0013468013468013469 0.00472263689874745
часовой: 0.00202020202020202 0.00790307677864272
Там: 0.0006734006734006734 0.0014277868930640345
внутреннего: 0.0006734006734006734 0.002361318449373725
совпадает: 0.0006734006734006734 0.002017328130339388
радуги: 0.00202020202020202 0.009303374113107256
находится: 0.0006734006734006734 0.0008572159433083419
стрелка: 0.0006734006734006734 0.002361318449373725
картинке: 0.00202020202020202 0.007083955348121175
пурпурное: 0.0006734006734006734 0.0031011247043690854
соответствует: 0.0013468013468013469 0.0034016547398090986
цвету: 0.0006734006734006734 0.0031011247043690854
положении: 0.0013468013468013469 0.005268717852428479
часов: 0.0026936026936026937 0.004618985664894079
Внешнее: 0.0006734006734006734 0.0026343589262142397
жёлтое: 0.0006734006734006734 0.0031011247043690854
значению: 0.0006734006734006734 0.0021675931480593944
десять: 0.0006734006734006734 0.002017328130339388
минут: 0.0006734006734006734 0.0009610211149091892
Поэтому: 0.0006734006734006734 0.000617030795874852
текущее: 0.0013468013468013469 0.0035814949992360647
При: 0.0006734006734006734 0.0004667657781548453
важно: 0.0013468013468013469 0.0019793615758369586
вращается: 0.0006734006734006734 0.0026343589262142397
радуга: 0.0006734006734006734 0.0031011247043690854
пока: 0.0013468013468013469 0.0013759612761373484
меняете: 0.0006734006734006734 0.0031011247043690854
колец: 0.0013468013468013469 0.006202249408738171
отображения: 0.0006734006734006734 0.0018945526712188798
самом: 0.0006734006734006734 0.0007264711524390101
деле: 0.0006734006734006734 0.0011183375130112128
можете: 0.010101010101010102 0.011509437203922878
анимировать: 0.0006734006734006734 0.0031011247043690854
ориентацию: 0.0006734006734006734 0.002361318449373725
угодно: 0.0006734006734006734 0.0014863804129223712
Например: 0.0006734006734006734 0.0005528488566126804
вращать: 0.0006734006734006734 0.0031011247043690854
её: 0.0013468013468013469 0.0017144318866166837
минуту: 0.0013468013468013469 0.004034656260678776
крутить: 0.0006734006734006734 0.0031011247043690854
таким: 0.0006734006734006734 0.0009071203016610166
образом: 0.0006734006734006734 0.0005229150097636339
сохраняло: 0.0006734006734006734 0.0031011247043690854
ваш: 0.0006734006734006734 0.0011547464162235197
любимый: 0.0006734006734006734 0.0026343589262142397
Настройка: 0.0006734006734006734 0.0021675931480593944
умолчанию: 0.003367003367003367 0.005591687565056063
позволяет: 0.0006734006734006734 0.0005229150097636339
внешнему: 0.0006734006734006734 0.0031011247043690854
кольцу: 0.0006734006734006734 0.0031011247043690854
наибольшим: 0.0006734006734006734 0.0031011247043690854
количеством: 0.0006734006734006734 0.0017907474996180324
медленно: 0.0006734006734006734 0.0018945526712188798
менять: 0.0013468013468013469 0.0029727608258447425
свой: 0.00404040404040404 0.003909430409138204
соответствовал: 0.0006734006734006734 0.0026343589262142397
По: 0.0006734006734006734 0.0005229150097636339
яркость: 0.003367003367003367 0.015505623521845426
снижается: 0.0006734006734006734 0.002361318449373725
захода: 0.0013468013468013469 0.006202249408738171
возвращается: 0.0006734006734006734 0.0026343589262142397
рассвете: 0.0006734006734006734 0.0031011247043690854
подойдёт: 0.0006734006734006734 0.002017328130339388
предпочитает: 0.0006734006734006734 0.0031011247043690854
традиционные: 0.0006734006734006734 0.0021675931480593944
чёткая: 0.0006734006734006734 0.0031011247043690854
индикация: 0.0006734006734006734 0.0026343589262142397
А: 0.003367003367003367 0.0013990418988608275
нужен: 0.0013468013468013469 0.0018142406033220331
будильник: 0.0013468013468013469 0.006202249408738171
поможет: 0.0006734006734006734 0.0014277868930640345
мигающий: 0.0006734006734006734 0.0031011247043690854
свет: 0.0006734006734006734 0.0018945526712188798
включается: 0.0006734006734006734 0.0031011247043690854
одну: 0.0006734006734006734 0.0009896807879184793
нужное: 0.0006734006734006734 0.002017328130339388
прост: 0.0006734006734006734 0.002361318449373725
использовании: 0.0006734006734006734 0.001323981721463187
достаточно: 0.0006734006734006734 0.0004942553367543438
подключить: 0.00202020202020202 0.005102482109713648
интернету: 0.0006734006734006734 0.002361318449373725
автоматически: 0.0006734006734006734 0.0010837965740296972
установит: 0.0013468013468013469 0.005268717852428479
восходазахода: 0.0013468013468013469 0.006202249408738171
Вы: 0.0053872053872053875 0.008407529956981378
настроить: 0.00202020202020202 0.004121658239447585
параметры: 0.0006734006734006734 0.0011547464162235197
своих: 0.0006734006734006734 0.0006879806380686742
простой: 0.0006734006734006734 0.0009610211149091892
интерфейс: 0.0006734006734006734 0.0010837965740296972
настройки: 0.0026936026936026937 0.005295926885852748
будут: 0.0026936026936026937 0.0018137227023939813
сохранены: 0.0006734006734006734 0.0021675931480593944
энергонезависимой: 0.0006734006734006734 0.0031011247043690854
памяти: 0.0006734006734006734 0.0010837965740296972
это: 0.00404040404040404 0.00025000163118419174
весёлое: 0.0006734006734006734 0.0031011247043690854
необычное: 0.0006734006734006734 0.0026343589262142397
жить: 0.0006734006734006734 0.0017008273699045493
которым: 0.0006734006734006734 0.0009610211149091892
немного: 0.0026936026936026937 0.0031547016336779666
веселее: 0.0006734006734006734 0.0031011247043690854
Что: 0.0013468013468013469 0.0008807090470123422
понадобится: 0.00404040404040404 0.00972907316627019
Чтобы: 0.00404040404040404 0.003505052798806962
самостоятельно: 0.0006734006734006734 0.0010509412446226723
сделать: 0.00202020202020202 0.0012448204836844788
нужно: 0.0013468013468013469 0.00038745060262866107
покупать: 0.0006734006734006734 0.0021675931480593944
экстраординарного: 0.0006734006734006734 0.0031011247043690854
облегчить: 0.0006734006734006734 0.0026343589262142397
задачу: 0.0006734006734006734 0.0010196146347675257
конце: 0.0006734006734006734 0.0010196146347675257
блока: 0.0006734006734006734 0.0017008273699045493
приложены: 0.0006734006734006734 0.0031011247043690854
ссылки: 0.0006734006734006734 0.0014277868930640345
детали: 0.0013468013468013469 0.0032430243887567297
потребуются: 0.0006734006734006734 0.0026343589262142397
работы: 0.00202020202020202 0.001207751516678021
Во‑первых: 0.0006734006734006734 0.002361318449373725
набор: 0.0006734006734006734 0.0010509412446226723
светодиодами: 0.00202020202020202 0.009303374113107256
Вариантов: 0.0006734006734006734 0.0031011247043690854
автор: 0.0006734006734006734 0.0016215121943783648
купил: 0.0006734006734006734 0.002017328130339388
Aliexpress: 0.0006734006734006734 0.0031011247043690854
во‑вторых: 0.0006734006734006734 0.0026343589262142397
микроконтроллер: 0.0013468013468013469 0.005268717852428479
частности: 0.0006734006734006734 0.0014863804129223712
ESP8266: 0.0006734006734006734 0.0031011247043690854
NodeMCU: 0.0047138047138047135 0.021707872930583596
V3: 0.0006734006734006734 0.0031011247043690854
встроенным: 0.0006734006734006734 0.002017328130339388
WiFi: 0.0026936026936026937 0.008670372592237578
идеальный: 0.0006734006734006734 0.002361318449373725
вариант: 0.0013468013468013469 0.002386473861187711
вывод: 0.0006734006734006734 0.001234061591749704
маркировкой: 0.0006734006734006734 0.0026343589262142397
VU: 0.00202020202020202 0.009303374113107256
подключён: 0.0006734006734006734 0.0026343589262142397
непосредственно: 0.0013468013468013469 0.00472263689874745
5В: 0.0006734006734006734 0.0026343589262142397
USB‑порта: 0.0006734006734006734 0.0031011247043690854
запитать: 0.0006734006734006734 0.0031011247043690854
светодиоды: 0.00202020202020202 0.009303374113107256
прямо: 0.0013468013468013469 0.0021018824892453446
Несколько: 0.0006734006734006734 0.002361318449373725
проводов‑перемычек: 0.0006734006734006734 0.0031011247043690854
разъёмами: 0.0006734006734006734 0.0031011247043690854
облегчат: 0.0006734006734006734 0.0031011247043690854
работу: 0.0006734006734006734 0.0006515717348563675
хотя: 0.0006734006734006734 0.000833585424916914
желании: 0.0006734006734006734 0.002017328130339388
припаять: 0.0006734006734006734 0.0026343589262142397
провода: 0.0013468013468013469 0.00472263689874745
В‑третьих: 0.0006734006734006734 0.0031011247043690854
управления: 0.0006734006734006734 0.0009896807879184793
конденсатор: 0.00202020202020202 0.00790307677864272
мкФ: 0.0006734006734006734 0.0026343589262142397
резистор: 0.00202020202020202 0.00790307677864272
Ом: 0.0013468013468013469 0.005268717852428479
инструкции: 0.0006734006734006734 0.0017008273699045493
мкФ16: 0.0006734006734006734 0.0031011247043690854
цветовой: 0.0006734006734006734 0.0031011247043690854
код: 0.00404040404040404 0.002965532020526063
оранжево‑оранжево‑коричневый: 0.0006734006734006734 0.0031011247043690854
Ещё: 0.0006734006734006734 0.0011547464162235197
дополнительный: 0.0006734006734006734 0.0017907474996180324
провод: 0.003367003367003367 0.013171794631071198
паяльник: 0.0006734006734006734 0.0031011247043690854
всё: 0.0013468013468013469 0.001303143469712735
соединить: 0.0013468013468013469 0.00472263689874745
Также: 0.0006734006734006734 0.0005528488566126804
требуется: 0.0013468013468013469 0.0021018824892453446
источник: 0.0006734006734006734 0.0017907474996180324
питания: 0.003367003367003367 0.008504136849522746
USB: 0.00202020202020202 0.007083955348121175
выдавать: 0.0013468013468013469 0.005268717852428479
10–15: 0.0006734006734006734 0.002361318449373725
Если: 0.006734006734006734 0.0015026501772000657
такого: 0.0006734006734006734 0.000881705939383005
легко: 0.0006734006734006734 0.0007264711524390101
заказать: 0.0013468013468013469 0.006202249408738171
И: 0.0013468013468013469 0.0006879806380686744
забудьте: 0.0006734006734006734 0.0031011247043690854
кабель: 0.0006734006734006734 0.0031011247043690854
micro: 0.0006734006734006734 0.0031011247043690854
подключения: 0.0006734006734006734 0.0015505623521845427
рассеивателя: 0.0006734006734006734 0.0031011247043690854
света: 0.0013468013468013469 0.00472263689874745
возьмём: 0.0006734006734006734 0.0026343589262142397
лист: 0.0006734006734006734 0.0031011247043690854
прозрачного: 0.0006734006734006734 0.0031011247043690854
белого: 0.0006734006734006734 0.0031011247043690854
акрила: 0.0006734006734006734 0.0031011247043690854
толщиной: 0.0006734006734006734 0.0031011247043690854
мм: 0.0026936026936026937 0.008670372592237578
необязательно: 0.0006734006734006734 0.002017328130339388
выглядеть: 0.00202020202020202 0.004121658239447585
симпатичнее: 0.0006734006734006734 0.0031011247043690854
Купить: 0.0006734006734006734 0.0031011247043690854
местном: 0.0006734006734006734 0.0026343589262142397
магазине: 0.0006734006734006734 0.0021675931480593944
интернете: 0.0006734006734006734 0.0015505623521845427
Корпус: 0.0006734006734006734 0.0026343589262142397
спроектирован: 0.0006734006734006734 0.0031011247043690854
3dsmax: 0.0006734006734006734 0.0031011247043690854
простое: 0.0006734006734006734 0.0015505623521845427
скосом: 0.0006734006734006734 0.0031011247043690854
небольшим: 0.0006734006734006734 0.0026343589262142397
прямоугольником: 0.0006734006734006734 0.0031011247043690854
внизу: 0.0006734006734006734 0.002017328130339388
котором: 0.0006734006734006734 0.0007069509255883352
стоять: 0.0006734006734006734 0.002361318449373725
доступ: 0.0006734006734006734 0.000833585424916914
3D‑принтеру: 0.0006734006734006734 0.0031011247043690854
распечатать: 0.0013468013468013469 0.00472263689874745
прилагаемый: 0.0006734006734006734 0.0031011247043690854
stl‑файл: 0.0006734006734006734 0.0031011247043690854
После: 0.00404040404040404 0.003409980081998097
покрасьте: 0.0006734006734006734 0.0031011247043690854
внутреннюю: 0.00202020202020202 0.00790307677864272
часть: 0.003367003367003367 0.003732870789635054
черный: 0.0006734006734006734 0.002361318449373725
сразу: 0.0006734006734006734 0.0007069509255883352
используйте: 0.00202020202020202 0.0056836580136566395
чёрный: 0.00202020202020202 0.009303374113107256
пластик: 0.0006734006734006734 0.0026343589262142397
Наконец: 0.0013468013468013469 0.0031011247043690854
клея: 0.0006734006734006734 0.0031011247043690854
пластика: 0.0006734006734006734 0.0021675931480593944
термоклея: 0.0013468013468013469 0.006202249408738171
вместе: 0.0006734006734006734 0.000833585424916914
ещё: 0.0026936026936026937 0.0031547016336779666
плоскогубцы: 0.0006734006734006734 0.0031011247043690854
согнуть: 0.0006734006734006734 0.0031011247043690854
контакты: 0.0006734006734006734 0.0021675931480593944
микроконтроллера: 0.0013468013468013469 0.005268717852428479
помощью: 0.0026936026936026937 0.0014212329753060522
этих: 0.0006734006734006734 0.0008107560971891826
материалов: 0.0006734006734006734 0.0018945526712188798
построить: 0.0006734006734006734 0.0014277868930640345
свои: 0.0006734006734006734 0.000584175466467827
собственные: 0.0006734006734006734 0.0016215121943783648
Ссылки: 0.0006734006734006734 0.002361318449373725
светодиодные: 0.0006734006734006734 0.0026343589262142397
httpswwwaliexpresscomitem4001111964956html: 0.0006734006734006734 0.0031011247043690854
nodeMCU: 0.0006734006734006734 0.0031011247043690854
httpswwwazdeliverydeenproductsnodemculolinv3modulmitesp8266: 0.0006734006734006734 0.0031011247043690854
перемычки: 0.0006734006734006734 0.0026343589262142397
httpswwwaliexpresscomitem4000203371860html: 0.0006734006734006734 0.0031011247043690854
рассеиватель: 0.0006734006734006734 0.0031011247043690854
httpswwwamazoncomMilkyAcrylicTranslucentPlexiglassAZMdpB0818HYY8G: 0.0006734006734006734 0.0031011247043690854
Делаем: 0.0006734006734006734 0.002361318449373725
своими: 0.0006734006734006734 0.0015505623521845427
руками: 0.0006734006734006734 0.0021675931480593944
Шаг: 0.0047138047138047135 0.01517315203641576
Домик: 0.0006734006734006734 0.0031011247043690854
Давайте: 0.0006734006734006734 0.0010196146347675257
проявим: 0.0006734006734006734 0.0031011247043690854
смекалку: 0.0006734006734006734 0.0031011247043690854
создадим: 0.0006734006734006734 0.0018945526712188798
потрясающий: 0.0006734006734006734 0.0026343589262142397
домик: 0.0006734006734006734 0.0031011247043690854
нашего: 0.0006734006734006734 0.0011547464162235197
напоминаем: 0.0006734006734006734 0.0026343589262142397
3D‑принтер: 0.0006734006734006734 0.0031011247043690854
очень: 0.00202020202020202 0.0010319709571030115
повезло: 0.0006734006734006734 0.002017328130339388
Ниже: 0.0006734006734006734 0.0018945526712188798
найдёте: 0.0006734006734006734 0.002361318449373725
файл: 0.0006734006734006734 0.000881705939383005
STL: 0.0006734006734006734 0.0031011247043690854
печати: 0.0006734006734006734 0.002361318449373725
любом: 0.0006734006734006734 0.001277521875344028
цвете: 0.0013468013468013469 0.006202249408738171
нравится: 0.0006734006734006734 0.0014277868930640345
примере: 0.0006734006734006734 0.001234061591749704
выполнены: 0.0006734006734006734 0.0031011247043690854
блестящем: 0.0006734006734006734 0.0031011247043690854
медном: 0.0006734006734006734 0.0031011247043690854
почему: 0.0006734006734006734 0.0009071203016610166
поэкспериментировать: 0.0006734006734006734 0.0026343589262142397
разными: 0.0006734006734006734 0.0014863804129223712
материалами: 0.0006734006734006734 0.0031011247043690854
3D‑принтера: 0.0006734006734006734 0.0031011247043690854
попробовать: 0.0006734006734006734 0.0015505623521845427
корпус: 0.00202020202020202 0.006051984391018163
дерева: 0.0006734006734006734 0.002017328130339388
Главное: 0.0006734006734006734 0.0017008273699045493
внутренний: 0.0006734006734006734 0.002361318449373725
диаметр: 0.0006734006734006734 0.0031011247043690854
Далее: 0.0006734006734006734 0.0011183375130112128
готового: 0.0006734006734006734 0.0026343589262142397
корпуса: 0.00202020202020202 0.007083955348121175
нарисуйте: 0.0006734006734006734 0.0031011247043690854
круг: 0.0006734006734006734 0.002361318449373725
акриле: 0.0006734006734006734 0.0031011247043690854
аккуратно: 0.0006734006734006734 0.0021675931480593944
вырежьте: 0.0006734006734006734 0.0031011247043690854
лобзиком: 0.0006734006734006734 0.0031011247043690854
Не: 0.0006734006734006734 0.0006340798248205018
торопитесь: 0.0006734006734006734 0.0031011247043690854
иначе: 0.0006734006734006734 0.001323981721463187
акрил: 0.0006734006734006734 0.0031011247043690854
расплавится: 0.0006734006734006734 0.0031011247043690854
лобзик: 0.0006734006734006734 0.0031011247043690854
нём: 0.0006734006734006734 0.0014863804129223712
застрянет: 0.0006734006734006734 0.0031011247043690854
Сначала: 0.0013468013468013469 0.0027477721596317235
использован: 0.0006734006734006734 0.0017907474996180324
выше: 0.0013468013468013469 0.0014529423048780202
позже: 0.0006734006734006734 0.0011547464162235197
оказалось: 0.0006734006734006734 0.0013738860798158618
из‑за: 0.0006734006734006734 0.0013738860798158618
отражаемого: 0.0006734006734006734 0.0031011247043690854
внутренними: 0.0006734006734006734 0.0026343589262142397
стенками: 0.0006734006734006734 0.0031011247043690854
сложно: 0.0006734006734006734 0.0009335315563096906
разбирать: 0.0006734006734006734 0.0026343589262142397
Так: 0.0013468013468013469 0.0007106164876530261
решено: 0.0006734006734006734 0.0026343589262142397
покрасить: 0.0006734006734006734 0.0031011247043690854
сделали: 0.0013468013468013469 0.002855573786128069
чёрного: 0.0006734006734006734 0.0031011247043690854
материала: 0.0006734006734006734 0.0017907474996180324
полностью: 0.0006734006734006734 0.000881705939383005
пропустить: 0.0006734006734006734 0.002017328130339388
пункт: 0.0006734006734006734 0.002361318449373725
читать: 0.0006734006734006734 0.0014863804129223712
дальше: 0.0006734006734006734 0.0008572159433083419
Поместите: 0.0006734006734006734 0.0031011247043690854
акриловый: 0.0006734006734006734 0.0031011247043690854
диск: 0.0013468013468013469 0.00472263689874745
внутрь: 0.0006734006734006734 0.002017328130339388
приклейте: 0.0013468013468013469 0.006202249408738171
Автор: 0.0006734006734006734 0.0015505623521845427
использовал: 0.0006734006734006734 0.0013738860798158618
тонкие: 0.0006734006734006734 0.0031011247043690854
акриловые: 0.0006734006734006734 0.0031011247043690854
высотой: 0.0006734006734006734 0.0026343589262142397
удерживать: 0.0006734006734006734 0.0026343589262142397
месте: 0.0006734006734006734 0.0011932369305938555
обязательно: 0.0013468013468013469 0.0023094928324470395
Просто: 0.0006734006734006734 0.0016215121943783648
легче: 0.0006734006734006734 0.0017008273699045493
приклеить: 0.0006734006734006734 0.0031011247043690854
идеальном: 0.0006734006734006734 0.0021675931480593944
расстоянии: 0.0006734006734006734 0.002017328130339388
приклеивать: 0.0006734006734006734 0.0031011247043690854
следующем: 0.0006734006734006734 0.0015505623521845427
шаге: 0.0006734006734006734 0.0018945526712188798
нам: 0.0006734006734006734 0.0004942553367543438
предстоит: 0.0006734006734006734 0.002017328130339388
приложить: 0.0006734006734006734 0.0031011247043690854
творчества: 0.0006734006734006734 0.0021675931480593944
терпения: 0.0006734006734006734 0.0021675931480593944
скоро: 0.0006734006734006734 0.0017907474996180324
наш: 0.0006734006734006734 0.0008572159433083419
ярко: 0.0006734006734006734 0.0021675931480593944
сиять: 0.0006734006734006734 0.0031011247043690854
вообще: 0.0006734006734006734 0.0008107560971891826
потрясающе: 0.0006734006734006734 0.0031011247043690854
Проект: 0.0006734006734006734 0.0018945526712188798
домика: 0.0006734006734006734 0.0031011247043690854
вstl: 0.0006734006734006734 0.0031011247043690854
Поработаем: 0.0006734006734006734 0.0031011247043690854
проводкой: 0.0006734006734006734 0.0031011247043690854
Вам: 0.0006734006734006734 0.0014863804129223712
терпится: 0.0006734006734006734 0.0026343589262142397
увидеть: 0.0006734006734006734 0.0013738860798158618
действии: 0.0006734006734006734 0.0026343589262142397
давайте: 0.0006734006734006734 0.0014277868930640345
подключим: 0.0006734006734006734 0.0031011247043690854
Каждое: 0.0013468013468013469 0.00472263689874745
требует: 0.0006734006734006734 0.0010837965740296972
земля: 0.0006734006734006734 0.0031011247043690854
избежать: 0.0006734006734006734 0.0013738860798158618
внезапных: 0.0006734006734006734 0.0031011247043690854
скачков: 0.0006734006734006734 0.0031011247043690854
напряжения: 0.0006734006734006734 0.0026343589262142397
повредить: 0.0006734006734006734 0.0031011247043690854
стоит: 0.0006734006734006734 0.0006515717348563675
добавить: 0.0026936026936026937 0.0034288637732333674
землёй: 0.0006734006734006734 0.0031011247043690854
Обязательно: 0.0006734006734006734 0.0026343589262142397
заземлите: 0.0006734006734006734 0.0031011247043690854
отрицательный: 0.0006734006734006734 0.0026343589262142397
полюс: 0.0013468013468013469 0.006202249408738171
конденсатора: 0.0006734006734006734 0.0031011247043690854
подключите: 0.00202020202020202 0.009303374113107256
часам: 0.0006734006734006734 0.0031011247043690854
нужны: 0.0006734006734006734 0.001234061591749704
данные: 0.0006734006734006734 0.00042752745618583805
имеет: 0.0006734006734006734 0.0006879806380686742
вход: 0.0013468013468013469 0.0034016547398090986
данных: 0.00404040404040404 0.0019314577815878777
DI: 0.0006734006734006734 0.0026343589262142397
выход: 0.0013468013468013469 0.0034016547398090986
DO: 0.0006734006734006734 0.0026343589262142397
Данные: 0.0006734006734006734 0.0016215121943783648
сначала: 0.0013468013468013469 0.0021018824892453446
поступают: 0.0006734006734006734 0.0031011247043690854
центральный: 0.0006734006734006734 0.0031011247043690854
светодиода: 0.0013468013468013469 0.006202249408738171
затем: 0.0013468013468013469 0.0019220422298183784
подключается: 0.0026936026936026937 0.0094452737974949
входу: 0.0006734006734006734 0.002361318449373725
следующего: 0.0013468013468013469 0.0037891053424377596
Для: 0.0013468013468013469 0.00046126640935592714
оптимальной: 0.0006734006734006734 0.0026343589262142397
рекомендую: 0.0006734006734006734 0.0017008273699045493
разместить: 0.0006734006734006734 0.0021675931480593944
входом: 0.0006734006734006734 0.0031011247043690854
центрального: 0.0006734006734006734 0.0026343589262142397
контакту: 0.0026936026936026937 0.012404498817476342
заземления: 0.0006734006734006734 0.0031011247043690854
G: 0.0006734006734006734 0.002361318449373725
рядом: 0.0006734006734006734 0.0014863804129223712
D2: 0.0006734006734006734 0.0031011247043690854
проводку: 0.0006734006734006734 0.0031011247043690854
место: 0.0006734006734006734 0.0011183375130112128
Первый: 0.0006734006734006734 0.0013738860798158618
светодиод: 0.0006734006734006734 0.0031011247043690854
каждого: 0.0006734006734006734 0.0007069509255883352
находиться: 0.0006734006734006734 0.002017328130339388
двенадцати: 0.0006734006734006734 0.0026343589262142397
Оставьте: 0.0006734006734006734 0.0031011247043690854
зазор: 0.0006734006734006734 0.0031011247043690854
рассеивателем: 0.0006734006734006734 0.0031011247043690854
кольцами: 0.0006734006734006734 0.0031011247043690854
позволит: 0.0006734006734006734 0.001323981721463187
светодиодам: 0.0006734006734006734 0.0026343589262142397
плавнее: 0.0006734006734006734 0.0031011247043690854
сливаться: 0.0006734006734006734 0.0031011247043690854
друг: 0.0006734006734006734 0.0008572159433083419
другом: 0.0006734006734006734 0.0010837965740296972
Программирование: 0.0006734006734006734 0.0021675931480593944
Пинго: 0.0013468013468013469 0.006202249408738171
программировать: 0.0006734006734006734 0.0018945526712188798
нечто: 0.0006734006734006734 0.002361318449373725
вроде: 0.0006734006734006734 0.0014277868930640345
Arduine: 0.0006734006734006734 0.0031011247043690854
IDE: 0.0026936026936026937 0.008069312521357551
установки: 0.0013468013468013469 0.0027477721596317235
компьютеру: 0.00202020202020202 0.006502779444178183
разъёма: 0.0006734006734006734 0.0031011247043690854
micro‑usb: 0.0006734006734006734 0.0031011247043690854
должны: 0.0006734006734006734 0.0009071203016610166
сообщить: 0.0006734006734006734 0.0018945526712188798
процессор: 0.0006734006734006734 0.0021675931480593944
Выберите: 0.0006734006734006734 0.0026343589262142397
модуль: 0.0006734006734006734 0.0016215121943783648
ESP12E: 0.0006734006734006734 0.0031011247043690854
подключённый: 0.0006734006734006734 0.0031011247043690854
вашему: 0.0006734006734006734 0.0017907474996180324
COM‑порту: 0.0006734006734006734 0.0031011247043690854
USB‑порту: 0.0006734006734006734 0.0031011247043690854
Программе: 0.0006734006734006734 0.0031011247043690854
несколько: 0.0006734006734006734 0.0003111349896273122
библиотек: 0.0006734006734006734 0.0015505623521845427
Перейдите: 0.0006734006734006734 0.0031011247043690854
меню: 0.0013468013468013469 0.004034656260678776
инструментов: 0.0013468013468013469 0.0027477721596317235
оттуда: 0.0006734006734006734 0.002017328130339388
Управление: 0.0006734006734006734 0.0017008273699045493
библиотеками: 0.0006734006734006734 0.002017328130339388
Найдите: 0.0006734006734006734 0.0031011247043690854
установите: 0.0026936026936026937 0.012404498817476342
Adafruit: 0.0013468013468013469 0.006202249408738171
NeoPixel: 0.0006734006734006734 0.0031011247043690854
ESPAsyncWebSrv: 0.0006734006734006734 0.0031011247043690854
dvarrel: 0.0006734006734006734 0.0031011247043690854
зависимости: 0.0006734006734006734 0.0007264711524390101
ESPAsyncTCP: 0.0006734006734006734 0.0031011247043690854
AsyncTCP: 0.0006734006734006734 0.0031011247043690854
Preferences: 0.0006734006734006734 0.0031011247043690854
Владимира: 0.0006734006734006734 0.0031011247043690854
Шиманского: 0.0006734006734006734 0.0031011247043690854
Загрузите: 0.0006734006734006734 0.0031011247043690854
Pingoino: 0.0006734006734006734 0.0031011247043690854
отредактируйте: 0.0013468013468013469 0.006202249408738171
следующие: 0.0006734006734006734 0.0009896807879184793
строки: 0.0006734006734006734 0.0013738860798158618
define: 0.00404040404040404 0.01580615355728544
MYSSID: 0.0006734006734006734 0.0031011247043690854
YOURNETWORKNAME: 0.0006734006734006734 0.0031011247043690854
MYPASSKEY: 0.0006734006734006734 0.0031011247043690854
YOURNETWORKPASSWORD: 0.0006734006734006734 0.0031011247043690854
соответствовать: 0.0006734006734006734 0.002017328130339388
вашей: 0.0006734006734006734 0.001323981721463187
локальной: 0.0006734006734006734 0.002017328130339388
сети: 0.0006734006734006734 0.0010837965740296972
TIMEZONE: 0.0006734006734006734 0.0031011247043690854
TZEuropeAmsterdam: 0.0006734006734006734 0.0031011247043690854
ваша: 0.0006734006734006734 0.0017008273699045493
временная: 0.0006734006734006734 0.0026343589262142397
зона: 0.0006734006734006734 0.0018945526712188798
пояс: 0.0006734006734006734 0.0026343589262142397
найти: 0.0013468013468013469 0.001303143469712735
LATITUDE: 0.0006734006734006734 0.0031011247043690854
LONGITUDE: 0.0006734006734006734 0.0031011247043690854
строках: 0.0006734006734006734 0.0031011247043690854
введите: 0.00202020202020202 0.00790307677864272
широту: 0.0006734006734006734 0.0031011247043690854
долготу: 0.0006734006734006734 0.0031011247043690854
вашего: 0.0047138047138047135 0.00961720255871103
местоположения: 0.0006734006734006734 0.002361318449373725
виде: 0.0006734006734006734 0.0006340798248205018
строк: 0.0006734006734006734 0.0017008273699045493
получить: 0.0006734006734006734 0.0006340798248205018
правильное: 0.0006734006734006734 0.0021675931480593944
цифры: 0.0013468013468013469 0.0037891053424377596
Google: 0.0006734006734006734 0.001277521875344028
Maps: 0.0006734006734006734 0.0026343589262142397
нажмите: 0.0013468013468013469 0.005268717852428479
своё: 0.0006734006734006734 0.0013738860798158618
местоположение: 0.0006734006734006734 0.0021675931480593944
найдите: 0.0013468013468013469 0.006202249408738171
первые: 0.0006734006734006734 0.0017008273699045493
две: 0.0006734006734006734 0.000881705939383005
знака: 0.0006734006734006734 0.0031011247043690854
строке: 0.00202020202020202 0.005102482109713648
браузера: 0.003367003367003367 0.010086640651696939
Вот: 0.0013468013468013469 0.001667170849833828
Можно: 0.0006734006734006734 0.0007672958135948585
скомпилировать: 0.0006734006734006734 0.0026343589262142397
загрузить: 0.0006734006734006734 0.002017328130339388
стрелку: 0.0006734006734006734 0.0031011247043690854
вправо: 0.0006734006734006734 0.002017328130339388
верхней: 0.0006734006734006734 0.002361318449373725
панели: 0.0006734006734006734 0.0018945526712188798
запуска: 0.0006734006734006734 0.0010196146347675257
ваши: 0.0013468013468013469 0.0027477721596317235
оживут: 0.0006734006734006734 0.0031011247043690854
появится: 0.0006734006734006734 0.0017907474996180324
анимированный: 0.0006734006734006734 0.0026343589262142397
значок: 0.0006734006734006734 0.0026343589262142397
отобразятся: 0.0006734006734006734 0.0026343589262142397
Наслаждайтесь: 0.0006734006734006734 0.0031011247043690854
pingoino: 0.0006734006734006734 0.0031011247043690854
Первое: 0.0006734006734006734 0.0016215121943783648
использование: 0.0006734006734006734 0.0009896807879184793
завершения: 0.0006734006734006734 0.0016215121943783648
загрузки: 0.0006734006734006734 0.0016215121943783648
программного: 0.0013468013468013469 0.0035814949992360647
обеспечения: 0.0013468013468013469 0.0027477721596317235
проверьте: 0.0006734006734006734 0.0031011247043690854
Serial: 0.0013468013468013469 0.005268717852428479
Monitor: 0.0013468013468013469 0.006202249408738171
наличие: 0.0006734006734006734 0.0010509412446226723
сообщения: 0.0006734006734006734 0.0015505623521845427
примерно: 0.0006734006734006734 0.0008572159433083419
содержания: 0.0006734006734006734 0.0026343589262142397
Clock: 0.00202020202020202 0.00790307677864272
Starting: 0.0006734006734006734 0.0031011247043690854
in: 0.0006734006734006734 0.001277521875344028
Color: 0.0013468013468013469 0.006202249408738171
by: 0.0006734006734006734 0.0015505623521845427
illusionmanager: 0.0006734006734006734 0.0031011247043690854
youtubecomillusionmanager: 0.0013468013468013469 0.006202249408738171
Access: 0.0006734006734006734 0.002361318449373725
settings: 0.0006734006734006734 0.0031011247043690854
like: 0.0006734006734006734 0.002361318449373725
this: 0.0006734006734006734 0.0021675931480593944
from: 0.0006734006734006734 0.0014863804129223712
your: 0.0006734006734006734 0.002361318449373725
web: 0.0013468013468013469 0.004034656260678776
browser: 0.0013468013468013469 0.005268717852428479
1921680184pingo: 0.0006734006734006734 0.0031011247043690854
видите: 0.0006734006734006734 0.002017328130339388
такое: 0.0006734006734006734 0.0007672958135948585
сообщение: 0.0006734006734006734 0.0017907474996180324
запустите: 0.0006734006734006734 0.0026343589262142397
первую: 0.0006734006734006734 0.0009610211149091892
маленькую: 0.0006734006734006734 0.0026343589262142397
кнопку: 0.0013468013468013469 0.0032430243887567297
Ответ: 0.0006734006734006734 0.002017328130339388
openwheathermaporg: 0.0006734006734006734 0.0031011247043690854
покажет: 0.0006734006734006734 0.0021675931480593944
восхода: 0.0006734006734006734 0.0031011247043690854
правильной: 0.0006734006734006734 0.0018945526712188798
Скопируйте: 0.0006734006734006734 0.0031011247043690854
строку: 0.00404040404040404 0.012103968782036326
ниже: 0.00202020202020202 0.002800594668929072
вставьте: 0.0006734006734006734 0.0031011247043690854
Имейте: 0.0006734006734006734 0.0031011247043690854
виду: 0.0006734006734006734 0.0017907474996180324
фактический: 0.0006734006734006734 0.0026343589262142397
IP‑адрес: 0.0026936026936026937 0.012404498817476342
отличаться: 0.0006734006734006734 0.0021675931480593944
отвечает: 0.0006734006734006734 0.0011547464162235197
приятном: 0.0006734006734006734 0.0031011247043690854
пользовательском: 0.0006734006734006734 0.002361318449373725
интерфейсе: 0.0006734006734006734 0.0026343589262142397
указано: 0.0006734006734006734 0.0021675931480593944
значение: 0.0013468013468013469 0.0018142406033220331
PINGOIP: 0.0026936026936026937 0.012404498817476342
данном: 0.0006734006734006734 0.0010509412446226723
случае: 0.0006734006734006734 0.0003219096302646463
ВНИМАНИЕ: 0.0006734006734006734 0.0031011247043690854
USB‑порт: 0.0006734006734006734 0.0031011247043690854
вашем: 0.0006734006734006734 0.002017328130339388
компьютере: 0.0006734006734006734 0.0015505623521845427
силу: 0.0006734006734006734 0.0017907474996180324
тока: 0.0006734006734006734 0.0021675931480593944
поднимете: 0.0006734006734006734 0.0031011247043690854
скорее: 0.0006734006734006734 0.0009071203016610166
повредите: 0.0006734006734006734 0.0031011247043690854
компьютер: 0.0006734006734006734 0.0016215121943783648
Как: 0.0013468013468013469 0.0004997490658462384
заработает: 0.0006734006734006734 0.0026343589262142397
коде: 0.0006734006734006734 0.0013738860798158618
MAXBRIGHTNESS: 0.0006734006734006734 0.0031011247043690854
используете: 0.0006734006734006734 0.0017008273699045493
блок: 0.0013468013468013469 0.0034016547398090986
Снова: 0.0006734006734006734 0.002361318449373725
выполните: 0.0006734006734006734 0.0031011247043690854
компиляцию: 0.0006734006734006734 0.0026343589262142397
загрузите: 0.0006734006734006734 0.0031011247043690854
Отключите: 0.0006734006734006734 0.0031011247043690854
компьютера: 0.0006734006734006734 0.0021675931480593944
источнику: 0.0006734006734006734 0.0031011247043690854
Теперь: 0.0006734006734006734 0.000881705939383005
смело: 0.0006734006734006734 0.002017328130339388
устанавливать: 0.0006734006734006734 0.0017008273699045493
любое: 0.0006734006734006734 0.0014277868930640345
хотите: 0.0013468013468013469 0.002386473861187711
снова: 0.0006734006734006734 0.001277521875344028
уменьшите: 0.0006734006734006734 0.0031011247043690854
сохраните: 0.0006734006734006734 0.0031011247043690854
настройку: 0.0006734006734006734 0.0018945526712188798
дополнительной: 0.0006734006734006734 0.0018945526712188798
безопасности: 0.0006734006734006734 0.001323981721463187
отсоединяйте: 0.0006734006734006734 0.0031011247043690854
перемычку: 0.0006734006734006734 0.0031011247043690854
подключённую: 0.0006734006734006734 0.0031011247043690854
всякий: 0.0006734006734006734 0.0018945526712188798
подключаете: 0.0006734006734006734 0.0031011247043690854
по‑прежнему: 0.0006734006734006734 0.0026343589262142397
выключены: 0.0006734006734006734 0.0031011247043690854
Интерфейс: 0.0006734006734006734 0.002017328130339388
Всякий: 0.0006734006734006734 0.0026343589262142397
обновляете: 0.0006734006734006734 0.0031011247043690854
страницу: 0.0006734006734006734 0.0014277868930640345
PINGOIPpingo: 0.0006734006734006734 0.0031011247043690854
замените: 0.0006734006734006734 0.0026343589262142397
значением: 0.0006734006734006734 0.0017008273699045493
которое: 0.0006734006734006734 0.0007886754084194917
получили: 0.0006734006734006734 0.0016215121943783648
ранее: 0.0006734006734006734 0.0011932369305938555
девять: 0.0006734006734006734 0.0021675931480593944
различных: 0.0006734006734006734 0.0009896807879184793
стилей: 0.0006734006734006734 0.0031011247043690854
выбор: 0.0006734006734006734 0.001277521875344028
установить: 0.0006734006734006734 0.0011183375130112128
Кнопка: 0.0006734006734006734 0.002361318449373725
сохранения: 0.0006734006734006734 0.0031011247043690854
помещает: 0.0006734006734006734 0.0031011247043690854
энергонезависимую: 0.0006734006734006734 0.0031011247043690854
память: 0.0006734006734006734 0.0014863804129223712
поэтому: 0.0013468013468013469 0.0012008055478569476
запомнит: 0.0006734006734006734 0.0031011247043690854
перезагрузке: 0.0006734006734006734 0.0031011247043690854
Идеи: 0.0006734006734006734 0.0026343589262142397
Проявите: 0.0006734006734006734 0.0026343589262142397
фантазию: 0.0006734006734006734 0.0031011247043690854
Посмотрите: 0.0006734006734006734 0.0026343589262142397
добавьте: 0.0006734006734006734 0.0026343589262142397
собственный: 0.0006734006734006734 0.0014277868930640345
циферблат: 0.0006734006734006734 0.0031011247043690854
Возможно: 0.0006734006734006734 0.001323981721463187
захочется: 0.0006734006734006734 0.0031011247043690854
кода: 0.0006734006734006734 0.000617030795874852
раздел: 0.0006734006734006734 0.0016215121943783648
считывает: 0.0006734006734006734 0.0026343589262142397
ответ: 0.0013468013468013469 0.0018670631126193812
openweathermaporg: 0.0006734006734006734 0.0031011247043690854
направление: 0.0006734006734006734 0.0021675931480593944
ветра: 0.0006734006734006734 0.0031011247043690854
использовать: 0.0013468013468013469 0.0005393637260567345
p: 0.00202020202020202 0.007083955348121175
strstrddeg: 0.0006734006734006734 0.0031011247043690854
int: 0.0026936026936026937 0.005945521651689485
degree0: 0.0006734006734006734 0.0031011247043690854
if: 0.00202020202020202 0.003464239248670559
NULL: 0.0006734006734006734 0.0026343589262142397
p6: 0.0006734006734006734 0.0031011247043690854
while: 0.0006734006734006734 0.002361318449373725
isDigitp: 0.0006734006734006734 0.0031011247043690854
degree: 0.0013468013468013469 0.006202249408738171
Serialprintfwind: 0.0006734006734006734 0.0031011247043690854
direction: 0.0006734006734006734 0.0026343589262142397
dndegree: 0.0006734006734006734 0.0031011247043690854
Или: 0.0006734006734006734 0.0011932369305938555
аналогичный: 0.0006734006734006734 0.0021675931480593944
temp: 0.0006734006734006734 0.0031011247043690854
считывать: 0.0006734006734006734 0.0021675931480593944
температуру: 0.0006734006734006734 0.0026343589262142397
Кельвинах: 0.0006734006734006734 0.0031011247043690854
вырезать: 0.0006734006734006734 0.0026343589262142397
двенадцать: 0.0006734006734006734 0.0031011247043690854
маленьких: 0.0006734006734006734 0.0026343589262142397
прямоугольников: 0.0006734006734006734 0.0031011247043690854
винила: 0.0006734006734006734 0.0031011247043690854
наклеить: 0.0006734006734006734 0.0031011247043690854
акрилового: 0.0006734006734006734 0.0031011247043690854
диска: 0.0006734006734006734 0.0021675931480593944
точно: 0.0006734006734006734 0.0011547464162235197
отметить: 0.0013468013468013469 0.0022366750260224256
расположение: 0.0006734006734006734 0.0026343589262142397
каждой: 0.0006734006734006734 0.0010196146347675257
отметки: 0.0006734006734006734 0.0031011247043690854
делал: 0.0006734006734006734 0.0016215121943783648
отфотошопленный: 0.0006734006734006734 0.0031011247043690854
одна: 0.0006734006734006734 0.0011547464162235197
идея: 0.0006734006734006734 0.0017008273699045493
циферблата: 0.0006734006734006734 0.0031011247043690854
метеоры: 0.0006734006734006734 0.0031011247043690854
Отредактируйте: 0.0006734006734006734 0.0031011247043690854
волшебный: 0.0006734006734006734 0.0026343589262142397
метеора: 0.0006734006734006734 0.0031011247043690854
Свяжитесь: 0.0006734006734006734 0.0031011247043690854
понимаете: 0.0006734006734006734 0.0021675931480593944
case: 0.0006734006734006734 0.002017328130339388
meteor: 0.0006734006734006734 0.0031011247043690854
the: 0.0026936026936026937 0.005711147572256138
end: 0.0006734006734006734 0.002361318449373725
of: 0.0013468013468013469 0.002555043750688056
meteors: 0.0006734006734006734 0.0031011247043690854
give: 0.0006734006734006734 0.0031011247043690854
position: 0.0006734006734006734 0.0026343589262142397
clocks: 0.0006734006734006734 0.0031011247043690854
hands: 0.0006734006734006734 0.0031011247043690854
ledsclear: 0.0006734006734006734 0.0031011247043690854
for: 0.0006734006734006734 0.0010196146347675257
i: 0.00404040404040404 0.008918282477534227
lt36: 0.0006734006734006734 0.0031011247043690854
pos: 0.00404040404040404 0.01580615355728544
hour: 0.0006734006734006734 0.0031011247043690854
ringsize6: 0.0013468013468013469 0.006202249408738171
minuteringsize67200: 0.0006734006734006734 0.0031011247043690854
lt: 0.0013468013468013469 0.0031011247043690854
val: 0.003367003367003367 0.010837965740296971
ledsgamma8255: 0.0006734006734006734 0.0031011247043690854
ledssetPixelColorring6pos: 0.0006734006734006734 0.0031011247043690854
ltlt: 0.00202020202020202 0.00790307677864272
minute: 0.0006734006734006734 0.0031011247043690854
ringsize8: 0.0006734006734006734 0.0031011247043690854
ledssetPixelColorring8pos: 0.0006734006734006734 0.0031011247043690854
ledsfillledsColorHSVhuehour: 0.0006734006734006734 0.0031011247043690854
ring0: 0.0006734006734006734 0.0031011247043690854
ringsize0ringsize1: 0.0006734006734006734 0.0031011247043690854
break: 0.0006734006734006734 0.0021675931480593944
Заключение: 0.0006734006734006734 0.0010509412446226723
Важно: 0.0006734006734006734 0.001323981721463187
сверхнизкой: 0.0006734006734006734 0.0031011247043690854
яркости: 0.00202020202020202 0.009303374113107256
значений: 0.0006734006734006734 0.001323981721463187
представления: 0.0006734006734006734 0.0021675931480593944
Некоторые: 0.0006734006734006734 0.001323981721463187
элементы: 0.0006734006734006734 0.0018945526712188798
исчезнуть: 0.0006734006734006734 0.0026343589262142397
опцией: 0.0006734006734006734 0.0031011247043690854
адресной: 0.0006734006734006734 0.0026343589262142397
такую: 0.0006734006734006734 0.0010509412446226723
строчку: 0.0006734006734006734 0.002017328130339388
заменив: 0.0013468013468013469 0.00472263689874745
устройства: 0.0026936026936026937 0.005110087501376112
PINGOIPpingotime3600: 0.0006734006734006734 0.0031011247043690854
вычтет: 0.0006734006734006734 0.0031011247043690854
секунд: 0.0006734006734006734 0.001277521875344028
текущего: 0.0006734006734006734 0.0018945526712188798
Однако: 0.0006734006734006734 0.0007465741579270109
обратно: 0.0006734006734006734 0.0017907474996180324
ноль: 0.0006734006734006734 0.0026343589262142397
сервер: 0.0006734006734006734 0.0010196146347675257
должен: 0.0006734006734006734 0.0007465741579270109
вернуть: 0.0006734006734006734 0.002017328130339388
правильный: 0.0006734006734006734 0.002017328130339388
результат: 0.0006734006734006734 0.0007264711524390101
часового: 0.0006734006734006734 0.0031011247043690854
пояса: 0.0006734006734006734 0.0026343589262142397
изменить: 0.0013468013468013469 0.0027477721596317235
снижение: 0.0006734006734006734 0.002017328130339388
ночное: 0.0006734006734006734 0.002361318449373725
следующую: 0.0006734006734006734 0.0018945526712188798
адресную: 0.0006734006734006734 0.0031011247043690854
PINGOIPpingonight50: 0.0006734006734006734 0.0031011247043690854
уменьшение: 0.0006734006734006734 0.0026343589262142397
Значение: 0.0006734006734006734 0.0031011247043690854
какой‑то: 0.0006734006734006734 0.002361318449373725
причине: 0.0006734006734006734 0.0017907474996180324
решит: 0.0006734006734006734 0.0026343589262142397
перезагрузиться: 0.0006734006734006734 0.0031011247043690854
воспроизводиться: 0.0006734006734006734 0.0031011247043690854
анимация: 0.0006734006734006734 0.0031011247043690854
отключить: 0.0006734006734006734 0.0026343589262142397
анимацию: 0.0006734006734006734 0.0031011247043690854
закомментировав: 0.0006734006734006734 0.0031011247043690854
WIFIANIM: 0.0006734006734006734 0.0031011247043690854
изменения: 0.0006734006734006734 0.0009335315563096906
перезагрузка: 0.0006734006734006734 0.0031011247043690854
заметна: 0.0006734006734006734 0.002361318449373725
статический: 0.0006734006734006734 0.0021675931480593944
динамический: 0.0006734006734006734 0.0026343589262142397
некоторые: 0.0006734006734006734 0.0007672958135948585
маршрутизатора: 0.0013468013468013469 0.006202249408738171
делать: 0.0006734006734006734 0.0005377156203486678
зависеть: 0.0006734006734006734 0.0018945526712188798
модели: 0.0006734006734006734 0.0010196146347675257
большинстве: 0.0006734006734006734 0.0015505623521845427
случаев: 0.0006734006734006734 0.0015505623521845427
статические: 0.0006734006734006734 0.0026343589262142397
IP‑адреса: 0.0006734006734006734 0.0031011247043690854
DHCP: 0.0006734006734006734 0.0031011247043690854
конфигурации: 0.0006734006734006734 0.001234061591749704
Спасибо: 0.0006734006734006734 0.0017907474996180324
внимание: 0.0006734006734006734 0.0008572159433083419
интересного: 0.0006734006734006734 0.002361318449373725
блоге: 0.0006734006734006734 0.002017328130339388
Cloud4Y: 0.0006734006734006734 0.0031011247043690854
→: 0.003367003367003367 0.008504136849522746
Информационная: 0.0006734006734006734 0.0031011247043690854
безопасность: 0.0006734006734006734 0.0014277868930640345
глупость: 0.0006734006734006734 0.0031011247043690854
необычные: 0.0006734006734006734 0.0026343589262142397
примеры: 0.0006734006734006734 0.0013738860798158618
NAS: 0.0006734006734006734 0.0031011247043690854
шапку: 0.0006734006734006734 0.0031011247043690854
сухарей: 0.0006734006734006734 0.0031011247043690854
Взлом: 0.0006734006734006734 0.0031011247043690854
Hyundai: 0.0006734006734006734 0.0031011247043690854
Tucson: 0.0006734006734006734 0.0031011247043690854
Столетний: 0.0006734006734006734 0.0031011247043690854
язык: 0.0006734006734006734 0.0011932369305938555
программирования: 0.0006734006734006734 0.0011932369305938555
самых: 0.0006734006734006734 0.0010509412446226723
интересных: 0.0006734006734006734 0.0018945526712188798
клавиатур: 0.0006734006734006734 0.0031011247043690854
частной: 0.0006734006734006734 0.0031011247043690854
коллекции: 0.0006734006734006734 0.002361318449373725
