Привет: 0.0004775549188156638 0.0010125422808978466
друзья: 0.0004775549188156638 0.0016745739719770687
На: 0.0004775549188156638 0.0001772032862420401
днях: 0.0004775549188156638 0.0021992216743018586
прочитал: 0.0004775549188156638 0.0018682058287622474
интересную: 0.0004775549188156638 0.0021992216743018586
статью: 0.0004775549188156638 0.0009743174921330251
посвященную: 0.0004775549188156638 0.0018682058287622474
различным: 0.0004775549188156638 0.0018682058287622474
вариантам: 0.0004775549188156638 0.0018682058287622474
хранения: 0.0014326647564469914 0.0029229524763990755
токена: 0.0057306590257879654 0.022418469945146968
доступа: 0.010506208213944603 0.015440721748470256
access: 0.0004775549188156638 0.0018682058287622474
token: 0.0033428844317096467 0.013077440801335731
клиенте: 0.0014326647564469914 0.005604617486286742
Мое: 0.0004775549188156638 0.0018682058287622474
внимание: 0.0028653295128939827 0.0036474661198077005
привлек: 0.0004775549188156638 0.0016745739719770687
вариант: 0.0004775549188156638 0.0008462067057936367
использованием: 0.0004775549188156638 0.0008189104241126679
сервисворкера: 0.0004775549188156638 0.0021992216743018586
service: 0.0009551098376313276 0.00286125336538108
worker: 0.0009551098376313276 0.0037364116575244947
см: 0.0009551098376313276 0.0022998525393045574
Подход: 0.0004775549188156638 0.0015371899832226363
Использование: 0.0004775549188156638 0.0012061741376830255
поскольку: 0.0004775549188156638 0.0009059789803657504
задумывался: 0.0004775549188156638 0.0021992216743018586
таком: 0.0004775549188156638 0.0008751582921434146
способе: 0.0004775549188156638 0.0018682058287622474
применения: 0.0004775549188156638 0.0013435581264374576
интерфейса: 0.0004775549188156638 0.0011499262696522787
СВ: 0.007640878701050621 0.03518754678882974
это: 0.0009551098376313276 5.909780679855535e-05
посредник: 0.0014326647564469914 0.005604617486286742
клиентом: 0.0009551098376313276 0.00286125336538108
сервером: 0.0004775549188156638 0.00143062668269054
своего: 0.0004775549188156638 0.0005013477194358536
рода: 0.0004775549188156638 0.0010540949919721687
проксисервер: 0.0004775549188156638 0.0021992216743018586
который: 0.0014326647564469914 0.0003559618328058735
позволяет: 0.0004775549188156638 0.00037083514302721884
перехватывать: 0.0004775549188156638 0.0018682058287622474
запросы: 0.0014326647564469914 0.0024567312723380035
ответы: 0.0009551098376313276 0.001877853731015122
модифицировать: 0.0004775549188156638 0.0013435581264374576
иным: 0.0004775549188156638 0.0016745739719770687
образом: 0.002387774594078319 0.0018541757151360944
Он: 0.0009551098376313276 0.0008993395796164709
запускается: 0.0004775549188156638 0.0015371899832226363
отдельном: 0.0009551098376313276 0.002539885422094344
контексте: 0.0004775549188156638 0.0013435581264374576
работает: 0.0004775549188156638 0.00040304205840235386
потоке: 0.0004775549188156638 0.0018682058287622474
имеет: 0.0009551098376313276 0.0009757891571461138
DOM: 0.0004775549188156638 0.0016745739719770687
Клиент: 0.0014326647564469914 0.005023721915931206
также: 0.0014326647564469914 0.0005737500954113543
хранимым: 0.0004775549188156638 0.0021992216743018586
нем: 0.0004775549188156638 0.0007930903566483529
данным: 0.0004775549188156638 0.0010125422808978466
Как: 0.0019102196752626551 0.0007088131449681604
правило: 0.0004775549188156638 0.0008751582921434146
используется: 0.0004775549188156638 0.000559304193649926
обеспечения: 0.0004775549188156638 0.0009743174921330251
работы: 0.0014326647564469914 0.0008565000010825507
приложения: 0.0033428844317096467 0.003915129355549482
режиме: 0.0004775549188156638 0.0007930903566483529
офлайн: 0.0004775549188156638 0.0016745739719770687
посредством: 0.0004775549188156638 0.001269942711047172
кэширования: 0.0004775549188156638 0.0018682058287622474
критически: 0.0004775549188156638 0.0013435581264374576
важных: 0.0004775549188156638 0.0011499262696522787
ресурсов: 0.0004775549188156638 0.0008751582921434146
В: 0.0004775549188156638 1.9494744279013946e-05
статье: 0.0009551098376313276 0.000949620127358039
покажу: 0.0004775549188156638 0.00143062668269054
реализовать: 0.0004775549188156638 0.0009059789803657504
простой: 0.0004775549188156638 0.0006815264353582358
сервис: 0.0004775549188156638 0.0007230791464325575
аутентификации: 0.0014326647564469914 0.0036185224130490766
основе: 0.0009551098376313276 0.0012158220399359002
JSONWebToken: 0.0004775549188156638 0.0021992216743018586
HTTP: 0.0004775549188156638 0.000938926865507561
Cookie: 0.0004775549188156638 0.0021992216743018586
хранением: 0.0004775549188156638 0.0018682058287622474
сервисворкере: 0.0004775549188156638 0.0021992216743018586
Для: 0.0014326647564469914 0.0004906737950526875
тех: 0.0004775549188156638 0.0005013477194358536
кого: 0.0004775549188156638 0.001269942711047172
интересует: 0.0004775549188156638 0.0015371899832226363
код: 0.0004775549188156638 0.0003505105898186249
ссылка: 0.0004775549188156638 0.0011499262696522787
соответствующий: 0.0004775549188156638 0.0015371899832226363
репозиторий: 0.0009551098376313276 0.0021992216743018586
Интересно: 0.0004775549188156638 0.0013435581264374576
Тогда: 0.0004775549188156638 0.0008751582921434146
прошу: 0.0004775549188156638 0.0018682058287622474
кат: 0.0004775549188156638 0.0018682058287622474
локального: 0.0004775549188156638 0.0015371899832226363
запуска: 0.0004775549188156638 0.0007230791464325575
проекта: 0.0014326647564469914 0.0018758357019824673
необходимо: 0.0004775549188156638 0.0005013477194358536
выполнить: 0.0009551098376313276 0.0015371899832226363
следующие: 0.0009551098376313276 0.0014037019771336596
команды: 0.0014326647564469914 0.0018237330599038502
клонируем: 0.0014326647564469914 0.006597665022905576
git: 0.002387774594078319 0.006717790632187289
init: 0.0014326647564469914 0.004611569949667909
myproject: 0.0009551098376313276 0.004398443348603717
cd: 0.0009551098376313276 0.004398443348603717
remote: 0.0004775549188156638 0.0021992216743018586
add: 0.0004775549188156638 0.0016745739719770687
origin: 0.0009551098376313276 0.004398443348603717
httpsgithubcomharryhemanBlogPoststreemasteraccesstokenserviceworker: 0.0004775549188156638 0.0021992216743018586
config: 0.0014326647564469914 0.004611569949667909
coresparseCheckout: 0.0004775549188156638 0.0021992216743018586
true: 0.004297994269340974 0.009486854927749517
sparsecheckout: 0.0004775549188156638 0.0021992216743018586
set: 0.0004775549188156638 0.00143062668269054
accesstokenserviceworker: 0.0009551098376313276 0.004398443348603717
pull: 0.0004775549188156638 0.0015371899832226363
master: 0.0004775549188156638 0.0018682058287622474
переходим: 0.0004775549188156638 0.0013435581264374576
директорию: 0.0004775549188156638 0.0016745739719770687
устанавливаем: 0.0004775549188156638 0.0016745739719770687
зависимости: 0.0004775549188156638 0.0005151908602540258
yarn: 0.0014326647564469914 0.005604617486286742
npm: 0.0014326647564469914 0.005604617486286742
i: 0.0004775549188156638 0.0010540949919721687
генерируем: 0.0019102196752626551 0.008796886697207434
публичный: 0.0004775549188156638 0.0015371899832226363
приватный: 0.0004775549188156638 0.0018682058287622474
ключи: 0.0004775549188156638 0.0013435581264374576
ассиметричного: 0.0004775549188156638 0.0021992216743018586
шифрованиядекодирования: 0.0004775549188156638 0.0021992216743018586
идентификации: 0.0033428844317096467 0.01539455172011301
gen: 0.0009551098376313276 0.0037364116575244947
run: 0.0009551098376313276 0.00286125336538108
создаем: 0.0014326647564469914 0.00429188004807162
файл: 0.0004775549188156638 0.0006252785673274891
env: 0.0014326647564469914 0.005023721915931206
копируем: 0.0004775549188156638 0.0016745739719770687
содержимое: 0.0014326647564469914 0.0038098281331415155
файла: 0.0004775549188156638 0.000938926865507561
envexample: 0.0009551098376313276 0.004398443348603717
значения: 0.0009551098376313276 0.0014037019771336596
переменных: 0.0004775549188156638 0.00143062668269054
менять: 0.0004775549188156638 0.0010540949919721687
move: 0.0004775549188156638 0.0021992216743018586
запускаем: 0.0004775549188156638 0.0015371899832226363
сервер: 0.002387774594078319 0.003615395732162788
разработки: 0.0004775549188156638 0.0006079110199679501
dev: 0.0014326647564469914 0.005604617486286742
Обратите: 0.0004775549188156638 0.0011499262696522787
потребоваться: 0.0004775549188156638 0.0016745739719770687
миграцию: 0.0004775549188156638 0.0018682058287622474
помощью: 0.004775549188156638 0.002519736113096332
npx: 0.0009551098376313276 0.004398443348603717
prisma: 0.0038204393505253103 0.01759377339441487
migrate: 0.0004775549188156638 0.0021992216743018586
name: 0.0009551098376313276 0.001877853731015122
сгенерировать: 0.0004775549188156638 0.0013435581264374576
клиента: 0.0014326647564469914 0.002625474876430244
Prisma: 0.0009551098376313276 0.004398443348603717
generate: 0.0004775549188156638 0.0021992216743018586
создания: 0.0028653295128939827 0.0032648546796228218
шаблона: 0.0004775549188156638 0.0018682058287622474
использовался: 0.0004775549188156638 0.00143062668269054
Yarn: 0.0004775549188156638 0.0021992216743018586
Create: 0.0004775549188156638 0.0016745739719770687
Next: 0.0004775549188156638 0.0016745739719770687
App: 0.0009551098376313276 0.0033491479439541373
Структура: 0.0004775549188156638 0.0015371899832226363
схема: 0.0004775549188156638 0.001269942711047172
модели: 0.0004775549188156638 0.0007230791464325575
миграции: 0.0004775549188156638 0.0016745739719770687
public: 0.0004775549188156638 0.0012061741376830255
swjs: 0.0004775549188156638 0.0021992216743018586
логика: 0.0004775549188156638 0.0012061741376830255
src: 0.0004775549188156638 0.0016745739719770687
components: 0.0004775549188156638 0.0018682058287622474
компоненты: 0.0004775549188156638 0.0011499262696522787
CreateTodoFormtsx: 0.0004775549188156638 0.0021992216743018586
форма: 0.0004775549188156638 0.001269942711047172
задачи: 0.007640878701050621 0.008243053764064413
Footertsx: 0.0004775549188156638 0.0021992216743018586
подвал: 0.0004775549188156638 0.0021992216743018586
Headertsx: 0.0004775549188156638 0.0021992216743018586
шапка: 0.0004775549188156638 0.0021992216743018586
TodoListtsx: 0.0004775549188156638 0.0021992216743018586
список: 0.0014326647564469914 0.0021692374392976725
задач: 0.004775549188156638 0.006815264353582358
pages: 0.0004775549188156638 0.0018682058287622474
страницы: 0.0004775549188156638 0.0011499262696522787
api: 0.0004775549188156638 0.0016745739719770687
auth: 0.0004775549188156638 0.0016745739719770687
роуты: 0.0033428844317096467 0.01539455172011301
авторизации: 0.004297994269340974 0.012092023137937119
logints: 0.0004775549188156638 0.0021992216743018586
роут: 0.0019102196752626551 0.008796886697207434
logoutts: 0.0004775549188156638 0.0021992216743018586
выхода: 0.0009551098376313276 0.002539885422094344
системы: 0.0019102196752626551 0.0018482980444349678
registerts: 0.0004775549188156638 0.0021992216743018586
регистрации: 0.002387774594078319 0.00634971355523586
userts: 0.0004775549188156638 0.0021992216743018586
получения: 0.002387774594078319 0.003615395732162788
данных: 0.004297994269340974 0.0020545951329928357
пользователя: 0.015759312320916905 0.022490372366821783
todots: 0.0004775549188156638 0.0021992216743018586
удаления: 0.0014326647564469914 0.003298832511452788
apptsx: 0.0004775549188156638 0.0021992216743018586
documenttsx: 0.0004775549188156638 0.0021992216743018586
indextsx: 0.0004775549188156638 0.0021992216743018586
главная: 0.0004775549188156638 0.0016745739719770687
страница: 0.0014326647564469914 0.0036185224130490766
logintsx: 0.0004775549188156638 0.0021992216743018586
registertsx: 0.0004775549188156638 0.0021992216743018586
styles: 0.0004775549188156638 0.0018682058287622474
стили: 0.0004775549188156638 0.0021992216743018586
utils: 0.0004775549188156638 0.0021992216743018586
утилиты: 0.0004775549188156638 0.00143062668269054
authGuardts: 0.0004775549188156638 0.0021992216743018586
проверки: 0.0004775549188156638 0.0009059789803657504
защищенным: 0.0004775549188156638 0.0021992216743018586
роутам: 0.0009551098376313276 0.004398443348603717
cookiests: 0.0004775549188156638 0.0021992216743018586
куки: 0.0052531041069723014 0.018420313691747753
formToObjts: 0.0004775549188156638 0.0021992216743018586
утилита: 0.0009551098376313276 0.00286125336538108
преобразования: 0.0004775549188156638 0.0015371899832226363
формы: 0.0014326647564469914 0.004030674379312373
объект: 0.002387774594078319 0.005270474959860843
generateKeysjs: 0.0004775549188156638 0.0021992216743018586
генерации: 0.0004775549188156638 0.0011499262696522787
ключей: 0.0004775549188156638 0.0013435581264374576
prismats: 0.0004775549188156638 0.0021992216743018586
клиент: 0.0009551098376313276 0.0021081899839443374
registerSWts: 0.0004775549188156638 0.0021992216743018586
функция: 0.0004775549188156638 0.000938926865507561
swrts: 0.0004775549188156638 0.0021992216743018586
кастомные: 0.0004775549188156638 0.0016745739719770687
хуки: 0.0004775549188156638 0.0018682058287622474
swr: 0.0004775549188156638 0.0021992216743018586
typests: 0.0004775549188156638 0.0021992216743018586
переменные: 0.0004775549188156638 0.0010996108371509293
среды: 0.0009551098376313276 0.002025084561795693
окружения: 0.0009551098376313276 0.002412348275366051
environmentdts: 0.0004775549188156638 0.0021992216743018586
типы: 0.0004775549188156638 0.001269942711047172
другие: 0.0004775549188156638 0.0005151908602540258
файлы: 0.0004775549188156638 0.0010996108371509293
Функционал: 0.0004775549188156638 0.0016745739719770687
является: 0.0009551098376313276 0.0007211294978777772
очень: 0.0004775549188156638 0.00024394728928652852
простым: 0.0004775549188156638 0.0010540949919721687
регистрацииавторизации: 0.0004775549188156638 0.0021992216743018586
пользователь: 0.0014326647564469914 0.0025386201173809102
получает: 0.0009551098376313276 0.0021081899839443374
возможность: 0.0004775549188156638 0.00037083514302721884
создаватьудалять: 0.0004775549188156638 0.0021992216743018586
Данные: 0.0004775549188156638 0.0011499262696522787
пользователях: 0.0004775549188156638 0.0018682058287622474
задачах: 0.0004775549188156638 0.0012061741376830255
хранятся: 0.0004775549188156638 0.0015371899832226363
реляционной: 0.0004775549188156638 0.0021992216743018586
базе: 0.0004775549188156638 0.0007230791464325575
SQLite: 0.0004775549188156638 0.0021992216743018586
Взаимодействие: 0.0004775549188156638 0.0016745739719770687
БД: 0.002387774594078319 0.006717790632187289
осуществляется: 0.0004775549188156638 0.0010125422808978466
объектнореляционного: 0.0004775549188156638 0.0021992216743018586
отображения: 0.0004775549188156638 0.0013435581264374576
отправлять: 0.0004775549188156638 0.0011499262696522787
POST: 0.002387774594078319 0.006717790632187289
apiauthregister: 0.0004775549188156638 0.0021992216743018586
запрос: 0.01002865329512894 0.014312055142522954
регистрацию: 0.0004775549188156638 0.0018682058287622474
запись: 0.0004775549188156638 0.0009059789803657504
Тело: 0.0014326647564469914 0.005023721915931206
запроса: 0.0062082139446036294 0.01137705779786439
email: 0.0038204393505253103 0.010159541688377375
string: 0.004297994269340974 0.01085556723914723
адрес: 0.0009551098376313276 0.002539885422094344
электронной: 0.0004775549188156638 0.0013435581264374576
почты: 0.0004775549188156638 0.0015371899832226363
password: 0.0004775549188156638 0.0013435581264374576
пароль: 0.0014326647564469914 0.0038098281331415155
apiauthlogin: 0.0004775549188156638 0.0021992216743018586
авторизацию: 0.0004775549188156638 0.0016745739719770687
вход: 0.0004775549188156638 0.0012061741376830255
систему: 0.0004775549188156638 0.0005294472896473787
такое: 0.0004775549188156638 0.0005441424466038036
GET: 0.0014326647564469914 0.00429188004807162
apiauthlogout: 0.0014326647564469914 0.006597665022905576
выход: 0.0009551098376313276 0.002412348275366051
apiauthuser: 0.002387774594078319 0.010996108371509293
получение: 0.0009551098376313276 0.0021081899839443374
зарегистрированного: 0.0004775549188156638 0.0021992216743018586
apitodo: 0.0033428844317096467 0.01539455172011301
создание: 0.0009551098376313276 0.0015371899832226363
название: 0.0004775549188156638 0.0008462067057936367
content: 0.0014326647564469914 0.005023721915931206
описание: 0.0004775549188156638 0.000938926865507561
DELETE: 0.0009551098376313276 0.0033491479439541373
apitodoidlttodoidgt: 0.0004775549188156638 0.0021992216743018586
удаление: 0.0009551098376313276 0.0030743799664452727
Строка: 0.0004775549188156638 0.0021992216743018586
query: 0.0004775549188156638 0.0015371899832226363
должна: 0.0004775549188156638 0.0007230791464325575
содержать: 0.0004775549188156638 0.001269942711047172
id: 0.008118433619866285 0.021589026087801923
Все: 0.0019102196752626551 0.002237216774599704
apiauth: 0.0019102196752626551 0.008796886697207434
кроме: 0.0014326647564469914 0.0024567312723380035
являются: 0.0014326647564469914 0.0025386201173809102
открытыми: 0.0004775549188156638 0.0021992216743018586
общедоступными: 0.0004775549188156638 0.0018682058287622474
публичными: 0.0004775549188156638 0.0018682058287622474
закрытыми: 0.0004775549188156638 0.0021992216743018586
частными: 0.0004775549188156638 0.0021992216743018586
приватными: 0.0004775549188156638 0.0018682058287622474
возвращают: 0.0009551098376313276 0.0030743799664452727
данные: 0.009551098376313277 0.006063784837019766
токен: 0.011461318051575931 0.03433504038457296
перехватывает: 0.0014326647564469914 0.005604617486286742
извлекает: 0.0014326647564469914 0.006597665022905576
тела: 0.0014326647564469914 0.004611569949667909
ответа: 0.0014326647564469914 0.003298832511452788
записывает: 0.0014326647564469914 0.005023721915931206
глобальную: 0.0004775549188156638 0.0021992216743018586
переменную: 0.0004775549188156638 0.001269942711047172
передает: 0.0009551098376313276 0.002539885422094344
клиенту: 0.0009551098376313276 0.002539885422094344
требуют: 0.0004775549188156638 0.0012061741376830255
наличия: 0.0009551098376313276 0.0026871162528749153
объекте: 0.0009551098376313276 0.00286125336538108
заголовка: 0.0019102196752626551 0.006148759932890545
токеном: 0.0019102196752626551 0.0074728233150489895
Authorization: 0.0019102196752626551 0.0074728233150489895
Bearer: 0.0019102196752626551 0.008796886697207434
ltaccessTokengt: 0.0009551098376313276 0.004398443348603717
отправляет: 0.0009551098376313276 0.0030743799664452727
добавляет: 0.0009551098376313276 0.00286125336538108
глобальной: 0.0004775549188156638 0.0021992216743018586
переменной: 0.0009551098376313276 0.0026871162528749153
Роут: 0.0004775549188156638 0.0021992216743018586
требует: 0.0004775549188156638 0.0007685949916113182
Куки: 0.0004775549188156638 0.0018682058287622474
хранится: 0.0014326647564469914 0.0038098281331415155
браузере: 0.0004775549188156638 0.0013435581264374576
прикрепляется: 0.0004775549188156638 0.0021992216743018586
соответствующему: 0.0004775549188156638 0.0021992216743018586
запросу: 0.0014326647564469914 0.004030674379312373
выполнении: 0.0004775549188156638 0.0015371899832226363
Таким: 0.0004775549188156638 0.0006620316910792218
знает: 0.0004775549188156638 0.0008751582921434146
токене: 0.0009551098376313276 0.004398443348603717
доступной: 0.0004775549188156638 0.00143062668269054
серверу: 0.0009551098376313276 0.0021992216743018586
Рассмотрим: 0.0014326647564469914 0.003298832511452788
процесс: 0.0014326647564469914 0.0015883418689421362
Пользователь: 0.0004775549188156638 0.00143062668269054
заполняет: 0.0004775549188156638 0.0021992216743018586
форму: 0.0009551098376313276 0.00286125336538108
pagesregistertsx: 0.0004775549188156638 0.0021992216743018586
import: 0.019102196752626553 0.04216379967888675
formToObj: 0.0009551098376313276 0.004398443348603717
from: 0.01862464183381089 0.04110970468691458
utilsformToObj: 0.0009551098376313276 0.004398443348603717
useUser: 0.004297994269340974 0.019792995068716727
utilsswr: 0.0019102196752626551 0.008796886697207434
User: 0.0028653295128939827 0.010047443831862412
prismaclient: 0.002387774594078319 0.010996108371509293
useRouter: 0.0009551098376313276 0.004398443348603717
nextrouter: 0.0004775549188156638 0.0021992216743018586
useState: 0.0004775549188156638 0.0021992216743018586
react: 0.0014326647564469914 0.006597665022905576
export: 0.0057306590257879654 0.01716752019228648
default: 0.004775549188156638 0.014306266826905402
function: 0.004297994269340974 0.011429484399424547
Register: 0.0004775549188156638 0.0021992216743018586
const: 0.025310410697230182 0.07582321418259862
router: 0.0004775549188156638 0.0021992216743018586
mutateUser: 0.0009551098376313276 0.004398443348603717
errors: 0.0004775549188156638 0.0018682058287622474
setErrors: 0.0014326647564469914 0.006597665022905576
useStatelt: 0.0004775549188156638 0.0021992216743018586
boolean: 0.0009551098376313276 0.004398443348603717
gt: 0.01623686723973257 0.027842954419830708
onSubmit: 0.0009551098376313276 0.004398443348603717
ReactFormEventHandler: 0.0009551098376313276 0.004398443348603717
async: 0.004775549188156638 0.015371899832226364
e: 0.007640878701050621 0.02031908337675475
epreventDefault: 0.0009551098376313276 0.004398443348603717
получаем: 0.0033428844317096467 0.0057323729687886755
виде: 0.0009551098376313276 0.0008993395796164709
объекта: 0.0009551098376313276 0.0022998525393045574
formData: 0.0009551098376313276 0.004398443348603717
formToObjltPickltUser: 0.0004775549188156638 0.0021992216743018586
passwordgtgt: 0.0004775549188156638 0.0021992216743018586
etarget: 0.0009551098376313276 0.004398443348603717
as: 0.004297994269340974 0.009896497534358364
HTMLFormElement: 0.0009551098376313276 0.004398443348603717
try: 0.004775549188156638 0.016745739719770687
выполняем: 0.0028653295128939827 0.007619656266283031
res: 0.009073543457497613 0.0354959107464827
await: 0.011461318051575931 0.04018977532744965
fetchapiauthregister: 0.0004775549188156638 0.0021992216743018586
method: 0.0014326647564469914 0.005023721915931206
body: 0.0009551098376313276 0.00286125336538108
JSONstringifyformData: 0.0009551098376313276 0.004398443348603717
if: 0.010983763132760267 0.01883493975459136
resok: 0.0019102196752626551 0.008796886697207434
зарегистрирован: 0.0009551098376313276 0.0037364116575244947
resstatus: 0.0009551098376313276 0.004398443348603717
return: 0.011938872970391595 0.02115516764484092
throw: 0.0014326647564469914 0.005604617486286742
userData: 0.0004775549188156638 0.0021992216743018586
resjson: 0.0019102196752626551 0.008796886697207434
PickltUser: 0.0009551098376313276 0.004398443348603717
emailgt: 0.0004775549188156638 0.0021992216743018586
инвалидируем: 0.0014326647564469914 0.006597665022905576
кэш: 0.0014326647564469914 0.00429188004807162
обновляем: 0.0019102196752626551 0.0074728233150489895
информацию: 0.0014326647564469914 0.0023792710699450585
пользователе: 0.0004775549188156638 0.0016745739719770687
mutateUseruserData: 0.0004775549188156638 0.0021992216743018586
перенаправление: 0.0004775549188156638 0.0021992216743018586
главную: 0.0004775549188156638 0.0021992216743018586
страницу: 0.0004775549188156638 0.0010125422808978466
routerpush: 0.0004775549188156638 0.0021992216743018586
catch: 0.004775549188156638 0.018682058287622476
consoleerrore: 0.0014326647564469914 0.006597665022905576
onInput: 0.0004775549188156638 0.0021992216743018586
ltgt: 0.0028653295128939827 0.011209234972573484
ltform: 0.0009551098376313276 0.004398443348603717
onSubmitonSubmit: 0.0009551098376313276 0.004398443348603717
onInputonInputgt: 0.0004775549188156638 0.0021992216743018586
ltlabelgt: 0.0038204393505253103 0.01759377339441487
Email: 0.0009551098376313276 0.0037364116575244947
ltinput: 0.0014326647564469914 0.006597665022905576
typeemail: 0.0004775549188156638 0.0021992216743018586
nameemail: 0.0004775549188156638 0.0021992216743018586
patternsss: 0.0004775549188156638 0.0021992216743018586
required: 0.0014326647564469914 0.004611569949667909
errorsemail: 0.0004775549188156638 0.0021992216743018586
ampamp: 0.0009551098376313276 0.0026871162528749153
ltp: 0.0004775549188156638 0.0021992216743018586
style: 0.0004775549188156638 0.0018682058287622474
color: 0.0004775549188156638 0.0018682058287622474
red: 0.0004775549188156638 0.0018682058287622474
ltsmallgtEmail: 0.0004775549188156638 0.0021992216743018586
already: 0.0009551098376313276 0.0037364116575244947
in: 0.0014326647564469914 0.002717936941097251
useltsmallgt: 0.0004775549188156638 0.0021992216743018586
ltpgt: 0.0014326647564469914 0.006597665022905576
Password: 0.0004775549188156638 0.0016745739719770687
typepassword: 0.0004775549188156638 0.0021992216743018586
namepassword: 0.0004775549188156638 0.0021992216743018586
minLength6: 0.0004775549188156638 0.0021992216743018586
ltbuttongtRegisterltbuttongt: 0.0004775549188156638 0.0021992216743018586
ltformgt: 0.0009551098376313276 0.004398443348603717
Сервер: 0.0009551098376313276 0.00286125336538108
генерирует: 0.0009551098376313276 0.002539885422094344
создает: 0.0004775549188156638 0.0011499262696522787
возвращает: 0.0009551098376313276 0.002539885422094344
pagesapiauthregisterts: 0.0004775549188156638 0.0021992216743018586
NextApiHandlerWithCookie: 0.0009551098376313276 0.004398443348603717
types: 0.0014326647564469914 0.006597665022905576
cookies: 0.0004775549188156638 0.0018682058287622474
utilscookies: 0.0004775549188156638 0.0021992216743018586
utilsprisma: 0.0014326647564469914 0.006597665022905576
argon2: 0.0009551098376313276 0.004398443348603717
readFileSync: 0.0009551098376313276 0.004398443348603717
fs: 0.0009551098376313276 0.0037364116575244947
jwt: 0.0014326647564469914 0.006597665022905576
jsonwebtoken: 0.0014326647564469914 0.006597665022905576
читаем: 0.0009551098376313276 0.0026871162528749153
закрытого: 0.0009551098376313276 0.004398443348603717
ключа: 0.0019102196752626551 0.005079770844188688
PRIVATEKEY: 0.0009551098376313276 0.004398443348603717
readFileSynckeysprivatekeypem: 0.0004775549188156638 0.0021992216743018586
utf8: 0.0009551098376313276 0.004398443348603717
registerHandler: 0.0004775549188156638 0.0021992216743018586
req: 0.0028653295128939827 0.010047443831862412
извлекаем: 0.0028653295128939827 0.013195330045811152
data: 0.004775549188156638 0.012061741376830257
passwordgt: 0.0004775549188156638 0.0021992216743018586
JSONparsereqbody: 0.0009551098376313276 0.004398443348603717
existingUser: 0.0009551098376313276 0.004398443348603717
prismauserfindUnique: 0.0009551098376313276 0.004398443348603717
where: 0.0019102196752626551 0.006148759932890545
dataemail: 0.0009551098376313276 0.004398443348603717
имеются: 0.0004775549188156638 0.0016745739719770687
значит: 0.0004775549188156638 0.0007685949916113182
resstatus409json: 0.0004775549188156638 0.0021992216743018586
message: 0.0062082139446036294 0.019983469781894272
use: 0.0004775549188156638 0.0015371899832226363
хэшируем: 0.0004775549188156638 0.0021992216743018586
passwordHash: 0.0009551098376313276 0.004398443348603717
argon2hashdatapassword: 0.0004775549188156638 0.0021992216743018586
заменяем: 0.0004775549188156638 0.0018682058287622474
оригинальный: 0.0009551098376313276 0.0037364116575244947
хэш: 0.0004775549188156638 0.0018682058287622474
datapassword: 0.0004775549188156638 0.0021992216743018586
newUser: 0.0009551098376313276 0.004398443348603717
prismausercreate: 0.0004775549188156638 0.0021992216743018586
пароля: 0.0009551098376313276 0.0033491479439541373
select: 0.0009551098376313276 0.0033491479439541373
idToken: 0.0019102196752626551 0.008796886697207434
jwtsign: 0.0014326647564469914 0.006597665022905576
userId: 0.0038204393505253103 0.014945646630097979
newUserid: 0.0009551098376313276 0.004398443348603717
срок: 0.002387774594078319 0.006717790632187289
действия: 0.002387774594078319 0.0046946343275378055
дней: 0.0004775549188156638 0.0010540949919721687
expiresIn: 0.0014326647564469914 0.006597665022905576
7d: 0.0004775549188156638 0.0021992216743018586
algorithm: 0.0004775549188156638 0.0021992216743018586
RS256: 0.0004775549188156638 0.0021992216743018586
секретного: 0.0004775549188156638 0.0021992216743018586
accessToken: 0.0062082139446036294 0.028589881765924162
processenvACCESSTOKENSECRET: 0.0014326647564469914 0.006597665022905576
час: 0.0004775549188156638 0.0015371899832226363
1h: 0.0009551098376313276 0.004398443348603717
записываем: 0.0009551098376313276 0.004398443348603717
которая: 0.0004775549188156638 0.00032155900346884697
недоступна: 0.0004775549188156638 0.0021992216743018586
rescookie: 0.0004775549188156638 0.0021992216743018586
processenvCOOKIENAME: 0.0004775549188156638 0.0021992216743018586
value: 0.0004775549188156638 0.0015371899832226363
options: 0.0004775549188156638 0.0021992216743018586
обязательно: 0.0004775549188156638 0.0008189104241126679
httpOnly: 0.0004775549188156638 0.0021992216743018586
secure: 0.0004775549188156638 0.0021992216743018586
настоятельно: 0.0004775549188156638 0.0018682058287622474
рекомендуется: 0.0004775549188156638 0.00143062668269054
sameSite: 0.0004775549188156638 0.0021992216743018586
maxAge: 0.0004775549188156638 0.0021992216743018586
path: 0.0004775549188156638 0.0016745739719770687
возвращаем: 0.0038204393505253103 0.01339659177581655
resstatus200json: 0.0009551098376313276 0.004398443348603717
user: 0.0052531041069723014 0.01396936982151889
consoleloge: 0.0033428844317096467 0.01539455172011301
resstatus500json: 0.002387774594078319 0.010996108371509293
register: 0.0004775549188156638 0.0016745739719770687
error: 0.004297994269340974 0.013834709849003727
cookiesregisterHandler: 0.0004775549188156638 0.0021992216743018586
Процесс: 0.0004775549188156638 0.001269942711047172
выглядит: 0.0019102196752626551 0.0029811800348895287
похожим: 0.0004775549188156638 0.0018682058287622474
pageslogintsx: 0.0004775549188156638 0.0021992216743018586
pagesapiauthlogints: 0.0004775549188156638 0.0021992216743018586
Что: 0.0004775549188156638 0.00031228580105380324
касается: 0.0004775549188156638 0.0010125422808978466
реализации: 0.0004775549188156638 0.0007452950087223822
функционала: 0.0004775549188156638 0.0012061741376830255
достаточно: 0.0004775549188156638 0.0003505105898186249
отправить: 0.0004775549188156638 0.0013435581264374576
componentsHeadertsx: 0.0004775549188156638 0.0021992216743018586
удалить: 0.0004775549188156638 0.0018682058287622474
сервере: 0.0004775549188156638 0.0010125422808978466
pagesapiauthlogoutts: 0.0004775549188156638 0.0021992216743018586
При: 0.0004775549188156638 0.0003310158455396109
запуске: 0.0014326647564469914 0.00429188004807162
главной: 0.0009551098376313276 0.0030743799664452727
странице: 0.0009551098376313276 0.0021992216743018586
pagesindextsx: 0.0009551098376313276 0.004398443348603717
выполняется: 0.0019102196752626551 0.004050169123591386
CreateTodoForm: 0.0009551098376313276 0.004398443348603717
componentsCreateTodoForm: 0.0004775549188156638 0.0021992216743018586
TodoList: 0.0009551098376313276 0.004398443348603717
componentsTodoList: 0.0004775549188156638 0.0021992216743018586
Home: 0.0004775549188156638 0.0021992216743018586
запрашиваем: 0.0004775549188156638 0.0021992216743018586
lth1gtWelcome: 0.0004775549188156638 0.0021992216743018586
useremail: 0.0004775549188156638 0.0018682058287622474
strangerlth1gt: 0.0004775549188156638 0.0021992216743018586
ltCreateTodoForm: 0.0004775549188156638 0.0021992216743018586
ltTodoList: 0.0004775549188156638 0.0021992216743018586
Получение: 0.0004775549188156638 0.00143062668269054
реализовано: 0.0004775549188156638 0.0015371899832226363
кастомных: 0.0004775549188156638 0.0016745739719770687
хуков: 0.0004775549188156638 0.0016745739719770687
SWR: 0.0004775549188156638 0.0021992216743018586
utilsswrts: 0.0004775549188156638 0.0021992216743018586
type: 0.0009551098376313276 0.0033491479439541373
Todo: 0.0028653295128939827 0.013195330045811152
useSWRImmutable: 0.0004775549188156638 0.0021992216743018586
swrimmutable: 0.0004775549188156638 0.0021992216743018586
fetcherltTgt: 0.0004775549188156638 0.0021992216743018586
input: 0.0004775549188156638 0.0015371899832226363
RequestInfo: 0.0004775549188156638 0.0021992216743018586
URL: 0.0004775549188156638 0.00143062668269054
RequestInit: 0.0004775549188156638 0.0021992216743018586
undefined: 0.0009551098376313276 0.0033491479439541373
PromiseltTgt: 0.0004775549188156638 0.0021992216743018586
fetchinput: 0.0004775549188156638 0.0021992216743018586
initthenres: 0.0004775549188156638 0.0021992216743018586
хук: 0.0009551098376313276 0.0037364116575244947
mutate: 0.0019102196752626551 0.008796886697207434
useSWRImmutableltPickltUser: 0.0004775549188156638 0.0021992216743018586
emailgtgt: 0.0004775549188156638 0.0021992216743018586
обратите: 0.0014326647564469914 0.006597665022905576
указываем: 0.0004775549188156638 0.0016745739719770687
браузеру: 0.0004775549188156638 0.0016745739719770687
прикрепить: 0.0004775549188156638 0.0018682058287622474
настройки: 0.0004775549188156638 0.000938926865507561
credentials: 0.0014326647564469914 0.006597665022905576
include: 0.0014326647564469914 0.004611569949667909
url: 0.0014326647564469914 0.004030674379312373
fetcherurl: 0.0009551098376313276 0.004398443348603717
onErrorRetryerr: 0.0009551098376313276 0.004398443348603717
key: 0.0009551098376313276 0.0030743799664452727
revalidate: 0.0009551098376313276 0.004398443348603717
revalidateOpts: 0.0009551098376313276 0.004398443348603717
false: 0.0009551098376313276 0.0019486349842660503
consolelogerror: 0.0009551098376313276 0.004398443348603717
useTodosshouldFetch: 0.0004775549188156638 0.0021992216743018586
useSWRImmutablelt: 0.0004775549188156638 0.0021992216743018586
PickltTodo: 0.0009551098376313276 0.004398443348603717
contentgt: 0.0004775549188156638 0.0021992216743018586
данный: 0.0004775549188156638 0.0007230791464325575
наличии: 0.0004775549188156638 0.0015371899832226363
индикатором: 0.0004775549188156638 0.0021992216743018586
shouldFetch: 0.0004775549188156638 0.0021992216743018586
gtshouldFetch: 0.0004775549188156638 0.0021992216743018586
null: 0.0019102196752626551 0.004824696550732102
todos: 0.0019102196752626551 0.008796886697207434
ArrayisArraydata: 0.0004775549188156638 0.0021992216743018586
mutateTodos: 0.0014326647564469914 0.006597665022905576
pagesapiauthuserts: 0.0004775549188156638 0.0021992216743018586
NextApiHandler: 0.0009551098376313276 0.004398443348603717
next: 0.0009551098376313276 0.0037364116575244947
открытого: 0.0009551098376313276 0.0026871162528749153
PUBLICKEY: 0.0009551098376313276 0.004398443348603717
readFileSynckeyspublickeypem: 0.0004775549188156638 0.0021992216743018586
userHandler: 0.0009551098376313276 0.004398443348603717
reqcookiesprocessenvCOOKIENAME: 0.0004775549188156638 0.0021992216743018586
отсутствует: 0.0019102196752626551 0.00572250673076216
resstatus401json: 0.0004775549188156638 0.0021992216743018586
ID: 0.0004775549188156638 0.0013435581264374576
must: 0.0009551098376313276 0.0037364116575244947
be: 0.0009551098376313276 0.0030743799664452727
provided: 0.0009551098376313276 0.004398443348603717
декодируем: 0.0009551098376313276 0.004398443348603717
decodedToken: 0.0019102196752626551 0.008796886697207434
jwtverifyidToken: 0.0004775549188156638 0.0021992216743018586
unknown: 0.0009551098376313276 0.004398443348603717
полезная: 0.0009551098376313276 0.00286125336538108
нагрузка: 0.0009551098376313276 0.00286125336538108
decodedTokenuserId: 0.0019102196752626551 0.008796886697207434
resstatus403json: 0.0019102196752626551 0.008796886697207434
Invalid: 0.0014326647564469914 0.005604617486286742
отсутствуют: 0.0004775549188156638 0.0015371899832226363
resstatus404json: 0.0004775549188156638 0.0021992216743018586
not: 0.0004775549188156638 0.0009059789803657504
found: 0.0004775549188156638 0.0018682058287622474
userid: 0.0004775549188156638 0.0021992216743018586
get: 0.0009551098376313276 0.002539885422094344
видим: 0.0014326647564469914 0.00303762684269354
должен: 0.0004775549188156638 0.0005294472896473787
дойти: 0.0004775549188156638 0.0021992216743018586
Форма: 0.0009551098376313276 0.0037364116575244947
рендерятся: 0.0004775549188156638 0.0021992216743018586
следующим: 0.0009551098376313276 0.0015861807132967057
componentsCreateTodoFormtsx: 0.0004775549188156638 0.0021992216743018586
useTodos: 0.0009551098376313276 0.004398443348603717
useRef: 0.0004775549188156638 0.0021992216743018586
useTodosBooleanuser: 0.0009551098376313276 0.004398443348603717
formRef: 0.0004775549188156638 0.0021992216743018586
useRefltHTMLFormElement: 0.0004775549188156638 0.0021992216743018586
nullgtnull: 0.0004775549188156638 0.0021992216743018586
formToObjltPickltTodo: 0.0004775549188156638 0.0021992216743018586
contentgtgt: 0.0004775549188156638 0.0021992216743018586
fetchapitodo: 0.0004775549188156638 0.0021992216743018586
newTodo: 0.0009551098376313276 0.004398443348603717
Picklt: 0.0004775549188156638 0.0021992216743018586
mutateTodostodos: 0.0004775549188156638 0.0021992216743018586
сбрасываем: 0.0004775549188156638 0.0021992216743018586
formRefcurrent: 0.0004775549188156638 0.0021992216743018586
formRefcurrentreset: 0.0004775549188156638 0.0021992216743018586
ltdivgt: 0.0019102196752626551 0.0074728233150489895
lth2gtNew: 0.0004775549188156638 0.0021992216743018586
Todolth2gt: 0.0004775549188156638 0.0021992216743018586
refformRefgt: 0.0004775549188156638 0.0021992216743018586
Title: 0.0004775549188156638 0.0021992216743018586
typetext: 0.0004775549188156638 0.0021992216743018586
Content: 0.0004775549188156638 0.0015371899832226363
lttextarea: 0.0004775549188156638 0.0021992216743018586
namecontent: 0.0004775549188156638 0.0021992216743018586
cols30: 0.0004775549188156638 0.0021992216743018586
rows5: 0.0004775549188156638 0.0021992216743018586
requiredgtlttextareagt: 0.0004775549188156638 0.0021992216743018586
ltbuttongtCreateltbuttongt: 0.0004775549188156638 0.0021992216743018586
Список: 0.0004775549188156638 0.00143062668269054
componentsTodoListtsx: 0.0004775549188156638 0.0021992216743018586
todoslength: 0.0004775549188156638 0.0021992216743018586
onClick: 0.0009551098376313276 0.004398443348603717
fetchapitodoidid: 0.0004775549188156638 0.0021992216743018586
newTodos: 0.0004775549188156638 0.0021992216743018586
todosfiltertodo: 0.0004775549188156638 0.0021992216743018586
todoid: 0.0004775549188156638 0.0021992216743018586
mutateTodosnewTodos: 0.0004775549188156638 0.0021992216743018586
lth2gtTodo: 0.0004775549188156638 0.0021992216743018586
Listlth2gt: 0.0004775549188156638 0.0021992216743018586
ltulgt: 0.0009551098376313276 0.004398443348603717
todosmaptodo: 0.0004775549188156638 0.0021992216743018586
ltli: 0.0004775549188156638 0.0021992216743018586
keytodoidgt: 0.0004775549188156638 0.0021992216743018586
ltpgttodocontentltpgt: 0.0004775549188156638 0.0021992216743018586
ltbutton: 0.0004775549188156638 0.0018682058287622474
onClicktodoidgtXltbuttongt: 0.0004775549188156638 0.0021992216743018586
ltligt: 0.0004775549188156638 0.0021992216743018586
Ничего: 0.0004775549188156638 0.0016745739719770687
особенного: 0.0004775549188156638 0.0018682058287622474
Вот: 0.0004775549188156638 0.0005911529875843444
обработчик: 0.0004775549188156638 0.0018682058287622474
этих: 0.0009551098376313276 0.001149926269652279
запросов: 0.0014326647564469914 0.002717936941097251
pagesapitodots: 0.0004775549188156638 0.0021992216743018586
NextApiRequestWithUserId: 0.0004775549188156638 0.0021992216743018586
authGuard: 0.0014326647564469914 0.006597665022905576
utilsauthGuard: 0.0004775549188156638 0.0021992216743018586
NextApiResponse: 0.0004775549188156638 0.0021992216743018586
nextConnect: 0.0004775549188156638 0.0021992216743018586
nextconnect: 0.0004775549188156638 0.0021992216743018586
todoHandler: 0.0004775549188156638 0.0021992216743018586
nextConnectltNextApiRequestWithUserId: 0.0004775549188156638 0.0021992216743018586
NextApiResponsegt: 0.0004775549188156638 0.0021992216743018586
todoHandlergetasync: 0.0004775549188156638 0.0021992216743018586
prismatodofindMany: 0.0004775549188156638 0.0021992216743018586
requserId: 0.0019102196752626551 0.008796886697207434
resstatus200jsontodos: 0.0004775549188156638 0.0021992216743018586
Todos: 0.0004775549188156638 0.0021992216743018586
todoHandlerpostasync: 0.0004775549188156638 0.0021992216743018586
userIdgt: 0.0004775549188156638 0.0021992216743018586
добавляем: 0.0009551098376313276 0.0019486349842660503
datauserId: 0.0004775549188156638 0.0021992216743018586
задачу: 0.0009551098376313276 0.001446158292865115
todo: 0.0009551098376313276 0.004398443348603717
prismatodocreate: 0.0004775549188156638 0.0021992216743018586
resstatus200jsontodo: 0.0009551098376313276 0.004398443348603717
create: 0.0004775549188156638 0.0010125422808978466
todoHandlerdeleteasync: 0.0004775549188156638 0.0021992216743018586
строки: 0.0004775549188156638 0.0009743174921330251
reqqueryid: 0.0004775549188156638 0.0021992216743018586
удаляем: 0.0009551098376313276 0.004398443348603717
prismatododelete: 0.0004775549188156638 0.0021992216743018586
iduserId: 0.0004775549188156638 0.0021992216743018586
remove: 0.0004775549188156638 0.0021992216743018586
защищенными: 0.0004775549188156638 0.0021992216743018586
authGuardtodoHandler: 0.0004775549188156638 0.0021992216743018586
Защита: 0.0004775549188156638 0.0018682058287622474
роутов: 0.0004775549188156638 0.0021992216743018586
реализована: 0.0009551098376313276 0.002539885422094344
посредника: 0.0004775549188156638 0.0021992216743018586
utilsauthGuardts: 0.0004775549188156638 0.0021992216743018586
AuthGuardMiddleware: 0.0009551098376313276 0.004398443348603717
handler: 0.0004775549188156638 0.0016745739719770687
reqheadersauthorizationsplit: 0.0004775549188156638 0.0021992216743018586
Access: 0.0009551098376313276 0.0033491479439541373
jwtverify: 0.0004775549188156638 0.0021992216743018586
any: 0.0004775549188156638 0.0021992216743018586
истек: 0.0009551098376313276 0.004398443348603717
ename: 0.0004775549188156638 0.0021992216743018586
TokenExpiredError: 0.0004775549188156638 0.0021992216743018586
сообщает: 0.0004775549188156638 0.00143062668269054
чайник: 0.0004775549188156638 0.0021992216743018586
resstatus418json: 0.0004775549188156638 0.0021992216743018586
has: 0.0004775549188156638 0.0015371899832226363
been: 0.0004775549188156638 0.0018682058287622474
expired: 0.0004775549188156638 0.0021992216743018586
передаем: 0.0004775549188156638 0.0018682058287622474
управление: 0.0004775549188156638 0.0009743174921330251
следующему: 0.0004775549188156638 0.0015371899832226363
обработчику: 0.0004775549188156638 0.0021992216743018586
handlerreq: 0.0004775549188156638 0.0021992216743018586
требуется: 0.0004775549188156638 0.0007452950087223822
наличие: 0.0004775549188156638 0.0007452950087223822
которого: 0.0004775549188156638 0.00044966978980823545
Перейдем: 0.0004775549188156638 0.0021992216743018586
самому: 0.0004775549188156638 0.0011499262696522787
интересному: 0.0004775549188156638 0.0021992216743018586
Регистрируем: 0.0004775549188156638 0.0021992216743018586
pagesapptsx: 0.0004775549188156638 0.0021992216743018586
Footer: 0.0004775549188156638 0.0021992216743018586
componentsFooter: 0.0004775549188156638 0.0021992216743018586
Header: 0.0004775549188156638 0.0021992216743018586
componentsHeader: 0.0004775549188156638 0.0021992216743018586
stylesglobalscss: 0.0004775549188156638 0.0021992216743018586
registerSW: 0.0014326647564469914 0.006597665022905576
utilsregisterSW: 0.0004775549188156638 0.0021992216743018586
AppProps: 0.0009551098376313276 0.004398443348603717
nextapp: 0.0004775549188156638 0.0021992216743018586
useEffect: 0.0009551098376313276 0.004398443348603717
Component: 0.0004775549188156638 0.0018682058287622474
pageProps: 0.0009551098376313276 0.004398443348603717
регистрируем: 0.0009551098376313276 0.004398443348603717
serviceWorker: 0.0004775549188156638 0.0021992216743018586
navigator: 0.0004775549188156638 0.0021992216743018586
ltHeader: 0.0004775549188156638 0.0021992216743018586
ltmaingt: 0.0009551098376313276 0.004398443348603717
ltComponent: 0.0004775549188156638 0.0021992216743018586
ltFooter: 0.0004775549188156638 0.0021992216743018586
Функция: 0.0004775549188156638 0.00143062668269054
utilsregisterSWts: 0.0004775549188156638 0.0021992216743018586
reg: 0.0004775549188156638 0.0021992216743018586
navigatorserviceWorkerregisterswjs: 0.0004775549188156638 0.0021992216743018586
consolelogRegistration: 0.0004775549188156638 0.0021992216743018586
scope: 0.0004775549188156638 0.0018682058287622474
regscope: 0.0004775549188156638 0.0021992216743018586
Логика: 0.0004775549188156638 0.0021992216743018586
файле: 0.0004775549188156638 0.0010125422808978466
publicswjs: 0.0004775549188156638 0.0021992216743018586
установка: 0.0004775549188156638 0.001269942711047172
активация: 0.0004775549188156638 0.0018682058287622474
интересуют: 0.0004775549188156638 0.0021992216743018586
selfaddEventListenerinstall: 0.0004775549188156638 0.0021992216743018586
selfaddEventListeneractivate: 0.0004775549188156638 0.0021992216743018586
глобальная: 0.0004775549188156638 0.0021992216743018586
переменная: 0.0004775549188156638 0.0016745739719770687
let: 0.0004775549188156638 0.0013435581264374576
обработка: 0.0004775549188156638 0.001269942711047172
selfaddEventListenerfetch: 0.0004775549188156638 0.0021992216743018586
request: 0.0009551098376313276 0.0030743799664452727
нашему: 0.0004775549188156638 0.0012061741376830255
urlstartsWithselflocationorigin: 0.0004775549188156638 0.0021992216743018586
urlincludesapi: 0.0004775549188156638 0.0021992216743018586
urlincludeslogout: 0.0004775549188156638 0.0021992216743018586
просто: 0.0009551098376313276 0.0005885254435757564
перехватываем: 0.0009551098376313276 0.004398443348603717
регистрациюавторизацию: 0.0004775549188156638 0.0021992216743018586
else: 0.0004775549188156638 0.001269942711047172
urlincludesauth: 0.0004775549188156638 0.0021992216743018586
erespondWith: 0.0009551098376313276 0.004398443348603717
fetchrequest: 0.0004775549188156638 0.0021992216743018586
возникла: 0.0004775549188156638 0.0015371899832226363
ошибка: 0.0004775549188156638 0.0009059789803657504
ответ: 0.0014326647564469914 0.0019860950732376657
resclonejson: 0.0004775549188156638 0.0021992216743018586
значение: 0.0009551098376313276 0.0012866032931868284
dataaccessToken: 0.0009551098376313276 0.004398443348603717
дополнительную: 0.0014326647564469914 0.003449778808956836
ответе: 0.0004775549188156638 0.0016745739719770687
headers: 0.0019102196752626551 0.008796886697207434
status: 0.0009551098376313276 0.00286125336538108
statusText: 0.0009551098376313276 0.004398443348603717
resclone: 0.0004775549188156638 0.0021992216743018586
new: 0.0004775549188156638 0.0010125422808978466
ResponseJSONstringifydatauser: 0.0004775549188156638 0.0021992216743018586
созданиеудаление: 0.0004775549188156638 0.0021992216743018586
urlincludestodo: 0.0004775549188156638 0.0021992216743018586
выполнять: 0.0004775549188156638 0.0007018509885668298
проверку: 0.0004775549188156638 0.001269942711047172
нашим: 0.0004775549188156638 0.0012061741376830255
например: 0.0004775549188156638 0.00037083514302721884
Referer: 0.0004775549188156638 0.0021992216743018586
fetchrequestclone: 0.0009551098376313276 0.004398443348603717
заголовок: 0.0009551098376313276 0.0030743799664452727
новый: 0.0004775549188156638 0.0004748100636790195
fetchselflocationoriginapiauthuser: 0.0004775549188156638 0.0021992216743018586
прикрепляем: 0.0004775549188156638 0.0021992216743018586
повторяем: 0.0004775549188156638 0.0018682058287622474
новым: 0.0004775549188156638 0.0010125422808978466
две: 0.0004775549188156638 0.0006252785673274891
группы: 0.0004775549188156638 0.0007930903566483529
этим: 0.0004775549188156638 0.000559304193649926
запросам: 0.0004775549188156638 0.0013435581264374576
продлевает: 0.0004775549188156638 0.0021992216743018586
необходимости: 0.0004775549188156638 0.0007018509885668298
Пожалуй: 0.0004775549188156638 0.0021992216743018586
хотел: 0.0004775549188156638 0.0010996108371509293
поделиться: 0.0004775549188156638 0.0011499262696522787
вами: 0.0004775549188156638 0.0010125422808978466
Надеюсь: 0.0004775549188156638 0.001269942711047172
узнали: 0.0004775549188156638 0.0018682058287622474
чтото: 0.0004775549188156638 0.0005911529875843444
новое: 0.0004775549188156638 0.0009743174921330251
зря: 0.0004775549188156638 0.0018682058287622474
потратили: 0.0004775549188156638 0.0018682058287622474
время: 0.0004775549188156638 0.00016355793168422916
Также: 0.0004775549188156638 0.0003920633008929467
надеюсь: 0.0004775549188156638 0.0013435581264374576
описанная: 0.0004775549188156638 0.0015371899832226363
техника: 0.0004775549188156638 0.0021992216743018586
позволит: 0.0004775549188156638 0.000938926865507561
сделать: 0.0004775549188156638 0.0002942627217878782
ваши: 0.0004775549188156638 0.0009743174921330251
приложение: 0.0004775549188156638 0.0006433016465934142
безопасным: 0.0004775549188156638 0.0018682058287622474
Благодарю: 0.0004775549188156638 0.0021992216743018586
happy: 0.0004775549188156638 0.0021992216743018586
coding: 0.0004775549188156638 0.0021992216743018586
